VITMO ModelWeb Browser Results
/NRLMSISE-00/ model listing

*Input parameters*
year= 2000, month= 4, day= 1, hour=12.00,
Time_type = Universal
Coordinate_type = Geographic
latitude= 60.00, longitude= 0.00, height= 0.00
Prof. parameters: start= 0.00 stop= 300.00 step= 2.00

*Optional parametes:* F10.7(daily) =not specifyed; F10.7(3-month avg)
=not specifyed; ap(daily) = not specifyed

   Selected parameters are:
1 Height, km
2 O, cm-3 
3 N2, cm-3
4 O2, cm-3
5 Mass_density, g/cm-3
6 Temperature_neutral, K
7 Temperature_exospheric, K
8 He, cm-3 
9 Ar, cm-3
10 H, cm-3
11 N, cm-3
12 Anomalous_Oxygen, cm-3

      1          2          3          4         5      6     7          8          9         10         11         12
    0.0  0.000E+00  2.116E+19  5.677E+18 1.302E-03  272.2  1027  1.420E+14  2.531E+17  0.000E+00  0.000E+00  0.000E+00
    2.0  0.000E+00  1.686E+19  4.522E+18 1.037E-03  265.1  1027  1.131E+14  2.016E+17  0.000E+00  0.000E+00  0.000E+00
    4.0  0.000E+00  1.361E+19  3.651E+18 8.373E-04  252.2  1027  9.132E+13  1.628E+17  0.000E+00  0.000E+00  0.000E+00
    6.0  0.000E+00  1.090E+19  2.925E+18 6.708E-04  238.2  1027  7.317E+13  1.304E+17  0.000E+00  0.000E+00  0.000E+00
    8.0  0.000E+00  8.545E+18  2.292E+18 5.257E-04  226.5  1027  5.734E+13  1.022E+17  0.000E+00  0.000E+00  0.000E+00
   10.0  0.000E+00  6.497E+18  1.743E+18 3.997E-04  219.3  1027  4.360E+13  7.772E+16  0.000E+00  0.000E+00  0.000E+00
   12.0  0.000E+00  4.796E+18  1.287E+18 2.951E-04  217.2  1027  3.219E+13  5.737E+16  0.000E+00  0.000E+00  0.000E+00
   14.0  0.000E+00  3.496E+18  9.378E+17 2.151E-04  217.9  1027  2.346E+13  4.182E+16  0.000E+00  0.000E+00  0.000E+00
   16.0  0.000E+00  2.556E+18  6.857E+17 1.573E-04  218.2  1027  1.715E+13  3.057E+16  0.000E+00  0.000E+00  0.000E+00
   18.0  0.000E+00  1.880E+18  5.043E+17 1.157E-04  217.1  1027  1.262E+13  2.249E+16  0.000E+00  0.000E+00  0.000E+00
   20.0  0.000E+00  1.382E+18  3.707E+17 8.501E-05  215.7  1027  9.272E+12  1.653E+16  0.000E+00  0.000E+00  0.000E+00
   22.0  0.000E+00  1.010E+18  2.711E+17 6.217E-05  215.2  1027  6.781E+12  1.209E+16  0.000E+00  0.000E+00  0.000E+00
   24.0  0.000E+00  7.357E+17  1.974E+17 4.527E-05  215.6  1027  4.937E+12  8.801E+15  0.000E+00  0.000E+00  0.000E+00
   26.0  0.000E+00  5.342E+17  1.433E+17 3.287E-05  217.0  1027  3.585E+12  6.390E+15  0.000E+00  0.000E+00  0.000E+00
   28.0  0.000E+00  3.873E+17  1.039E+17 2.383E-05  219.3  1027  2.599E+12  4.633E+15  0.000E+00  0.000E+00  0.000E+00
   30.0  0.000E+00  2.808E+17  7.532E+16 1.727E-05  222.5  1027  1.884E+12  3.358E+15  0.000E+00  0.000E+00  0.000E+00
   32.0  0.000E+00  2.038E+17  5.467E+16 1.254E-05  226.8  1027  1.367E+12  2.437E+15  0.000E+00  0.000E+00  0.000E+00
   34.0  0.000E+00  1.481E+17  3.974E+16 9.114E-06  232.2  1027  9.941E+11  1.772E+15  0.000E+00  0.000E+00  0.000E+00
   36.0  0.000E+00  1.080E+17  2.898E+16 6.646E-06  239.0  1027  7.249E+11  1.292E+15  0.000E+00  0.000E+00  0.000E+00
   38.0  0.000E+00  7.926E+16  2.126E+16 4.876E-06  246.5  1027  5.319E+11  9.480E+14  0.000E+00  0.000E+00  0.000E+00
   40.0  0.000E+00  5.869E+16  1.574E+16 3.611E-06  254.2  1027  3.938E+11  7.020E+14  0.000E+00  0.000E+00  0.000E+00
   42.0  0.000E+00  4.396E+16  1.179E+16 2.705E-06  261.2  1027  2.950E+11  5.258E+14  0.000E+00  0.000E+00  0.000E+00
   44.0  0.000E+00  3.338E+16  8.954E+15 2.053E-06  266.4  1027  2.240E+11  3.992E+14  0.000E+00  0.000E+00  0.000E+00
   46.0  0.000E+00  2.571E+16  6.897E+15 1.582E-06  268.9  1027  1.725E+11  3.075E+14  0.000E+00  0.000E+00  0.000E+00
   48.0  0.000E+00  2.005E+16  5.378E+15 1.233E-06  268.4  1027  1.345E+11  2.398E+14  0.000E+00  0.000E+00  0.000E+00
   50.0  0.000E+00  1.574E+16  4.223E+15 9.685E-07  265.7  1027  1.056E+11  1.883E+14  0.000E+00  0.000E+00  0.000E+00
   52.0  0.000E+00  1.239E+16  3.324E+15 7.623E-07  261.5  1027  8.315E+10  1.482E+14  0.000E+00  0.000E+00  0.000E+00
   54.0  0.000E+00  9.736E+15  2.612E+15 5.990E-07  256.8  1027  6.534E+10  1.165E+14  0.000E+00  0.000E+00  0.000E+00
   56.0  0.000E+00  7.615E+15  2.043E+15 4.685E-07  252.1  1027  5.110E+10  9.109E+13  0.000E+00  0.000E+00  0.000E+00
   58.0  0.000E+00  5.922E+15  1.589E+15 3.644E-07  247.7  1027  3.974E+10  7.084E+13  0.000E+00  0.000E+00  0.000E+00
   60.0  0.000E+00  4.582E+15  1.229E+15 2.819E-07  243.6  1027  3.075E+10  5.481E+13  0.000E+00  0.000E+00  0.000E+00
   62.0  0.000E+00  3.529E+15  9.467E+14 2.171E-07  239.6  1027  2.368E+10  4.221E+13  0.000E+00  0.000E+00  0.000E+00
   64.0  0.000E+00  2.706E+15  7.254E+14 1.665E-07  235.6  1027  1.818E+10  3.237E+13  0.000E+00  0.000E+00  0.000E+00
   66.0  0.000E+00  2.067E+15  5.534E+14 1.271E-07  231.5  1027  1.390E+10  2.471E+13  0.000E+00  0.000E+00  0.000E+00
   68.0  0.000E+00  1.572E+15  4.204E+14 9.666E-08  227.4  1027  1.059E+10  1.879E+13  0.000E+00  0.000E+00  0.000E+00
   70.0  0.000E+00  1.191E+15  3.181E+14 7.320E-08  223.0  1027  8.032E+09  1.423E+13  0.000E+00  0.000E+00  0.000E+00
   72.0  0.000E+00  8.982E+14  2.396E+14 5.519E-08  218.4  1027  6.066E+09  1.073E+13  0.000E+00  0.000E+00  0.000E+00
   74.0  1.565E+07  6.732E+14  1.794E+14 4.135E-08  213.8  1027  4.555E+09  8.040E+12  1.635E-11  5.403E+04  0.000E+00
   76.0  9.781E+07  5.009E+14  1.332E+14 3.076E-08  209.6  1027  3.399E+09  5.978E+12  1.258E+01  6.469E+04  0.000E+00
   78.0  5.292E+08  3.702E+14  9.827E+13 2.272E-08  205.7  1027  2.522E+09  4.415E+12  4.681E+05  7.730E+04  0.000E+00
   80.0  2.380E+09  2.719E+14  7.202E+13 1.668E-08  202.0  1027  1.863E+09  3.239E+12  2.197E+07  9.221E+04  0.000E+00
   82.0  8.683E+09  1.987E+14  5.246E+13 1.218E-08  198.2  1027  1.372E+09  2.363E+12  7.798E+07  1.098E+05  0.000E+00
   84.0  2.550E+10  1.445E+14  3.799E+13 8.848E-09  194.2  1027  1.008E+09  1.714E+12  1.031E+08  1.303E+05  0.000E+00
   86.0  6.062E+10  1.045E+14  2.735E+13 6.395E-09  190.0  1027  7.402E+08  1.236E+12  9.391E+07  1.543E+05  0.000E+00
   88.0  1.183E+11  7.523E+13  1.956E+13 4.598E-09  185.4  1027  5.439E+08  8.855E+11  7.463E+07  1.820E+05  0.000E+00
   90.0  1.935E+11  5.383E+13  1.388E+13 3.287E-09  180.5  1027  4.007E+08  6.294E+11  5.681E+07  2.138E+05  0.000E+00
   92.0  2.709E+11  3.823E+13  9.756E+12 2.332E-09  175.4  1027  2.963E+08  4.426E+11  4.300E+07  2.495E+05  0.000E+00
   94.0  3.306E+11  2.678E+13  6.742E+12 1.632E-09  171.2  1027  2.196E+08  3.057E+11  3.279E+07  2.879E+05  0.000E+00
   96.0  3.586E+11  1.843E+13  4.561E+12 1.122E-09  169.0  1027  1.634E+08  2.062E+11  2.532E+07  3.275E+05  0.000E+00
   98.0  3.525E+11  1.245E+13  3.014E+12 7.572E-10  170.1  1027  1.226E+08  1.355E+11  1.985E+07  3.673E+05  0.000E+00
  100.0  3.199E+11  8.262E+12  1.948E+12 5.017E-10  175.7  1027  9.298E+07  8.656E+10  1.575E+07  4.069E+05  0.000E+00
  102.0  2.728E+11  5.403E+12  1.235E+12 3.276E-10  187.7  1027  7.144E+07  5.395E+10  1.258E+07  4.461E+05  0.000E+00
  104.0  2.235E+11  3.528E+12  7.791E+11 2.135E-10  206.8  1027  5.588E+07  3.329E+10  1.009E+07  4.887E+05  0.000E+00
  106.0  1.790E+11  2.329E+12  4.959E+11 1.407E-10  233.5  1027  4.452E+07  2.066E+10  8.114E+06  5.389E+05  0.000E+00
  108.0  1.424E+11  1.570E+12  3.222E+11 9.476E-11  267.5  1027  3.616E+07  1.309E+10  6.545E+06  6.020E+05  1.930E-38
  110.0  1.145E+11  1.097E+12  2.169E+11 6.613E-11  305.9  1027  3.006E+07  8.625E+09  5.327E+06  6.880E+05  1.818E-37
  112.0  9.475E+10  8.056E+11  1.535E+11 4.852E-11  341.8  1027  2.578E+07  6.024E+09  4.418E+06  8.153E+05  1.727E-36
  114.0  8.087E+10  6.200E+11  1.139E+11 3.731E-11  371.1  1027  2.279E+07  4.449E+09  3.738E+06  9.993E+05  1.491E-35
  116.0  7.077E+10  4.952E+11  8.762E+10 2.978E-11  393.0  1027  2.065E+07  3.437E+09  3.213E+06  1.255E+06  1.149E-34
  118.0  6.293E+10  4.056E+11  6.914E+10 2.438E-11  409.2  1027  1.905E+07  2.740E+09  2.791E+06  1.597E+06  7.748E-34
  120.0  5.627E+10  3.364E+11  5.524E+10 2.021E-11  423.1  1027  1.775E+07  2.218E+09  2.434E+06  2.032E+06  4.495E-33
  122.0  5.001E+10  2.789E+11  4.412E+10 1.676E-11  440.1  1027  1.656E+07  1.796E+09  2.113E+06  2.551E+06  2.425E-32
  124.0  4.367E+10  2.284E+11  3.484E+10 1.372E-11  466.8  1086  1.534E+07  1.433E+09  1.813E+06  3.120E+06  1.805E-31
  126.0  3.817E+10  1.882E+11  2.774E+10 1.131E-11  496.2  1086  1.427E+07  1.151E+09  1.553E+06  3.783E+06  1.532E-30
  128.0  3.368E+10  1.573E+11  2.243E+10 9.459E-12  524.1  1086  1.338E+07  9.377E+08  1.337E+06  4.581E+06  1.230E-29
  130.0  2.996E+10  1.330E+11  1.838E+10 8.005E-12  550.7  1086  1.263E+07  7.721E+08  1.156E+06  5.529E+06  9.354E-29
  132.0  2.683E+10  1.136E+11  1.524E+10 6.844E-12  576.0  1086  1.199E+07  6.412E+08  1.003E+06  6.645E+06  6.747E-28
  134.0  2.418E+10  9.785E+10  1.277E+10 5.905E-12  600.2  1086  1.143E+07  5.362E+08  8.738E+05  7.941E+06  4.622E-27
  136.0  2.191E+10  8.496E+10  1.081E+10 5.135E-12  623.1  1086  1.095E+07  4.512E+08  7.645E+05  9.430E+06  3.011E-26
  138.0  1.995E+10  7.426E+10  9.229E+09 4.498E-12  645.0  1086  1.052E+07  3.817E+08  6.715E+05  1.112E+07  1.868E-25
  140.0  1.825E+10  6.531E+10  7.941E+09 3.964E-12  665.8  1086  1.014E+07  3.245E+08  5.924E+05  1.302E+07  1.105E-24
  142.0  1.676E+10  5.775E+10  6.881E+09 3.514E-12  685.6  1086  9.801E+06  2.771E+08  5.248E+05  1.513E+07  6.239E-24
  144.0  1.546E+10  5.131E+10  6.001E+09 3.130E-12  704.5  1086  9.491E+06  2.377E+08  4.670E+05  1.745E+07  3.367E-23
  146.0  1.430E+10  4.579E+10  5.264E+09 2.802E-12  722.4  1086  9.209E+06  2.047E+08  4.175E+05  1.996E+07  1.739E-22
  148.0  1.326E+10  4.102E+10  4.642E+09 2.518E-12  739.6  1086  8.951E+06  1.769E+08  3.749E+05  2.266E+07  8.606E-22
  150.0  1.234E+10  3.688E+10  4.113E+09 2.272E-12  755.9  1086  8.714E+06  1.535E+08  3.382E+05  2.552E+07  4.084E-21
  152.0  1.151E+10  3.327E+10  3.660E+09 2.056E-12  771.4  1086  8.494E+06  1.336E+08  3.065E+05  2.853E+07  1.861E-20
  154.0  1.077E+10  3.011E+10  3.270E+09 1.868E-12  786.2  1086  8.291E+06  1.167E+08  2.791E+05  3.164E+07  8.151E-20
  156.0  1.009E+10  2.732E+10  2.931E+09 1.701E-12  800.2  1086  8.101E+06  1.023E+08  2.553E+05  3.484E+07  3.435E-19
  158.0  9.476E+09  2.485E+10  2.636E+09 1.554E-12  813.6  1086  7.923E+06  8.989E+07  2.346E+05  3.810E+07  1.394E-18
  160.0  8.916E+09  2.266E+10  2.378E+09 1.423E-12  826.4  1086  7.757E+06  7.921E+07  2.166E+05  4.136E+07  5.454E-18
  162.0  8.404E+09  2.070E+10  2.151E+09 1.305E-12  838.6  1086  7.600E+06  6.998E+07  2.008E+05  4.461E+07  2.059E-17
  164.0  7.934E+09  1.895E+10  1.950E+09 1.200E-12  850.2  1086  7.452E+06  6.197E+07  1.870E+05  4.781E+07  7.509E-17
  166.0  7.501E+09  1.738E+10  1.772E+09 1.106E-12  861.2  1086  7.313E+06  5.501E+07  1.748E+05  5.092E+07  2.647E-16
  168.0  7.103E+09  1.597E+10  1.613E+09 1.021E-12  871.7  1086  7.180E+06  4.893E+07  1.641E+05  5.391E+07  9.030E-16
  170.0  6.734E+09  1.470E+10  1.472E+09 9.445E-13  881.8  1086  7.055E+06  4.361E+07  1.546E+05  5.676E+07  2.983E-15
  172.0  6.392E+09  1.355E+10  1.345E+09 8.750E-13  891.3  1086  6.935E+06  3.895E+07  1.462E+05  5.945E+07  9.550E-15
  174.0  6.074E+09  1.251E+10  1.231E+09 8.118E-13  900.4  1086  6.821E+06  3.484E+07  1.388E+05  6.194E+07  2.966E-14
  176.0  5.779E+09  1.156E+10  1.128E+09 7.542E-13  909.0  1086  6.712E+06  3.122E+07  1.322E+05  6.423E+07  8.942E-14
  178.0  5.503E+09  1.070E+10  1.035E+09 7.017E-13  917.3  1086  6.608E+06  2.802E+07  1.262E+05  6.630E+07  2.619E-13
  180.0  5.245E+09  9.908E+09  9.512E+08 6.537E-13  925.2  1086  6.508E+06  2.518E+07  1.210E+05  6.814E+07  7.458E-13
  182.0  5.004E+09  9.189E+09  8.750E+08 6.096E-13  932.7  1086  6.413E+06  2.266E+07  1.162E+05  6.975E+07  2.066E-12
  184.0  4.777E+09  8.530E+09  8.058E+08 5.692E-13  939.8  1086  6.321E+06  2.042E+07  1.120E+05  7.113E+07  5.575E-12
  186.0  4.565E+09  7.926E+09  7.428E+08 5.321E-13  946.6  1086  6.232E+06  1.843E+07  1.082E+05  7.227E+07  1.465E-11
  188.0  4.365E+09  7.372E+09  6.854E+08 4.978E-13  953.1  1086  6.147E+06  1.665E+07  1.047E+05  7.319E+07  3.755E-11
  190.0  4.176E+09  6.862E+09  6.330E+08 4.662E-13  959.3  1086  6.065E+06  1.505E+07  1.016E+05  7.388E+07  9.390E-11
  192.0  3.998E+09  6.392E+09  5.850E+08 4.370E-13  965.1  1086  5.985E+06  1.363E+07  9.879E+04  7.436E+07  2.292E-10
  194.0  3.830E+09  5.959E+09  5.411E+08 4.100E-13  970.7  1086  5.909E+06  1.235E+07  9.624E+04  7.464E+07  5.465E-10
  196.0  3.672E+09  5.559E+09  5.008E+08 3.850E-13  976.1  1086  5.834E+06  1.120E+07  9.392E+04  7.472E+07  1.274E-09
  198.0  3.521E+09  5.189E+09  4.639E+08 3.618E-13  981.2  1086  5.762E+06  1.017E+07  9.181E+04  7.463E+07  2.904E-09
  200.0  3.379E+09  4.847E+09  4.299E+08 3.403E-13  986.0  1086  5.693E+06  9.235E+06  8.988E+04  7.437E+07  6.478E-09
  202.0  3.243E+09  4.531E+09  3.987E+08 3.202E-13  990.7  1086  5.617E+06  8.396E+06  8.813E+04  7.395E+07  1.415E-08
  204.0  3.115E+09  4.237E+09  3.700E+08 3.016E-13  995.1  1086  5.552E+06  7.640E+06  8.652E+04  7.339E+07  3.028E-08
  206.0  2.993E+09  3.965E+09  3.435E+08 2.842E-13  999.3  1086  5.488E+06  6.956E+06  8.504E+04  7.271E+07  6.351E-08
  208.0  2.876E+09  3.712E+09  3.190E+08 2.680E-13 1003.3  1086  5.427E+06  6.337E+06  8.369E+04  7.192E+07  1.307E-07
  210.0  2.766E+09  3.476E+09  2.965E+08 2.529E-13 1007.1  1086  5.366E+06  5.777E+06  8.245E+04  7.102E+07  2.637E-07
  212.0  2.660E+09  3.258E+09  2.756E+08 2.387E-13 1010.7  1086  5.308E+06  5.270E+06  8.130E+04  7.003E+07  5.226E-07
  214.0  2.560E+09  3.054E+09  2.563E+08 2.255E-13 1014.2  1086  5.250E+06  4.810E+06  8.025E+04  6.897E+07  1.017E-06
  216.0  2.464E+09  2.864E+09  2.385E+08 2.131E-13 1017.5  1086  5.194E+06  4.393E+06  7.927E+04  6.784E+07  1.945E-06
  218.0  2.372E+09  2.687E+09  2.220E+08 2.015E-13 1020.7  1086  5.140E+06  4.014E+06  7.837E+04  6.665E+07  3.657E-06
  220.0  2.285E+09  2.522E+09  2.067E+08 1.907E-13 1023.7  1086  5.086E+06  3.669E+06  7.753E+04  6.541E+07  6.763E-06
  222.0  2.201E+09  2.368E+09  1.926E+08 1.805E-13 1026.5  1086  5.034E+06  3.356E+06  7.675E+04  6.414E+07  1.230E-05
  224.0  2.121E+09  2.224E+09  1.794E+08 1.709E-13 1029.3  1086  4.983E+06  3.070E+06  7.603E+04  6.283E+07  2.204E-05
  226.0  2.044E+09  2.089E+09  1.673E+08 1.619E-13 1031.9  1086  4.932E+06  2.810E+06  7.535E+04  6.151E+07  3.887E-05
  228.0  1.970E+09  1.964E+09  1.559E+08 1.535E-13 1034.4  1086  4.883E+06  2.574E+06  7.472E+04  6.016E+07  6.753E-05
  230.0  1.900E+09  1.846E+09  1.454E+08 1.455E-13 1036.7  1086  4.835E+06  2.358E+06  7.413E+04  5.881E+07  1.156E-04
  232.0  1.833E+09  1.736E+09  1.357E+08 1.381E-13 1039.0  1086  4.788E+06  2.161E+06  7.358E+04  5.745E+07  1.952E-04
  234.0  1.768E+09  1.633E+09  1.266E+08 1.310E-13 1041.1  1086  4.741E+06  1.981E+06  7.306E+04  5.609E+07  3.250E-04
  236.0  1.706E+09  1.536E+09  1.182E+08 1.244E-13 1043.2  1086  4.696E+06  1.816E+06  7.257E+04  5.473E+07  5.340E-04
  238.0  1.646E+09  1.445E+09  1.103E+08 1.181E-13 1045.1  1086  4.651E+06  1.666E+06  7.212E+04  5.338E+07  8.657E-04
  240.0  1.589E+09  1.361E+09  1.030E+08 1.123E-13 1047.0  1086  4.607E+06  1.529E+06  7.168E+04  5.204E+07  1.386E-03
  242.0  1.534E+09  1.281E+09  9.623E+07 1.067E-13 1048.8  1086  4.564E+06  1.404E+06  7.127E+04  5.071E+07  2.191E-03
  244.0  1.481E+09  1.206E+09  8.990E+07 1.014E-13 1050.5  1086  4.521E+06  1.289E+06  7.089E+04  4.941E+07  3.422E-03
  246.0  1.430E+09  1.136E+09  8.400E+07 9.648E-14 1052.1  1086  4.480E+06  1.184E+06  7.052E+04  4.812E+07  5.283E-03
  248.0  1.381E+09  1.070E+09  7.851E+07 9.180E-14 1053.7  1086  4.438E+06  1.088E+06  7.017E+04  4.685E+07  8.061E-03
  250.0  1.334E+09  1.009E+09  7.338E+07 8.737E-14 1055.1  1086  4.398E+06  9.993E+05  6.984E+04  4.560E+07  1.216E-02
  252.0  1.289E+09  9.505E+08  6.862E+07 8.318E-14 1056.5  1086  4.358E+06  9.185E+05  6.952E+04  4.437E+07  1.816E-02
  254.0  1.245E+09  8.959E+08  6.417E+07 7.921E-14 1057.9  1086  4.319E+06  8.444E+05  6.922E+04  4.317E+07  2.681E-02
  256.0  1.203E+09  8.446E+08  6.001E+07 7.546E-14 1059.1  1086  4.280E+06  7.764E+05  6.893E+04  4.199E+07  3.919E-02
  258.0  1.163E+09  7.964E+08  5.613E+07 7.191E-14 1060.4  1086  4.242E+06  7.140E+05  6.865E+04  4.084E+07  5.671E-02
  260.0  1.124E+09  7.510E+08  5.251E+07 6.855E-14 1061.5  1086  4.204E+06  6.568E+05  6.839E+04  3.971E+07  8.125E-02
  262.0  1.087E+09  7.083E+08  4.914E+07 6.536E-14 1062.6  1086  4.167E+06  6.043E+05  6.813E+04  3.861E+07  1.153E-01
  264.0  1.051E+09  6.682E+08  4.598E+07 6.234E-14 1063.7  1086  4.131E+06  5.561E+05  6.788E+04  3.754E+07  1.621E-01
  266.0  1.016E+09  6.304E+08  4.304E+07 5.947E-14 1064.7  1086  4.095E+06  5.119E+05  6.764E+04  3.649E+07  2.259E-01
  268.0  9.821E+08  5.948E+08  4.028E+07 5.675E-14 1065.7  1086  4.059E+06  4.712E+05  6.741E+04  3.547E+07  3.120E-01
  270.0  9.498E+08  5.613E+08  3.771E+07 5.417E-14 1066.6  1086  4.024E+06  4.338E+05  6.719E+04  3.447E+07  4.272E-01
  272.0  9.185E+08  5.297E+08  3.531E+07 5.173E-14 1067.5  1086  3.989E+06  3.995E+05  6.697E+04  3.350E+07  5.801E-01
  274.0  8.884E+08  5.000E+08  3.306E+07 4.940E-14 1068.3  1086  3.955E+06  3.680E+05  6.676E+04  3.256E+07  7.812E-01
  276.0  8.593E+08  4.720E+08  3.097E+07 4.719E-14 1069.1  1086  3.921E+06  3.390E+05  6.656E+04  3.164E+07  1.044E+00
  278.0  8.313E+08  4.456E+08  2.900E+07 4.509E-14 1069.9  1086  3.888E+06  3.123E+05  6.636E+04  3.074E+07  1.384E+00
  280.0  8.042E+08  4.208E+08  2.717E+07 4.310E-14 1070.6  1086  3.855E+06  2.878E+05  6.617E+04  2.987E+07  1.821E+00
  282.0  7.781E+08  3.974E+08  2.545E+07 4.120E-14 1071.3  1086  3.822E+06  2.652E+05  6.598E+04  2.903E+07  2.378E+00
  284.0  7.529E+08  3.753E+08  2.385E+07 3.940E-14 1071.9  1086  3.790E+06  2.444E+05  6.579E+04  2.820E+07  3.085E+00
  286.0  7.285E+08  3.544E+08  2.234E+07 3.769E-14 1072.6  1086  3.758E+06  2.253E+05  6.561E+04  2.741E+07  3.973E+00
  288.0  7.050E+08  3.348E+08  2.094E+07 3.606E-14 1073.2  1086  3.727E+06  2.077E+05  6.544E+04  2.663E+07  5.081E+00
  290.0  6.822E+08  3.163E+08  1.962E+07 3.450E-14 1073.7  1086  3.696E+06  1.915E+05  6.526E+04  2.587E+07  6.457E+00
  292.0  6.603E+08  2.988E+08  1.839E+07 3.302E-14 1074.3  1086  3.665E+06  1.766E+05  6.509E+04  2.514E+07  8.153E+00
  294.0  6.391E+08  2.823E+08  1.724E+07 3.162E-14 1074.8  1086  3.634E+06  1.629E+05  6.493E+04  2.443E+07  1.023E+01
  296.0  6.186E+08  2.668E+08  1.616E+07 3.027E-14 1075.3  1086  3.604E+06  1.502E+05  6.476E+04  2.374E+07  1.276E+01
  298.0  5.988E+08  2.521E+08  1.515E+07 2.900E-14 1075.8  1086  3.575E+06  1.386E+05  6.460E+04  2.307E+07  1.581E+01

------------------------------------------------------------------------
