%!PS-Adobe-2.0 EPSF-2.0
%%BoundingBox:  0 0 567 442
%%Title: 1fhlcounts.eps: 1fhlcounts
%%Creator: ROOT Version 5.34/14
%%CreationDate: Mon Mar 17 23:07:07 2014
%%EndComments
%%BeginProlog
80 dict begin
/s {stroke} def /l {lineto} def /m {moveto} def /t {translate} def
/r {rotate} def /rl {roll}  def /R {repeat} def
/d {rlineto} def /rm {rmoveto} def /gr {grestore} def /f {eofill} def
/c {setrgbcolor} def /black {0 setgray} def /sd {setdash} def
/cl {closepath} def /sf {scalefont setfont} def /lw {setlinewidth} def
/box {m dup 0 exch d exch 0 d 0 exch neg d cl} def
/NC{systemdict begin initclip end}def/C{NC box clip newpath}def
/bl {box s} def /bf {box f} def /Y { 0 exch d} def /X { 0 d} def 
/K {{pop pop 0 moveto} exch kshow} bind def
/ita {/ang 15 def gsave [1 0 ang dup sin exch cos div 1 0 0] concat} def 
/mp {newpath /y exch def /x exch def} def
/side {[w .77 mul w .23 mul] .385 w mul sd w 0 l currentpoint t -144 r} def
/mr {mp x y w2 0 360 arc} def /m24 {mr s} def /m20 {mr f} def
/mb {mp x y w2 add m w2 neg 0 d 0 w neg d w 0 d 0 w d cl} def
/mt {mp x y w2 add m w2 neg w neg d w 0 d cl} def
/m21 {mb f} def /m25 {mb s} def /m22 {mt f} def /m26{mt s} def
/m23 {mp x y w2 sub m w2 w d w neg 0 d cl f} def
/m27 {mp x y w2 add m w3 neg w2 neg d w3 w2 neg d w3 w2 d cl s} def
/m28 {mp x w2 sub y w2 sub w3 add m w3 0 d  0 w3 neg d w3 0 d 0 w3 d w3 0 d  0 w3 d w3 neg 0 d 0 w3 d w3 neg 0 d 0 w3 neg d w3 neg 0 d cl s } def
/m29 {mp gsave x w2 sub y w2 add w3 sub m currentpoint t 4 {side} repeat cl fill gr} def
/m30 {mp gsave x w2 sub y w2 add w3 sub m currentpoint t 4 {side} repeat cl s gr} def
/m31 {mp x y w2 sub m 0 w d x w2 sub y m w 0 d x w2 sub y w2 add m w w neg d x w2 sub y w2 sub m w w d s} def
/m32 {mp x y w2 sub m w2 w d w neg 0 d cl s} def
/m33 {mp x y w2 add m w3 neg w2 neg d w3 w2 neg d w3 w2 d cl f} def
/m34 {mp x w2 sub y w2 sub w3 add m w3 0 d  0 w3 neg d w3 0 d 0 w3 d w3 0 d  0 w3 d w3 neg 0 d 0 w3 d w3 neg 0 d 0 w3 neg d w3 neg 0 d cl f } def
/m2 {mp x y w2 sub m 0 w d x w2 sub y m w 0 d s} def
/m5 {mp x w2 sub y w2 sub m w w d x w2 sub y w2 add m w w neg d s} def
/reEncode {exch findfont dup length dict begin {1 index /FID eq  {pop pop} {def} ifelse } forall /Encoding exch def currentdict end dup /FontName get exch definefont pop } def [/Times-Bold /Times-Italic /Times-BoldItalic /Helvetica /Helvetica-Oblique
 /Helvetica-Bold /Helvetica-BoldOblique /Courier /Courier-Oblique /Courier-Bold /Courier-BoldOblique /Times-Roman /AvantGarde-Book /AvantGarde-BookOblique /AvantGarde-Demi /AvantGarde-DemiOblique /Bookman-Demi /Bookman-DemiItalic /Bookman-Light
 /Bookman-LightItalic /Helvetica-Narrow /Helvetica-Narrow-Bold /Helvetica-Narrow-BoldOblique /Helvetica-Narrow-Oblique /NewCenturySchlbk-Roman /NewCenturySchlbk-Bold /NewCenturySchlbk-BoldItalic /NewCenturySchlbk-Italic /Palatino-Bold
 /Palatino-BoldItalic /Palatino-Italic /Palatino-Roman ] {ISOLatin1Encoding reEncode } forall
%%EndProlog
%%BeginSetup
%%EndSetup
newpath  gsave  .25 .25 scale  gsave  0 0 t black[  ] 0 sd 6 lw 1 1 1 c 2268 1769 0 0 bf black 3 lw 1 1 1 c 1894 1486 283 212 bf black 1894 1486 283 212 bl 1 1 1 c 1894 1486 283 212 bf black 1894 1486 283 212 bl 6 lw 283 212 m 1894 X s
 gsave  2268 1769 0 0 C 1676.37 24.4132 t 0 r /Helvetica findfont 78.6648 sf 0 0 m (Spectral index) show NC gr  283 257 m -45 Y s 0.6 0.6 0.6 c[ 12 12] 0 sd 3 lw 283 1698 m -1486 Y s black[  ] 0 sd 6 lw 321 234 m -22 Y s 359 234 m -22 Y s 397 234 m
 -22 Y s 435 234 m -22 Y s 473 257 m -45 Y s 0.6 0.6 0.6 c[ 12 12] 0 sd 3 lw 473 1698 m -1486 Y s black[  ] 0 sd 6 lw 511 234 m -22 Y s 549 234 m -22 Y s 586 234 m -22 Y s 624 234 m -22 Y s 662 257 m -45 Y s 0.6 0.6 0.6 c[ 12 12] 0 sd 3 lw 662 1698 m
 -1486 Y s black[  ] 0 sd 6 lw 700 234 m -22 Y s 738 234 m -22 Y s 776 234 m -22 Y s 814 234 m -22 Y s 852 257 m -45 Y s 0.6 0.6 0.6 c[ 12 12] 0 sd 3 lw 852 1698 m -1486 Y s black[  ] 0 sd 6 lw 889 234 m -22 Y s 927 234 m -22 Y s 965 234 m -22 Y s
 1003 234 m -22 Y s 1041 257 m -45 Y s 0.6 0.6 0.6 c[ 12 12] 0 sd 3 lw 1041 1698 m -1486 Y s black[  ] 0 sd 6 lw 1079 234 m -22 Y s 1117 234 m -22 Y s 1154 234 m -22 Y s 1192 234 m -22 Y s 1230 257 m -45 Y s 0.6 0.6 0.6 c[ 12 12] 0 sd 3 lw 1230 1698
 m -1486 Y s black[  ] 0 sd 6 lw 1268 234 m -22 Y s 1306 234 m -22 Y s 1344 234 m -22 Y s 1382 234 m -22 Y s 1420 257 m -45 Y s 0.6 0.6 0.6 c[ 12 12] 0 sd 3 lw 1420 1698 m -1486 Y s black[  ] 0 sd 6 lw 1457 234 m -22 Y s 1495 234 m -22 Y s 1533 234 m
 -22 Y s 1571 234 m -22 Y s 1609 257 m -45 Y s 0.6 0.6 0.6 c[ 12 12] 0 sd 3 lw 1609 1698 m -1486 Y s black[  ] 0 sd 6 lw 1647 234 m -22 Y s 1685 234 m -22 Y s 1723 234 m -22 Y s 1760 234 m -22 Y s 1798 257 m -45 Y s 0.6 0.6 0.6 c[ 12 12] 0 sd 3 lw
 1798 1698 m -1486 Y s black[  ] 0 sd 6 lw 1836 234 m -22 Y s 1874 234 m -22 Y s 1912 234 m -22 Y s 1950 234 m -22 Y s 1988 257 m -45 Y s 0.6 0.6 0.6 c[ 12 12] 0 sd 3 lw 1988 1698 m -1486 Y s black[  ] 0 sd 6 lw 2026 234 m -22 Y s 2063 234 m -22 Y s
 2101 234 m -22 Y s 2139 234 m -22 Y s 2177 257 m -45 Y s 0.6 0.6 0.6 c[ 12 12] 0 sd 3 lw 2177 1698 m -1486 Y s black
 gsave  2268 1769 0 0 C 233.282 143.767 t 0 r /Helvetica findfont 70.5271 sf 0 0 m (0.5) show NC gr 
 gsave  2268 1769 0 0 C 458.426 143.767 t 0 r /Helvetica findfont 70.5271 sf 0 0 m (1) show NC gr 
 gsave  2268 1769 0 0 C 613.043 143.767 t 0 r /Helvetica findfont 70.5271 sf 0 0 m (1.5) show NC gr 
 gsave  2268 1769 0 0 C 830.049 143.767 t 0 r /Helvetica findfont 70.5271 sf 0 0 m (2) show NC gr 
 gsave  2268 1769 0 0 C 990.092 143.767 t 0 r /Helvetica findfont 70.5271 sf 0 0 m (2.5) show NC gr 
 gsave  2268 1769 0 0 C 1209.81 143.767 t 0 r /Helvetica findfont 70.5271 sf 0 0 m (3) show NC gr 
 gsave  2268 1769 0 0 C 1369.85 143.767 t 0 r /Helvetica findfont 70.5271 sf 0 0 m (3.5) show NC gr 
 gsave  2268 1769 0 0 C 1589.57 143.767 t 0 r /Helvetica findfont 70.5271 sf 0 0 m (4) show NC gr 
 gsave  2268 1769 0 0 C 1746.9 143.767 t 0 r /Helvetica findfont 70.5271 sf 0 0 m (4.5) show NC gr 
 gsave  2268 1769 0 0 C 1966.62 143.767 t 0 r /Helvetica findfont 70.5271 sf 0 0 m (5) show NC gr 
 gsave  2268 1769 0 0 C 2126.66 143.767 t 0 r /Helvetica findfont 70.5271 sf 0 0 m (5.5) show NC gr [  ] 0 sd 6 lw 283 1698 m 1894 X s 283 1654 m 44 Y s 321 1676 m 22 Y s 359 1676 m 22 Y s 397 1676 m 22 Y s 435 1676 m 22 Y s 473 1654 m 44 Y s 511
 1676 m 22 Y s 549 1676 m 22 Y s 586 1676 m 22 Y s 624 1676 m 22 Y s 662 1654 m 44 Y s 700 1676 m 22 Y s 738 1676 m 22 Y s 776 1676 m 22 Y s 814 1676 m 22 Y s 852 1654 m 44 Y s 889 1676 m 22 Y s 927 1676 m 22 Y s 965 1676 m 22 Y s 1003 1676 m 22 Y s
 1041 1654 m 44 Y s 1079 1676 m 22 Y s 1117 1676 m 22 Y s 1154 1676 m 22 Y s 1192 1676 m 22 Y s 1230 1654 m 44 Y s 1268 1676 m 22 Y s 1306 1676 m 22 Y s 1344 1676 m 22 Y s 1382 1676 m 22 Y s 1420 1654 m 44 Y s 1457 1676 m 22 Y s 1495 1676 m 22 Y s
 1533 1676 m 22 Y s 1571 1676 m 22 Y s 1609 1654 m 44 Y s 1647 1676 m 22 Y s 1685 1676 m 22 Y s 1723 1676 m 22 Y s 1760 1676 m 22 Y s 1798 1654 m 44 Y s 1836 1676 m 22 Y s 1874 1676 m 22 Y s 1912 1676 m 22 Y s 1950 1676 m 22 Y s 1988 1654 m 44 Y s
 2026 1676 m 22 Y s 2063 1676 m 22 Y s 2101 1676 m 22 Y s 2139 1676 m 22 Y s 2177 1654 m 44 Y s 283 212 m 1486 Y s
 gsave  2268 1769 0 0 C 92.2277 1679.09 t 90 r /Helvetica findfont 78.6648 sf 0 0 m (]) show NC gr 
 gsave  2268 1769 0 0 C 65.1019 1643.82 t 90 r /Helvetica findfont 51.539 sf 0 0 m (\2551) show NC gr 
 gsave  2268 1769 0 0 C 92.2277 1470.22 t 90 r /Helvetica findfont 78.6648 sf 0 0 m ( year) show NC gr 
 gsave  2268 1769 0 0 C 54.2516 1424.1 t 90 r /Helvetica findfont 51.539 sf 0 0 m (\2552) show NC gr 
 gsave  2268 1769 0 0 C 92.2277 556.079 t 90 r /Helvetica findfont 78.6648 sf 0 0 m (Integral flux > 10 GeV [m) show NC gr  341 212 m -58 X s 0.6 0.6 0.6 c[ 12 12] 0 sd 3 lw 2177 212 m -1894 X s black
 gsave  2268 1769 0 0 C 264.363 183.151 t 0 r  -75 0 t /Helvetica findfont 67.8145 sf 0 0 m (10) show NC gr [  ] 0 sd 6 lw 312 361 m -29 X s 312 449 m -29 X s 312 511 m -29 X s 312 559 m -29 X s 312 598 m -29 X s 312 631 m -29 X s 312 660 m -29 X s
 312 685 m -29 X s 341 708 m -58 X s 0.6 0.6 0.6 c[ 12 12] 0 sd 3 lw 2177 708 m -1894 X s black
 gsave  2268 1769 0 0 C 238.707 705.271 t 0 r /Helvetica findfont 46.1139 sf 0 0 m (2) show NC gr 
 gsave  2268 1769 0 0 C 162.755 675.432 t 0 r /Helvetica findfont 70.5271 sf 0 0 m (10) show NC gr [  ] 0 sd 6 lw 312 857 m -29 X s 312 944 m -29 X s 312 1006 m -29 X s 312 1054 m -29 X s 312 1093 m -29 X s 312 1126 m -29 X s 312 1155 m -29 X s 312
 1180 m -29 X s 341 1203 m -58 X s 0.6 0.6 0.6 c[ 12 12] 0 sd 3 lw 2177 1203 m -1894 X s black
 gsave  2268 1769 0 0 C 238.707 1204.39 t 0 r /Helvetica findfont 46.1139 sf 0 0 m (3) show NC gr 
 gsave  2268 1769 0 0 C 162.755 1171.83 t 0 r /Helvetica findfont 70.5271 sf 0 0 m (10) show NC gr [  ] 0 sd 6 lw 312 1352 m -29 X s 312 1439 m -29 X s 312 1501 m -29 X s 312 1549 m -29 X s 312 1588 m -29 X s 312 1621 m -29 X s 312 1650 m -29 X s 312
 1675 m -29 X s 341 1698 m -58 X s 0.6 0.6 0.6 c[ 12 12] 0 sd 3 lw 2177 1698 m -1894 X s black
 gsave  2268 1769 0 0 C 238.707 1695.36 t 0 r /Helvetica findfont 46.1139 sf 0 0 m (4) show NC gr 
 gsave  2268 1769 0 0 C 162.755 1665.52 t 0 r /Helvetica findfont 70.5271 sf 0 0 m (10) show NC gr [  ] 0 sd 6 lw 2177 212 m 1486 Y s 2120 212 m 57 X s 2148 361 m 29 X s 2148 449 m 29 X s 2148 511 m 29 X s 2148 559 m 29 X s 2148 598 m 29 X s 2148 631
 m 29 X s 2148 660 m 29 X s 2148 685 m 29 X s 2120 708 m 57 X s 2148 857 m 29 X s 2148 944 m 29 X s 2148 1006 m 29 X s 2148 1054 m 29 X s 2148 1093 m 29 X s 2148 1126 m 29 X s 2148 1155 m 29 X s 2148 1180 m 29 X s 2120 1203 m 57 X s 2148 1352 m 29 X
 s 2148 1439 m 29 X s 2148 1501 m 29 X s 2148 1549 m 29 X s 2148 1588 m 29 X s 2148 1621 m 29 X s 2148 1650 m 29 X s 2148 1675 m 29 X s 2120 1698 m 57 X s 3 lw /w 22 def /w2 {w 2 div} def /w3 {w 3 div} def 1505 1003 m24 6 lw 3 lw 1445 540 m24 6 lw 3
 lw 1069 416 m24 6 lw 3 lw 995 675 m24 6 lw 3 lw 857 398 m24 6 lw 3 lw 793 502 m24 6 lw 3 lw 1051 534 m24 6 lw 3 lw 685 337 m24 6 lw 3 lw 824 768 m24 6 lw 3 lw 1129 541 m24 6 lw 3 lw 752 728 m20 6 lw 3 lw 1312 387 m24 6 lw 3 lw 625 380 m24 6 lw 3 lw
 952 551 m24 6 lw 3 lw 1082 430 m24 6 lw 3 lw 925 501 m24 6 lw 3 lw 918 585 m24 6 lw 3 lw 894 555 m24 6 lw 3 lw 530 274 m24 6 lw 3 lw 720 352 m24 6 lw 3 lw 1908 333 m24 6 lw 3 lw 1240 565 m24 6 lw 3 lw 1098 511 m20 6 lw 3 lw 1290 440 m24 6 lw 3 lw
 582 290 m24 6 lw 3 lw 810 576 m20 6 lw 3 lw 1305 710 m24 6 lw 3 lw 1124 379 m24 6 lw 3 lw 912 452 m24 6 lw 3 lw 1040 338 m24 6 lw 3 lw 1177 730 m24 6 lw 3 lw 1134 530 m24 6 lw 3 lw 883 717 m20 6 lw 3 lw 1719 376 m24 6 lw 3 lw 1441 481 m24 6 lw 3 lw
 972 956 m24 6 lw 3 lw 1407 454 m24 6 lw 3 lw 871 492 m20 6 lw 3 lw 958 431 m24 6 lw 3 lw 918 617 m24 6 lw 3 lw 1090 530 m24 6 lw 3 lw 765 570 m24 6 lw 3 lw 1329 342 m24 6 lw 3 lw 1125 567 m24 6 lw 3 lw 1040 351 m24 6 lw 3 lw 1420 459 m24 6 lw 3 lw
 1078 433 m24 6 lw 3 lw 1042 520 m24 6 lw 3 lw 716 429 m20 6 lw 3 lw 740 352 m24 6 lw 3 lw 739 535 m24 6 lw 3 lw 1103 482 m24 6 lw 3 lw 1125 500 m24 6 lw 3 lw 819 418 m24 6 lw 3 lw 842 505 m24 6 lw 3 lw 1491 514 m24 6 lw 3 lw 959 615 m24 6 lw 3 lw
 926 1099 m24 6 lw 3 lw 521 350 m24 6 lw 3 lw 1046 418 m24 6 lw 3 lw 1129 794 m24 6 lw 3 lw 1091 803 m20 6 lw 3 lw 992 474 m20 6 lw 3 lw 758 418 m24 6 lw 3 lw 683 509 m24 6 lw 3 lw 1222 579 m24 6 lw 3 lw 857 857 m24 6 lw 3 lw 1060 515 m20 6 lw 3 lw
 904 484 m20 6 lw 3 lw 1512 483 m24 6 lw 3 lw 999 439 m24 6 lw 3 lw 894 388 m24 6 lw 3 lw 975 697 m24 6 lw 3 lw 704 421 m24 6 lw 3 lw 589 381 m24 6 lw 3 lw 1012 480 m24 6 lw 3 lw 876 588 m24 6 lw 3 lw 1106 958 m24 6 lw 3 lw 835 526 m24 6 lw 3 lw 1117
 495 m24 6 lw 3 lw 777 502 m24 6 lw 3 lw 2089 410 m24 6 lw 3 lw 1081 422 m20 6 lw 3 lw 1126 541 m24 6 lw 3 lw 813 501 m20 6 lw 3 lw 1461 589 m24 6 lw 3 lw 995 587 m24 6 lw 3 lw 812 424 m24 6 lw 3 lw 621 302 m24 6 lw 3 lw 806 540 m24 6 lw 3 lw 1607
 578 m24 6 lw 3 lw 975 706 m20 6 lw 3 lw 845 348 m20 6 lw 3 lw 704 446 m20 6 lw 3 lw 1175 990 m24 6 lw 3 lw 486 425 m20 6 lw 3 lw 959 654 m24 6 lw 3 lw 1732 406 m24 6 lw 3 lw 741 309 m24 6 lw 3 lw 849 438 m24 6 lw 3 lw 915 474 m24 6 lw 3 lw 877 987
 m24 6 lw 3 lw 1345 695 m24 6 lw 3 lw 988 427 m24 6 lw 3 lw 831 487 m24 6 lw 3 lw 713 860 m24 6 lw 3 lw 970 802 m24 6 lw 3 lw 840 321 m24 6 lw 3 lw 889 491 m24 6 lw 3 lw 669 281 m24 6 lw 3 lw 1284 490 m24 6 lw 3 lw 842 948 m20 6 lw 3 lw 958 514 m24 6
 lw 3 lw 923 887 m24 6 lw 3 lw 801 457 m24 6 lw 3 lw 1190 769 m24 6 lw 3 lw 975 1390 m20 6 lw 3 lw 885 608 m24 6 lw 3 lw 1093 1069 m24 6 lw 3 lw 789 424 m24 6 lw 3 lw 886 657 m24 6 lw 3 lw 747 373 m24 6 lw 3 lw 617 333 m20 6 lw 3 lw 1665 445 m24 6 lw
 3 lw 1251 437 m24 6 lw 3 lw 617 384 m24 6 lw 3 lw 1665 469 m24 6 lw 3 lw 851 387 m20 6 lw 3 lw 959 424 m24 6 lw 3 lw 917 480 m24 6 lw 3 lw 1296 740 m24 6 lw 3 lw 1247 656 m24 6 lw 3 lw 924 512 m24 6 lw 3 lw 1063 1201 m20 6 lw 3 lw 1136 531 m24 6 lw
 3 lw 800 439 m24 6 lw 3 lw 961 733 m20 6 lw 3 lw 854 369 m24 6 lw 3 lw 1127 451 m20 6 lw 3 lw 785 550 m24 6 lw 3 lw 1024 821 m24 6 lw 3 lw 1986 1173 m20 6 lw 3 lw 946 428 m20 6 lw 3 lw 1285 574 m24 6 lw 3 lw 1236 356 m24 6 lw 3 lw 746 392 m24 6 lw 3
 lw 749 623 m20 6 lw 3 lw 893 486 m24 6 lw 3 lw 910 418 m20 6 lw 3 lw 684 767 m24 6 lw 3 lw 1135 356 m24 6 lw 3 lw 1081 404 m24 6 lw 3 lw 1124 545 m24 6 lw 3 lw 874 578 m24 6 lw 3 lw 789 581 m24 6 lw 3 lw 955 456 m24 6 lw 3 lw 1018 653 m24 6 lw 3 lw
 1267 653 m24 6 lw 3 lw 1038 940 m24 6 lw 3 lw 1204 624 m24 6 lw 3 lw 949 391 m24 6 lw 3 lw 1395 808 m20 6 lw 3 lw 1012 377 m24 6 lw 3 lw 1229 756 m24 6 lw 3 lw 1744 479 m24 6 lw 3 lw 974 386 m24 6 lw 3 lw 799 380 m24 6 lw 3 lw 962 453 m24 6 lw 3 lw
 1169 530 m24 6 lw 3 lw 909 500 m20 6 lw 3 lw 1147 475 m24 6 lw 3 lw 1109 458 m20 6 lw 3 lw 1025 474 m24 6 lw 3 lw 835 486 m24 6 lw 3 lw 1164 378 m24 6 lw 3 lw 925 618 m24 6 lw 3 lw 1544 427 m24 6 lw 3 lw 1344 794 m24 6 lw 3 lw 905 785 m24 6 lw 3 lw
 911 655 m24 6 lw 3 lw 1023 463 m24 6 lw 3 lw 873 696 m24 6 lw 3 lw 1435 648 m24 6 lw 3 lw 888 507 m24 6 lw 3 lw 905 770 m20 6 lw 3 lw 711 392 m24 6 lw 3 lw 1083 724 m20 6 lw 3 lw 1440 346 m24 6 lw 3 lw 1082 496 m24 6 lw 3 lw 1120 925 m20 6 lw 3 lw
 1790 1446 m20 6 lw 3 lw 985 555 m20 6 lw 3 lw 905 439 m20 6 lw 3 lw 1538 415 m24 6 lw 3 lw 643 452 m24 6 lw 3 lw 1066 411 m24 6 lw 3 lw 1337 471 m24 6 lw 3 lw 763 1000 m20 6 lw 3 lw 837 412 m20 6 lw 3 lw 1107 483 m24 6 lw 3 lw 1019 570 m24 6 lw 3 lw
 953 595 m24 6 lw 3 lw 813 534 m24 6 lw 3 lw 1016 485 m24 6 lw 3 lw 980 429 m24 6 lw 3 lw 700 491 m24 6 lw 3 lw 850 668 m24 6 lw 3 lw 1804 486 m24 6 lw 3 lw 913 530 m20 6 lw 3 lw 1240 555 m24 6 lw 3 lw 968 381 m24 6 lw 3 lw 1265 395 m24 6 lw 3 lw 873
 690 m24 6 lw 3 lw 1015 882 m24 6 lw 3 lw 884 324 m24 6 lw 3 lw 958 535 m24 6 lw 3 lw 958 903 m24 6 lw 3 lw 1179 607 m24 6 lw 3 lw 968 599 m20 6 lw 3 lw 788 656 m20 6 lw 3 lw 786 348 m24 6 lw 3 lw 1000 617 m24 6 lw 3 lw 1824 757 m20 6 lw 3 lw 1126
 425 m24 6 lw 3 lw 718 499 m24 6 lw 3 lw 1687 559 m24 6 lw 3 lw 1099 648 m24 6 lw 3 lw 971 365 m24 6 lw 3 lw 764 798 m20 6 lw 3 lw 762 402 m24 6 lw 3 lw 1454 581 m20 6 lw 3 lw 657 402 m24 6 lw 3 lw 950 491 m24 6 lw 3 lw 1012 704 m24 6 lw 3 lw 857 780
 m24 6 lw 3 lw 1407 392 m24 6 lw 3 lw 937 484 m24 6 lw 3 lw 792 390 m24 6 lw 3 lw 1438 569 m20 6 lw 3 lw 818 1281 m24 6 lw 3 lw 1284 418 m24 6 lw 3 lw 1695 566 m20 6 lw 3 lw 961 633 m20 6 lw 3 lw 805 351 m24 6 lw 3 lw 828 643 m24 6 lw 3 lw 1078 454
 m24 6 lw 3 lw 1047 676 m24 6 lw 3 lw 1516 365 m24 6 lw 3 lw 1217 447 m24 6 lw 3 lw 1122 555 m24 6 lw 3 lw 872 443 m24 6 lw 3 lw 1239 307 m24 6 lw 3 lw 1019 573 m24 6 lw 3 lw 843 493 m24 6 lw 3 lw 739 600 m24 6 lw 3 lw 709 393 m24 6 lw 3 lw 1394 441
 m24 6 lw 3 lw 1076 714 m24 6 lw 3 lw 1662 389 m24 6 lw 3 lw 965 448 m24 6 lw 3 lw 931 492 m24 6 lw 3 lw 1311 648 m24 6 lw 3 lw 711 323 m24 6 lw 3 lw 943 478 m24 6 lw 3 lw 1588 370 m24 6 lw 3 lw 894 812 m24 6 lw 3 lw 815 834 m24 6 lw 3 lw 920 723 m24
 6 lw 3 lw 1001 321 m24 6 lw 3 lw 572 402 m24 6 lw 3 lw 998 891 m24 6 lw 3 lw 1222 272 m24 6 lw 3 lw 1341 391 m24 6 lw 3 lw 570 308 m24 6 lw 3 lw 1562 497 m24 6 lw 3 lw 1029 683 m24 6 lw 3 lw 999 565 m20 6 lw 3 lw 1510 473 m24 6 lw 3 lw 927 579 m20 6
 lw 3 lw 1013 731 m24 6 lw 3 lw 1352 273 m24 6 lw 3 lw 1365 494 m24 6 lw 3 lw 987 755 m24 6 lw 3 lw 947 430 m24 6 lw 3 lw 1100 607 m24 6 lw 3 lw 818 418 m24 6 lw 3 lw 1367 821 m24 6 lw 3 lw 877 496 m24 6 lw 3 lw 1240 446 m24 6 lw 3 lw 1191 410 m24 6
 lw 3 lw 982 681 m24 6 lw 3 lw 844 687 m24 6 lw 3 lw 950 418 m24 6 lw 3 lw 858 581 m24 6 lw 3 lw 899 457 m24 6 lw 3 lw 1108 469 m24 6 lw 3 lw 1340 459 m24 6 lw 3 lw 1058 628 m24 6 lw 3 lw 381 368 m24 6 lw 3 lw 1486 412 m24 6 lw 3 lw 838 412 m24 6 lw
 3 lw 1027 456 m24 6 lw 3 lw 861 443 m24 6 lw 3 lw 1009 529 m24 6 lw 3 lw 1265 496 m20 6 lw 3 lw 843 531 m24 6 lw 3 lw 1490 547 m20 6 lw 3 lw 1755 452 m20 6 lw 3 lw 1210 422 m24 6 lw 3 lw 2120 537 m24 6 lw 3 lw 1211 504 m24 6 lw 3 lw 822 455 m20 6 lw
 3 lw 775 471 m24 6 lw 3 lw 587 348 m24 6 lw 3 lw 854 381 m24 6 lw 3 lw 907 749 m20 6 lw 3 lw 1098 380 m24 6 lw 3 lw 1215 677 m20 6 lw 3 lw 1161 691 m24 6 lw 3 lw 1222 747 m20 6 lw 3 lw 1087 423 m24 6 lw 3 lw 924 296 m24 6 lw 3 lw 670 687 m20 6 lw 3
 lw 1002 393 m24 6 lw 3 lw 953 1068 m24 6 lw 3 lw 1249 689 m24 6 lw 3 lw 857 621 m24 6 lw 3 lw 725 432 m24 6 lw 3 lw 772 348 m24 6 lw 3 lw 830 467 m24 6 lw 3 lw 883 472 m24 6 lw 3 lw 765 406 m24 6 lw 3 lw 954 803 m24 6 lw 3 lw 1050 451 m24 6 lw 3 lw
 937 552 m24 6 lw 3 lw 1193 544 m24 6 lw 3 lw 810 576 m24 6 lw 3 lw 1008 614 m24 6 lw 3 lw 1824 842 m24 6 lw 3 lw 835 524 m20 6 lw 3 lw 982 456 m24 6 lw 3 lw 1221 482 m24 6 lw 3 lw 1121 888 m24 6 lw 3 lw 778 860 m20 6 lw 3 lw 1759 532 m20 6 lw 3 lw
 1081 684 m24 6 lw 3 lw 1086 570 m24 6 lw 3 lw 1281 498 m24 6 lw 3 lw 1043 453 m24 6 lw 3 lw 1512 772 m24 6 lw 3 lw 1046 556 m24 6 lw 3 lw 1241 750 m20 6 lw 3 lw 874 318 m24 6 lw 3 lw 1173 716 m24 6 lw 3 lw 796 405 m20 6 lw 3 lw 1181 511 m24 6 lw 3
 lw 787 491 m24 6 lw 3 lw 1325 398 m24 6 lw 3 lw 963 812 m20 6 lw 3 lw 1058 549 m24 6 lw 3 lw 847 1131 m24 6 lw 3 lw 1239 555 m20 6 lw 3 lw 836 936 m20 6 lw 3 lw 886 712 m24 6 lw 3 lw 805 1005 m20 6 lw 3 lw 874 961 m20 6 lw 3 lw 1449 330 m24 6 lw 3
 lw 1086 705 m20 6 lw 3 lw 1245 557 m24 6 lw 3 lw 938 352 m24 6 lw 3 lw 853 1059 m20 6 lw 3 lw 799 705 m20 6 lw 3 lw 1112 557 m20 6 lw 3 lw 823 785 m20 6 lw 3 lw 1330 552 m24 6 lw 3 lw 930 586 m20 6 lw 3 lw 800 1019 m24 6 lw 3 lw 1081 505 m24 6 lw 3
 lw 1609 1127 m20 6 lw 3 lw 794 961 m20 6 lw 3 lw 855 706 m20 6 lw 3 lw 1173 599 m24 6 lw 3 lw 942 478 m24 6 lw 3 lw 1170 746 m24 6 lw 3 lw 728 458 m24 6 lw 3 lw 1322 497 m24 6 lw 3 lw 957 485 m24 6 lw 3 lw 995 518 m24 6 lw 3 lw 950 381 m24 6 lw 3 lw
 1554 320 m24 6 lw 3 lw 1083 609 m20 6 lw 3 lw 903 437 m24 6 lw 3 lw 1192 936 m20 6 lw 3 lw 1326 823 m20 6 lw 3 lw 967 669 m24 6 lw 3 lw 2110 500 m24 6 lw 3 lw 1018 725 m24 6 lw 3 lw 916 348 m24 6 lw 3 lw 1306 780 m20 6 lw 3 lw 1194 656 m24 6 lw 3 lw
 1142 1014 m20 6 lw 3 lw 1376 718 m20 6 lw 3 lw 941 979 m20 6 lw 3 lw 931 539 m24 6 lw 3 lw 989 389 m24 6 lw 3 lw 1034 511 m24 6 lw 3 lw 1873 788 m20 6 lw 3 lw 1081 465 m24 6 lw 3 lw 818 678 m20 6 lw 3 lw 779 1133 m20 6 lw 3 lw 746 736 m20 6 lw 3 lw
 972 581 m20 6 lw 3 lw 977 605 m20 6 lw 3 lw 1571 669 m20 6 lw 3 lw 1076 822 m20 6 lw 3 lw 1764 663 m24 6 lw 3 lw 753 983 m20 6 lw 3 lw 1296 535 m24 6 lw 3 lw 752 724 m20 6 lw 3 lw 693 713 m20 6 lw 3 lw 962 444 m24 6 lw 3 lw 1081 499 m24 6 lw 3 lw
 1151 499 m24 6 lw 3 lw 1344 591 m24 6 lw 3 lw 1080 443 m24 6 lw 3 lw 1349 949 m20 6 lw 3 lw 457 701 m20 6 lw 3 lw 1046 709 m24 6 lw 3 lw 794 539 m24 6 lw 3 lw 979 842 m20 6 lw 3 lw 855 698 m24 6 lw 3 lw 1128 577 m24 6 lw 3 lw 922 664 m24 6 lw 3 lw
 1169 1060 m20 6 lw 3 lw 1073 671 m24 6 lw 3 lw 907 775 m20 6 lw 3 lw 666 515 m24 6 lw 3 lw 790 675 m20 6 lw 3 lw 1949 514 m20 6 lw 3 lw 679 463 m24 6 lw 3 lw 1615 572 m20 6 lw 3 lw 921 861 m24 6 lw 3 lw 710 487 m24 6 lw 3 lw 996 912 m20 6 lw 3 lw
 1068 323 m24 6 lw 3 lw 717 569 m20 6 lw 3 lw 872 476 m24 6 lw 3 lw 832 840 m24 6 lw 3 lw 1310 593 m20 6 lw 3 lw 1319 361 m24 6 lw 3 lw 968 577 m20 6 lw 3 lw 1042 498 m24 6 lw 3 lw 1610 603 m20 6 lw 3 lw 1544 752 m20 6 lw 3 lw 999 1097 m20 6 lw 3 lw
 944 467 m24 6 lw 3 lw 926 1323 m20 6 lw 3 lw 1360 493 m24 6 lw 3 lw 1622 714 m20 6 lw 3 lw 909 468 m24 6 lw 3 lw 1373 532 m24 6 lw 3 lw 927 435 m24 6 lw 3 lw 747 453 m24 6 lw 3 lw 1150 563 m24 6 lw 3 lw 885 373 m24 6 lw 3 lw 1182 408 m24 6 lw 3 lw
 1151 733 m24 6 lw 3 lw 1270 406 m24 6 lw 3 lw 960 507 m24 6 lw 3 lw 651 370 m24 6 lw 3 lw 1190 493 m24 6 lw 3 lw 1255 583 m24 6 lw 3 lw 890 400 m24 6 lw 3 lw 1023 607 m24 6 lw 3 lw 1044 506 m24 6 lw 3 lw 756 412 m24 6 lw 3 lw 898 1177 m24 6 lw 3 lw
 464 302 m24 6 lw 3 lw 934 720 m24 6 lw 3 lw 1168 617 m24 6 lw 3 lw 1340 372 m24 6 lw 3 lw 963 393 m24 6 lw 3 lw 1253 312 m24 6 lw 3 lw 1319 686 m20 6 lw 3 lw 823 491 m24 6 lw 3 lw 1172 418 m24 6 lw 3 lw 994 814 m24 6 lw 3 lw 659 370 m24 6 lw 3 lw
 734 429 m24 6 lw 3 lw 803 583 m24 6 lw 3 lw 1308 539 m24 6 lw 3 lw 1411 1019 m24 6 lw 3 lw 1741 373 m24 6 lw 3 lw 1056 520 m24 6 lw 3 lw 1563 474 m24 6 lw 3 lw 764 473 m24 6 lw 3 lw 665 505 m24 6 lw 3 lw 931 789 m20 6 lw 3 lw 955 700 m24 6 lw 3 lw
 1001 672 m24 6 lw 3 lw 1468 462 m24 6 lw 3 lw 967 394 m24 6 lw 3 lw 846 516 m24 6 lw 3 lw 1502 587 m24 6 lw 3 lw 1205 480 m24 6 lw 3 lw 1245 362 m24 6 lw 3 lw 961 628 m24 6 lw 3 lw 1053 737 m24 6 lw 3 lw 655 697 m20 6 lw 3 lw 742 407 m24 6 lw 3 lw
 768 380 m24 6 lw 3 lw 476 1592 m24 6 lw
 gsave  2268 1769 0 0 C 542.516 1557.02 t 0 r /Helvetica findfont 70.5271 sf 0 0 m (|b| > 10) show NC gr  3 lw 476 1503 m20 6 lw
 gsave  2268 1769 0 0 C 542.516 1470.22 t 0 r /Helvetica findfont 70.5271 sf 0 0 m (|b| < 10) show NC gr 
 gr  gr showpage
end
%%EOF
