%!PS-Adobe-2.0 EPSF-2.0
%%BoundingBox:  0 0 567 442
%%Title: 1fhlcounts_vhe.eps: 1fhlcounts_vhe
%%Creator: ROOT Version 5.34/14
%%CreationDate: Mon Mar 17 23:07:08 2014
%%EndComments
%%BeginProlog
80 dict begin
/s {stroke} def /l {lineto} def /m {moveto} def /t {translate} def
/r {rotate} def /rl {roll}  def /R {repeat} def
/d {rlineto} def /rm {rmoveto} def /gr {grestore} def /f {eofill} def
/c {setrgbcolor} def /black {0 setgray} def /sd {setdash} def
/cl {closepath} def /sf {scalefont setfont} def /lw {setlinewidth} def
/box {m dup 0 exch d exch 0 d 0 exch neg d cl} def
/NC{systemdict begin initclip end}def/C{NC box clip newpath}def
/bl {box s} def /bf {box f} def /Y { 0 exch d} def /X { 0 d} def 
/K {{pop pop 0 moveto} exch kshow} bind def
/ita {/ang 15 def gsave [1 0 ang dup sin exch cos div 1 0 0] concat} def 
/mp {newpath /y exch def /x exch def} def
/side {[w .77 mul w .23 mul] .385 w mul sd w 0 l currentpoint t -144 r} def
/mr {mp x y w2 0 360 arc} def /m24 {mr s} def /m20 {mr f} def
/mb {mp x y w2 add m w2 neg 0 d 0 w neg d w 0 d 0 w d cl} def
/mt {mp x y w2 add m w2 neg w neg d w 0 d cl} def
/m21 {mb f} def /m25 {mb s} def /m22 {mt f} def /m26{mt s} def
/m23 {mp x y w2 sub m w2 w d w neg 0 d cl f} def
/m27 {mp x y w2 add m w3 neg w2 neg d w3 w2 neg d w3 w2 d cl s} def
/m28 {mp x w2 sub y w2 sub w3 add m w3 0 d  0 w3 neg d w3 0 d 0 w3 d w3 0 d  0 w3 d w3 neg 0 d 0 w3 d w3 neg 0 d 0 w3 neg d w3 neg 0 d cl s } def
/m29 {mp gsave x w2 sub y w2 add w3 sub m currentpoint t 4 {side} repeat cl fill gr} def
/m30 {mp gsave x w2 sub y w2 add w3 sub m currentpoint t 4 {side} repeat cl s gr} def
/m31 {mp x y w2 sub m 0 w d x w2 sub y m w 0 d x w2 sub y w2 add m w w neg d x w2 sub y w2 sub m w w d s} def
/m32 {mp x y w2 sub m w2 w d w neg 0 d cl s} def
/m33 {mp x y w2 add m w3 neg w2 neg d w3 w2 neg d w3 w2 d cl f} def
/m34 {mp x w2 sub y w2 sub w3 add m w3 0 d  0 w3 neg d w3 0 d 0 w3 d w3 0 d  0 w3 d w3 neg 0 d 0 w3 d w3 neg 0 d 0 w3 neg d w3 neg 0 d cl f } def
/m2 {mp x y w2 sub m 0 w d x w2 sub y m w 0 d s} def
/m5 {mp x w2 sub y w2 sub m w w d x w2 sub y w2 add m w w neg d s} def
/reEncode {exch findfont dup length dict begin {1 index /FID eq  {pop pop} {def} ifelse } forall /Encoding exch def currentdict end dup /FontName get exch definefont pop } def [/Times-Bold /Times-Italic /Times-BoldItalic /Helvetica /Helvetica-Oblique
 /Helvetica-Bold /Helvetica-BoldOblique /Courier /Courier-Oblique /Courier-Bold /Courier-BoldOblique /Times-Roman /AvantGarde-Book /AvantGarde-BookOblique /AvantGarde-Demi /AvantGarde-DemiOblique /Bookman-Demi /Bookman-DemiItalic /Bookman-Light
 /Bookman-LightItalic /Helvetica-Narrow /Helvetica-Narrow-Bold /Helvetica-Narrow-BoldOblique /Helvetica-Narrow-Oblique /NewCenturySchlbk-Roman /NewCenturySchlbk-Bold /NewCenturySchlbk-BoldItalic /NewCenturySchlbk-Italic /Palatino-Bold
 /Palatino-BoldItalic /Palatino-Italic /Palatino-Roman ] {ISOLatin1Encoding reEncode } forall
%%EndProlog
%%BeginSetup
%%EndSetup
newpath  gsave  .25 .25 scale  gsave  0 0 t black[  ] 0 sd 6 lw 1 1 1 c 2268 1769 0 0 bf black 3 lw 1 1 1 c 1894 1486 283 212 bf black 1894 1486 283 212 bl 1 1 1 c 1894 1486 283 212 bf black 1894 1486 283 212 bl 6 lw 283 212 m 1894 X s
 gsave  2268 1769 0 0 C 1676.37 24.4132 t 0 r /Helvetica findfont 78.6648 sf 0 0 m (Spectral index) show NC gr  283 257 m -45 Y s 0.6 0.6 0.6 c[ 12 12] 0 sd 3 lw 283 1698 m -1486 Y s black[  ] 0 sd 6 lw 321 234 m -22 Y s 359 234 m -22 Y s 397 234 m
 -22 Y s 435 234 m -22 Y s 473 257 m -45 Y s 0.6 0.6 0.6 c[ 12 12] 0 sd 3 lw 473 1698 m -1486 Y s black[  ] 0 sd 6 lw 511 234 m -22 Y s 549 234 m -22 Y s 586 234 m -22 Y s 624 234 m -22 Y s 662 257 m -45 Y s 0.6 0.6 0.6 c[ 12 12] 0 sd 3 lw 662 1698 m
 -1486 Y s black[  ] 0 sd 6 lw 700 234 m -22 Y s 738 234 m -22 Y s 776 234 m -22 Y s 814 234 m -22 Y s 852 257 m -45 Y s 0.6 0.6 0.6 c[ 12 12] 0 sd 3 lw 852 1698 m -1486 Y s black[  ] 0 sd 6 lw 889 234 m -22 Y s 927 234 m -22 Y s 965 234 m -22 Y s
 1003 234 m -22 Y s 1041 257 m -45 Y s 0.6 0.6 0.6 c[ 12 12] 0 sd 3 lw 1041 1698 m -1486 Y s black[  ] 0 sd 6 lw 1079 234 m -22 Y s 1117 234 m -22 Y s 1154 234 m -22 Y s 1192 234 m -22 Y s 1230 257 m -45 Y s 0.6 0.6 0.6 c[ 12 12] 0 sd 3 lw 1230 1698
 m -1486 Y s black[  ] 0 sd 6 lw 1268 234 m -22 Y s 1306 234 m -22 Y s 1344 234 m -22 Y s 1382 234 m -22 Y s 1420 257 m -45 Y s 0.6 0.6 0.6 c[ 12 12] 0 sd 3 lw 1420 1698 m -1486 Y s black[  ] 0 sd 6 lw 1457 234 m -22 Y s 1495 234 m -22 Y s 1533 234 m
 -22 Y s 1571 234 m -22 Y s 1609 257 m -45 Y s 0.6 0.6 0.6 c[ 12 12] 0 sd 3 lw 1609 1698 m -1486 Y s black[  ] 0 sd 6 lw 1647 234 m -22 Y s 1685 234 m -22 Y s 1723 234 m -22 Y s 1760 234 m -22 Y s 1798 257 m -45 Y s 0.6 0.6 0.6 c[ 12 12] 0 sd 3 lw
 1798 1698 m -1486 Y s black[  ] 0 sd 6 lw 1836 234 m -22 Y s 1874 234 m -22 Y s 1912 234 m -22 Y s 1950 234 m -22 Y s 1988 257 m -45 Y s 0.6 0.6 0.6 c[ 12 12] 0 sd 3 lw 1988 1698 m -1486 Y s black[  ] 0 sd 6 lw 2026 234 m -22 Y s 2063 234 m -22 Y s
 2101 234 m -22 Y s 2139 234 m -22 Y s 2177 257 m -45 Y s 0.6 0.6 0.6 c[ 12 12] 0 sd 3 lw 2177 1698 m -1486 Y s black
 gsave  2268 1769 0 0 C 233.282 143.767 t 0 r /Helvetica findfont 70.5271 sf 0 0 m (0.5) show NC gr 
 gsave  2268 1769 0 0 C 458.426 143.767 t 0 r /Helvetica findfont 70.5271 sf 0 0 m (1) show NC gr 
 gsave  2268 1769 0 0 C 613.043 143.767 t 0 r /Helvetica findfont 70.5271 sf 0 0 m (1.5) show NC gr 
 gsave  2268 1769 0 0 C 830.049 143.767 t 0 r /Helvetica findfont 70.5271 sf 0 0 m (2) show NC gr 
 gsave  2268 1769 0 0 C 990.092 143.767 t 0 r /Helvetica findfont 70.5271 sf 0 0 m (2.5) show NC gr 
 gsave  2268 1769 0 0 C 1209.81 143.767 t 0 r /Helvetica findfont 70.5271 sf 0 0 m (3) show NC gr 
 gsave  2268 1769 0 0 C 1369.85 143.767 t 0 r /Helvetica findfont 70.5271 sf 0 0 m (3.5) show NC gr 
 gsave  2268 1769 0 0 C 1589.57 143.767 t 0 r /Helvetica findfont 70.5271 sf 0 0 m (4) show NC gr 
 gsave  2268 1769 0 0 C 1746.9 143.767 t 0 r /Helvetica findfont 70.5271 sf 0 0 m (4.5) show NC gr 
 gsave  2268 1769 0 0 C 1966.62 143.767 t 0 r /Helvetica findfont 70.5271 sf 0 0 m (5) show NC gr 
 gsave  2268 1769 0 0 C 2126.66 143.767 t 0 r /Helvetica findfont 70.5271 sf 0 0 m (5.5) show NC gr [  ] 0 sd 6 lw 283 1698 m 1894 X s 283 1654 m 44 Y s 321 1676 m 22 Y s 359 1676 m 22 Y s 397 1676 m 22 Y s 435 1676 m 22 Y s 473 1654 m 44 Y s 511
 1676 m 22 Y s 549 1676 m 22 Y s 586 1676 m 22 Y s 624 1676 m 22 Y s 662 1654 m 44 Y s 700 1676 m 22 Y s 738 1676 m 22 Y s 776 1676 m 22 Y s 814 1676 m 22 Y s 852 1654 m 44 Y s 889 1676 m 22 Y s 927 1676 m 22 Y s 965 1676 m 22 Y s 1003 1676 m 22 Y s
 1041 1654 m 44 Y s 1079 1676 m 22 Y s 1117 1676 m 22 Y s 1154 1676 m 22 Y s 1192 1676 m 22 Y s 1230 1654 m 44 Y s 1268 1676 m 22 Y s 1306 1676 m 22 Y s 1344 1676 m 22 Y s 1382 1676 m 22 Y s 1420 1654 m 44 Y s 1457 1676 m 22 Y s 1495 1676 m 22 Y s
 1533 1676 m 22 Y s 1571 1676 m 22 Y s 1609 1654 m 44 Y s 1647 1676 m 22 Y s 1685 1676 m 22 Y s 1723 1676 m 22 Y s 1760 1676 m 22 Y s 1798 1654 m 44 Y s 1836 1676 m 22 Y s 1874 1676 m 22 Y s 1912 1676 m 22 Y s 1950 1676 m 22 Y s 1988 1654 m 44 Y s
 2026 1676 m 22 Y s 2063 1676 m 22 Y s 2101 1676 m 22 Y s 2139 1676 m 22 Y s 2177 1654 m 44 Y s 283 212 m 1486 Y s
 gsave  2268 1769 0 0 C 92.2277 1679.09 t 90 r /Helvetica findfont 78.6648 sf 0 0 m (]) show NC gr 
 gsave  2268 1769 0 0 C 65.1019 1643.82 t 90 r /Helvetica findfont 51.539 sf 0 0 m (\2551) show NC gr 
 gsave  2268 1769 0 0 C 92.2277 1470.22 t 90 r /Helvetica findfont 78.6648 sf 0 0 m ( year) show NC gr 
 gsave  2268 1769 0 0 C 54.2516 1424.1 t 90 r /Helvetica findfont 51.539 sf 0 0 m (\2552) show NC gr 
 gsave  2268 1769 0 0 C 92.2277 512.678 t 90 r /Helvetica findfont 78.6648 sf 0 0 m (Integral flux > 100 GeV [m) show NC gr  341 214 m -58 X s 0.6 0.6 0.6 c[ 12 12] 0 sd 3 lw 2177 214 m -1894 X s black
 gsave  2268 1769 0 0 C 230.569 211.581 t 0 r /Helvetica findfont 46.1139 sf 0 0 m (\2551) show NC gr 
 gsave  2268 1769 0 0 C 154.617 181.743 t 0 r /Helvetica findfont 70.5271 sf 0 0 m (10) show NC gr [  ] 0 sd 6 lw 312 326 m -29 X s 312 391 m -29 X s 312 437 m -29 X s 312 473 m -29 X s 312 503 m -29 X s 312 527 m -29 X s 312 549 m -29 X s 312 568 m
 -29 X s 341 585 m -58 X s 0.6 0.6 0.6 c[ 12 12] 0 sd 3 lw 2177 585 m -1894 X s black
 gsave  2268 1769 0 0 C 264.363 555.558 t 0 r  -38 0 t /Helvetica findfont 67.8145 sf 0 0 m (1) show NC gr [  ] 0 sd 6 lw 312 697 m -29 X s 312 762 m -29 X s 312 808 m -29 X s 312 844 m -29 X s 312 874 m -29 X s 312 898 m -29 X s 312 920 m -29 X s
 312 939 m -29 X s 341 956 m -58 X s 0.6 0.6 0.6 c[ 12 12] 0 sd 3 lw 2177 956 m -1894 X s black
 gsave  2268 1769 0 0 C 264.363 926.559 t 0 r  -75 0 t /Helvetica findfont 67.8145 sf 0 0 m (10) show NC gr [  ] 0 sd 6 lw 312 1068 m -29 X s 312 1133 m -29 X s 312 1179 m -29 X s 312 1215 m -29 X s 312 1245 m -29 X s 312 1269 m -29 X s 312 1291 m
 -29 X s 312 1310 m -29 X s 341 1327 m -58 X s 0.6 0.6 0.6 c[ 12 12] 0 sd 3 lw 2177 1327 m -1894 X s black
 gsave  2268 1769 0 0 C 238.707 1326.45 t 0 r /Helvetica findfont 46.1139 sf 0 0 m (2) show NC gr 
 gsave  2268 1769 0 0 C 162.755 1296.61 t 0 r /Helvetica findfont 70.5271 sf 0 0 m (10) show NC gr [  ] 0 sd 6 lw 312 1439 m -29 X s 312 1504 m -29 X s 312 1550 m -29 X s 312 1586 m -29 X s 312 1616 m -29 X s 312 1640 m -29 X s 312 1662 m -29 X s 312
 1681 m -29 X s 341 1698 m -58 X s 0.6 0.6 0.6 c[ 12 12] 0 sd 3 lw 2177 1698 m -1894 X s black
 gsave  2268 1769 0 0 C 238.707 1698.07 t 0 r /Helvetica findfont 46.1139 sf 0 0 m (3) show NC gr 
 gsave  2268 1769 0 0 C 162.755 1665.52 t 0 r /Helvetica findfont 70.5271 sf 0 0 m (10) show NC gr [  ] 0 sd 6 lw 2177 212 m 1486 Y s 2120 214 m 57 X s 2148 326 m 29 X s 2148 391 m 29 X s 2148 437 m 29 X s 2148 473 m 29 X s 2148 503 m 29 X s 2148 527
 m 29 X s 2148 549 m 29 X s 2148 568 m 29 X s 2120 585 m 57 X s 2148 697 m 29 X s 2148 762 m 29 X s 2148 808 m 29 X s 2148 844 m 29 X s 2148 874 m 29 X s 2148 898 m 29 X s 2148 920 m 29 X s 2148 939 m 29 X s 2120 956 m 57 X s 2148 1068 m 29 X s 2148
 1133 m 29 X s 2148 1179 m 29 X s 2148 1215 m 29 X s 2148 1245 m 29 X s 2148 1269 m 29 X s 2148 1291 m 29 X s 2148 1310 m 29 X s 2120 1327 m 57 X s 2148 1439 m 29 X s 2148 1504 m 29 X s 2148 1550 m 29 X s 2148 1586 m 29 X s 2148 1616 m 29 X s 2148
 1640 m 29 X s 2148 1662 m 29 X s 2148 1681 m 29 X s 2120 1698 m 57 X s 3 lw /w 22 def /w2 {w 2 div} def /w3 {w 3 div} def 1505 750 m24 6 lw 3 lw 824 924 m24 6 lw 3 lw 752 1023 m20 6 lw 3 lw 625 905 m24 6 lw 3 lw 952 794 m24 6 lw 3 lw 894 799 m24 6
 lw 3 lw 720 812 m24 6 lw 3 lw 1098 770 m20 6 lw 3 lw 582 804 m24 6 lw 3 lw 810 859 m20 6 lw 3 lw 1040 782 m24 6 lw 3 lw 883 750 m20 6 lw 3 lw 972 896 m24 6 lw 3 lw 871 758 m20 6 lw 3 lw 1090 795 m24 6 lw 3 lw 765 910 m24 6 lw 3 lw 1078 734 m24 6 lw
 3 lw 716 763 m20 6 lw 3 lw 740 792 m24 6 lw 3 lw 739 905 m24 6 lw 3 lw 819 818 m24 6 lw 3 lw 926 1079 m24 6 lw 3 lw 521 808 m24 6 lw 3 lw 1091 1005 m20 6 lw 3 lw 758 789 m24 6 lw 3 lw 683 818 m24 6 lw 3 lw 857 811 m24 6 lw 3 lw 704 833 m24 6 lw 3 lw
 589 909 m24 6 lw 3 lw 876 808 m24 6 lw 3 lw 1106 776 m24 6 lw 3 lw 835 805 m24 6 lw 3 lw 777 814 m24 6 lw 3 lw 1175 794 m24 6 lw 3 lw 486 1013 m20 6 lw 3 lw 959 752 m24 6 lw 3 lw 849 819 m24 6 lw 3 lw 877 1018 m24 6 lw 3 lw 713 1163 m24 6 lw 3 lw
 970 815 m24 6 lw 3 lw 840 784 m24 6 lw 3 lw 842 1096 m20 6 lw 3 lw 923 891 m24 6 lw 3 lw 801 721 m24 6 lw 3 lw 975 1358 m20 6 lw 3 lw 885 802 m24 6 lw 3 lw 886 897 m24 6 lw 3 lw 747 805 m24 6 lw 3 lw 617 794 m20 6 lw 3 lw 917 834 m24 6 lw 3 lw 1063
 1167 m20 6 lw 3 lw 785 800 m24 6 lw 3 lw 946 815 m20 6 lw 3 lw 746 778 m24 6 lw 3 lw 749 926 m20 6 lw 3 lw 910 809 m20 6 lw 3 lw 684 1047 m24 6 lw 3 lw 789 758 m24 6 lw 3 lw 1038 814 m24 6 lw 3 lw 974 746 m24 6 lw 3 lw 1169 787 m24 6 lw 3 lw 835 820
 m24 6 lw 3 lw 925 721 m24 6 lw 3 lw 1344 773 m24 6 lw 3 lw 905 769 m24 6 lw 3 lw 873 822 m24 6 lw 3 lw 905 840 m20 6 lw 3 lw 711 599 m24 6 lw 3 lw 1120 916 m20 6 lw 3 lw 1790 685 m20 6 lw 3 lw 905 784 m20 6 lw 3 lw 763 1169 m20 6 lw 3 lw 953 814 m24
 6 lw 3 lw 813 809 m24 6 lw 3 lw 700 970 m24 6 lw 3 lw 850 805 m24 6 lw 3 lw 1240 767 m24 6 lw 3 lw 873 829 m24 6 lw 3 lw 1015 760 m24 6 lw 3 lw 958 999 m24 6 lw 3 lw 1179 720 m24 6 lw 3 lw 968 806 m20 6 lw 3 lw 788 942 m20 6 lw 3 lw 786 815 m24 6 lw
 3 lw 718 778 m24 6 lw 3 lw 764 959 m20 6 lw 3 lw 762 535 m24 6 lw 3 lw 857 918 m24 6 lw 3 lw 818 1383 m24 6 lw 3 lw 1695 710 m20 6 lw 3 lw 828 947 m24 6 lw 3 lw 1047 776 m24 6 lw 3 lw 1217 810 m24 6 lw 3 lw 872 779 m24 6 lw 3 lw 1019 818 m24 6 lw 3
 lw 739 925 m24 6 lw 3 lw 709 810 m24 6 lw 3 lw 931 887 m24 6 lw 3 lw 894 907 m24 6 lw 3 lw 815 1027 m24 6 lw 3 lw 572 820 m24 6 lw 3 lw 998 932 m24 6 lw 3 lw 570 824 m24 6 lw 3 lw 927 782 m20 6 lw 3 lw 987 756 m24 6 lw 3 lw 1100 789 m24 6 lw 3 lw
 818 751 m24 6 lw 3 lw 982 431 m24 6 lw 3 lw 844 707 m24 6 lw 3 lw 858 787 m24 6 lw 3 lw 381 928 m24 6 lw 3 lw 1009 854 m24 6 lw 3 lw 775 833 m24 6 lw 3 lw 907 881 m20 6 lw 3 lw 1222 903 m20 6 lw 3 lw 670 1091 m20 6 lw 3 lw 953 980 m24 6 lw 3 lw 725
 778 m24 6 lw 3 lw 772 789 m24 6 lw 3 lw 1050 769 m24 6 lw 3 lw 1008 814 m24 6 lw 3 lw 835 787 m20 6 lw 3 lw 982 724 m24 6 lw 3 lw 778 1055 m20 6 lw 3 lw 787 833 m24 6 lw 3 lw 963 939 m20 6 lw 3 lw 847 1208 m24 6 lw 3 lw 836 1084 m20 6 lw 3 lw 805
 1178 m20 6 lw 3 lw 874 1085 m20 6 lw 3 lw 1086 887 m20 6 lw 3 lw 938 765 m24 6 lw 3 lw 853 1224 m20 6 lw 3 lw 799 868 m20 6 lw 3 lw 800 1158 m24 6 lw 3 lw 794 1072 m20 6 lw 3 lw 855 836 m20 6 lw 3 lw 942 886 m24 6 lw 3 lw 1170 726 m24 6 lw 3 lw 995
 823 m24 6 lw 3 lw 903 809 m24 6 lw 3 lw 916 376 m24 6 lw 3 lw 1142 1020 m20 6 lw 3 lw 941 1062 m20 6 lw 3 lw 931 741 m24 6 lw 3 lw 818 833 m20 6 lw 3 lw 779 1282 m20 6 lw 3 lw 746 974 m20 6 lw 3 lw 972 818 m20 6 lw 3 lw 977 817 m20 6 lw 3 lw 753
 1185 m20 6 lw 3 lw 752 1068 m20 6 lw 3 lw 693 1064 m20 6 lw 3 lw 1349 872 m20 6 lw 3 lw 457 1209 m20 6 lw 3 lw 979 845 m20 6 lw 3 lw 855 409 m24 6 lw 3 lw 922 914 m24 6 lw 3 lw 1169 694 m20 6 lw 3 lw 907 542 m20 6 lw 3 lw 666 907 m24 6 lw 3 lw 790
 901 m20 6 lw 3 lw 679 887 m24 6 lw 3 lw 921 997 m24 6 lw 3 lw 710 929 m24 6 lw 3 lw 996 894 m20 6 lw 3 lw 717 781 m20 6 lw 3 lw 872 854 m24 6 lw 3 lw 832 1054 m24 6 lw 3 lw 968 780 m20 6 lw 3 lw 1544 801 m20 6 lw 3 lw 999 1100 m20 6 lw 3 lw 926 1262
 m20 6 lw 3 lw 747 808 m24 6 lw 3 lw 1044 781 m24 6 lw 3 lw 756 816 m24 6 lw 3 lw 898 1234 m24 6 lw 3 lw 464 811 m24 6 lw 3 lw 659 792 m24 6 lw 3 lw 803 791 m24 6 lw 3 lw 764 816 m24 6 lw 3 lw 665 975 m24 6 lw 3 lw 931 924 m20 6 lw 3 lw 955 779 m24 6
 lw 3 lw 1001 970 m24 6 lw 3 lw 655 1098 m20 6 lw 3 lw 768 804 m24 6 lw 3 lw 476 1592 m24 6 lw
 gsave  2268 1769 0 0 C 542.516 1557.02 t 0 r /Helvetica findfont 70.5271 sf 0 0 m (|b| > 10) show NC gr  3 lw 476 1503 m20 6 lw
 gsave  2268 1769 0 0 C 542.516 1470.22 t 0 r /Helvetica findfont 70.5271 sf 0 0 m (|b| < 10) show NC gr 
 gr  gr showpage
end
%%EOF
