%!PS-Adobe-2.0 EPSF-2.0
%%BoundingBox:  0 0 567 444
%%Title: ams02_mdr.eps: ams02_mdr
%%Creator: ROOT Version 5.34/14
%%CreationDate: Fri Jul 18 14:42:03 2014
%%EndComments
%%BeginProlog
80 dict begin
/s {stroke} def /l {lineto} def /m {moveto} def /t {translate} def
/r {rotate} def /rl {roll}  def /R {repeat} def
/d {rlineto} def /rm {rmoveto} def /gr {grestore} def /f {eofill} def
/c {setrgbcolor} def /black {0 setgray} def /sd {setdash} def
/cl {closepath} def /sf {scalefont setfont} def /lw {setlinewidth} def
/box {m dup 0 exch d exch 0 d 0 exch neg d cl} def
/NC{systemdict begin initclip end}def/C{NC box clip newpath}def
/bl {box s} def /bf {box f} def /Y { 0 exch d} def /X { 0 d} def 
/K {{pop pop 0 moveto} exch kshow} bind def
/ita {/ang 15 def gsave [1 0 ang dup sin exch cos div 1 0 0] concat} def 
/mp {newpath /y exch def /x exch def} def
/side {[w .77 mul w .23 mul] .385 w mul sd w 0 l currentpoint t -144 r} def
/mr {mp x y w2 0 360 arc} def /m24 {mr s} def /m20 {mr f} def
/mb {mp x y w2 add m w2 neg 0 d 0 w neg d w 0 d 0 w d cl} def
/mt {mp x y w2 add m w2 neg w neg d w 0 d cl} def
/m21 {mb f} def /m25 {mb s} def /m22 {mt f} def /m26{mt s} def
/m23 {mp x y w2 sub m w2 w d w neg 0 d cl f} def
/m27 {mp x y w2 add m w3 neg w2 neg d w3 w2 neg d w3 w2 d cl s} def
/m28 {mp x w2 sub y w2 sub w3 add m w3 0 d  0 w3 neg d w3 0 d 0 w3 d w3 0 d  0 w3 d w3 neg 0 d 0 w3 d w3 neg 0 d 0 w3 neg d w3 neg 0 d cl s } def
/m29 {mp gsave x w2 sub y w2 add w3 sub m currentpoint t 4 {side} repeat cl fill gr} def
/m30 {mp gsave x w2 sub y w2 add w3 sub m currentpoint t 4 {side} repeat cl s gr} def
/m31 {mp x y w2 sub m 0 w d x w2 sub y m w 0 d x w2 sub y w2 add m w w neg d x w2 sub y w2 sub m w w d s} def
/m32 {mp x y w2 sub m w2 w d w neg 0 d cl s} def
/m33 {mp x y w2 add m w3 neg w2 neg d w3 w2 neg d w3 w2 d cl f} def
/m34 {mp x w2 sub y w2 sub w3 add m w3 0 d  0 w3 neg d w3 0 d 0 w3 d w3 0 d  0 w3 d w3 neg 0 d 0 w3 d w3 neg 0 d 0 w3 neg d w3 neg 0 d cl f } def
/m2 {mp x y w2 sub m 0 w d x w2 sub y m w 0 d s} def
/m5 {mp x w2 sub y w2 sub m w w d x w2 sub y w2 add m w w neg d s} def
/reEncode {exch findfont dup length dict begin {1 index /FID eq  {pop pop} {def} ifelse } forall /Encoding exch def currentdict end dup /FontName get exch definefont pop } def [/Times-Bold /Times-Italic /Times-BoldItalic /Helvetica /Helvetica-Oblique
 /Helvetica-Bold /Helvetica-BoldOblique /Courier /Courier-Oblique /Courier-Bold /Courier-BoldOblique /Times-Roman /AvantGarde-Book /AvantGarde-BookOblique /AvantGarde-Demi /AvantGarde-DemiOblique /Bookman-Demi /Bookman-DemiItalic /Bookman-Light
 /Bookman-LightItalic /Helvetica-Narrow /Helvetica-Narrow-Bold /Helvetica-Narrow-BoldOblique /Helvetica-Narrow-Oblique /NewCenturySchlbk-Roman /NewCenturySchlbk-Bold /NewCenturySchlbk-BoldItalic /NewCenturySchlbk-Italic /Palatino-Bold
 /Palatino-BoldItalic /Palatino-Italic /Palatino-Roman ] {ISOLatin1Encoding reEncode } forall
%%EndProlog
%%BeginSetup
%%EndSetup
newpath  gsave  .25 .25 scale  gsave  0 0 t black[  ] 0 sd 6 lw 1 1 1 c 2268 1774 0 0 bf black 3 lw 1 1 1 c 1894 1487 283 216 bf black 1894 1487 283 216 bl 1 1 1 c 1894 1487 283 216 bf black 1894 1487 283 216 bl 6 lw 283 216 m 1894 X s 0.6 0.6 0.6 c[
 12 12] 0 sd 3 lw 283 1703 m -1487 Y s 319 1703 m -1487 Y s 349 1703 m -1487 Y s 375 1703 m -1487 Y s 398 1703 m -1487 Y s 419 1703 m -1487 Y s 555 1703 m -1487 Y s 634 1703 m -1487 Y s 690 1703 m -1487 Y s 734 1703 m -1487 Y s 770 1703 m -1487 Y s
 800 1703 m -1487 Y s 826 1703 m -1487 Y s 849 1703 m -1487 Y s 869 1703 m -1487 Y s 1005 1703 m -1487 Y s 1084 1703 m -1487 Y s 1141 1703 m -1487 Y s 1184 1703 m -1487 Y s 1220 1703 m -1487 Y s 1250 1703 m -1487 Y s 1276 1703 m -1487 Y s 1299 1703 m
 -1487 Y s 1320 1703 m -1487 Y s 1455 1703 m -1487 Y s 1535 1703 m -1487 Y s 1591 1703 m -1487 Y s 1635 1703 m -1487 Y s 1670 1703 m -1487 Y s 1700 1703 m -1487 Y s 1727 1703 m -1487 Y s 1750 1703 m -1487 Y s 1770 1703 m -1487 Y s 1906 1703 m -1487 Y
 s 1985 1703 m -1487 Y s 2041 1703 m -1487 Y s 2085 1703 m -1487 Y s 2121 1703 m -1487 Y s 2151 1703 m -1487 Y s 2177 1703 m -1487 Y s black[  ] 0 sd 6 lw 283 1703 m 1894 X s 283 216 m 1487 Y s 0.6 0.6 0.6 c[ 12 12] 0 sd 3 lw 2177 216 m -1894 X s
 2177 415 m -1894 X s 2177 613 m -1894 X s 2177 811 m -1894 X s 2177 1009 m -1894 X s 2177 1208 m -1894 X s 2177 1406 m -1894 X s 2177 1604 m -1894 X s 2177 1604 m -1894 X s black[  ] 0 sd 6 lw 2177 216 m 1487 Y s 1 1 1 c black 283 216 m 1894 X s 283
 216 m 1894 X s
 gsave  2268 1774 0 0 C 1741.48 27.1258 t 0 r /Helvetica findfont 78.6648 sf 0 0 m (Rigidity [GV]) show NC gr  283 239 m -23 Y s 319 239 m -23 Y s 349 239 m -23 Y s 375 239 m -23 Y s 398 239 m -23 Y s 419 261 m -45 Y s
 gsave  2268 1774 0 0 C 419.049 120.528 t 0 r  -19 0 t /Helvetica findfont 67.8145 sf 0 0 m (1) show NC gr  555 239 m -23 Y s 634 239 m -23 Y s 690 239 m -23 Y s 734 239 m -23 Y s 770 239 m -23 Y s 800 239 m -23 Y s 826 239 m -23 Y s 849 239 m -23 Y
 s 869 261 m -45 Y s
 gsave  2268 1774 0 0 C 869.451 120.528 t 0 r  -37 0 t /Helvetica findfont 67.8145 sf 0 0 m (10) show NC gr  1005 239 m -23 Y s 1084 239 m -23 Y s 1141 239 m -23 Y s 1184 239 m -23 Y s 1220 239 m -23 Y s 1250 239 m -23 Y s 1276 239 m -23 Y s 1299 239
 m -23 Y s 1320 261 m -45 Y s
 gsave  2268 1774 0 0 C 1342.73 154.617 t 0 r /Helvetica findfont 46.1139 sf 0 0 m (2) show NC gr 
 gsave  2268 1774 0 0 C 1266.77 122.066 t 0 r /Helvetica findfont 70.5271 sf 0 0 m (10) show NC gr  1455 239 m -23 Y s 1535 239 m -23 Y s 1591 239 m -23 Y s 1635 239 m -23 Y s 1670 239 m -23 Y s 1700 239 m -23 Y s 1727 239 m -23 Y s 1750 239 m -23 Y
 s 1770 261 m -45 Y s
 gsave  2268 1774 0 0 C 1793.02 157.33 t 0 r /Helvetica findfont 46.1139 sf 0 0 m (3) show NC gr 
 gsave  2268 1774 0 0 C 1717.06 122.066 t 0 r /Helvetica findfont 70.5271 sf 0 0 m (10) show NC gr  1906 239 m -23 Y s 1985 239 m -23 Y s 2041 239 m -23 Y s 2085 239 m -23 Y s 2121 239 m -23 Y s 2151 239 m -23 Y s 2177 239 m -23 Y s 283 1703 m 1894 X
 s 283 1681 m 22 Y s 319 1681 m 22 Y s 349 1681 m 22 Y s 375 1681 m 22 Y s 398 1681 m 22 Y s 419 1659 m 44 Y s 555 1681 m 22 Y s 634 1681 m 22 Y s 690 1681 m 22 Y s 734 1681 m 22 Y s 770 1681 m 22 Y s 800 1681 m 22 Y s 826 1681 m 22 Y s 849 1681 m 22
 Y s 869 1659 m 44 Y s 1005 1681 m 22 Y s 1084 1681 m 22 Y s 1141 1681 m 22 Y s 1184 1681 m 22 Y s 1220 1681 m 22 Y s 1250 1681 m 22 Y s 1276 1681 m 22 Y s 1299 1681 m 22 Y s 1320 1659 m 44 Y s 1455 1681 m 22 Y s 1535 1681 m 22 Y s 1591 1681 m 22 Y s
 1635 1681 m 22 Y s 1670 1681 m 22 Y s 1700 1681 m 22 Y s 1727 1681 m 22 Y s 1750 1681 m 22 Y s 1770 1659 m 44 Y s 1906 1681 m 22 Y s 1985 1681 m 22 Y s 2041 1681 m 22 Y s 2085 1681 m 22 Y s 2121 1681 m 22 Y s 2151 1681 m 22 Y s 2177 1681 m 22 Y s
 283 216 m 1487 Y s
 gsave  2268 1774 0 0 C 81.3774 1624.84 t 90 r /Helvetica findfont 78.6648 sf 0 0 m (/R) show NC gr 
 gsave  2268 1774 0 0 C 105.791 1589.57 t 90 r /Helvetica findfont 51.539 sf 0 0 m (R) show NC gr 
 gsave  2268 1774 0 0 C 81.3774 1540.75 t 90 r /Symbol findfont 78.6648 sf 0 0 m (s) show NC gr 
 gsave  2268 1774 0 0 C 81.3774 897.864 t 90 r /Helvetica findfont 78.6648 sf 0 0 m (Rigidity resolution ) show NC gr  340 216 m -57 X s 312 266 m -29 X s 312 316 m -29 X s 312 365 m -29 X s 340 415 m -57 X s 312 464 m -29 X s 312 514 m -29 X s 312
 563 m -29 X s 340 613 m -57 X s 312 662 m -29 X s 312 712 m -29 X s 312 762 m -29 X s 340 811 m -57 X s 312 861 m -29 X s 312 910 m -29 X s 312 960 m -29 X s 340 1009 m -57 X s 312 1059 m -29 X s 312 1108 m -29 X s 312 1158 m -29 X s 340 1208 m -57
 X s 312 1257 m -29 X s 312 1307 m -29 X s 312 1356 m -29 X s 340 1406 m -57 X s 312 1455 m -29 X s 312 1505 m -29 X s 312 1554 m -29 X s 340 1604 m -57 X s 340 1604 m -57 X s 312 1654 m -29 X s
 gsave  2268 1774 0 0 C 233.282 189.881 t 0 r /Helvetica findfont 70.5271 sf 0 0 m (0) show NC gr 
 gsave  2268 1774 0 0 C 176.318 387.899 t 0 r /Helvetica findfont 70.5271 sf 0 0 m (0.2) show NC gr 
 gsave  2268 1774 0 0 C 173.605 585.917 t 0 r /Helvetica findfont 70.5271 sf 0 0 m (0.4) show NC gr 
 gsave  2268 1774 0 0 C 173.605 786.648 t 0 r /Helvetica findfont 70.5271 sf 0 0 m (0.6) show NC gr 
 gsave  2268 1774 0 0 C 173.605 984.666 t 0 r /Helvetica findfont 70.5271 sf 0 0 m (0.8) show NC gr 
 gsave  2268 1774 0 0 C 244.132 1182.68 t 0 r /Helvetica findfont 70.5271 sf 0 0 m (1) show NC gr 
 gsave  2268 1774 0 0 C 176.318 1380.7 t 0 r /Helvetica findfont 70.5271 sf 0 0 m (1.2) show NC gr 
 gsave  2268 1774 0 0 C 173.605 1578.72 t 0 r /Helvetica findfont 70.5271 sf 0 0 m (1.4) show NC gr  2177 216 m 1487 Y s 2120 216 m 57 X s 2149 266 m 28 X s 2149 316 m 28 X s 2149 365 m 28 X s 2120 415 m 57 X s 2149 464 m 28 X s 2149 514 m 28 X s
 2149 563 m 28 X s 2120 613 m 57 X s 2149 662 m 28 X s 2149 712 m 28 X s 2149 762 m 28 X s 2120 811 m 57 X s 2149 861 m 28 X s 2149 910 m 28 X s 2149 960 m 28 X s 2120 1009 m 57 X s 2149 1059 m 28 X s 2149 1108 m 28 X s 2149 1158 m 28 X s 2120 1208 m
 57 X s 2149 1257 m 28 X s 2149 1307 m 28 X s 2149 1356 m 28 X s 2120 1406 m 57 X s 2149 1455 m 28 X s 2149 1505 m 28 X s 2149 1554 m 28 X s 2120 1604 m 57 X s 2120 1604 m 57 X s 2149 1654 m 28 X s 1 1 1 c black 3 lw /w 26 def /w2 {w 2 div} def /w3
 {w 3 div} def 352 421 397 372 444 354 491 340 534 330 577 328 624 323 669 326 714 328 758 326 803 330 848 337 891 347 938 356 983 370 1026 384 1075 414 1121 437 1166 470 1209 514 1256 572 1303 635 1345 714 1394 807 1437 930 1480 1095 1530 1204 1571
 1539 28 { m24} R 6 lw 1 1 1 c black 3 lw 350 382 395 358 442 323 489 326 528 309 579 309 622 323 669 305 712 309 753 307 799 314 850 312 895 319 938 321 983 323 1032 330 1075 340 1118 344 1164 347 1213 351 1256 363 1299 368 1344 374 1389 379 1434
 393 1479 409 1527 449 1574 479 1615 544 1662 584 1705 644 1748 700 1794 867 1839 988 1886 1058 1932 1262 1979 1623 37 { m20} R 6 lw 0.95 0.95 0.95 c black 284 346 m 2 -1 d 2 -1 d 2 X 2 -1 d 2 -1 d 2 -1 d 2 -1 d 2 -1 d 1 -1 d 2 -1 d 2 -1 d 2 X 2 -1 d
 2 -1 d 2 -1 d 2 -1 d 2 -1 d 1 X 2 -1 d 2 -1 d 2 -1 d 2 X 2 -1 d 2 -1 d 2 -1 d 2 X 2 -1 d 1 -1 d 2 X 2 -1 d 2 -1 d 2 X 2 -1 d 2 -1 d 2 X 2 -1 d 1 -1 d 2 X 2 -1 d 2 X 2 -1 d 2 -1 d 2 X 2 -1 d 2 X 2 -1 d 1 X 2 -1 d 2 X s 377 311 m 2 -1 d 2 X 2 -1 d 2 X
 2 -1 d 2 X 1 -1 d 2 X 2 -1 d 2 X 2 -1 d 2 X 2 -1 d 2 X 2 -1 d 3 X 2 -1 d 2 X 2 -1 d 4 X 2 -1 d 4 X 1 -1 d 2 X 2 -1 d 4 X 2 -1 d 4 X 2 -1 d 5 X 2 -1 d 4 X 2 -1 d 6 X 1 -1 d 6 X 2 -1 d s 470 292 m 6 X 2 -1 d 5 X 2 -1 d 8 X 2 -1 d 7 X 2 -1 d 8 X 2 -1 d
 11 X 2 -1 d 11 X 2 -1 d 13 X 2 -1 d 8 X s 563 284 m 7 X 2 -1 d 21 X 2 -1 d 28 X 2 -1 d 31 X s 656 281 m 26 X 2 -1 d 62 X 2 1 d s 748 281 m 55 X 2 1 d 30 X 2 1 d 4 X s 841 283 m 17 X 2 1 d 15 X 2 1 d 13 X 2 1 d 12 X 1 1 d 12 X 2 1 d 7 X 2 1 d 6 X s
 934 289 m 2 X 2 1 d 7 X 2 1 d 6 X 2 1 d 5 X 2 1 d 6 X 2 1 d 6 X 1 1 d 4 X 2 1 d 4 X 2 1 d 5 X 2 1 d 4 X 2 1 d 2 X 2 1 d 4 X 2 1 d 3 X 2 1 d 2 X 2 1 d 4 X 2 1 d s 1027 304 m 2 X 1 1 d 2 X 2 1 d 2 X 2 1 d 2 X 2 1 d 2 X 2 1 d 2 X 1 1 d 2 X 2 1 d 2 X 2
 1 d 2 X 2 1 d 2 X 2 1 d 1 X 2 1 d 2 1 d 2 X 2 1 d 2 X 2 1 d 2 1 d 2 X 1 1 d 2 1 d 2 X 2 1 d 2 1 d 2 X 2 1 d 2 1 d 2 X 2 1 d 1 1 d 2 1 d 2 X 2 1 d 2 1 d 2 1 d 2 X 2 1 d 2 1 d 1 1 d s 1119 334 m 2 1 d 2 1 d 2 X 2 1 d 2 1 d 2 1 d 2 1 d 2 1 d 2 1 d 1 1
 d 2 1 d 2 1 d 2 X 2 1 d 2 1 d 2 1 d 2 1 d 2 1 d 1 2 d 2 1 d 2 1 d 2 1 d 2 1 d 2 1 d 2 1 d 2 1 d 2 1 d 1 1 d 2 2 d 2 1 d 2 1 d 2 1 d 2 1 d 2 1 d 2 2 d 2 1 d 2 1 d 1 2 d 2 1 d 2 1 d 2 1 d 2 2 d 2 1 d 2 2 d 2 1 d 2 1 d 1 2 d 2 1 d 2 2 d s 1212 389 m 2
 1 d 2 2 d 2 1 d 2 2 d 2 1 d 2 2 d 2 1 d 1 2 d 2 1 d 2 2 d 2 2 d 2 1 d 2 2 d 2 2 d 2 1 d 2 2 d 1 2 d 2 2 d 2 1 d 2 2 d 2 2 d 2 2 d 2 2 d 2 1 d 2 2 d 1 2 d 2 2 d 2 2 d 2 2 d 2 2 d 2 2 d 2 2 d 2 2 d 2 2 d 2 2 d 1 2 d 2 3 d 2 2 d 2 2 d 2 2 d 2 2 d 2 3 d
 2 2 d 2 2 d 1 3 d 2 2 d 2 2 d 2 3 d 2 2 d s 1305 482 m 2 3 d 2 2 d 2 3 d 2 2 d 2 3 d 1 2 d 2 3 d 2 2 d 2 3 d 2 3 d 2 2 d 2 3 d 2 3 d 2 3 d 1 3 d 2 2 d 2 3 d 2 3 d 2 3 d 2 3 d 2 3 d 2 3 d 2 3 d 1 3 d 2 3 d 2 4 d 2 3 d 2 3 d 2 3 d 2 3 d 2 4 d 2 3 d 2
 3 d 1 4 d 2 3 d 2 4 d 2 3 d 2 4 d 2 3 d 2 4 d 2 4 d 2 3 d 1 4 d 2 4 d 2 4 d 2 4 d 2 3 d 2 4 d 2 4 d s 1398 636 m 2 4 d 2 4 d 1 4 d 2 5 d 2 4 d 2 4 d 2 4 d 2 4 d 2 5 d 2 4 d 2 5 d 2 4 d 1 5 d 2 4 d 2 5 d 2 4 d 2 5 d 2 5 d 2 4 d 2 5 d 2 5 d 1 5 d 2 5
 d 2 5 d 2 5 d 2 5 d 2 5 d 2 6 d 2 5 d 2 5 d 2 6 d 1 5 d 2 5 d 2 6 d 2 6 d 2 5 d 2 6 d 2 6 d 2 5 d 2 6 d 1 6 d 2 6 d 2 6 d 2 6 d 2 7 d 2 6 d 2 6 d 2 6 d 2 7 d s 1491 887 m 1 6 d 2 7 d 2 6 d 2 7 d 2 7 d 2 7 d 2 6 d 2 7 d 2 7 d 2 7 d 1 7 d 2 8 d 2 7 d
 2 7 d 2 8 d 2 7 d 2 8 d 2 7 d 2 8 d 1 8 d 2 8 d 2 8 d 2 8 d 2 8 d 2 8 d 2 8 d 2 9 d 2 8 d 2 8 d 1 9 d 2 9 d 2 8 d 2 9 d 2 9 d 2 9 d 2 9 d 2 9 d 2 10 d 1 9 d 2 10 d 2 9 d 2 10 d 2 9 d 2 10 d 2 10 d 2 10 d 2 10 d 1 11 d 2 10 d s 1583 1291 m 2 10 d 2
 11 d 2 10 d 2 11 d 2 11 d 2 11 d 2 11 d 2 11 d 1 11 d 2 12 d 2 11 d 2 12 d 2 12 d 2 11 d 2 12 d 2 12 d 2 12 d 1 13 d 2 12 d 2 13 d 2 12 d 2 13 d 2 13 d 2 13 d 2 13 d 2 13 d 2 14 d 1 13 d 2 14 d 2 14 d 2 14 d 2 14 d 2 14 d 2 9 d s 0.95 0.95 0.95 c
 black 284 346 m 2 -1 d 2 -1 d 2 X 2 -1 d 2 -1 d 2 -1 d 2 -1 d 2 -1 d 1 -1 d 2 -1 d 2 -1 d 2 -1 d 2 X 2 -1 d 2 -1 d 2 -1 d 2 -1 d 1 X 2 -1 d 2 -1 d 2 -1 d 2 X 2 -1 d 2 -1 d 2 -1 d 2 X 2 -1 d 1 -1 d 2 X 2 -1 d 2 -1 d 2 X 2 -1 d 2 -1 d 2 X 2 -1 d 1 -1
 d 2 X 2 -1 d 2 X 2 -1 d 2 -1 d 2 X 2 -1 d 2 X 2 -1 d 1 X 2 -1 d 2 X s 377 311 m 2 -1 d 2 -1 d 2 X 2 -1 d 4 X 1 -1 d 2 X 2 -1 d 2 X 2 -1 d 2 X 2 -1 d 2 X 2 -1 d 3 X 2 -1 d 2 X 2 -1 d 4 X 2 -1 d 4 X 1 -1 d 2 X 2 -1 d 4 X 2 -1 d 4 X 2 -1 d 3 X 2 -1 d 6
 X 2 -1 d 4 X 2 -1 d 5 X 2 -1 d 2 X s 470 292 m 4 X 2 -1 d 7 X 2 -1 d 6 X 2 -1 d 7 X 2 -1 d 10 X 2 -1 d 9 X 2 -1 d 9 X 2 -1 d 14 X 1 -1 d 12 X s 563 284 m 4 X 1 -1 d 17 X 2 -1 d 23 X 2 -1 d 30 X 2 -1 d 12 X s 656 280 m 34 X 2 -1 d 56 X s 748 279 m 38
 X 2 -1 d 53 X s 841 278 m 93 X s 934 278 m 72 X 2 1 d 19 X s 1027 279 m 75 X 2 1 d 15 X s 1119 280 m 29 X 2 1 d 30 X 2 1 d 23 X 2 1 d 5 X s 1212 283 m 14 X 1 1 d 14 X 2 1 d 13 X 2 1 d 11 X 2 1 d 9 X 2 1 d 8 X 2 1 d 7 X 2 1 d 4 X s 1305 290 m 4 X 2 1
 d 5 X 2 1 d 6 X 2 1 d 6 X 1 1 d 4 X 2 1 d 6 X 2 1 d 3 X 2 1 d 4 X 2 1 d 4 X 2 1 d 4 X 1 1 d 2 X 2 1 d 4 X 2 1 d 4 X 2 1 d 1 X 2 1 d 2 X 2 1 d 4 X 2 1 d s 1398 306 m 2 X 2 1 d 1 X 2 1 d 2 X 2 1 d 2 X 2 1 d 2 X 2 1 d 2 X 2 1 d 1 X 2 1 d 2 1 d 2 X 2 1
 d 2 X 2 1 d 2 1 d 2 X 1 1 d 2 X 2 1 d 2 1 d 2 X 2 1 d 2 1 d 2 X 2 1 d 2 1 d 1 X 2 1 d 2 1 d 2 1 d 2 X 2 1 d 2 1 d 2 1 d 2 X 1 1 d 2 1 d 2 1 d 2 1 d 2 X 2 1 d 2 1 d 2 1 d 2 1 d s 1491 338 m 1 1 d 2 1 d 2 X 2 1 d 2 1 d 2 1 d 2 1 d 2 1 d 2 1 d 2 1 d 1
 1 d 2 1 d 2 1 d 2 1 d 2 1 d 2 1 d 2 1 d 2 1 d 2 1 d 1 2 d 2 1 d 2 1 d 2 1 d 2 1 d 2 1 d 2 1 d 2 2 d 2 1 d 2 1 d 1 1 d 2 2 d 2 1 d 2 1 d 2 1 d 2 2 d 2 1 d 2 1 d 2 2 d 1 1 d 2 1 d 2 2 d 2 1 d 2 2 d 2 1 d 2 2 d 2 1 d 2 2 d 1 1 d 2 2 d s 1583 396 m 2 1
 d 2 2 d 2 1 d 2 2 d 2 1 d 2 2 d 2 2 d 2 1 d 1 2 d 2 2 d 2 1 d 2 2 d 2 2 d 2 2 d 2 1 d 2 2 d 2 2 d 1 2 d 2 2 d 2 2 d 2 2 d 2 1 d 2 2 d 2 2 d 2 2 d 2 2 d 2 2 d 1 2 d 2 3 d 2 2 d 2 2 d 2 2 d 2 2 d 2 2 d 2 2 d 2 3 d 1 2 d 2 2 d 2 2 d 2 3 d 2 2 d 2 2 d 2
 3 d 2 2 d 2 3 d 1 2 d 2 3 d 2 2 d 2 3 d s 1676 494 m 2 2 d 2 3 d 2 2 d 2 3 d 2 3 d 2 2 d 1 3 d 2 3 d 2 3 d 2 3 d 2 2 d 2 3 d 2 3 d 2 3 d 2 3 d 1 3 d 2 3 d 2 3 d 2 3 d 2 3 d 2 3 d 2 4 d 2 3 d 2 3 d 2 3 d 1 4 d 2 3 d 2 3 d 2 4 d 2 3 d 2 4 d 2 3 d 2 4
 d 2 3 d 1 4 d 2 3 d 2 4 d 2 4 d 2 4 d 2 3 d 2 4 d 2 4 d 2 4 d 1 4 d 2 4 d 2 4 d 2 4 d 2 4 d 2 4 d s 1769 655 m 2 4 d 2 5 d 2 4 d 2 4 d 1 5 d 2 4 d 2 4 d 2 5 d 2 4 d 2 5 d 2 5 d 2 4 d 2 5 d 1 5 d 2 5 d 2 4 d 2 5 d 2 5 d 2 5 d 2 5 d 2 5 d 2 6 d 2 5 d
 1 5 d 2 5 d 2 6 d 2 5 d 2 6 d 2 5 d 2 6 d 2 5 d 2 6 d 1 6 d 2 5 d 2 6 d 2 6 d 2 6 d 2 6 d 2 6 d 2 6 d 2 7 d 1 6 d 2 6 d 2 6 d 2 7 d 2 6 d 2 7 d 2 7 d 2 6 d s 1862 917 m 2 7 d 2 7 d 1 7 d 2 7 d 2 7 d 2 7 d 2 7 d 2 7 d 2 8 d 2 7 d 2 8 d 1 7 d 2 8 d 2
 7 d 2 8 d 2 8 d 2 8 d 2 8 d 2 8 d 2 8 d 1 8 d 2 9 d 2 8 d 2 8 d 2 9 d 2 9 d 2 8 d 2 9 d 2 9 d 2 9 d 1 9 d 2 9 d 2 9 d 2 10 d 2 9 d 2 10 d 2 9 d 2 10 d 2 10 d 1 10 d 2 10 d 2 10 d 2 10 d 2 10 d 2 11 d 2 10 d 2 11 d 2 10 d 2 11 d s 1955 1340 m 1 11 d
 2 11 d 2 11 d 2 11 d 2 12 d 2 11 d 2 12 d 2 11 d 2 12 d 1 12 d 2 12 d 2 12 d 2 12 d 2 13 d 2 12 d 2 13 d 2 13 d 2 12 d 1 13 d 2 14 d 2 13 d 2 13 d 2 14 d 2 13 d 2 14 d 2 14 d 2 14 d 2 14 d 1 14 d s 0.95 0.95 0.95 c black 284 1208 m 93 X s 377 1208 m
 93 X s 470 1208 m 93 X s 563 1208 m 93 X s 656 1208 m 92 X s 748 1208 m 93 X s 841 1208 m 93 X s 934 1208 m 93 X s 1027 1208 m 92 X s 1119 1208 m 93 X s 1212 1208 m 93 X s 1305 1208 m 93 X s 1398 1208 m 93 X s 1491 1208 m 92 X s 1583 1208 m 93 X s
 1676 1208 m 93 X s 1769 1208 m 93 X s 1862 1208 m 93 X s 1955 1208 m 92 X s 2047 1208 m 93 X s 2140 1208 m 36 X s
 gsave  2268 1774 0 0 C 504.54 1527.18 t 0 r /Helvetica findfont 70.5271 sf 0 0 m (Inner tracker) show NC gr  3 lw 434 1548 m24 6 lw
 gsave  2268 1774 0 0 C 504.54 1429.53 t 0 r /Helvetica findfont 70.5271 sf 0 0 m (Inner tracker + L1 + L9) show NC gr  3 lw 434 1450 m20 6 lw
 gr  gr showpage
end
%%EOF
