%!PS-Adobe-2.0 EPSF-2.0
%%BoundingBox:  0 0 567 444
%%Title: atmospheric_overburden.eps: atmospheric_overburden
%%Creator: ROOT Version 5.34/14
%%CreationDate: Thu Jul 17 15:34:52 2014
%%EndComments
%%BeginProlog
80 dict begin
/s {stroke} def /l {lineto} def /m {moveto} def /t {translate} def
/r {rotate} def /rl {roll}  def /R {repeat} def
/d {rlineto} def /rm {rmoveto} def /gr {grestore} def /f {eofill} def
/c {setrgbcolor} def /black {0 setgray} def /sd {setdash} def
/cl {closepath} def /sf {scalefont setfont} def /lw {setlinewidth} def
/box {m dup 0 exch d exch 0 d 0 exch neg d cl} def
/NC{systemdict begin initclip end}def/C{NC box clip newpath}def
/bl {box s} def /bf {box f} def /Y { 0 exch d} def /X { 0 d} def 
/K {{pop pop 0 moveto} exch kshow} bind def
/ita {/ang 15 def gsave [1 0 ang dup sin exch cos div 1 0 0] concat} def 
/mp {newpath /y exch def /x exch def} def
/side {[w .77 mul w .23 mul] .385 w mul sd w 0 l currentpoint t -144 r} def
/mr {mp x y w2 0 360 arc} def /m24 {mr s} def /m20 {mr f} def
/mb {mp x y w2 add m w2 neg 0 d 0 w neg d w 0 d 0 w d cl} def
/mt {mp x y w2 add m w2 neg w neg d w 0 d cl} def
/m21 {mb f} def /m25 {mb s} def /m22 {mt f} def /m26{mt s} def
/m23 {mp x y w2 sub m w2 w d w neg 0 d cl f} def
/m27 {mp x y w2 add m w3 neg w2 neg d w3 w2 neg d w3 w2 d cl s} def
/m28 {mp x w2 sub y w2 sub w3 add m w3 0 d  0 w3 neg d w3 0 d 0 w3 d w3 0 d  0 w3 d w3 neg 0 d 0 w3 d w3 neg 0 d 0 w3 neg d w3 neg 0 d cl s } def
/m29 {mp gsave x w2 sub y w2 add w3 sub m currentpoint t 4 {side} repeat cl fill gr} def
/m30 {mp gsave x w2 sub y w2 add w3 sub m currentpoint t 4 {side} repeat cl s gr} def
/m31 {mp x y w2 sub m 0 w d x w2 sub y m w 0 d x w2 sub y w2 add m w w neg d x w2 sub y w2 sub m w w d s} def
/m32 {mp x y w2 sub m w2 w d w neg 0 d cl s} def
/m33 {mp x y w2 add m w3 neg w2 neg d w3 w2 neg d w3 w2 d cl f} def
/m34 {mp x w2 sub y w2 sub w3 add m w3 0 d  0 w3 neg d w3 0 d 0 w3 d w3 0 d  0 w3 d w3 neg 0 d 0 w3 d w3 neg 0 d 0 w3 neg d w3 neg 0 d cl f } def
/m2 {mp x y w2 sub m 0 w d x w2 sub y m w 0 d s} def
/m5 {mp x w2 sub y w2 sub m w w d x w2 sub y w2 add m w w neg d s} def
/reEncode {exch findfont dup length dict begin {1 index /FID eq  {pop pop} {def} ifelse } forall /Encoding exch def currentdict end dup /FontName get exch definefont pop } def [/Times-Bold /Times-Italic /Times-BoldItalic /Helvetica /Helvetica-Oblique
 /Helvetica-Bold /Helvetica-BoldOblique /Courier /Courier-Oblique /Courier-Bold /Courier-BoldOblique /Times-Roman /AvantGarde-Book /AvantGarde-BookOblique /AvantGarde-Demi /AvantGarde-DemiOblique /Bookman-Demi /Bookman-DemiItalic /Bookman-Light
 /Bookman-LightItalic /Helvetica-Narrow /Helvetica-Narrow-Bold /Helvetica-Narrow-BoldOblique /Helvetica-Narrow-Oblique /NewCenturySchlbk-Roman /NewCenturySchlbk-Bold /NewCenturySchlbk-BoldItalic /NewCenturySchlbk-Italic /Palatino-Bold
 /Palatino-BoldItalic /Palatino-Italic /Palatino-Roman ] {ISOLatin1Encoding reEncode } forall
%%EndProlog
%%BeginSetup
%%EndSetup
newpath  gsave  .25 .25 scale  gsave  0 0 t black[  ] 0 sd 6 lw 1 1 1 c 2268 1774 0 0 bf black 3 lw 1 1 1 c 1894 1487 283 216 bf black 1894 1487 283 216 bl 1 1 1 c 1894 1487 283 216 bf black 1894 1487 283 216 bl 6 lw 283 216 m 1894 X s 0.6 0.6 0.6 c[
 12 12] 0 sd 3 lw 283 1703 m -1487 Y s 473 1703 m -1487 Y s 662 1703 m -1487 Y s 852 1703 m -1487 Y s 1041 1703 m -1487 Y s 1230 1703 m -1487 Y s 1420 1703 m -1487 Y s 1609 1703 m -1487 Y s 1798 1703 m -1487 Y s 1988 1703 m -1487 Y s 2177 1703 m
 -1487 Y s black[  ] 0 sd 6 lw 283 1703 m 1894 X s 283 216 m 1487 Y s 0.6 0.6 0.6 c[ 12 12] 0 sd 3 lw 2177 216 m -1894 X s 2177 249 m -1894 X s 2177 277 m -1894 X s 2177 301 m -1894 X s 2177 322 m -1894 X s 2177 341 m -1894 X s 2177 465 m -1894 X s
 2177 538 m -1894 X s 2177 589 m -1894 X s 2177 629 m -1894 X s 2177 662 m -1894 X s 2177 689 m -1894 X s 2177 713 m -1894 X s 2177 735 m -1894 X s 2177 753 m -1894 X s 2177 878 m -1894 X s 2177 950 m -1894 X s 2177 1002 m -1894 X s 2177 1042 m -1894
 X s 2177 1075 m -1894 X s 2177 1102 m -1894 X s 2177 1126 m -1894 X s 2177 1147 m -1894 X s 2177 1166 m -1894 X s 2177 1290 m -1894 X s 2177 1363 m -1894 X s 2177 1415 m -1894 X s 2177 1455 m -1894 X s 2177 1487 m -1894 X s 2177 1515 m -1894 X s
 2177 1539 m -1894 X s 2177 1560 m -1894 X s 2177 1579 m -1894 X s 2177 1703 m -1894 X s black[  ] 0 sd 6 lw 2177 216 m 1487 Y s 0.95 0.95 0.95 c black 284 1553 m 2 -1 d 2 -2 d 2 -1 d 2 -1 d 2 -2 d 2 -1 d 2 -1 d 2 -1 d 1 -2 d 2 -1 d 2 -1 d 2 -2 d 2
 -1 d 2 -1 d 2 -1 d 2 -2 d 2 -1 d 1 -1 d 2 -2 d 2 -1 d 2 -1 d 2 -1 d 2 -2 d 2 -1 d 2 -1 d 2 -1 d 2 -2 d 1 -1 d 2 -1 d 2 -2 d 2 -1 d 2 -1 d 2 -1 d 2 -2 d 2 -1 d 2 -1 d 1 -2 d 2 -1 d 2 -1 d 2 -1 d 2 -2 d 2 -1 d 2 -1 d 2 -2 d 2 -1 d 2 -1 d 1 -1 d 2 -2 d
 2 -1 d s 377 1490 m 2 -1 d 2 -1 d 2 -2 d 2 -1 d 2 -1 d 2 -2 d 1 -1 d 2 -1 d 2 -1 d 2 -2 d 2 -1 d 2 -1 d 2 -2 d 2 -1 d 2 -1 d 1 -1 d 2 -2 d 2 -1 d 2 -1 d 2 -2 d 2 -1 d 2 -1 d 2 -1 d 2 -2 d 2 -1 d 1 -1 d 2 -1 d 2 -2 d 2 -1 d 2 -1 d 2 -2 d 2 -1 d 2 -1
 d 2 -1 d 1 -2 d 2 -1 d 2 -1 d 2 -2 d 2 -1 d 2 -1 d 2 -1 d 2 -2 d 2 -1 d 2 -1 d 1 -2 d 2 -1 d 2 -1 d 2 -1 d 2 -2 d s 470 1427 m 2 -1 d 2 -1 d 2 -1 d 2 -2 d 1 -1 d 2 -1 d 2 -2 d 2 -1 d 2 -1 d 2 -1 d 2 -2 d 2 -1 d 2 -1 d 1 -2 d 2 -1 d 2 -1 d 2 -1 d 2
 -2 d 2 -1 d 2 -1 d 2 -2 d 2 -1 d 2 -1 d 1 -1 d 2 -2 d 2 -1 d 2 -1 d 2 -2 d 2 -1 d 2 -1 d 2 -1 d 2 -2 d 1 -1 d 2 -1 d 2 -1 d 2 -2 d 2 -1 d 2 -1 d 2 -2 d 2 -1 d 2 -1 d 2 -1 d 1 -2 d 2 -1 d 2 -1 d 2 -2 d 2 -1 d 2 -1 d 2 -1 d s 563 1365 m 2 -2 d 2 -1 d
 1 -1 d 2 -2 d 2 -1 d 2 -1 d 2 -1 d 2 -2 d 2 -1 d 2 -1 d 2 -1 d 1 -2 d 2 -1 d 2 -1 d 2 -2 d 2 -1 d 2 -1 d 2 -1 d 2 -2 d 2 -1 d 2 -1 d 1 -2 d 2 -1 d 2 -1 d 2 -1 d 2 -2 d 2 -1 d 2 -1 d 2 -2 d 2 -1 d 1 -1 d 2 -1 d 2 -2 d 2 -1 d 2 -1 d 2 -1 d 2 -2 d 2 -1
 d 2 -1 d 2 -2 d 1 -1 d 2 -1 d 2 -1 d 2 -2 d 2 -1 d 2 -1 d 2 -2 d 2 -1 d 2 -1 d s 656 1302 m 1 -1 d 2 -2 d 2 -1 d 2 -1 d 2 -2 d 2 -1 d 2 -1 d 2 -1 d 2 -2 d 1 -1 d 2 -1 d 2 -1 d 2 -2 d 2 -1 d 2 -1 d 2 -2 d 2 -1 d 2 -1 d 2 -1 d 1 -2 d 2 -1 d 2 -1 d 2
 -2 d 2 -1 d 2 -1 d 2 -1 d 2 -2 d 2 -1 d 1 -1 d 2 -2 d 2 -1 d 2 -1 d 2 -1 d 2 -2 d 2 -1 d 2 -1 d 2 -1 d 2 -2 d 1 -1 d 2 -1 d 2 -2 d 2 -1 d 2 -1 d 2 -1 d 2 -2 d 2 -1 d 2 -1 d 1 -2 d 2 -1 d s 748 1239 m 2 -1 d 2 -1 d 2 -2 d 2 -1 d 2 -1 d 2 -2 d 2 -1 d
 1 -1 d 2 -1 d 2 -2 d 2 -1 d 2 -1 d 2 -2 d 2 -1 d 2 -1 d 2 -1 d 2 -2 d 1 -1 d 2 -1 d 2 -1 d 2 -2 d 2 -1 d 2 -1 d 2 -2 d 2 -1 d 2 -1 d 1 -1 d 2 -2 d 2 -1 d 2 -1 d 2 -2 d 2 -1 d 2 -1 d 2 -1 d 2 -2 d 1 -1 d 2 -1 d 2 -2 d 2 -1 d 2 -1 d 2 -1 d 2 -2 d 2 -1
 d 2 -1 d 2 -1 d 1 -2 d 2 -1 d 2 -1 d 2 -2 d s 841 1176 m 2 -1 d 2 -1 d 2 -1 d 2 -2 d 2 -1 d 1 -1 d 2 -2 d 2 -1 d 2 -1 d 2 -1 d 2 -2 d 2 -1 d 2 -1 d 2 -2 d 2 -1 d 1 -1 d 2 -1 d 2 -2 d 2 -1 d 2 -1 d 2 -1 d 2 -2 d 2 -1 d 2 -1 d 1 -2 d 2 -1 d 2 -1 d 2
 -1 d 2 -2 d 2 -1 d 2 -1 d 2 -2 d 2 -1 d 1 -1 d 2 -1 d 2 -2 d 2 -1 d 2 -1 d 2 -2 d 2 -1 d 2 -1 d 2 -1 d 2 -2 d 1 -1 d 2 -1 d 2 -1 d 2 -2 d 2 -1 d 2 -1 d s 934 1114 m 2 -2 d 2 -1 d 2 -1 d 1 -1 d 2 -2 d 2 -1 d 2 -1 d 2 -2 d 2 -1 d 2 -1 d 2 -1 d 2 -2 d
 2 -1 d 1 -1 d 2 -2 d 2 -1 d 2 -1 d 2 -1 d 2 -2 d 2 -1 d 2 -1 d 2 -1 d 1 -2 d 2 -1 d 2 -1 d 2 -2 d 2 -1 d 2 -1 d 2 -1 d 2 -2 d 2 -1 d 1 -1 d 2 -2 d 2 -1 d 2 -1 d 2 -1 d 2 -2 d 2 -1 d 2 -1 d 2 -2 d 2 -1 d 1 -1 d 2 -1 d 2 -2 d 2 -1 d 2 -1 d 2 -2 d 2 -1
 d 2 -1 d s 1027 1051 m 2 -1 d 1 -2 d 2 -1 d 2 -1 d 2 -1 d 2 -2 d 2 -1 d 2 -1 d 2 -2 d 2 -1 d 2 -1 d 1 -1 d 2 -2 d 2 -1 d 2 -1 d 2 -2 d 2 -1 d 2 -1 d 2 -1 d 2 -2 d 1 -1 d 2 -1 d 2 -2 d 2 -1 d 2 -1 d 2 -1 d 2 -2 d 2 -1 d 2 -1 d 1 -1 d 2 -2 d 2 -1 d 2
 -1 d 2 -2 d 2 -1 d 2 -1 d 2 -1 d 2 -2 d 2 -1 d 1 -1 d 2 -2 d 2 -1 d 2 -1 d 2 -1 d 2 -2 d 2 -1 d 2 -1 d 2 -2 d 1 -1 d s 1119 988 m 2 -1 d 2 -1 d 2 -2 d 2 -1 d 2 -1 d 2 -1 d 2 -2 d 2 -1 d 2 -1 d 1 -2 d 2 -1 d 2 -1 d 2 -1 d 2 -2 d 2 -1 d 2 -1 d 2 -2 d
 2 -1 d 1 -1 d 2 -1 d 2 -2 d 2 -1 d 2 -1 d 2 -2 d 2 -1 d 2 -1 d 2 -1 d 1 -2 d 2 -1 d 2 -1 d 2 -1 d 2 -2 d 2 -1 d 2 -1 d 2 -2 d 2 -1 d 2 -1 d 1 -1 d 2 -2 d 2 -1 d 2 -1 d 2 -2 d 2 -1 d 2 -1 d 2 -1 d 2 -2 d 1 -1 d 2 -1 d 2 -2 d s 1212 925 m 2 -1 d 2 -1
 d 2 -1 d 2 -2 d 2 -1 d 2 -1 d 2 -1 d 1 -2 d 2 -1 d 2 -1 d 2 -2 d 2 -1 d 2 -1 d 2 -1 d 2 -2 d 2 -1 d 1 -1 d 2 -2 d 2 -1 d 2 -1 d 2 -1 d 2 -2 d 2 -1 d 2 -1 d 2 -2 d 1 -1 d 2 -1 d 2 -1 d 2 -2 d 2 -1 d 2 -1 d 2 -2 d 2 -1 d 2 -1 d 2 -1 d 1 -2 d 2 -1 d 2
 -1 d 2 -1 d 2 -2 d 2 -1 d 2 -1 d 2 -2 d 2 -1 d 1 -1 d 2 -1 d 2 -2 d 2 -1 d 2 -1 d s 1305 863 m 2 -2 d 2 -1 d 2 -1 d 2 -1 d 1 -2 d 2 -1 d 2 -1 d 2 -2 d 2 -1 d 2 -1 d 2 -1 d 2 -2 d 2 -1 d 2 -1 d 1 -1 d 2 -2 d 2 -1 d 2 -1 d 2 -2 d 2 -1 d 2 -1 d 2 -1 d
 2 -2 d 1 -1 d 2 -1 d 2 -2 d 2 -1 d 2 -1 d 2 -1 d 2 -2 d 2 -1 d 2 -1 d 2 -2 d 1 -1 d 2 -1 d 2 -1 d 2 -2 d 2 -1 d 2 -1 d 2 -1 d 2 -2 d 2 -1 d 1 -1 d 2 -2 d 2 -1 d 2 -1 d 2 -1 d 2 -2 d 2 -1 d s 1398 800 m 2 -1 d 2 -2 d 1 -1 d 2 -1 d 2 -1 d 2 -2 d 2 -1
 d 2 -1 d 2 -2 d 2 -1 d 2 -1 d 2 -1 d 1 -2 d 2 -1 d 2 -1 d 2 -1 d 2 -2 d 2 -1 d 2 -1 d 2 -2 d 2 -1 d 1 -1 d 2 -1 d 2 -2 d 2 -1 d 2 -1 d 2 -2 d 2 -1 d 2 -1 d 2 -1 d 2 -2 d 1 -1 d 2 -1 d 2 -2 d 2 -1 d 2 -1 d 2 -1 d 2 -2 d 2 -1 d 2 -1 d 1 -1 d 2 -2 d 2
 -1 d 2 -1 d 2 -2 d 2 -1 d 2 -1 d 2 -1 d 2 -2 d s 1491 737 m 1 -1 d 2 -1 d 2 -2 d 2 -1 d 2 -1 d 2 -1 d 2 -2 d 2 -1 d 2 -1 d 2 -2 d 1 -1 d 2 -1 d 2 -1 d 2 -2 d 2 -1 d 2 -1 d 2 -2 d 2 -1 d 2 -1 d 1 -1 d 2 -2 d 2 -1 d 2 -1 d 2 -1 d 2 -2 d 2 -1 d 2 -1 d
 2 -2 d 2 -1 d 1 -1 d 2 -1 d 2 -2 d 2 -1 d 2 -1 d 2 -2 d 2 -1 d 2 -1 d 2 -1 d 1 -2 d 2 -1 d 2 -1 d 2 -2 d 2 -1 d 2 -1 d 2 -1 d 2 -2 d 2 -1 d 1 -1 d 2 -1 d s 1583 675 m 2 -2 d 2 -1 d 2 -1 d 2 -2 d 2 -1 d 2 -1 d 2 -1 d 2 -2 d 1 -1 d 2 -1 d 2 -2 d 2 -1
 d 2 -1 d 2 -1 d 2 -2 d 2 -1 d 2 -1 d 1 -2 d 2 -1 d 2 -1 d 2 -1 d 2 -2 d 2 -1 d 2 -1 d 2 -1 d 2 -2 d 2 -1 d 1 -1 d 2 -2 d 2 -1 d 2 -1 d 2 -1 d 2 -2 d 2 -1 d 2 -1 d 2 -2 d 1 -1 d 2 -1 d 2 -1 d 2 -2 d 2 -1 d 2 -1 d 2 -2 d 2 -1 d 2 -1 d 1 -1 d 2 -2 d 2
 -1 d 2 -1 d s 1676 612 m 2 -1 d 2 -2 d 2 -1 d 2 -1 d 2 -2 d 2 -1 d 1 -1 d 2 -1 d 2 -2 d 2 -1 d 2 -1 d 2 -2 d 2 -1 d 2 -1 d 2 -1 d 1 -2 d 2 -1 d 2 -1 d 2 -2 d 2 -1 d 2 -1 d 2 -1 d 2 -2 d 2 -1 d 2 -1 d 1 -1 d 2 -2 d 2 -1 d 2 -1 d 2 -2 d 2 -1 d 2 -1 d
 2 -1 d 2 -2 d 1 -1 d 2 -1 d 2 -2 d 2 -1 d 2 -1 d 2 -1 d 2 -2 d 2 -1 d 2 -1 d 1 -2 d 2 -1 d 2 -1 d 2 -1 d 2 -2 d 2 -1 d s 1769 549 m 2 -1 d 2 -1 d 2 -2 d 2 -1 d 1 -1 d 2 -2 d 2 -1 d 2 -1 d 2 -1 d 2 -2 d 2 -1 d 2 -1 d 2 -2 d 1 -1 d 2 -1 d 2 -1 d 2 -2
 d 2 -1 d 2 -1 d 2 -2 d 2 -1 d 2 -1 d 2 -1 d 1 -2 d 2 -1 d 2 -1 d 2 -2 d 2 -1 d 2 -1 d 2 -1 d 2 -2 d 2 -1 d 1 -1 d 2 -1 d 2 -2 d 2 -1 d 2 -1 d 2 -2 d 2 -1 d 2 -1 d 2 -1 d 1 -2 d 2 -1 d 2 -1 d 2 -2 d 2 -1 d 2 -1 d 2 -1 d 2 -2 d s 1862 486 m 2 -1 d 2
 -1 d 1 -2 d 2 -1 d 2 -1 d 2 -1 d 2 -2 d 2 -1 d 2 -1 d 2 -1 d 2 -2 d 1 -1 d 2 -1 d 2 -2 d 2 -1 d 2 -1 d 2 -1 d 2 -2 d 2 -1 d 2 -1 d 1 -2 d 2 -1 d 2 -1 d 2 -1 d 2 -2 d 2 -1 d 2 -1 d 2 -2 d 2 -1 d 2 -1 d 1 -1 d 2 -2 d 2 -1 d 2 -1 d 2 -1 d 2 -2 d 2 -1 d
 2 -1 d 2 -2 d 1 -1 d 2 -1 d 2 -1 d 2 -2 d 2 -1 d 2 -1 d 2 -2 d 2 -1 d 2 -1 d 2 -1 d s 1955 424 m 1 -2 d 2 -1 d 2 -1 d 2 -2 d 2 -1 d 2 -1 d 2 -1 d 2 -2 d 2 -1 d 1 -1 d 2 -1 d 2 -2 d 2 -1 d 2 -1 d 2 -2 d 2 -1 d 2 -1 d 2 -1 d 1 -2 d 2 -1 d 2 -1 d 2 -2
 d 2 -1 d 2 -1 d 2 -1 d 2 -2 d 2 -1 d 2 -1 d 1 -2 d 2 -1 d 2 -1 d 2 -1 d 2 -2 d 2 -1 d 2 -1 d 2 -1 d 2 -2 d 1 -1 d 2 -1 d 2 -2 d 2 -1 d 2 -1 d 2 -1 d 2 -2 d 2 -1 d 2 -1 d 2 -2 d 1 -1 d 2 -1 d s 2047 361 m 2 -1 d 2 -2 d 2 -1 d 2 -1 d 2 -2 d 2 -1 d 2
 -1 d 1 -1 d 2 -2 d 2 -1 d 2 -1 d 2 -2 d 2 -1 d 2 -1 d 2 -1 d 2 -2 d 1 -1 d 2 -1 d 2 -1 d 2 -2 d 2 -1 d 2 -1 d 2 -2 d 2 -1 d 2 -1 d 2 -1 d 1 -2 d 2 -1 d 2 -1 d 2 -2 d 2 -1 d 2 -1 d 2 -1 d 2 -2 d 2 -1 d 1 -1 d 2 -2 d 2 -1 d 2 -1 d 2 -1 d 2 -2 d 2 -1 d
 2 -1 d 2 -1 d 2 -2 d 1 -1 d 2 -1 d 2 -2 d 2 -1 d s 2140 298 m 2 -1 d 2 -1 d 2 -2 d 2 -1 d 2 -1 d 1 -2 d 2 -1 d 2 -1 d 2 -1 d 2 -2 d 2 -1 d 2 -1 d 2 -2 d 2 -1 d 1 -1 d 2 -1 d 2 -2 d 2 -1 d 2 -1 d s 283 216 m 1894 X s
 gsave  2268 1774 0 0 C 1746.9 27.1258 t 0 r /Helvetica findfont 78.6648 sf 0 0 m (Altitude [km]) show NC gr  283 261 m -45 Y s 321 239 m -23 Y s 359 239 m -23 Y s 397 239 m -23 Y s 435 239 m -23 Y s 473 261 m -45 Y s 511 239 m -23 Y s 549 239 m -23
 Y s 586 239 m -23 Y s 624 239 m -23 Y s 662 261 m -45 Y s 700 239 m -23 Y s 738 239 m -23 Y s 776 239 m -23 Y s 814 239 m -23 Y s 852 261 m -45 Y s 889 239 m -23 Y s 927 239 m -23 Y s 965 239 m -23 Y s 1003 239 m -23 Y s 1041 261 m -45 Y s 1079 239
 m -23 Y s 1117 239 m -23 Y s 1154 239 m -23 Y s 1192 239 m -23 Y s 1230 261 m -45 Y s 1268 239 m -23 Y s 1306 239 m -23 Y s 1344 239 m -23 Y s 1382 239 m -23 Y s 1420 261 m -45 Y s 1457 239 m -23 Y s 1495 239 m -23 Y s 1533 239 m -23 Y s 1571 239 m
 -23 Y s 1609 261 m -45 Y s 1647 239 m -23 Y s 1685 239 m -23 Y s 1723 239 m -23 Y s 1760 239 m -23 Y s 1798 261 m -45 Y s 1836 239 m -23 Y s 1874 239 m -23 Y s 1912 239 m -23 Y s 1950 239 m -23 Y s 1988 261 m -45 Y s 2026 239 m -23 Y s 2063 239 m
 -23 Y s 2101 239 m -23 Y s 2139 239 m -23 Y s 2177 261 m -45 Y s
 gsave  2268 1774 0 0 C 263.12 149.192 t 0 r /Helvetica findfont 70.5271 sf 0 0 m (0) show NC gr 
 gsave  2268 1774 0 0 C 453.001 149.192 t 0 r /Helvetica findfont 70.5271 sf 0 0 m (5) show NC gr 
 gsave  2268 1774 0 0 C 623.893 149.192 t 0 r /Helvetica findfont 70.5271 sf 0 0 m (10) show NC gr 
 gsave  2268 1774 0 0 C 811.061 149.192 t 0 r /Helvetica findfont 70.5271 sf 0 0 m (15) show NC gr 
 gsave  2268 1774 0 0 C 1000.94 149.192 t 0 r /Helvetica findfont 70.5271 sf 0 0 m (20) show NC gr 
 gsave  2268 1774 0 0 C 1190.82 149.192 t 0 r /Helvetica findfont 70.5271 sf 0 0 m (25) show NC gr 
 gsave  2268 1774 0 0 C 1380.7 149.192 t 0 r /Helvetica findfont 70.5271 sf 0 0 m (30) show NC gr 
 gsave  2268 1774 0 0 C 1570.58 149.192 t 0 r /Helvetica findfont 70.5271 sf 0 0 m (35) show NC gr 
 gsave  2268 1774 0 0 C 1757.75 149.192 t 0 r /Helvetica findfont 70.5271 sf 0 0 m (40) show NC gr 
 gsave  2268 1774 0 0 C 1947.63 149.192 t 0 r /Helvetica findfont 70.5271 sf 0 0 m (45) show NC gr 
 gsave  2268 1774 0 0 C 2137.51 149.192 t 0 r /Helvetica findfont 70.5271 sf 0 0 m (50) show NC gr  283 1703 m 1894 X s 283 1659 m 44 Y s 321 1681 m 22 Y s 359 1681 m 22 Y s 397 1681 m 22 Y s 435 1681 m 22 Y s 473 1659 m 44 Y s 511 1681 m 22 Y s 549
 1681 m 22 Y s 586 1681 m 22 Y s 624 1681 m 22 Y s 662 1659 m 44 Y s 700 1681 m 22 Y s 738 1681 m 22 Y s 776 1681 m 22 Y s 814 1681 m 22 Y s 852 1659 m 44 Y s 889 1681 m 22 Y s 927 1681 m 22 Y s 965 1681 m 22 Y s 1003 1681 m 22 Y s 1041 1659 m 44 Y s
 1079 1681 m 22 Y s 1117 1681 m 22 Y s 1154 1681 m 22 Y s 1192 1681 m 22 Y s 1230 1659 m 44 Y s 1268 1681 m 22 Y s 1306 1681 m 22 Y s 1344 1681 m 22 Y s 1382 1681 m 22 Y s 1420 1659 m 44 Y s 1457 1681 m 22 Y s 1495 1681 m 22 Y s 1533 1681 m 22 Y s
 1571 1681 m 22 Y s 1609 1659 m 44 Y s 1647 1681 m 22 Y s 1685 1681 m 22 Y s 1723 1681 m 22 Y s 1760 1681 m 22 Y s 1798 1659 m 44 Y s 1836 1681 m 22 Y s 1874 1681 m 22 Y s 1912 1681 m 22 Y s 1950 1681 m 22 Y s 1988 1659 m 44 Y s 2026 1681 m 22 Y s
 2063 1681 m 22 Y s 2101 1681 m 22 Y s 2139 1681 m 22 Y s 2177 1659 m 44 Y s 283 216 m 1487 Y s
 gsave  2268 1774 0 0 C 92.2277 1684.51 t 90 r /Helvetica findfont 78.6648 sf 0 0 m (]) show NC gr 
 gsave  2268 1774 0 0 C 54.2516 1641.11 t 90 r /Helvetica findfont 51.539 sf 0 0 m (\2552) show NC gr 
 gsave  2268 1774 0 0 C 92.2277 572.354 t 90 r /Helvetica findfont 78.6648 sf 0 0 m (Atmospheric overburden [g cm) show NC gr  312 216 m -29 X s 312 249 m -29 X s 312 277 m -29 X s 312 301 m -29 X s 312 322 m -29 X s 340 341 m -57 X s
 gsave  2268 1774 0 0 C 264.387 312.461 t 0 r  -38 0 t /Helvetica findfont 67.8145 sf 0 0 m (1) show NC gr  312 465 m -29 X s 312 538 m -29 X s 312 589 m -29 X s 312 629 m -29 X s 312 662 m -29 X s 312 689 m -29 X s 312 713 m -29 X s 312 735 m -29 X
 s 340 753 m -57 X s
 gsave  2268 1774 0 0 C 264.387 725.179 t 0 r  -76 0 t /Helvetica findfont 67.8145 sf 0 0 m (10) show NC gr  312 878 m -29 X s 312 950 m -29 X s 312 1002 m -29 X s 312 1042 m -29 X s 312 1075 m -29 X s 312 1102 m -29 X s 312 1126 m -29 X s 312 1147 m
 -29 X s 340 1166 m -57 X s
 gsave  2268 1774 0 0 C 238.707 1163.7 t 0 r /Helvetica findfont 46.1139 sf 0 0 m (2) show NC gr 
 gsave  2268 1774 0 0 C 162.755 1133.86 t 0 r /Helvetica findfont 70.5271 sf 0 0 m (10) show NC gr  312 1290 m -29 X s 312 1363 m -29 X s 312 1415 m -29 X s 312 1455 m -29 X s 312 1487 m -29 X s 312 1515 m -29 X s 312 1539 m -29 X s 312 1560 m -29 X
 s 340 1579 m -57 X s
 gsave  2268 1774 0 0 C 238.707 1581.43 t 0 r /Helvetica findfont 46.1139 sf 0 0 m (3) show NC gr 
 gsave  2268 1774 0 0 C 162.755 1548.88 t 0 r /Helvetica findfont 70.5271 sf 0 0 m (10) show NC gr  312 1703 m -29 X s 2177 216 m 1487 Y s 2149 216 m 28 X s 2149 249 m 28 X s 2149 277 m 28 X s 2149 301 m 28 X s 2149 322 m 28 X s 2120 341 m 57 X s
 2149 465 m 28 X s 2149 538 m 28 X s 2149 589 m 28 X s 2149 629 m 28 X s 2149 662 m 28 X s 2149 689 m 28 X s 2149 713 m 28 X s 2149 735 m 28 X s 2120 753 m 57 X s 2149 878 m 28 X s 2149 950 m 28 X s 2149 1002 m 28 X s 2149 1042 m 28 X s 2149 1075 m
 28 X s 2149 1102 m 28 X s 2149 1126 m 28 X s 2149 1147 m 28 X s 2120 1166 m 57 X s 2149 1290 m 28 X s 2149 1363 m 28 X s 2149 1415 m 28 X s 2149 1455 m 28 X s 2149 1487 m 28 X s 2149 1515 m 28 X s 2149 1539 m 28 X s 2149 1560 m 28 X s 2120 1579 m 57
 X s 2149 1703 m 28 X s 3 lw 1 lw << /PatternType 1 /PaintType 2 /TilingType 1 /BBox [ 0 0 100 100 ] /XStep 100 /YStep 100 /PaintProc { begin gsave 0 0 m 100 100 l s gr end } >> [ 0.24 0 0 0.24 0 0 ] makepattern /P04 exch def /cs {[/Pattern
 /DeviceRGB] setcolorspace} def /FA {f [/DeviceRGB] setcolorspace} def cs 0 0 0 P04 setcolor 1420 216 m 454 X 1487 Y -454 X FA 6 lw black 454 1487 1420 216 bl
 gsave  2268 1774 0 0 C 1133.86 1242.36 t 0 r /Helvetica findfont 70.5271 sf 0 0 m (Typical balloon float altitude) show NC gr 
 gr  gr showpage
end
%%EOF
