%!PS-Adobe-2.0 EPSF-2.0
%%BoundingBox:  0 0 567 444
%%Title: atmospheric_pressure.eps: atmospheric_pressure
%%Creator: ROOT Version 5.34/14
%%CreationDate: Thu Jul 17 15:34:51 2014
%%EndComments
%%BeginProlog
80 dict begin
/s {stroke} def /l {lineto} def /m {moveto} def /t {translate} def
/r {rotate} def /rl {roll}  def /R {repeat} def
/d {rlineto} def /rm {rmoveto} def /gr {grestore} def /f {eofill} def
/c {setrgbcolor} def /black {0 setgray} def /sd {setdash} def
/cl {closepath} def /sf {scalefont setfont} def /lw {setlinewidth} def
/box {m dup 0 exch d exch 0 d 0 exch neg d cl} def
/NC{systemdict begin initclip end}def/C{NC box clip newpath}def
/bl {box s} def /bf {box f} def /Y { 0 exch d} def /X { 0 d} def 
/K {{pop pop 0 moveto} exch kshow} bind def
/ita {/ang 15 def gsave [1 0 ang dup sin exch cos div 1 0 0] concat} def 
/mp {newpath /y exch def /x exch def} def
/side {[w .77 mul w .23 mul] .385 w mul sd w 0 l currentpoint t -144 r} def
/mr {mp x y w2 0 360 arc} def /m24 {mr s} def /m20 {mr f} def
/mb {mp x y w2 add m w2 neg 0 d 0 w neg d w 0 d 0 w d cl} def
/mt {mp x y w2 add m w2 neg w neg d w 0 d cl} def
/m21 {mb f} def /m25 {mb s} def /m22 {mt f} def /m26{mt s} def
/m23 {mp x y w2 sub m w2 w d w neg 0 d cl f} def
/m27 {mp x y w2 add m w3 neg w2 neg d w3 w2 neg d w3 w2 d cl s} def
/m28 {mp x w2 sub y w2 sub w3 add m w3 0 d  0 w3 neg d w3 0 d 0 w3 d w3 0 d  0 w3 d w3 neg 0 d 0 w3 d w3 neg 0 d 0 w3 neg d w3 neg 0 d cl s } def
/m29 {mp gsave x w2 sub y w2 add w3 sub m currentpoint t 4 {side} repeat cl fill gr} def
/m30 {mp gsave x w2 sub y w2 add w3 sub m currentpoint t 4 {side} repeat cl s gr} def
/m31 {mp x y w2 sub m 0 w d x w2 sub y m w 0 d x w2 sub y w2 add m w w neg d x w2 sub y w2 sub m w w d s} def
/m32 {mp x y w2 sub m w2 w d w neg 0 d cl s} def
/m33 {mp x y w2 add m w3 neg w2 neg d w3 w2 neg d w3 w2 d cl f} def
/m34 {mp x w2 sub y w2 sub w3 add m w3 0 d  0 w3 neg d w3 0 d 0 w3 d w3 0 d  0 w3 d w3 neg 0 d 0 w3 d w3 neg 0 d 0 w3 neg d w3 neg 0 d cl f } def
/m2 {mp x y w2 sub m 0 w d x w2 sub y m w 0 d s} def
/m5 {mp x w2 sub y w2 sub m w w d x w2 sub y w2 add m w w neg d s} def
/reEncode {exch findfont dup length dict begin {1 index /FID eq  {pop pop} {def} ifelse } forall /Encoding exch def currentdict end dup /FontName get exch definefont pop } def [/Times-Bold /Times-Italic /Times-BoldItalic /Helvetica /Helvetica-Oblique
 /Helvetica-Bold /Helvetica-BoldOblique /Courier /Courier-Oblique /Courier-Bold /Courier-BoldOblique /Times-Roman /AvantGarde-Book /AvantGarde-BookOblique /AvantGarde-Demi /AvantGarde-DemiOblique /Bookman-Demi /Bookman-DemiItalic /Bookman-Light
 /Bookman-LightItalic /Helvetica-Narrow /Helvetica-Narrow-Bold /Helvetica-Narrow-BoldOblique /Helvetica-Narrow-Oblique /NewCenturySchlbk-Roman /NewCenturySchlbk-Bold /NewCenturySchlbk-BoldItalic /NewCenturySchlbk-Italic /Palatino-Bold
 /Palatino-BoldItalic /Palatino-Italic /Palatino-Roman ] {ISOLatin1Encoding reEncode } forall
%%EndProlog
%%BeginSetup
%%EndSetup
newpath  gsave  .25 .25 scale  gsave  0 0 t black[  ] 0 sd 6 lw 1 1 1 c 2268 1774 0 0 bf black 3 lw 1 1 1 c 1894 1487 283 216 bf black 1894 1487 283 216 bl 1 1 1 c 1894 1487 283 216 bf black 1894 1487 283 216 bl 6 lw 283 216 m 1894 X s 0.6 0.6 0.6 c[
 12 12] 0 sd 3 lw 283 1703 m -1487 Y s 599 1703 m -1487 Y s 915 1703 m -1487 Y s 1230 1703 m -1487 Y s 1546 1703 m -1487 Y s 1861 1703 m -1487 Y s 2177 1703 m -1487 Y s black[  ] 0 sd 6 lw 283 1703 m 1894 X s 283 216 m 1487 Y s 0.6 0.6 0.6 c[ 12 12]
 0 sd 3 lw 2177 264 m -1894 X s 2177 342 m -1894 X s 2177 421 m -1894 X s 2177 500 m -1894 X s 2177 579 m -1894 X s 2177 657 m -1894 X s 2177 736 m -1894 X s 2177 815 m -1894 X s 2177 894 m -1894 X s 2177 972 m -1894 X s 2177 1051 m -1894 X s 2177
 1130 m -1894 X s 2177 1209 m -1894 X s 2177 1288 m -1894 X s 2177 1366 m -1894 X s 2177 1445 m -1894 X s 2177 1524 m -1894 X s 2177 1603 m -1894 X s 2177 1681 m -1894 X s black[  ] 0 sd 6 lw 2177 216 m 1487 Y s 0.95 0.95 0.95 c black 284 1681 m 2 -1
 d 2 -2 d 2 -1 d 2 -2 d 2 -1 d 2 -2 d 2 -1 d 2 -2 d 1 -1 d 2 -1 d 2 -2 d 2 -1 d 2 -2 d 2 -1 d 2 -2 d 2 -1 d 2 -2 d 1 -1 d 2 -2 d 2 -1 d 2 -2 d 2 -1 d 2 -2 d 2 -1 d 2 -1 d 2 -2 d 2 -1 d 1 -2 d 2 -1 d 2 -2 d 2 -1 d 2 -2 d 2 -1 d 2 -2 d 2 -1 d 2 -2 d 1
 -1 d 2 -2 d 2 -1 d 2 -1 d 2 -2 d 2 -1 d 2 -2 d 2 -1 d 2 -2 d 2 -1 d 1 -2 d 2 -1 d 2 -2 d s 377 1609 m 2 -1 d 2 -2 d 2 -1 d 2 -2 d 2 -1 d 2 -1 d 1 -2 d 2 -1 d 2 -2 d 2 -1 d 2 -2 d 2 -1 d 2 -2 d 2 -1 d 2 -2 d 1 -1 d 2 -2 d 2 -1 d 2 -2 d 2 -1 d 2 -1 d
 2 -2 d 2 -1 d 2 -2 d 2 -1 d 1 -2 d 2 -1 d 2 -2 d 2 -1 d 2 -2 d 2 -1 d 2 -2 d 2 -1 d 2 -1 d 1 -2 d 2 -1 d 2 -2 d 2 -1 d 2 -2 d 2 -1 d 2 -2 d 2 -1 d 2 -2 d 2 -1 d 1 -2 d 2 -1 d 2 -2 d 2 -1 d 2 -1 d s 470 1538 m 2 -2 d 2 -1 d 2 -2 d 2 -1 d 1 -2 d 2 -1
 d 2 -2 d 2 -1 d 2 -2 d 2 -1 d 2 -2 d 2 -1 d 2 -2 d 1 -1 d 2 -1 d 2 -2 d 2 -1 d 2 -2 d 2 -1 d 2 -2 d 2 -1 d 2 -2 d 2 -1 d 1 -2 d 2 -1 d 2 -2 d 2 -1 d 2 -2 d 2 -1 d 2 -1 d 2 -2 d 2 -1 d 1 -2 d 2 -1 d 2 -2 d 2 -1 d 2 -2 d 2 -1 d 2 -2 d 2 -1 d 2 -2 d 2
 -1 d 1 -2 d 2 -1 d 2 -1 d 2 -2 d 2 -1 d 2 -2 d 2 -1 d s 563 1466 m 2 -2 d 2 -1 d 1 -2 d 2 -1 d 2 -2 d 2 -1 d 2 -2 d 2 -1 d 2 -2 d 2 -1 d 2 -1 d 1 -2 d 2 -1 d 2 -2 d 2 -1 d 2 -2 d 2 -1 d 2 -2 d 2 -1 d 2 -2 d 2 -1 d 1 -2 d 2 -1 d 2 -2 d 2 -1 d 2 -1 d
 2 -2 d 2 -1 d 2 -2 d 2 -1 d 1 -2 d 2 -1 d 2 -2 d 2 -1 d 2 -2 d 2 -1 d 2 -2 d 2 -1 d 2 -2 d 2 -1 d 1 -1 d 2 -2 d 2 -1 d 2 -2 d 2 -1 d 2 -2 d 2 -1 d 2 -2 d 2 -1 d s 656 1394 m 1 -2 d 2 -1 d 2 -2 d 2 -1 d 2 -2 d 2 -1 d 2 -1 d 2 -2 d 2 -1 d 1 -2 d 2 -1
 d 2 -2 d 2 -1 d 2 -2 d 2 -1 d 2 -2 d 2 -1 d 2 -2 d 2 -1 d 1 -2 d 2 -1 d 2 -1 d 2 -2 d 2 -1 d 2 -2 d 2 -1 d 2 -2 d 2 -1 d 1 -2 d 2 -1 d 2 -2 d 2 -1 d 2 -2 d 2 -1 d 2 -1 d 2 -2 d 2 -1 d 2 -2 d 1 -1 d 2 -2 d 2 -1 d 2 -2 d 2 -1 d 2 -2 d 2 -1 d 2 -2 d 2
 -1 d 1 -2 d 2 -1 d s 748 1322 m 2 -1 d 2 -2 d 2 -1 d 2 -2 d 2 -1 d 2 -2 d 2 -1 d 1 -2 d 2 -1 d 2 -2 d 2 -1 d 2 -2 d 2 -1 d 2 -2 d 2 -1 d 2 -1 d 2 -2 d 1 -1 d 2 -2 d 2 -1 d 2 -2 d 2 -1 d 2 -2 d 2 -1 d 2 -2 d 2 -1 d 1 -2 d 2 -1 d 2 -2 d 2 -1 d 2 -1 d
 2 -2 d 2 -1 d 2 -2 d 2 -1 d 1 -2 d 2 -1 d 2 -2 d 2 -1 d 2 -2 d 2 -1 d 2 -2 d 2 -1 d 2 -2 d 2 -1 d 1 -1 d 2 -2 d 2 -1 d 2 -2 d s 841 1250 m 2 -1 d 2 -2 d 2 -1 d 2 -2 d 2 -1 d 1 -2 d 2 -1 d 2 -2 d 2 -1 d 2 -2 d 2 -1 d 2 -1 d 2 -2 d 2 -1 d 2 -2 d 1 -1
 d 2 -2 d 2 -1 d 2 -2 d 2 -1 d 2 -2 d 2 -1 d 2 -2 d 2 -1 d 1 -2 d 2 -1 d 2 -1 d 2 -2 d 2 -1 d 2 -2 d 2 -1 d 2 -2 d 2 -1 d 1 -2 d 2 -1 d 2 -2 d 2 -1 d 2 -2 d 2 -1 d 2 -2 d 2 -1 d 2 -1 d 2 -2 d 1 -1 d 2 -2 d 2 -1 d 2 -2 d 2 -1 d 2 -2 d s 934 1178 m 2
 -1 d 2 -2 d 2 -1 d 1 -2 d 2 -1 d 2 -2 d 2 -1 d 2 -1 d 2 -2 d 2 -1 d 2 -2 d 2 -1 d 2 -2 d 1 -1 d 2 -2 d 2 -1 d 2 -2 d 2 -1 d 2 -2 d 2 -1 d 2 -2 d 2 -1 d 1 -1 d 2 -2 d 2 -1 d 2 -2 d 2 -1 d 2 -2 d 2 -1 d 2 -2 d 2 -1 d 1 -2 d 2 -1 d 2 -2 d 2 -1 d 2 -2 d
 2 -1 d 2 -1 d 2 -2 d 2 -1 d 2 -2 d 1 -1 d 2 -2 d 2 -1 d 2 -2 d 2 -1 d 2 -2 d 2 -1 d 2 -2 d s 1027 1106 m 2 -1 d 1 -1 d 2 -2 d 2 -1 d 2 -2 d 2 -1 d 2 -2 d 2 -1 d 2 -2 d 2 -1 d 2 -2 d 1 -1 d 2 -2 d 2 -1 d 2 -2 d 2 -1 d 2 -1 d 2 -2 d 2 -1 d 2 -2 d 1 -1
 d 2 -2 d 2 -1 d 2 -2 d 2 -1 d 2 -2 d 2 -1 d 2 -2 d 2 -1 d 1 -2 d 2 -1 d 2 -1 d 2 -2 d 2 -1 d 2 -2 d 2 -1 d 2 -2 d 2 -1 d 2 -2 d 1 -1 d 2 -2 d 2 -1 d 2 -2 d 2 -1 d 2 -2 d 2 -1 d 2 -1 d 2 -2 d 1 -1 d s 1119 1035 m 2 -2 d 2 -1 d 2 -2 d 2 -1 d 2 -2 d 2
 -1 d 2 -2 d 2 -1 d 2 -2 d 1 -1 d 2 -2 d 2 -1 d 2 -1 d 2 -2 d 2 -1 d 2 -2 d 2 -1 d 2 -2 d 1 -1 d 2 -2 d 2 -1 d 2 -2 d 2 -1 d 2 -2 d 2 -1 d 2 -2 d 2 -1 d 1 -1 d 2 -2 d 2 -1 d 2 -2 d 2 -1 d 2 -2 d 2 -1 d 2 -2 d 2 -1 d 2 -2 d 1 -1 d 2 -2 d 2 -1 d 2 -2 d
 2 -1 d 2 -1 d 2 -2 d 2 -1 d 2 -2 d 1 -1 d 2 -2 d 2 -1 d s 1212 963 m 2 -2 d 2 -1 d 2 -2 d 2 -1 d 2 -2 d 2 -1 d 2 -2 d 1 -1 d 2 -1 d 2 -2 d 2 -1 d 2 -2 d 2 -1 d 2 -2 d 2 -1 d 2 -2 d 1 -1 d 2 -2 d 2 -1 d 2 -2 d 2 -1 d 2 -2 d 2 -1 d 2 -1 d 2 -2 d 1 -1
 d 2 -2 d 2 -1 d 2 -2 d 2 -1 d 2 -2 d 2 -1 d 2 -2 d 2 -1 d 2 -2 d 1 -1 d 2 -2 d 2 -1 d 2 -1 d 2 -2 d 2 -1 d 2 -2 d 2 -1 d 2 -2 d 1 -1 d 2 -2 d 2 -1 d 2 -2 d 2 -1 d s 1305 891 m 2 -2 d 2 -1 d 2 -1 d 2 -2 d 1 -1 d 2 -2 d 2 -1 d 2 -2 d 2 -1 d 2 -2 d 2
 -1 d 2 -2 d 2 -1 d 2 -2 d 1 -1 d 2 -2 d 2 -1 d 2 -1 d 2 -2 d 2 -1 d 2 -2 d 2 -1 d 2 -2 d 1 -1 d 2 -2 d 2 -1 d 2 -2 d 2 -1 d 2 -2 d 2 -1 d 2 -2 d 2 -1 d 2 -1 d 1 -2 d 2 -1 d 2 -2 d 2 -1 d 2 -2 d 2 -1 d 2 -2 d 2 -1 d 2 -2 d 1 -1 d 2 -2 d 2 -1 d 2 -2 d
 2 -1 d 2 -1 d 2 -2 d s 1398 819 m 2 -1 d 2 -2 d 1 -1 d 2 -2 d 2 -1 d 2 -2 d 2 -1 d 2 -2 d 2 -1 d 2 -2 d 2 -1 d 2 -2 d 1 -1 d 2 -1 d 2 -2 d 2 -1 d 2 -2 d 2 -1 d 2 -2 d 2 -1 d 2 -2 d 1 -1 d 2 -2 d 2 -1 d 2 -2 d 2 -1 d 2 -2 d 2 -1 d 2 -1 d 2 -2 d 2 -1
 d 1 -2 d 2 -1 d 2 -2 d 2 -1 d 2 -2 d 2 -1 d 2 -2 d 2 -1 d 2 -2 d 1 -1 d 2 -2 d 2 -1 d 2 -1 d 2 -2 d 2 -1 d 2 -2 d 2 -1 d 2 -2 d s 1491 747 m 1 -1 d 2 -2 d 2 -1 d 2 -2 d 2 -1 d 2 -2 d 2 -1 d 2 -2 d 2 -1 d 2 -1 d 1 -2 d 2 -1 d 2 -2 d 2 -1 d 2 -2 d 2
 -1 d 2 -2 d 2 -1 d 2 -2 d 1 -1 d 2 -2 d 2 -1 d 2 -2 d 2 -1 d 2 -1 d 2 -2 d 2 -1 d 2 -2 d 2 -1 d 1 -2 d 2 -1 d 2 -2 d 2 -1 d 2 -2 d 2 -1 d 2 -2 d 2 -1 d 2 -2 d 1 -1 d 2 -1 d 2 -2 d 2 -1 d 2 -2 d 2 -1 d 2 -2 d 2 -1 d 2 -2 d 1 -1 d 2 -2 d s 1583 675 m
 2 -1 d 2 -2 d 2 -1 d 2 -2 d 2 -1 d 2 -1 d 2 -2 d 2 -1 d 1 -2 d 2 -1 d 2 -2 d 2 -1 d 2 -2 d 2 -1 d 2 -2 d 2 -1 d 2 -2 d 1 -1 d 2 -1 d 2 -2 d 2 -1 d 2 -2 d 2 -1 d 2 -2 d 2 -1 d 2 -2 d 2 -1 d 1 -2 d 2 -1 d 2 -2 d 2 -1 d 2 -2 d 2 -1 d 2 -1 d 2 -2 d 2 -1
 d 1 -2 d 2 -1 d 2 -2 d 2 -1 d 2 -2 d 2 -1 d 2 -2 d 2 -1 d 2 -2 d 1 -1 d 2 -2 d 2 -1 d 2 -1 d s 1676 604 m 2 -2 d 2 -1 d 2 -2 d 2 -1 d 2 -2 d 2 -1 d 1 -2 d 2 -1 d 2 -2 d 2 -1 d 2 -2 d 2 -1 d 2 -2 d 2 -1 d 2 -1 d 1 -2 d 2 -1 d 2 -2 d 2 -1 d 2 -2 d 2
 -1 d 2 -2 d 2 -1 d 2 -2 d 2 -1 d 1 -2 d 2 -1 d 2 -2 d 2 -1 d 2 -1 d 2 -2 d 2 -1 d 2 -2 d 2 -1 d 1 -2 d 2 -1 d 2 -2 d 2 -1 d 2 -2 d 2 -1 d 2 -2 d 2 -1 d 2 -2 d 1 -1 d 2 -1 d 2 -2 d 2 -1 d 2 -2 d 2 -1 d s 1769 532 m 2 -2 d 2 -1 d 2 -2 d 2 -1 d 1 -2 d
 2 -1 d 2 -2 d 2 -1 d 2 -2 d 2 -1 d 2 -1 d 2 -2 d 2 -1 d 1 -2 d 2 -1 d 2 -2 d 2 -1 d 2 -2 d 2 -1 d 2 -2 d 2 -1 d 2 -2 d 2 -1 d 1 -2 d 2 -1 d 2 -1 d 2 -2 d 2 -1 d 2 -2 d 2 -1 d 2 -2 d 2 -1 d 1 -2 d 2 -1 d 2 -2 d 2 -1 d 2 -2 d 2 -1 d 2 -2 d 2 -1 d 2 -1
 d 1 -2 d 2 -1 d 2 -2 d 2 -1 d 2 -2 d 2 -1 d 2 -2 d 2 -1 d s 1862 460 m 2 -2 d 2 -1 d 1 -2 d 2 -1 d 2 -2 d 2 -1 d 2 -1 d 2 -2 d 2 -1 d 2 -2 d 2 -1 d 1 -2 d 2 -1 d 2 -2 d 2 -1 d 2 -2 d 2 -1 d 2 -2 d 2 -1 d 2 -1 d 1 -2 d 2 -1 d 2 -2 d 2 -1 d 2 -2 d 2
 -1 d 2 -2 d 2 -1 d 2 -2 d 2 -1 d 1 -2 d 2 -1 d 2 -2 d 2 -1 d 2 -1 d 2 -2 d 2 -1 d 2 -2 d 2 -1 d 1 -2 d 2 -1 d 2 -2 d 2 -1 d 2 -2 d 2 -1 d 2 -2 d 2 -1 d 2 -2 d 2 -1 d s 1955 388 m 1 -1 d 2 -2 d 2 -1 d 2 -2 d 2 -1 d 2 -2 d 2 -1 d 2 -2 d 2 -1 d 1 -2 d
 2 -1 d 2 -2 d 2 -1 d 2 -2 d 2 -1 d 2 -1 d 2 -2 d 2 -1 d 1 -2 d 2 -1 d 2 -2 d 2 -1 d 2 -2 d 2 -1 d 2 -2 d 2 -1 d 2 -2 d 2 -1 d 1 -2 d 2 -1 d 2 -1 d 2 -2 d 2 -1 d 2 -2 d 2 -1 d 2 -2 d 2 -1 d 1 -2 d 2 -1 d 2 -2 d 2 -1 d 2 -2 d 2 -1 d 2 -2 d 2 -1 d 2 -1
 d 2 -2 d 1 -1 d 2 -2 d s 2047 316 m 2 -1 d 2 -2 d 2 -1 d 2 -2 d 2 -1 d 2 -2 d 2 -1 d 1 -2 d 2 -1 d 2 -2 d 2 -1 d 2 -1 d 2 -2 d 2 -1 d 2 -2 d 2 -1 d 1 -2 d 2 -1 d 2 -2 d 2 -1 d 2 -2 d 2 -1 d 2 -2 d 2 -1 d 2 -2 d 2 -1 d 1 -1 d 2 -2 d 2 -1 d 2 -2 d 2
 -1 d 2 -2 d 2 -1 d 2 -2 d 2 -1 d 1 -2 d 2 -1 d 2 -2 d 2 -1 d 2 -2 d 2 -1 d 2 -1 d 2 -2 d 2 -1 d 2 -2 d 1 -1 d 2 -2 d 2 -1 d 2 -2 d s 2140 244 m 2 -1 d 2 -2 d 2 -1 d 2 -2 d 2 -1 d 1 -2 d 2 -1 d 2 -1 d 2 -2 d 2 -1 d 2 -2 d 2 -1 d 2 -2 d 2 -1 d 1 -2 d
 2 -1 d 2 -2 d 2 -1 d 2 -2 d s 283 216 m 1894 X s
 gsave  2268 1774 0 0 C 1746.9 27.1258 t 0 r /Helvetica findfont 78.6648 sf 0 0 m (Altitude [km]) show NC gr  283 261 m -45 Y s 347 239 m -23 Y s 410 239 m -23 Y s 473 239 m -23 Y s 536 239 m -23 Y s 599 261 m -45 Y s 662 239 m -23 Y s 725 239 m -23
 Y s 788 239 m -23 Y s 852 239 m -23 Y s 915 261 m -45 Y s 978 239 m -23 Y s 1041 239 m -23 Y s 1104 239 m -23 Y s 1167 239 m -23 Y s 1230 261 m -45 Y s 1293 239 m -23 Y s 1356 239 m -23 Y s 1420 239 m -23 Y s 1483 239 m -23 Y s 1546 261 m -45 Y s
 1609 239 m -23 Y s 1672 239 m -23 Y s 1735 239 m -23 Y s 1798 239 m -23 Y s 1861 261 m -45 Y s 1925 239 m -23 Y s 1988 239 m -23 Y s 2051 239 m -23 Y s 2114 239 m -23 Y s 2177 261 m -45 Y s
 gsave  2268 1774 0 0 C 263.12 149.192 t 0 r /Helvetica findfont 70.5271 sf 0 0 m (0) show NC gr 
 gsave  2268 1774 0 0 C 558.791 149.192 t 0 r /Helvetica findfont 70.5271 sf 0 0 m (50) show NC gr 
 gsave  2268 1774 0 0 C 854.463 149.192 t 0 r /Helvetica findfont 70.5271 sf 0 0 m (100) show NC gr 
 gsave  2268 1774 0 0 C 1169.12 149.192 t 0 r /Helvetica findfont 70.5271 sf 0 0 m (150) show NC gr 
 gsave  2268 1774 0 0 C 1483.78 149.192 t 0 r /Helvetica findfont 70.5271 sf 0 0 m (200) show NC gr 
 gsave  2268 1774 0 0 C 1801.15 149.192 t 0 r /Helvetica findfont 70.5271 sf 0 0 m (250) show NC gr 
 gsave  2268 1774 0 0 C 2115.81 149.192 t 0 r /Helvetica findfont 70.5271 sf 0 0 m (300) show NC gr  283 1703 m 1894 X s 283 1659 m 44 Y s 347 1681 m 22 Y s 410 1681 m 22 Y s 473 1681 m 22 Y s 536 1681 m 22 Y s 599 1659 m 44 Y s 662 1681 m 22 Y s 725
 1681 m 22 Y s 788 1681 m 22 Y s 852 1681 m 22 Y s 915 1659 m 44 Y s 978 1681 m 22 Y s 1041 1681 m 22 Y s 1104 1681 m 22 Y s 1167 1681 m 22 Y s 1230 1659 m 44 Y s 1293 1681 m 22 Y s 1356 1681 m 22 Y s 1420 1681 m 22 Y s 1483 1681 m 22 Y s 1546 1659 m
 44 Y s 1609 1681 m 22 Y s 1672 1681 m 22 Y s 1735 1681 m 22 Y s 1798 1681 m 22 Y s 1861 1659 m 44 Y s 1925 1681 m 22 Y s 1988 1681 m 22 Y s 2051 1681 m 22 Y s 2114 1681 m 22 Y s 2177 1659 m 44 Y s 283 216 m 1487 Y s
 gsave  2268 1774 0 0 C 84.09 740.534 t 90 r /Helvetica findfont 78.6648 sf 0 0 m (Atmospheric pressure [kPa]) show NC gr  312 222 m -29 X s 312 232 m -29 X s 312 240 m -29 X s 312 246 m -29 X s 312 251 m -29 X s 312 256 m -29 X s 312 260 m -29 X s
 340 264 m -57 X s
 gsave  2268 1774 0 0 C 198.018 265.833 t 0 r /Helvetica findfont 46.1139 sf 0 0 m (\25516) show NC gr 
 gsave  2268 1774 0 0 C 122.066 233.282 t 0 r /Helvetica findfont 70.5271 sf 0 0 m (10) show NC gr  312 287 m -29 X s 312 301 m -29 X s 312 311 m -29 X s 312 319 m -29 X s 312 325 m -29 X s 312 330 m -29 X s 312 335 m -29 X s 312 339 m -29 X s 340
 342 m -57 X s 312 366 m -29 X s 312 380 m -29 X s 312 390 m -29 X s 312 397 m -29 X s 312 404 m -29 X s 312 409 m -29 X s 312 413 m -29 X s 312 417 m -29 X s 340 421 m -57 X s
 gsave  2268 1774 0 0 C 195.306 420.45 t 0 r /Helvetica findfont 46.1139 sf 0 0 m (\25514) show NC gr 
 gsave  2268 1774 0 0 C 119.354 390.611 t 0 r /Helvetica findfont 70.5271 sf 0 0 m (10) show NC gr  312 445 m -29 X s 312 459 m -29 X s 312 468 m -29 X s 312 476 m -29 X s 312 482 m -29 X s 312 488 m -29 X s 312 492 m -29 X s 312 496 m -29 X s 340
 500 m -57 X s 312 524 m -29 X s 312 537 m -29 X s 312 547 m -29 X s 312 555 m -29 X s 312 561 m -29 X s 312 566 m -29 X s 312 571 m -29 X s 312 575 m -29 X s 340 579 m -57 X s
 gsave  2268 1774 0 0 C 198.018 577.779 t 0 r /Helvetica findfont 46.1139 sf 0 0 m (\25512) show NC gr 
 gsave  2268 1774 0 0 C 122.066 547.941 t 0 r /Helvetica findfont 70.5271 sf 0 0 m (10) show NC gr  312 602 m -29 X s 312 616 m -29 X s 312 626 m -29 X s 312 634 m -29 X s 312 640 m -29 X s 312 645 m -29 X s 312 650 m -29 X s 312 654 m -29 X s 340
 657 m -57 X s 312 681 m -29 X s 312 695 m -29 X s 312 705 m -29 X s 312 712 m -29 X s 312 719 m -29 X s 312 724 m -29 X s 312 729 m -29 X s 312 733 m -29 X s 340 736 m -57 X s
 gsave  2268 1774 0 0 C 198.018 737.822 t 0 r /Helvetica findfont 46.1139 sf 0 0 m (\25510) show NC gr 
 gsave  2268 1774 0 0 C 122.066 705.271 t 0 r /Helvetica findfont 70.5271 sf 0 0 m (10) show NC gr  312 760 m -29 X s 312 774 m -29 X s 312 784 m -29 X s 312 791 m -29 X s 312 797 m -29 X s 312 803 m -29 X s 312 807 m -29 X s 312 811 m -29 X s 340
 815 m -57 X s 312 839 m -29 X s 312 853 m -29 X s 312 862 m -29 X s 312 870 m -29 X s 312 876 m -29 X s 312 882 m -29 X s 312 886 m -29 X s 312 890 m -29 X s 340 894 m -57 X s
 gsave  2268 1774 0 0 C 222.432 895.151 t 0 r /Helvetica findfont 46.1139 sf 0 0 m (\2558) show NC gr 
 gsave  2268 1774 0 0 C 146.479 862.6 t 0 r /Helvetica findfont 70.5271 sf 0 0 m (10) show NC gr  312 917 m -29 X s 312 931 m -29 X s 312 941 m -29 X s 312 949 m -29 X s 312 955 m -29 X s 312 960 m -29 X s 312 965 m -29 X s 312 969 m -29 X s 340 972
 m -57 X s 312 996 m -29 X s 312 1010 m -29 X s 312 1020 m -29 X s 312 1028 m -29 X s 312 1034 m -29 X s 312 1039 m -29 X s 312 1044 m -29 X s 312 1048 m -29 X s 340 1051 m -57 X s
 gsave  2268 1774 0 0 C 222.432 1052.48 t 0 r /Helvetica findfont 46.1139 sf 0 0 m (\2556) show NC gr 
 gsave  2268 1774 0 0 C 146.479 1019.93 t 0 r /Helvetica findfont 70.5271 sf 0 0 m (10) show NC gr  312 1075 m -29 X s 312 1089 m -29 X s 312 1099 m -29 X s 312 1106 m -29 X s 312 1113 m -29 X s 312 1118 m -29 X s 312 1122 m -29 X s 312 1126 m -29 X
 s 340 1130 m -57 X s 312 1154 m -29 X s 312 1168 m -29 X s 312 1177 m -29 X s 312 1185 m -29 X s 312 1191 m -29 X s 312 1197 m -29 X s 312 1201 m -29 X s 312 1205 m -29 X s 340 1209 m -57 X s
 gsave  2268 1774 0 0 C 222.432 1207.1 t 0 r /Helvetica findfont 46.1139 sf 0 0 m (\2554) show NC gr 
 gsave  2268 1774 0 0 C 146.479 1177.26 t 0 r /Helvetica findfont 70.5271 sf 0 0 m (10) show NC gr  312 1233 m -29 X s 312 1246 m -29 X s 312 1256 m -29 X s 312 1264 m -29 X s 312 1270 m -29 X s 312 1275 m -29 X s 312 1280 m -29 X s 312 1284 m -29 X
 s 340 1288 m -57 X s 312 1311 m -29 X s 312 1325 m -29 X s 312 1335 m -29 X s 312 1343 m -29 X s 312 1349 m -29 X s 312 1354 m -29 X s 312 1359 m -29 X s 312 1363 m -29 X s 340 1366 m -57 X s
 gsave  2268 1774 0 0 C 222.432 1364.43 t 0 r /Helvetica findfont 46.1139 sf 0 0 m (\2552) show NC gr 
 gsave  2268 1774 0 0 C 146.479 1334.59 t 0 r /Helvetica findfont 70.5271 sf 0 0 m (10) show NC gr  312 1390 m -29 X s 312 1404 m -29 X s 312 1414 m -29 X s 312 1421 m -29 X s 312 1428 m -29 X s 312 1433 m -29 X s 312 1438 m -29 X s 312 1442 m -29 X
 s 340 1445 m -57 X s 312 1469 m -29 X s 312 1483 m -29 X s 312 1493 m -29 X s 312 1500 m -29 X s 312 1506 m -29 X s 312 1512 m -29 X s 312 1516 m -29 X s 312 1520 m -29 X s 340 1524 m -57 X s
 gsave  2268 1774 0 0 C 264.387 1495.72 t 0 r  -38 0 t /Helvetica findfont 67.8145 sf 0 0 m (1) show NC gr  312 1548 m -29 X s 312 1562 m -29 X s 312 1571 m -29 X s 312 1579 m -29 X s 312 1585 m -29 X s 312 1591 m -29 X s 312 1595 m -29 X s 312 1599
 m -29 X s 340 1603 m -57 X s 312 1626 m -29 X s 312 1640 m -29 X s 312 1650 m -29 X s 312 1658 m -29 X s 312 1664 m -29 X s 312 1669 m -29 X s 312 1674 m -29 X s 312 1678 m -29 X s 340 1681 m -57 X s
 gsave  2268 1774 0 0 C 238.707 1679.09 t 0 r /Helvetica findfont 46.1139 sf 0 0 m (2) show NC gr 
 gsave  2268 1774 0 0 C 162.755 1649.25 t 0 r /Helvetica findfont 70.5271 sf 0 0 m (10) show NC gr  2177 216 m 1487 Y s 2149 222 m 28 X s 2149 232 m 28 X s 2149 240 m 28 X s 2149 246 m 28 X s 2149 251 m 28 X s 2149 256 m 28 X s 2149 260 m 28 X s 2120
 264 m 57 X s 2149 287 m 28 X s 2149 301 m 28 X s 2149 311 m 28 X s 2149 319 m 28 X s 2149 325 m 28 X s 2149 330 m 28 X s 2149 335 m 28 X s 2149 339 m 28 X s 2120 342 m 57 X s 2149 366 m 28 X s 2149 380 m 28 X s 2149 390 m 28 X s 2149 397 m 28 X s
 2149 404 m 28 X s 2149 409 m 28 X s 2149 413 m 28 X s 2149 417 m 28 X s 2120 421 m 57 X s 2149 445 m 28 X s 2149 459 m 28 X s 2149 468 m 28 X s 2149 476 m 28 X s 2149 482 m 28 X s 2149 488 m 28 X s 2149 492 m 28 X s 2149 496 m 28 X s 2120 500 m 57 X
 s 2149 524 m 28 X s 2149 537 m 28 X s 2149 547 m 28 X s 2149 555 m 28 X s 2149 561 m 28 X s 2149 566 m 28 X s 2149 571 m 28 X s 2149 575 m 28 X s 2120 579 m 57 X s 2149 602 m 28 X s 2149 616 m 28 X s 2149 626 m 28 X s 2149 634 m 28 X s 2149 640 m 28
 X s 2149 645 m 28 X s 2149 650 m 28 X s 2149 654 m 28 X s 2120 657 m 57 X s 2149 681 m 28 X s 2149 695 m 28 X s 2149 705 m 28 X s 2149 712 m 28 X s 2149 719 m 28 X s 2149 724 m 28 X s 2149 729 m 28 X s 2149 733 m 28 X s 2120 736 m 57 X s 2149 760 m
 28 X s 2149 774 m 28 X s 2149 784 m 28 X s 2149 791 m 28 X s 2149 797 m 28 X s 2149 803 m 28 X s 2149 807 m 28 X s 2149 811 m 28 X s 2120 815 m 57 X s 2149 839 m 28 X s 2149 853 m 28 X s 2149 862 m 28 X s 2149 870 m 28 X s 2149 876 m 28 X s 2149 882
 m 28 X s 2149 886 m 28 X s 2149 890 m 28 X s 2120 894 m 57 X s 2149 917 m 28 X s 2149 931 m 28 X s 2149 941 m 28 X s 2149 949 m 28 X s 2149 955 m 28 X s 2149 960 m 28 X s 2149 965 m 28 X s 2149 969 m 28 X s 2120 972 m 57 X s 2149 996 m 28 X s 2149
 1010 m 28 X s 2149 1020 m 28 X s 2149 1028 m 28 X s 2149 1034 m 28 X s 2149 1039 m 28 X s 2149 1044 m 28 X s 2149 1048 m 28 X s 2120 1051 m 57 X s 2149 1075 m 28 X s 2149 1089 m 28 X s 2149 1099 m 28 X s 2149 1106 m 28 X s 2149 1113 m 28 X s 2149
 1118 m 28 X s 2149 1122 m 28 X s 2149 1126 m 28 X s 2120 1130 m 57 X s 2149 1154 m 28 X s 2149 1168 m 28 X s 2149 1177 m 28 X s 2149 1185 m 28 X s 2149 1191 m 28 X s 2149 1197 m 28 X s 2149 1201 m 28 X s 2149 1205 m 28 X s 2120 1209 m 57 X s 2149
 1233 m 28 X s 2149 1246 m 28 X s 2149 1256 m 28 X s 2149 1264 m 28 X s 2149 1270 m 28 X s 2149 1275 m 28 X s 2149 1280 m 28 X s 2149 1284 m 28 X s 2120 1288 m 57 X s 2149 1311 m 28 X s 2149 1325 m 28 X s 2149 1335 m 28 X s 2149 1343 m 28 X s 2149
 1349 m 28 X s 2149 1354 m 28 X s 2149 1359 m 28 X s 2149 1363 m 28 X s 2120 1366 m 57 X s 2149 1390 m 28 X s 2149 1404 m 28 X s 2149 1414 m 28 X s 2149 1421 m 28 X s 2149 1428 m 28 X s 2149 1433 m 28 X s 2149 1438 m 28 X s 2149 1442 m 28 X s 2120
 1445 m 57 X s 2149 1469 m 28 X s 2149 1483 m 28 X s 2149 1493 m 28 X s 2149 1500 m 28 X s 2149 1506 m 28 X s 2149 1512 m 28 X s 2149 1516 m 28 X s 2149 1520 m 28 X s 2120 1524 m 57 X s 2149 1548 m 28 X s 2149 1562 m 28 X s 2149 1571 m 28 X s 2149
 1579 m 28 X s 2149 1585 m 28 X s 2149 1591 m 28 X s 2149 1595 m 28 X s 2149 1599 m 28 X s 2120 1603 m 57 X s 2149 1626 m 28 X s 2149 1640 m 28 X s 2149 1650 m 28 X s 2149 1658 m 28 X s 2149 1664 m 28 X s 2149 1669 m 28 X s 2149 1674 m 28 X s 2149
 1678 m 28 X s 2120 1681 m 57 X s
 gr  gr showpage
end
%%EOF
