%!PS-Adobe-2.0 EPSF-2.0
%%BoundingBox:  0 0 567 444
%%Title: atmospheric_density.eps: atmospheric_density
%%Creator: ROOT Version 5.34/14
%%CreationDate: Thu Jul 17 15:34:51 2014
%%EndComments
%%BeginProlog
80 dict begin
/s {stroke} def /l {lineto} def /m {moveto} def /t {translate} def
/r {rotate} def /rl {roll}  def /R {repeat} def
/d {rlineto} def /rm {rmoveto} def /gr {grestore} def /f {eofill} def
/c {setrgbcolor} def /black {0 setgray} def /sd {setdash} def
/cl {closepath} def /sf {scalefont setfont} def /lw {setlinewidth} def
/box {m dup 0 exch d exch 0 d 0 exch neg d cl} def
/NC{systemdict begin initclip end}def/C{NC box clip newpath}def
/bl {box s} def /bf {box f} def /Y { 0 exch d} def /X { 0 d} def 
/K {{pop pop 0 moveto} exch kshow} bind def
/ita {/ang 15 def gsave [1 0 ang dup sin exch cos div 1 0 0] concat} def 
/mp {newpath /y exch def /x exch def} def
/side {[w .77 mul w .23 mul] .385 w mul sd w 0 l currentpoint t -144 r} def
/mr {mp x y w2 0 360 arc} def /m24 {mr s} def /m20 {mr f} def
/mb {mp x y w2 add m w2 neg 0 d 0 w neg d w 0 d 0 w d cl} def
/mt {mp x y w2 add m w2 neg w neg d w 0 d cl} def
/m21 {mb f} def /m25 {mb s} def /m22 {mt f} def /m26{mt s} def
/m23 {mp x y w2 sub m w2 w d w neg 0 d cl f} def
/m27 {mp x y w2 add m w3 neg w2 neg d w3 w2 neg d w3 w2 d cl s} def
/m28 {mp x w2 sub y w2 sub w3 add m w3 0 d  0 w3 neg d w3 0 d 0 w3 d w3 0 d  0 w3 d w3 neg 0 d 0 w3 d w3 neg 0 d 0 w3 neg d w3 neg 0 d cl s } def
/m29 {mp gsave x w2 sub y w2 add w3 sub m currentpoint t 4 {side} repeat cl fill gr} def
/m30 {mp gsave x w2 sub y w2 add w3 sub m currentpoint t 4 {side} repeat cl s gr} def
/m31 {mp x y w2 sub m 0 w d x w2 sub y m w 0 d x w2 sub y w2 add m w w neg d x w2 sub y w2 sub m w w d s} def
/m32 {mp x y w2 sub m w2 w d w neg 0 d cl s} def
/m33 {mp x y w2 add m w3 neg w2 neg d w3 w2 neg d w3 w2 d cl f} def
/m34 {mp x w2 sub y w2 sub w3 add m w3 0 d  0 w3 neg d w3 0 d 0 w3 d w3 0 d  0 w3 d w3 neg 0 d 0 w3 d w3 neg 0 d 0 w3 neg d w3 neg 0 d cl f } def
/m2 {mp x y w2 sub m 0 w d x w2 sub y m w 0 d s} def
/m5 {mp x w2 sub y w2 sub m w w d x w2 sub y w2 add m w w neg d s} def
/reEncode {exch findfont dup length dict begin {1 index /FID eq  {pop pop} {def} ifelse } forall /Encoding exch def currentdict end dup /FontName get exch definefont pop } def [/Times-Bold /Times-Italic /Times-BoldItalic /Helvetica /Helvetica-Oblique
 /Helvetica-Bold /Helvetica-BoldOblique /Courier /Courier-Oblique /Courier-Bold /Courier-BoldOblique /Times-Roman /AvantGarde-Book /AvantGarde-BookOblique /AvantGarde-Demi /AvantGarde-DemiOblique /Bookman-Demi /Bookman-DemiItalic /Bookman-Light
 /Bookman-LightItalic /Helvetica-Narrow /Helvetica-Narrow-Bold /Helvetica-Narrow-BoldOblique /Helvetica-Narrow-Oblique /NewCenturySchlbk-Roman /NewCenturySchlbk-Bold /NewCenturySchlbk-BoldItalic /NewCenturySchlbk-Italic /Palatino-Bold
 /Palatino-BoldItalic /Palatino-Italic /Palatino-Roman ] {ISOLatin1Encoding reEncode } forall
%%EndProlog
%%BeginSetup
%%EndSetup
newpath  gsave  .25 .25 scale  gsave  0 0 t black[  ] 0 sd 6 lw 1 1 1 c 2268 1774 0 0 bf black 3 lw 1 1 1 c 1894 1487 283 216 bf black 1894 1487 283 216 bl 1 1 1 c 1894 1487 283 216 bf black 1894 1487 283 216 bl 6 lw 283 216 m 1894 X s 0.6 0.6 0.6 c[
 12 12] 0 sd 3 lw 283 1703 m -1487 Y s 597 1703 m -1487 Y s 911 1703 m -1487 Y s 1225 1703 m -1487 Y s 1539 1703 m -1487 Y s 1853 1703 m -1487 Y s 2167 1703 m -1487 Y s 2167 1703 m -1487 Y s black[  ] 0 sd 6 lw 283 1703 m 1894 X s 283 216 m 1487 Y s
 0.6 0.6 0.6 c[ 12 12] 0 sd 3 lw 2177 216 m -1894 X s 2177 331 m -1894 X s 2177 445 m -1894 X s 2177 560 m -1894 X s 2177 674 m -1894 X s 2177 788 m -1894 X s 2177 903 m -1894 X s 2177 1017 m -1894 X s 2177 1131 m -1894 X s 2177 1246 m -1894 X s 2177
 1360 m -1894 X s 2177 1474 m -1894 X s 2177 1589 m -1894 X s 2177 1703 m -1894 X s black[  ] 0 sd 6 lw 2177 216 m 1487 Y s 283 216 m 1894 X s
 gsave  2268 1774 0 0 C 1746.9 27.1258 t 0 r /Helvetica findfont 78.6648 sf 0 0 m (Altitude [km]) show NC gr  283 261 m -45 Y s 346 239 m -23 Y s 409 239 m -23 Y s 472 239 m -23 Y s 535 239 m -23 Y s 597 261 m -45 Y s 660 239 m -23 Y s 723 239 m -23
 Y s 786 239 m -23 Y s 849 239 m -23 Y s 911 261 m -45 Y s 974 239 m -23 Y s 1037 239 m -23 Y s 1100 239 m -23 Y s 1163 239 m -23 Y s 1225 261 m -45 Y s 1288 239 m -23 Y s 1351 239 m -23 Y s 1414 239 m -23 Y s 1476 239 m -23 Y s 1539 261 m -45 Y s
 1602 239 m -23 Y s 1665 239 m -23 Y s 1728 239 m -23 Y s 1790 239 m -23 Y s 1853 261 m -45 Y s 1916 239 m -23 Y s 1979 239 m -23 Y s 2042 239 m -23 Y s 2104 239 m -23 Y s 2167 261 m -45 Y s 2167 261 m -45 Y s
 gsave  2268 1774 0 0 C 263.12 149.192 t 0 r /Helvetica findfont 70.5271 sf 0 0 m (0) show NC gr 
 gsave  2268 1774 0 0 C 558.791 149.192 t 0 r /Helvetica findfont 70.5271 sf 0 0 m (50) show NC gr 
 gsave  2268 1774 0 0 C 849.037 149.192 t 0 r /Helvetica findfont 70.5271 sf 0 0 m (100) show NC gr 
 gsave  2268 1774 0 0 C 1163.7 149.192 t 0 r /Helvetica findfont 70.5271 sf 0 0 m (150) show NC gr 
 gsave  2268 1774 0 0 C 1478.36 149.192 t 0 r /Helvetica findfont 70.5271 sf 0 0 m (200) show NC gr 
 gsave  2268 1774 0 0 C 1793.02 149.192 t 0 r /Helvetica findfont 70.5271 sf 0 0 m (250) show NC gr 
 gsave  2268 1774 0 0 C 2104.96 149.192 t 0 r /Helvetica findfont 70.5271 sf 0 0 m (300) show NC gr  283 1703 m 1894 X s 283 1659 m 44 Y s 346 1681 m 22 Y s 409 1681 m 22 Y s 472 1681 m 22 Y s 535 1681 m 22 Y s 597 1659 m 44 Y s 660 1681 m 22 Y s 723
 1681 m 22 Y s 786 1681 m 22 Y s 849 1681 m 22 Y s 911 1659 m 44 Y s 974 1681 m 22 Y s 1037 1681 m 22 Y s 1100 1681 m 22 Y s 1163 1681 m 22 Y s 1225 1659 m 44 Y s 1288 1681 m 22 Y s 1351 1681 m 22 Y s 1414 1681 m 22 Y s 1476 1681 m 22 Y s 1539 1659 m
 44 Y s 1602 1681 m 22 Y s 1665 1681 m 22 Y s 1728 1681 m 22 Y s 1790 1681 m 22 Y s 1853 1659 m 44 Y s 1916 1681 m 22 Y s 1979 1681 m 22 Y s 2042 1681 m 22 Y s 2104 1681 m 22 Y s 2167 1659 m 44 Y s 2167 1659 m 44 Y s 283 216 m 1487 Y s
 gsave  2268 1774 0 0 C 92.2277 1684.51 t 90 r /Helvetica findfont 78.6648 sf 0 0 m (]) show NC gr 
 gsave  2268 1774 0 0 C 51.539 1641.11 t 90 r /Helvetica findfont 51.539 sf 0 0 m (\2553) show NC gr 
 gsave  2268 1774 0 0 C 92.2277 718.834 t 90 r /Helvetica findfont 78.6648 sf 0 0 m (Atmospheric density [g cm) show NC gr  340 216 m -57 X s
 gsave  2268 1774 0 0 C 198.018 217.006 t 0 r /Helvetica findfont 46.1139 sf 0 0 m (\25515) show NC gr 
 gsave  2268 1774 0 0 C 122.066 184.455 t 0 r /Helvetica findfont 70.5271 sf 0 0 m (10) show NC gr  312 251 m -29 X s 312 271 m -29 X s 312 285 m -29 X s 312 296 m -29 X s 312 305 m -29 X s 312 313 m -29 X s 312 320 m -29 X s 312 326 m -29 X s 340
 331 m -57 X s
 gsave  2268 1774 0 0 C 195.306 328.222 t 0 r /Helvetica findfont 46.1139 sf 0 0 m (\25514) show NC gr 
 gsave  2268 1774 0 0 C 119.354 298.384 t 0 r /Helvetica findfont 70.5271 sf 0 0 m (10) show NC gr  312 365 m -29 X s 312 385 m -29 X s 312 400 m -29 X s 312 411 m -29 X s 312 420 m -29 X s 312 427 m -29 X s 312 434 m -29 X s 312 440 m -29 X s 340
 445 m -57 X s
 gsave  2268 1774 0 0 C 198.018 447.576 t 0 r /Helvetica findfont 46.1139 sf 0 0 m (\25513) show NC gr 
 gsave  2268 1774 0 0 C 122.066 415.025 t 0 r /Helvetica findfont 70.5271 sf 0 0 m (10) show NC gr  312 480 m -29 X s 312 500 m -29 X s 312 514 m -29 X s 312 525 m -29 X s 312 534 m -29 X s 312 542 m -29 X s 312 548 m -29 X s 312 554 m -29 X s 340
 560 m -57 X s
 gsave  2268 1774 0 0 C 198.018 558.791 t 0 r /Helvetica findfont 46.1139 sf 0 0 m (\25512) show NC gr 
 gsave  2268 1774 0 0 C 122.066 528.953 t 0 r /Helvetica findfont 70.5271 sf 0 0 m (10) show NC gr  312 594 m -29 X s 312 614 m -29 X s 312 628 m -29 X s 312 639 m -29 X s 312 648 m -29 X s 312 656 m -29 X s 312 663 m -29 X s 312 669 m -29 X s 340
 674 m -57 X s
 gsave  2268 1774 0 0 C 203.443 672.72 t 0 r /Helvetica findfont 46.1139 sf 0 0 m (\25511) show NC gr 
 gsave  2268 1774 0 0 C 127.491 642.881 t 0 r /Helvetica findfont 70.5271 sf 0 0 m (10) show NC gr  312 708 m -29 X s 312 728 m -29 X s 312 743 m -29 X s 312 754 m -29 X s 312 763 m -29 X s 312 770 m -29 X s 312 777 m -29 X s 312 783 m -29 X s 340
 788 m -57 X s
 gsave  2268 1774 0 0 C 198.018 789.361 t 0 r /Helvetica findfont 46.1139 sf 0 0 m (\25510) show NC gr 
 gsave  2268 1774 0 0 C 122.066 756.81 t 0 r /Helvetica findfont 70.5271 sf 0 0 m (10) show NC gr  312 823 m -29 X s 312 843 m -29 X s 312 857 m -29 X s 312 868 m -29 X s 312 877 m -29 X s 312 885 m -29 X s 312 891 m -29 X s 312 897 m -29 X s 340 903
 m -57 X s
 gsave  2268 1774 0 0 C 222.432 903.289 t 0 r /Helvetica findfont 46.1139 sf 0 0 m (\2559) show NC gr 
 gsave  2268 1774 0 0 C 146.479 870.738 t 0 r /Helvetica findfont 70.5271 sf 0 0 m (10) show NC gr  312 937 m -29 X s 312 957 m -29 X s 312 971 m -29 X s 312 983 m -29 X s 312 992 m -29 X s 312 999 m -29 X s 312 1006 m -29 X s 312 1012 m -29 X s 340
 1017 m -57 X s
 gsave  2268 1774 0 0 C 222.432 1017.22 t 0 r /Helvetica findfont 46.1139 sf 0 0 m (\2558) show NC gr 
 gsave  2268 1774 0 0 C 146.479 984.666 t 0 r /Helvetica findfont 70.5271 sf 0 0 m (10) show NC gr  312 1051 m -29 X s 312 1071 m -29 X s 312 1086 m -29 X s 312 1097 m -29 X s 312 1106 m -29 X s 312 1114 m -29 X s 312 1120 m -29 X s 312 1126 m -29 X
 s 340 1131 m -57 X s
 gsave  2268 1774 0 0 C 222.432 1131.15 t 0 r /Helvetica findfont 46.1139 sf 0 0 m (\2557) show NC gr 
 gsave  2268 1774 0 0 C 146.479 1101.31 t 0 r /Helvetica findfont 70.5271 sf 0 0 m (10) show NC gr  312 1166 m -29 X s 312 1186 m -29 X s 312 1200 m -29 X s 312 1211 m -29 X s 312 1220 m -29 X s 312 1228 m -29 X s 312 1235 m -29 X s 312 1240 m -29 X
 s 340 1246 m -57 X s
 gsave  2268 1774 0 0 C 222.432 1247.79 t 0 r /Helvetica findfont 46.1139 sf 0 0 m (\2556) show NC gr 
 gsave  2268 1774 0 0 C 146.479 1215.24 t 0 r /Helvetica findfont 70.5271 sf 0 0 m (10) show NC gr  312 1280 m -29 X s 312 1300 m -29 X s 312 1314 m -29 X s 312 1326 m -29 X s 312 1335 m -29 X s 312 1342 m -29 X s 312 1349 m -29 X s 312 1355 m -29 X
 s 340 1360 m -57 X s
 gsave  2268 1774 0 0 C 222.432 1361.71 t 0 r /Helvetica findfont 46.1139 sf 0 0 m (\2555) show NC gr 
 gsave  2268 1774 0 0 C 146.479 1329.16 t 0 r /Helvetica findfont 70.5271 sf 0 0 m (10) show NC gr  312 1394 m -29 X s 312 1415 m -29 X s 312 1429 m -29 X s 312 1440 m -29 X s 312 1449 m -29 X s 312 1457 m -29 X s 312 1463 m -29 X s 312 1469 m -29 X
 s 340 1474 m -57 X s
 gsave  2268 1774 0 0 C 222.432 1472.93 t 0 r /Helvetica findfont 46.1139 sf 0 0 m (\2554) show NC gr 
 gsave  2268 1774 0 0 C 146.479 1443.09 t 0 r /Helvetica findfont 70.5271 sf 0 0 m (10) show NC gr  312 1509 m -29 X s 312 1529 m -29 X s 312 1543 m -29 X s 312 1554 m -29 X s 312 1563 m -29 X s 312 1571 m -29 X s 312 1578 m -29 X s 312 1583 m -29 X
 s 340 1589 m -57 X s
 gsave  2268 1774 0 0 C 222.432 1589.57 t 0 r /Helvetica findfont 46.1139 sf 0 0 m (\2553) show NC gr 
 gsave  2268 1774 0 0 C 146.479 1557.02 t 0 r /Helvetica findfont 70.5271 sf 0 0 m (10) show NC gr  312 1623 m -29 X s 312 1643 m -29 X s 312 1658 m -29 X s 312 1669 m -29 X s 312 1678 m -29 X s 312 1685 m -29 X s 312 1692 m -29 X s 312 1698 m -29 X
 s 340 1703 m -57 X s
 gsave  2268 1774 0 0 C 222.432 1700.79 t 0 r /Helvetica findfont 46.1139 sf 0 0 m (\2552) show NC gr 
 gsave  2268 1774 0 0 C 146.479 1670.95 t 0 r /Helvetica findfont 70.5271 sf 0 0 m (10) show NC gr  2177 216 m 1487 Y s 2120 216 m 57 X s 2149 251 m 28 X s 2149 271 m 28 X s 2149 285 m 28 X s 2149 296 m 28 X s 2149 305 m 28 X s 2149 313 m 28 X s 2149
 320 m 28 X s 2149 326 m 28 X s 2120 331 m 57 X s 2149 365 m 28 X s 2149 385 m 28 X s 2149 400 m 28 X s 2149 411 m 28 X s 2149 420 m 28 X s 2149 427 m 28 X s 2149 434 m 28 X s 2149 440 m 28 X s 2120 445 m 57 X s 2149 480 m 28 X s 2149 500 m 28 X s
 2149 514 m 28 X s 2149 525 m 28 X s 2149 534 m 28 X s 2149 542 m 28 X s 2149 548 m 28 X s 2149 554 m 28 X s 2120 560 m 57 X s 2149 594 m 28 X s 2149 614 m 28 X s 2149 628 m 28 X s 2149 639 m 28 X s 2149 648 m 28 X s 2149 656 m 28 X s 2149 663 m 28 X
 s 2149 669 m 28 X s 2120 674 m 57 X s 2149 708 m 28 X s 2149 728 m 28 X s 2149 743 m 28 X s 2149 754 m 28 X s 2149 763 m 28 X s 2149 770 m 28 X s 2149 777 m 28 X s 2149 783 m 28 X s 2120 788 m 57 X s 2149 823 m 28 X s 2149 843 m 28 X s 2149 857 m 28
 X s 2149 868 m 28 X s 2149 877 m 28 X s 2149 885 m 28 X s 2149 891 m 28 X s 2149 897 m 28 X s 2120 903 m 57 X s 2149 937 m 28 X s 2149 957 m 28 X s 2149 971 m 28 X s 2149 983 m 28 X s 2149 992 m 28 X s 2149 999 m 28 X s 2149 1006 m 28 X s 2149 1012
 m 28 X s 2120 1017 m 57 X s 2149 1051 m 28 X s 2149 1071 m 28 X s 2149 1086 m 28 X s 2149 1097 m 28 X s 2149 1106 m 28 X s 2149 1114 m 28 X s 2149 1120 m 28 X s 2149 1126 m 28 X s 2120 1131 m 57 X s 2149 1166 m 28 X s 2149 1186 m 28 X s 2149 1200 m
 28 X s 2149 1211 m 28 X s 2149 1220 m 28 X s 2149 1228 m 28 X s 2149 1235 m 28 X s 2149 1240 m 28 X s 2120 1246 m 57 X s 2149 1280 m 28 X s 2149 1300 m 28 X s 2149 1314 m 28 X s 2149 1326 m 28 X s 2149 1335 m 28 X s 2149 1342 m 28 X s 2149 1349 m 28
 X s 2149 1355 m 28 X s 2120 1360 m 57 X s 2149 1394 m 28 X s 2149 1415 m 28 X s 2149 1429 m 28 X s 2149 1440 m 28 X s 2149 1449 m 28 X s 2149 1457 m 28 X s 2149 1463 m 28 X s 2149 1469 m 28 X s 2120 1474 m 57 X s 2149 1509 m 28 X s 2149 1529 m 28 X
 s 2149 1543 m 28 X s 2149 1554 m 28 X s 2149 1563 m 28 X s 2149 1571 m 28 X s 2149 1578 m 28 X s 2149 1583 m 28 X s 2120 1589 m 57 X s 2149 1623 m 28 X s 2149 1643 m 28 X s 2149 1658 m 28 X s 2149 1669 m 28 X s 2149 1678 m 28 X s 2149 1685 m 28 X s
 2149 1692 m 28 X s 2149 1698 m 28 X s 2120 1703 m 57 X s 0.8 0.8 0.8 c 3 lw 1 1 1 c black 0.8 0.8 0.8 c 283 1603 m 13 -12 d 13 -11 d 12 -11 d 13 -12 d 12 -14 d 13 -16 d 12 -16 d 13 -15 d 12 -16 d 13 -15 d 13 -15 d 12 -16 d 13 -16 d 12 -15 d 13 -16 d
 12 -15 d 13 -16 d 13 -15 d 12 -15 d 13 -15 d 12 -14 d 13 -13 d 12 -13 d 13 -12 d 12 -12 d 13 -12 d 13 -12 d 12 -12 d 13 -13 d 12 -13 d 13 -14 d 12 -13 d 13 -14 d 12 -13 d 13 -14 d 13 -14 d 12 -13 d 13 -15 d 12 -14 d 13 -15 d 12 -15 d 13 -15 d 12 -16
 d 13 -17 d 13 -17 d 12 -17 d 13 -18 d 12 -20 d 13 -20 d 12 -21 d 13 -22 d 12 -22 d 13 -21 d 13 -20 d 12 -18 d 13 -16 d 12 -13 d 13 -11 d 12 -10 d 13 -9 d 12 -8 d 13 -9 d 13 -9 d 12 -9 d 13 -8 d 12 -7 d 13 -7 d 12 -7 d 13 -7 d 13 -6 d 12 -6 d 13 -6 d
 12 -6 d 13 -5 d 12 -5 d 13 -5 d 12 -5 d 13 -5 d 13 -5 d 12 -5 d 13 -4 d 12 -4 d 13 -5 d 12 -4 d 13 -4 d 12 -4 d 13 -4 d 13 -4 d 12 -4 d 13 -3 d 12 -4 d 13 -4 d 12 -3 d 13 -4 d 12 -3 d 13 -4 d 13 -3 d 12 -3 d 13 -3 d 12 -4 d 13 -3 d 12 -3 d 13 -3 d
 12 -3 d 13 -3 d 13 -3 d 12 -3 d 13 -3 d 12 -3 d 13 -3 d 12 -3 d 13 -3 d 12 -2 d 13 -3 d 13 -3 d 12 -3 d 13 -2 d 12 -3 d 13 -3 d 12 -2 d 13 -3 d 12 -2 d 13 -3 d 13 -3 d 12 -2 d 13 -3 d 12 -2 d 13 -2 d 12 -3 d 13 -2 d 13 -3 d 12 -2 d 13 -3 d 12 -2 d
 13 -2 d 12 -3 d 13 -2 d 12 -2 d 13 -2 d 13 -3 d 12 -2 d 13 -2 d 12 -3 d 13 -2 d 12 -2 d 13 -2 d 12 -2 d 13 -2 d 13 -3 d s 1 1 1 c black 0.8 0.8 0.8 c 283 1597 m 13 -10 d 13 -10 d 12 -11 d 13 -10 d 12 -10 d 13 -11 d 12 -12 d 13 -15 d 12 -18 d 13 -18
 d 13 -17 d 12 -17 d 13 -16 d 12 -16 d 13 -16 d 12 -16 d 13 -15 d 13 -15 d 12 -15 d 13 -13 d 12 -14 d 13 -13 d 12 -12 d 13 -13 d 12 -12 d 13 -12 d 13 -12 d 12 -11 d 13 -12 d 12 -12 d 13 -12 d 12 -13 d 13 -13 d 12 -14 d 13 -14 d 13 -15 d 12 -15 d 13
 -15 d 12 -15 d 13 -15 d 12 -17 d 13 -17 d 12 -17 d 13 -19 d 13 -19 d 12 -20 d 13 -19 d 12 -18 d 13 -17 d 12 -15 d 13 -13 d 12 -12 d 13 -12 d 13 -13 d 12 -16 d 13 -16 d 12 -18 d 13 -18 d 12 -18 d 13 -16 d 12 -15 d 13 -12 d 13 -11 d 12 -10 d 13 -9 d
 12 -9 d 13 -8 d 12 -7 d 13 -8 d 13 -6 d 12 -7 d 13 -6 d 12 -6 d 13 -6 d 12 -6 d 13 -5 d 12 -5 d 13 -5 d 13 -5 d 12 -5 d 13 -5 d 12 -4 d 13 -5 d 12 -4 d 13 -4 d 12 -4 d 13 -4 d 13 -4 d 12 -4 d 13 -4 d 12 -4 d 13 -3 d 12 -4 d 13 -3 d 12 -4 d 13 -3 d
 13 -4 d 12 -3 d 13 -3 d 12 -3 d 13 -4 d 12 -3 d 13 -3 d 12 -3 d 13 -3 d 13 -3 d 12 -3 d 13 -3 d 12 -3 d 13 -3 d 12 -2 d 13 -3 d 12 -3 d 13 -3 d 13 -2 d 12 -3 d 13 -3 d 12 -2 d 13 -3 d 12 -3 d 13 -2 d 12 -3 d 13 -2 d 13 -3 d 12 -3 d 13 -2 d 12 -2 d
 13 -3 d 12 -2 d 13 -3 d 13 -2 d 12 -3 d 13 -2 d 12 -2 d 13 -3 d 12 -2 d 13 -2 d 12 -3 d 13 -2 d 13 -2 d 12 -3 d 13 -2 d 12 -2 d 13 -2 d 12 -3 d 13 -2 d 12 -2 d 13 -2 d 13 -2 d s 1 1 1 c black 0.8 0.8 0.8 c 283 1602 m 13 -11 d 13 -11 d 12 -11 d 13
 -13 d 12 -14 d 13 -15 d 12 -15 d 13 -16 d 12 -15 d 13 -15 d 13 -15 d 12 -15 d 13 -16 d 12 -15 d 13 -15 d 12 -16 d 13 -15 d 13 -15 d 12 -16 d 13 -15 d 12 -15 d 13 -14 d 12 -13 d 13 -13 d 12 -12 d 13 -13 d 13 -12 d 12 -12 d 13 -13 d 12 -13 d 13 -13 d
 12 -14 d 13 -13 d 12 -14 d 13 -13 d 13 -14 d 12 -14 d 13 -15 d 12 -14 d 13 -15 d 12 -15 d 13 -16 d 12 -16 d 13 -16 d 13 -17 d 12 -17 d 13 -18 d 12 -19 d 13 -20 d 12 -21 d 13 -21 d 12 -22 d 13 -21 d 13 -20 d 12 -18 d 13 -16 d 12 -13 d 13 -11 d 12 -10
 d 13 -9 d 12 -9 d 13 -9 d 13 -9 d 12 -8 d 13 -8 d 12 -8 d 13 -7 d 12 -7 d 13 -7 d 13 -7 d 12 -6 d 13 -6 d 12 -6 d 13 -5 d 12 -6 d 13 -5 d 12 -5 d 13 -5 d 13 -5 d 12 -5 d 13 -5 d 12 -4 d 13 -5 d 12 -4 d 13 -4 d 12 -4 d 13 -4 d 13 -4 d 12 -4 d 13 -4 d
 12 -4 d 13 -4 d 12 -4 d 13 -3 d 12 -4 d 13 -3 d 13 -4 d 12 -3 d 13 -4 d 12 -3 d 13 -3 d 12 -4 d 13 -3 d 12 -3 d 13 -3 d 13 -3 d 12 -3 d 13 -3 d 12 -3 d 13 -3 d 12 -3 d 13 -3 d 12 -3 d 13 -3 d 13 -3 d 12 -3 d 13 -2 d 12 -3 d 13 -3 d 12 -3 d 13 -2 d
 12 -3 d 13 -3 d 13 -2 d 12 -3 d 13 -2 d 12 -3 d 13 -3 d 12 -2 d 13 -3 d 13 -2 d 12 -3 d 13 -2 d 12 -3 d 13 -2 d 12 -2 d 13 -3 d 12 -2 d 13 -3 d 13 -2 d 12 -2 d 13 -3 d 12 -2 d 13 -2 d 12 -2 d 13 -3 d 12 -2 d 13 -2 d 13 -2 d s 1 1 1 c black 0.8 0.8
 0.8 c 283 1597 m 13 -10 d 13 -10 d 12 -11 d 13 -10 d 12 -10 d 13 -10 d 12 -13 d 13 -15 d 12 -18 d 13 -18 d 13 -17 d 12 -17 d 13 -16 d 12 -16 d 13 -16 d 12 -16 d 13 -16 d 13 -14 d 12 -15 d 13 -14 d 12 -13 d 13 -13 d 12 -13 d 13 -12 d 12 -13 d 13 -11
 d 13 -12 d 12 -12 d 13 -11 d 12 -12 d 13 -12 d 12 -13 d 13 -13 d 12 -14 d 13 -15 d 13 -15 d 12 -16 d 13 -16 d 12 -16 d 13 -17 d 12 -17 d 13 -18 d 12 -18 d 13 -18 d 13 -19 d 12 -19 d 13 -19 d 12 -19 d 13 -17 d 12 -17 d 13 -15 d 12 -15 d 13 -14 d 13
 -16 d 12 -16 d 13 -16 d 12 -17 d 13 -17 d 12 -17 d 13 -15 d 12 -13 d 13 -11 d 13 -9 d 12 -9 d 13 -8 d 12 -8 d 13 -7 d 12 -7 d 13 -7 d 13 -7 d 12 -6 d 13 -6 d 12 -5 d 13 -6 d 12 -5 d 13 -5 d 12 -5 d 13 -5 d 13 -4 d 12 -5 d 13 -4 d 12 -5 d 13 -4 d 12
 -4 d 13 -4 d 12 -4 d 13 -4 d 13 -3 d 12 -4 d 13 -4 d 12 -3 d 13 -4 d 12 -3 d 13 -3 d 12 -4 d 13 -3 d 13 -3 d 12 -3 d 13 -3 d 12 -4 d 13 -3 d 12 -3 d 13 -3 d 12 -2 d 13 -3 d 13 -3 d 12 -3 d 13 -3 d 12 -2 d 13 -3 d 12 -3 d 13 -3 d 12 -2 d 13 -3 d 13
 -2 d 12 -3 d 13 -2 d 12 -3 d 13 -2 d 12 -3 d 13 -2 d 12 -3 d 13 -2 d 13 -3 d 12 -2 d 13 -2 d 12 -3 d 13 -2 d 12 -2 d 13 -2 d 13 -3 d 12 -2 d 13 -2 d 12 -2 d 13 -3 d 12 -2 d 13 -2 d 12 -2 d 13 -2 d 13 -2 d 12 -3 d 13 -2 d 12 -2 d 13 -2 d 12 -2 d 13
 -2 d 12 -2 d 13 -2 d 13 -2 d s 1 1 1 c black 0.8 0.8 0.8 c 283 1597 m 13 -9 d 13 -11 d 12 -10 d 13 -11 d 12 -10 d 13 -10 d 12 -13 d 13 -15 d 12 -18 d 13 -18 d 13 -17 d 12 -17 d 13 -16 d 12 -16 d 13 -16 d 12 -16 d 13 -15 d 13 -15 d 12 -15 d 13 -14 d
 12 -13 d 13 -13 d 12 -13 d 13 -12 d 12 -12 d 13 -12 d 13 -12 d 12 -12 d 13 -12 d 12 -12 d 13 -12 d 12 -12 d 13 -14 d 12 -13 d 13 -14 d 13 -15 d 12 -15 d 13 -14 d 12 -15 d 13 -16 d 12 -16 d 13 -17 d 12 -18 d 13 -18 d 13 -20 d 12 -19 d 13 -20 d 12 -19
 d 13 -17 d 12 -15 d 13 -14 d 12 -13 d 13 -13 d 13 -14 d 12 -15 d 13 -17 d 12 -17 d 13 -18 d 12 -17 d 13 -17 d 12 -14 d 13 -12 d 13 -10 d 12 -9 d 13 -9 d 12 -8 d 13 -8 d 12 -7 d 13 -7 d 13 -7 d 12 -6 d 13 -6 d 12 -6 d 13 -5 d 12 -6 d 13 -5 d 12 -5 d
 13 -5 d 13 -5 d 12 -4 d 13 -5 d 12 -4 d 13 -4 d 12 -4 d 13 -4 d 12 -4 d 13 -4 d 13 -4 d 12 -4 d 13 -3 d 12 -4 d 13 -3 d 12 -4 d 13 -3 d 12 -3 d 13 -3 d 13 -4 d 12 -3 d 13 -3 d 12 -3 d 13 -3 d 12 -3 d 13 -3 d 12 -3 d 13 -3 d 13 -2 d 12 -3 d 13 -3 d
 12 -3 d 13 -2 d 12 -3 d 13 -3 d 12 -2 d 13 -3 d 13 -3 d 12 -2 d 13 -3 d 12 -2 d 13 -3 d 12 -2 d 13 -2 d 12 -3 d 13 -2 d 13 -3 d 12 -2 d 13 -2 d 12 -3 d 13 -2 d 12 -2 d 13 -2 d 13 -3 d 12 -2 d 13 -2 d 12 -2 d 13 -2 d 12 -3 d 13 -2 d 12 -2 d 13 -2 d
 13 -2 d 12 -2 d 13 -2 d 12 -3 d 13 -2 d 12 -2 d 13 -2 d 12 -2 d 13 -2 d 13 -2 d s 1 1 1 c black 0.8 0.8 0.8 c 283 1597 m 13 -10 d 13 -10 d 12 -10 d 13 -11 d 12 -10 d 13 -11 d 12 -12 d 13 -16 d 12 -17 d 13 -18 d 13 -18 d 12 -16 d 13 -17 d 12 -16 d 13
 -15 d 12 -16 d 13 -15 d 13 -15 d 12 -15 d 13 -13 d 12 -14 d 13 -13 d 12 -12 d 13 -13 d 12 -12 d 13 -12 d 13 -12 d 12 -12 d 13 -11 d 12 -12 d 13 -13 d 12 -12 d 13 -14 d 12 -13 d 13 -14 d 13 -15 d 12 -14 d 13 -14 d 12 -15 d 13 -15 d 12 -16 d 13 -17 d
 12 -18 d 13 -20 d 13 -21 d 12 -21 d 13 -21 d 12 -21 d 13 -19 d 12 -18 d 13 -15 d 12 -14 d 13 -14 d 13 -14 d 12 -15 d 13 -16 d 12 -16 d 13 -16 d 12 -16 d 13 -14 d 12 -13 d 13 -11 d 13 -9 d 12 -8 d 13 -8 d 12 -8 d 13 -7 d 12 -7 d 13 -6 d 13 -6 d 12 -6
 d 13 -6 d 12 -6 d 13 -5 d 12 -5 d 13 -5 d 12 -5 d 13 -5 d 13 -4 d 12 -5 d 13 -4 d 12 -4 d 13 -4 d 12 -5 d 13 -4 d 12 -4 d 13 -3 d 13 -4 d 12 -4 d 13 -4 d 12 -3 d 13 -4 d 12 -3 d 13 -4 d 12 -3 d 13 -3 d 13 -4 d 12 -3 d 13 -3 d 12 -3 d 13 -4 d 12 -3 d
 13 -3 d 12 -3 d 13 -3 d 13 -3 d 12 -3 d 13 -3 d 12 -3 d 13 -3 d 12 -3 d 13 -2 d 12 -3 d 13 -3 d 13 -3 d 12 -3 d 13 -2 d 12 -3 d 13 -3 d 12 -2 d 13 -3 d 12 -3 d 13 -2 d 13 -3 d 12 -2 d 13 -3 d 12 -3 d 13 -2 d 12 -3 d 13 -2 d 13 -3 d 12 -2 d 13 -3 d
 12 -2 d 13 -2 d 12 -3 d 13 -2 d 12 -3 d 13 -2 d 13 -2 d 12 -3 d 13 -2 d 12 -2 d 13 -3 d 12 -2 d 13 -2 d 12 -3 d 13 -2 d 13 -2 d s 1 1 1 c black 0.8 0.8 0.8 c 283 1602 m 13 -11 d 13 -11 d 12 -11 d 13 -12 d 12 -14 d 13 -15 d 12 -16 d 13 -15 d 12 -15 d
 13 -16 d 13 -15 d 12 -16 d 13 -16 d 12 -16 d 13 -16 d 12 -16 d 13 -16 d 13 -15 d 12 -16 d 13 -15 d 12 -14 d 13 -14 d 12 -13 d 13 -12 d 12 -12 d 13 -12 d 13 -12 d 12 -12 d 13 -12 d 12 -13 d 13 -13 d 12 -13 d 13 -14 d 12 -13 d 13 -14 d 13 -14 d 12 -15
 d 13 -14 d 12 -15 d 13 -16 d 12 -15 d 13 -16 d 12 -16 d 13 -17 d 13 -16 d 12 -17 d 13 -18 d 12 -19 d 13 -19 d 12 -21 d 13 -21 d 12 -21 d 13 -21 d 13 -19 d 12 -18 d 13 -16 d 12 -13 d 13 -11 d 12 -10 d 13 -9 d 12 -9 d 13 -10 d 13 -10 d 12 -9 d 13 -8 d
 12 -8 d 13 -7 d 12 -7 d 13 -7 d 13 -6 d 12 -6 d 13 -6 d 12 -5 d 13 -6 d 12 -5 d 13 -5 d 12 -4 d 13 -5 d 13 -5 d 12 -4 d 13 -4 d 12 -4 d 13 -4 d 12 -4 d 13 -4 d 12 -4 d 13 -4 d 13 -4 d 12 -3 d 13 -4 d 12 -3 d 13 -3 d 12 -4 d 13 -3 d 12 -3 d 13 -4 d
 13 -3 d 12 -3 d 13 -3 d 12 -3 d 13 -3 d 12 -3 d 13 -3 d 12 -3 d 13 -3 d 13 -3 d 12 -2 d 13 -3 d 12 -3 d 13 -3 d 12 -3 d 13 -2 d 12 -3 d 13 -3 d 13 -2 d 12 -3 d 13 -2 d 12 -3 d 13 -3 d 12 -2 d 13 -3 d 12 -2 d 13 -3 d 13 -2 d 12 -3 d 13 -2 d 12 -2 d
 13 -3 d 12 -2 d 13 -3 d 13 -2 d 12 -2 d 13 -3 d 12 -2 d 13 -2 d 12 -3 d 13 -2 d 12 -2 d 13 -2 d 13 -3 d 12 -2 d 13 -2 d 12 -2 d 13 -3 d 12 -2 d 13 -2 d 12 -2 d 13 -2 d 13 -2 d s 1 1 1 c black 0.8 0.8 0.8 c 283 1603 m 13 -11 d 13 -12 d 12 -11 d 13
 -13 d 12 -14 d 13 -15 d 12 -16 d 13 -16 d 12 -15 d 13 -15 d 13 -15 d 12 -15 d 13 -16 d 12 -15 d 13 -14 d 12 -15 d 13 -15 d 13 -15 d 12 -15 d 13 -15 d 12 -14 d 13 -14 d 12 -14 d 13 -12 d 12 -12 d 13 -12 d 13 -13 d 12 -12 d 13 -13 d 12 -14 d 13 -13 d
 12 -14 d 13 -13 d 12 -14 d 13 -14 d 13 -14 d 12 -14 d 13 -15 d 12 -14 d 13 -15 d 12 -16 d 13 -15 d 12 -16 d 13 -16 d 13 -17 d 12 -17 d 13 -17 d 12 -19 d 13 -20 d 12 -20 d 13 -21 d 12 -21 d 13 -20 d 13 -20 d 12 -17 d 13 -16 d 12 -14 d 13 -12 d 12 -11
 d 13 -10 d 12 -10 d 13 -10 d 13 -10 d 12 -9 d 13 -9 d 12 -8 d 13 -7 d 12 -7 d 13 -7 d 13 -6 d 12 -6 d 13 -6 d 12 -6 d 13 -5 d 12 -6 d 13 -5 d 12 -5 d 13 -4 d 13 -5 d 12 -5 d 13 -4 d 12 -4 d 13 -4 d 12 -4 d 13 -4 d 12 -4 d 13 -4 d 13 -4 d 12 -4 d 13
 -3 d 12 -4 d 13 -3 d 12 -4 d 13 -3 d 12 -4 d 13 -3 d 13 -3 d 12 -3 d 13 -4 d 12 -3 d 13 -3 d 12 -3 d 13 -3 d 12 -3 d 13 -3 d 13 -3 d 12 -3 d 13 -3 d 12 -3 d 13 -2 d 12 -3 d 13 -3 d 12 -3 d 13 -3 d 13 -2 d 12 -3 d 13 -3 d 12 -2 d 13 -3 d 12 -3 d 13
 -2 d 12 -3 d 13 -3 d 13 -2 d 12 -3 d 13 -2 d 12 -3 d 13 -2 d 12 -3 d 13 -2 d 13 -3 d 12 -2 d 13 -3 d 12 -2 d 13 -2 d 12 -3 d 13 -2 d 12 -3 d 13 -2 d 13 -2 d 12 -3 d 13 -2 d 12 -2 d 13 -2 d 12 -3 d 13 -2 d 12 -2 d 13 -3 d 13 -2 d s black 6 lw 0.95
 0.95 0.95 c black 284 1598 m 2 -2 d 2 -2 d 2 -2 d 2 -2 d 2 -2 d 2 -2 d 2 -3 d 1 -2 d 2 -2 d 2 -2 d 2 -2 d 2 -2 d 2 -2 d 2 -2 d 2 -3 d 2 -2 d 1 -2 d 2 -2 d 2 -2 d 2 -2 d 2 -2 d 2 -2 d 2 -3 d 2 -2 d 1 -2 d 2 -2 d 2 -2 d 2 -2 d 2 -2 d 2 -3 d 2 -2 d 2
 -2 d 2 -2 d 1 -2 d 2 -2 d 2 -2 d 2 -2 d 2 -3 d 2 -2 d 2 -2 d 2 -2 d 2 -2 d 1 -2 d 2 -2 d 2 -2 d 2 -3 d 2 -2 d 2 -2 d 2 -2 d s 377 1494 m 2 -2 d 1 -2 d 2 -2 d 2 -2 d 2 -3 d 2 -2 d 2 -2 d 2 -2 d 2 -2 d 2 -2 d 1 -2 d 2 -3 d 2 -2 d 2 -2 d 2 -2 d 2 -2 d
 2 -2 d 2 -2 d 1 -2 d 2 -3 d 2 -2 d 2 -2 d 2 -2 d 2 -2 d 2 -2 d 2 -2 d 2 -2 d 1 -3 d 2 -2 d 2 -2 d 2 -2 d 2 -2 d 2 -2 d 2 -2 d 2 -2 d 2 -3 d 1 -2 d 2 -2 d 2 -2 d 2 -2 d 2 -2 d 2 -2 d 2 -2 d 2 -3 d 1 -2 d 2 -2 d 2 -2 d 2 -2 d 2 -2 d s 469 1390 m 2 -2
 d 2 -3 d 2 -2 d 2 -2 d 1 -2 d 2 -2 d 2 -2 d 2 -2 d 2 -2 d 2 -3 d 2 -2 d 2 -2 d 1 -2 d 2 -2 d 2 -2 d 2 -2 d 2 -2 d 2 -3 d 2 -2 d 2 -2 d 2 -2 d 1 -2 d 2 -2 d 2 -2 d 2 -2 d 2 -3 d 2 -2 d 2 -2 d 2 -2 d 2 -2 d 1 -2 d 2 -2 d 2 -3 d 2 -2 d 2 -2 d 2 -2 d 2
 -2 d 2 -2 d 1 -2 d 2 -2 d 2 -3 d 2 -2 d 2 -2 d 2 -2 d 2 -2 d 2 -2 d 2 -2 d 1 -2 d 2 -3 d s 561 1285 m 2 -2 d 2 -2 d 2 -2 d 2 -2 d 2 -2 d 2 -2 d 1 -2 d 2 -3 d 2 -2 d 2 -2 d 2 -2 d 2 -2 d 2 -2 d 2 -2 d 2 -2 d 1 -3 d 2 -2 d 2 -2 d 2 -2 d 2 -2 d 2 -2 d
 2 -2 d 2 -3 d 2 -2 d 1 -2 d 2 -2 d 2 -2 d 2 -2 d 2 -2 d 2 -2 d 2 -3 d 2 -2 d 1 -2 d 2 -2 d 2 -2 d 2 -2 d 2 -2 d 2 -2 d 2 -3 d 2 -2 d 2 -2 d 1 -2 d 2 -2 d 2 -2 d 2 -2 d 2 -2 d 2 -3 d 2 -2 d 2 -2 d s 654 1181 m 1 -2 d 2 -2 d 2 -2 d 2 -2 d 2 -2 d 2 -3
 d 2 -2 d 2 -2 d 2 -2 d 1 -2 d 2 -2 d 2 -2 d 2 -3 d 2 -2 d 2 -2 d 2 -2 d 2 -2 d 2 -2 d 1 -2 d 2 -2 d 2 -3 d 2 -2 d 2 -2 d 2 -2 d 2 -2 d 2 -2 d 1 -2 d 2 -2 d 2 -3 d 2 -2 d 2 -2 d 2 -2 d 2 -2 d 2 -2 d 2 -2 d 1 -2 d 2 -3 d 2 -2 d 2 -2 d 2 -2 d 2 -2 d 2
 -2 d 2 -2 d 1 -3 d 2 -2 d 2 -2 d 2 -2 d 2 -2 d 2 -2 d s 746 1077 m 2 -2 d 2 -2 d 2 -3 d 1 -2 d 2 -2 d 2 -2 d 2 -2 d 2 -2 d 2 -2 d 2 -2 d 2 -3 d 2 -2 d 1 -2 d 2 -2 d 2 -2 d 2 -2 d 2 -2 d 2 -2 d 2 -3 d 2 -2 d 1 -2 d 2 -2 d 2 -2 d 2 -2 d 2 -2 d 2 -2 d
 2 -3 d 2 -2 d 2 -2 d 1 -2 d 2 -2 d 2 -2 d 2 -2 d 2 -3 d 2 -2 d 2 -2 d 2 -2 d 1 -2 d 2 -2 d 2 -2 d 2 -2 d 2 -3 d 2 -2 d 2 -2 d 2 -2 d 2 -2 d 1 -2 d 2 -2 d 2 -2 d s 838 973 m 2 -3 d 2 -2 d 2 -2 d 2 -2 d 2 -2 d 2 -2 d 1 -2 d 2 -2 d 2 -3 d 2 -2 d 2 -2 d
 2 -2 d 2 -2 d 2 -2 d 1 -2 d 2 -2 d 2 -3 d 2 -2 d 2 -2 d 2 -2 d 2 -2 d 2 -2 d 2 -2 d 1 -3 d 2 -2 d 2 -2 d 2 -2 d 2 -2 d 2 -2 d 2 -2 d 2 -2 d 1 -3 d 2 -2 d 2 -2 d 2 -2 d 2 -2 d 2 -2 d 2 -2 d 2 -2 d 2 -3 d 1 -2 d 2 -2 d 2 -2 d 2 -2 d 2 -2 d 2 -2 d 2 -2
 d 2 -3 d 1 -2 d s 930 868 m 2 -2 d 2 -2 d 2 -2 d 2 -2 d 2 -2 d 2 -3 d 2 -2 d 2 -2 d 1 -2 d 2 -2 d 2 -2 d 2 -2 d 2 -2 d 2 -3 d 2 -2 d 2 -2 d 2 -2 d 1 -2 d 2 -2 d 2 -2 d 2 -2 d 2 -3 d 2 -2 d 2 -2 d 2 -2 d 1 -2 d 2 -2 d 2 -2 d 2 -2 d 2 -3 d 2 -2 d 2 -2
 d 2 -2 d 2 -2 d 1 -2 d 2 -2 d 2 -2 d 2 -3 d 2 -2 d 2 -2 d 2 -2 d 2 -2 d 1 -2 d 2 -2 d 2 -3 d 2 -2 d 2 -2 d 2 -2 d 2 -2 d s 1023 764 m 2 -2 d 2 -2 d 1 -2 d 2 -3 d 2 -2 d 2 -2 d 2 -2 d 2 -2 d 2 -2 d 2 -2 d 2 -2 d 1 -3 d 2 -2 d 2 -2 d 2 -2 d 2 -2 d 2
 -2 d 2 -2 d 2 -2 d 1 -3 d 2 -2 d 2 -2 d 2 -2 d 2 -2 d 2 -2 d 2 -2 d 2 -3 d 2 -2 d 1 -2 d 2 -2 d 2 -2 d 2 -2 d 2 -2 d 2 -2 d 2 -3 d 2 -2 d 1 -2 d 2 -2 d 2 -2 d 2 -2 d 2 -2 d 2 -2 d 2 -3 d 2 -2 d 2 -2 d 1 -2 d 2 -2 d 2 -2 d 2 -2 d s 1115 660 m 2 -2 d
 2 -3 d 2 -2 d 2 -2 d 2 -2 d 1 -2 d 2 -2 d 2 -2 d 2 -2 d 2 -3 d 2 -2 d 2 -2 d 2 -2 d 1 -2 d 2 -2 d 2 -2 d 2 -3 d 2 -2 d 2 -2 d 2 -2 d 2 -2 d 2 -2 d 1 -2 d 2 -2 d 2 -3 d 2 -2 d 2 -2 d 2 -2 d 2 -2 d 2 -2 d 1 -2 d 2 -2 d 2 -3 d 2 -2 d 2 -2 d 2 -2 d 2 -2
 d 2 -2 d 2 -2 d 1 -2 d 2 -3 d 2 -2 d 2 -2 d 2 -2 d 2 -2 d 2 -2 d 2 -2 d 2 -2 d 1 -3 d s 1207 555 m 2 -2 d 2 -2 d 2 -2 d 2 -2 d 2 -2 d 2 -2 d 2 -3 d 1 -2 d 2 -2 d 2 -2 d 2 -2 d 2 -2 d 2 -2 d 2 -2 d 2 -3 d 2 -2 d 1 -2 d 2 -2 d 2 -2 d 2 -2 d 2 -2 d 2
 -2 d 2 -3 d 2 -2 d 1 -2 d 2 -2 d 2 -2 d 2 -2 d 2 -2 d 2 -2 d 2 -3 d 2 -2 d 2 -2 d 1 -2 d 2 -2 d 2 -2 d 2 -2 d 2 -3 d 2 -2 d 2 -2 d 2 -2 d 2 -2 d 1 -2 d 2 -2 d 2 -2 d 2 -3 d 2 -2 d 2 -2 d 2 -2 d s 1300 451 m 2 -2 d 1 -2 d 2 -2 d 2 -2 d 2 -3 d 2 -2 d
 2 -2 d 2 -2 d 2 -2 d 2 -2 d 1 -2 d 2 -2 d 2 -3 d 2 -2 d 2 -2 d 2 -2 d 2 -2 d 2 -2 d 1 -2 d 2 -2 d 2 -3 d 2 -2 d 2 -2 d 2 -2 d 2 -2 d 2 -2 d 2 -2 d 1 -3 d 2 -2 d 2 -2 d 2 -2 d 2 -2 d 2 -2 d 2 -2 d 2 -2 d 2 -3 d 1 -2 d 2 -2 d 2 -2 d 2 -2 d 2 -2 d 2 -2
 d 2 -2 d 2 -3 d 1 -2 d 2 -2 d 2 -2 d 2 -2 d 2 -2 d s 1392 347 m 2 -2 d 2 -2 d 2 -3 d 2 -2 d 1 -2 d 2 -2 d 2 -2 d 2 -2 d 2 -2 d 2 -2 d 2 -3 d 2 -2 d 1 -2 d 2 -2 d 2 -2 d 2 -2 d 2 -2 d 2 -3 d 2 -2 d 2 -2 d 2 -2 d 1 -2 d 2 -2 d 2 -2 d 2 -2 d 2 -3 d 2
 -2 d 2 -2 d 2 -2 d 2 -2 d 1 -2 d 2 -2 d 2 -2 d 2 -3 d 2 -2 d 2 -2 d 2 -2 d 2 -2 d 1 -2 d 2 -2 d 2 -2 d 2 -3 d 2 -2 d 2 -2 d 2 -2 d 2 -2 d 2 -2 d 1 -2 d 2 -3 d s 1484 242 m 2 -2 d 2 -2 d 2 -2 d 2 -2 d 2 -2 d 2 -2 d 1 -2 d 2 -3 d 2 -2 d 2 -2 d 2 -2 d
 2 -2 d 2 -1 d s[ 20 20] 0 sd 359 216 m 1487 Y s 597 216 m 1487 Y s 849 216 m 1487 Y s
 gsave  2268 1774 0 0 C 499.115 561.504 t 90 r /Helvetica findfont 70.5271 sf 0 0 m (Stratosphere) show NC gr 
 gsave  2268 1774 0 0 C 740.534 330.935 t 90 r /Helvetica findfont 70.5271 sf 0 0 m (Mesosphere) show NC gr 
 gsave  2268 1774 0 0 C 1524.47 789.361 t 90 r /Helvetica findfont 70.5271 sf 0 0 m (Thermosphere) show NC gr 
 gr  gr showpage
end
%%EOF
