%!PS-Adobe-2.0 EPSF-2.0
%%BoundingBox:  0 0 567 567
%%Title: bremss_id.eps: bremss_id
%%Creator: ROOT Version 5.34/14
%%CreationDate: Thu Jul 17 07:11:56 2014
%%EndComments
%%BeginProlog
80 dict begin
/s {stroke} def /l {lineto} def /m {moveto} def /t {translate} def
/r {rotate} def /rl {roll}  def /R {repeat} def
/d {rlineto} def /rm {rmoveto} def /gr {grestore} def /f {eofill} def
/c {setrgbcolor} def /black {0 setgray} def /sd {setdash} def
/cl {closepath} def /sf {scalefont setfont} def /lw {setlinewidth} def
/box {m dup 0 exch d exch 0 d 0 exch neg d cl} def
/NC{systemdict begin initclip end}def/C{NC box clip newpath}def
/bl {box s} def /bf {box f} def /Y { 0 exch d} def /X { 0 d} def 
/K {{pop pop 0 moveto} exch kshow} bind def
/ita {/ang 15 def gsave [1 0 ang dup sin exch cos div 1 0 0] concat} def 
/mp {newpath /y exch def /x exch def} def
/side {[w .77 mul w .23 mul] .385 w mul sd w 0 l currentpoint t -144 r} def
/mr {mp x y w2 0 360 arc} def /m24 {mr s} def /m20 {mr f} def
/mb {mp x y w2 add m w2 neg 0 d 0 w neg d w 0 d 0 w d cl} def
/mt {mp x y w2 add m w2 neg w neg d w 0 d cl} def
/m21 {mb f} def /m25 {mb s} def /m22 {mt f} def /m26{mt s} def
/m23 {mp x y w2 sub m w2 w d w neg 0 d cl f} def
/m27 {mp x y w2 add m w3 neg w2 neg d w3 w2 neg d w3 w2 d cl s} def
/m28 {mp x w2 sub y w2 sub w3 add m w3 0 d  0 w3 neg d w3 0 d 0 w3 d w3 0 d  0 w3 d w3 neg 0 d 0 w3 d w3 neg 0 d 0 w3 neg d w3 neg 0 d cl s } def
/m29 {mp gsave x w2 sub y w2 add w3 sub m currentpoint t 4 {side} repeat cl fill gr} def
/m30 {mp gsave x w2 sub y w2 add w3 sub m currentpoint t 4 {side} repeat cl s gr} def
/m31 {mp x y w2 sub m 0 w d x w2 sub y m w 0 d x w2 sub y w2 add m w w neg d x w2 sub y w2 sub m w w d s} def
/m32 {mp x y w2 sub m w2 w d w neg 0 d cl s} def
/m33 {mp x y w2 add m w3 neg w2 neg d w3 w2 neg d w3 w2 d cl f} def
/m34 {mp x w2 sub y w2 sub w3 add m w3 0 d  0 w3 neg d w3 0 d 0 w3 d w3 0 d  0 w3 d w3 neg 0 d 0 w3 d w3 neg 0 d 0 w3 neg d w3 neg 0 d cl f } def
/m2 {mp x y w2 sub m 0 w d x w2 sub y m w 0 d s} def
/m5 {mp x w2 sub y w2 sub m w w d x w2 sub y w2 add m w w neg d s} def
/reEncode {exch findfont dup length dict begin {1 index /FID eq  {pop pop} {def} ifelse } forall /Encoding exch def currentdict end dup /FontName get exch definefont pop } def [/Times-Bold /Times-Italic /Times-BoldItalic /Helvetica /Helvetica-Oblique
 /Helvetica-Bold /Helvetica-BoldOblique /Courier /Courier-Oblique /Courier-Bold /Courier-BoldOblique /Times-Roman /AvantGarde-Book /AvantGarde-BookOblique /AvantGarde-Demi /AvantGarde-DemiOblique /Bookman-Demi /Bookman-DemiItalic /Bookman-Light
 /Bookman-LightItalic /Helvetica-Narrow /Helvetica-Narrow-Bold /Helvetica-Narrow-BoldOblique /Helvetica-Narrow-Oblique /NewCenturySchlbk-Roman /NewCenturySchlbk-Bold /NewCenturySchlbk-BoldItalic /NewCenturySchlbk-Italic /Palatino-Bold
 /Palatino-BoldItalic /Palatino-Italic /Palatino-Roman ] {ISOLatin1Encoding reEncode } forall
%%EndProlog
%%BeginSetup
%%EndSetup
newpath  gsave  .25 .25 scale  gsave  0 0 t black[  ] 0 sd 6 lw 1 1 1 c 2268 2268 0 0 bf black 3 lw 1 lw << /PatternType 1 /PaintType 2 /TilingType 1 /BBox [ 0 0 100 100 ] /XStep 100 /YStep 100 /PaintProc { begin gsave 0 0 m 100 100 l s gr end } >> [
 0.24 0 0 0.24 0 0 ] makepattern /P04 exch def /cs {[/Pattern /DeviceRGB] setcolorspace} def /FA {f [/DeviceRGB] setcolorspace} def cs 0 0 0 P04 setcolor 567 1894 m 1134 X 22 Y -1134 X FA 6 lw black 1134 22 567 1894 bl 1 1 1 c 1134 22 567 1860 bf
 black 1134 22 567 1860 bl 1 1 1 c 1134 22 567 1293 bf black 1134 22 567 1293 bl 1 1 1 c 1134 22 567 726 bf black 1134 22 567 726 bl 1 1 1 c 1134 341 567 283 bf black 1134 341 567 283 bl 1134 2098 m -193 Y s[ 20 20] 0 sd 1134 1905 m -1451 Y s[  ] 0
 sd 1 1 1 c black 1134 1916 m -68 Y 1 -23 d -23 Y 1 -23 d 1 -23 d 1 -23 d 1 -23 d 1 -23 d 1 -22 d 1 -23 d 2 -23 d 1 -23 d 2 -23 d 2 -23 d 2 -23 d 2 -22 d 2 -23 d 2 -23 d 2 -23 d 3 -22 d 2 -23 d 3 -23 d 3 -23 d 3 -22 d 3 -23 d 3 -23 d 3 -22 d 4 -23 d
 3 -23 d 4 -22 d 4 -23 d 3 -22 d 4 -23 d 5 -22 d 4 -23 d 4 -22 d 4 -23 d 5 -22 d 5 -23 d 4 -22 d 5 -23 d 5 -22 d 5 -22 d 6 -23 d 5 -22 d 5 -22 d 6 -22 d 6 -22 d 5 -23 d 6 -22 d 6 -22 d 6 -22 d 7 -22 d 6 -22 d 6 -22 d 7 -22 d 7 -22 d 6 -22 d 7 -21 d 7
 -22 d 7 -22 d 8 -22 d 7 -21 d s[ 20 20] 0 sd 3 lw 1 1 1 c black 1780 1327 m 22 Y -1 23 d -2 23 d -3 22 d -4 22 d -4 23 d -5 22 d -6 22 d -7 21 d -7 22 d -8 21 d -9 21 d -10 20 d -10 21 d -11 19 d -12 20 d -13 19 d -13 18 d -13 18 d -15 18 d -15 17 d
 -15 17 d -16 16 d -17 15 d -17 15 d -18 14 d -18 13 d -19 13 d -19 13 d -19 11 d -20 11 d -20 10 d -21 10 d -21 8 d -21 8 d -22 8 d -21 6 d -22 6 d -23 5 d -22 4 d -22 3 d -23 3 d -22 2 d -23 1 d -23 X -22 -1 d -23 -1 d -23 -2 d -22 -3 d -23 -4 d
 -22 -5 d -22 -5 d -22 -6 d -21 -7 d -22 -7 d -21 -9 d -21 -9 d -20 -10 d -20 -10 d -20 -11 d -19 -12 d -19 -13 d -18 -13 d -18 -14 d -18 -15 d -17 -15 d -16 -15 d -16 -17 d -15 -16 d -15 -18 d -14 -18 d -13 -18 d -13 -19 d -12 -19 d -12 -19 d -10
 -20 d -10 -21 d -9 -21 d -9 -21 d -8 -21 d -7 -21 d -6 -22 d -6 -22 d -4 -22 d -4 -23 d -4 -22 d -2 -23 d -2 -22 d -68 Y 2 -23 d 2 -23 d 4 -22 d 4 -22 d 4 -23 d 6 -22 d 6 -21 d 7 -22 d 8 -21 d 9 -21 d 9 -21 d 10 -20 d 10 -20 d 12 -20 d 12 -19 d 13
 -19 d 13 -18 d 14 -18 d 15 -17 d 15 -17 d 16 -16 d 16 -16 d 17 -15 d 18 -15 d 18 -14 d 18 -13 d 19 -12 d 19 -12 d 20 -12 d 20 -10 d 20 -10 d 21 -9 d 21 -8 d 22 -8 d 21 -7 d 22 -6 d 22 -5 d 22 -5 d 23 -4 d 22 -2 d 23 -3 d 23 -1 d 22 -1 d 23 1 d 23 1
 d 22 1 d 23 3 d 22 3 d 22 4 d 23 5 d 22 6 d 21 7 d 22 7 d 21 8 d 21 9 d 21 9 d 20 10 d 20 11 d 19 12 d 19 12 d 19 13 d 18 13 d 18 15 d 17 14 d 17 16 d 16 16 d 15 16 d 15 17 d 15 18 d 13 18 d 13 18 d 13 19 d 12 20 d 11 20 d 10 20 d 10 20 d 9 21 d 8
 21 d 7 22 d 7 22 d 6 21 d 5 23 d 4 22 d 4 22 d 3 23 d 2 22 d 1 23 d 23 Y s
 gsave  2268 2268 0 0 C 887.014 2099.54 t 0 r /Helvetica findfont 67.8145 sf 0 0 m (Incident electron) show NC gr [  ] 0 sd /w 33 def /w2 {w 2 div} def /w3 {w 3 div} def 1134 454 m20[ 20 20] 0 sd[  ] 0 sd 1378 454 m20[ 20 20] 0 sd
 gsave  2268 2268 0 0 C 1114.87 363.486 t 0 r /Symbol findfont 67.8145 sf 0 0 m (g) show NC gr 
 gsave  2268 2268 0 0 C 1386.13 393.324 t 0 r /Helvetica findfont 46.1139 sf 0 0 m (\255) show NC gr 
 gsave  2268 2268 0 0 C 1350.86 360.773 t 0 r /Helvetica findfont 67.8145 sf 0 0 m (e) show NC gr 
 gsave  2268 2268 0 0 C 170.893 1399.69 t 0 r /Helvetica findfont 67.8145 sf 0 0 m (Region with high B) show NC gr 
 gsave  2268 2268 0 0 C 1722.49 1901.52 t 0 r /Helvetica findfont 48.8264 sf 0 0 m (Bremsstrahlung radiator) show NC gr 
 gsave  2268 2268 0 0 C 1722.49 1844.55 t 0 r /Helvetica findfont 48.8264 sf 0 0 m (Spark chamber 1) show NC gr 
 gsave  2268 2268 0 0 C 1722.49 1288.48 t 0 r /Helvetica findfont 48.8264 sf 0 0 m (Spark chamber 2) show NC gr 
 gsave  2268 2268 0 0 C 1722.49 721.546 t 0 r /Helvetica findfont 48.8264 sf 0 0 m (Spark chamber 3) show NC gr 
 gsave  2268 2268 0 0 C 1722.49 436.725 t 0 r /Helvetica findfont 48.8264 sf 0 0 m (Shower detector) show NC gr 
 gr  gr showpage
end
%%EOF
