%!PS-Adobe-2.0 EPSF-2.0
%%BoundingBox:  0 0 567 442
%%Title: cal_light_yield.eps: cal_light_yield
%%Creator: ROOT Version 5.34/14
%%CreationDate: Sat Jul 26 12:30:07 2014
%%EndComments
%%BeginProlog
80 dict begin
/s {stroke} def /l {lineto} def /m {moveto} def /t {translate} def
/r {rotate} def /rl {roll}  def /R {repeat} def
/d {rlineto} def /rm {rmoveto} def /gr {grestore} def /f {eofill} def
/c {setrgbcolor} def /black {0 setgray} def /sd {setdash} def
/cl {closepath} def /sf {scalefont setfont} def /lw {setlinewidth} def
/box {m dup 0 exch d exch 0 d 0 exch neg d cl} def
/NC{systemdict begin initclip end}def/C{NC box clip newpath}def
/bl {box s} def /bf {box f} def /Y { 0 exch d} def /X { 0 d} def 
/K {{pop pop 0 moveto} exch kshow} bind def
/ita {/ang 15 def gsave [1 0 ang dup sin exch cos div 1 0 0] concat} def 
/mp {newpath /y exch def /x exch def} def
/side {[w .77 mul w .23 mul] .385 w mul sd w 0 l currentpoint t -144 r} def
/mr {mp x y w2 0 360 arc} def /m24 {mr s} def /m20 {mr f} def
/mb {mp x y w2 add m w2 neg 0 d 0 w neg d w 0 d 0 w d cl} def
/mt {mp x y w2 add m w2 neg w neg d w 0 d cl} def
/m21 {mb f} def /m25 {mb s} def /m22 {mt f} def /m26{mt s} def
/m23 {mp x y w2 sub m w2 w d w neg 0 d cl f} def
/m27 {mp x y w2 add m w3 neg w2 neg d w3 w2 neg d w3 w2 d cl s} def
/m28 {mp x w2 sub y w2 sub w3 add m w3 0 d  0 w3 neg d w3 0 d 0 w3 d w3 0 d  0 w3 d w3 neg 0 d 0 w3 d w3 neg 0 d 0 w3 neg d w3 neg 0 d cl s } def
/m29 {mp gsave x w2 sub y w2 add w3 sub m currentpoint t 4 {side} repeat cl fill gr} def
/m30 {mp gsave x w2 sub y w2 add w3 sub m currentpoint t 4 {side} repeat cl s gr} def
/m31 {mp x y w2 sub m 0 w d x w2 sub y m w 0 d x w2 sub y w2 add m w w neg d x w2 sub y w2 sub m w w d s} def
/m32 {mp x y w2 sub m w2 w d w neg 0 d cl s} def
/m33 {mp x y w2 add m w3 neg w2 neg d w3 w2 neg d w3 w2 d cl f} def
/m34 {mp x w2 sub y w2 sub w3 add m w3 0 d  0 w3 neg d w3 0 d 0 w3 d w3 0 d  0 w3 d w3 neg 0 d 0 w3 d w3 neg 0 d 0 w3 neg d w3 neg 0 d cl f } def
/m2 {mp x y w2 sub m 0 w d x w2 sub y m w 0 d s} def
/m5 {mp x w2 sub y w2 sub m w w d x w2 sub y w2 add m w w neg d s} def
/reEncode {exch findfont dup length dict begin {1 index /FID eq  {pop pop} {def} ifelse } forall /Encoding exch def currentdict end dup /FontName get exch definefont pop } def [/Times-Bold /Times-Italic /Times-BoldItalic /Helvetica /Helvetica-Oblique
 /Helvetica-Bold /Helvetica-BoldOblique /Courier /Courier-Oblique /Courier-Bold /Courier-BoldOblique /Times-Roman /AvantGarde-Book /AvantGarde-BookOblique /AvantGarde-Demi /AvantGarde-DemiOblique /Bookman-Demi /Bookman-DemiItalic /Bookman-Light
 /Bookman-LightItalic /Helvetica-Narrow /Helvetica-Narrow-Bold /Helvetica-Narrow-BoldOblique /Helvetica-Narrow-Oblique /NewCenturySchlbk-Roman /NewCenturySchlbk-Bold /NewCenturySchlbk-BoldItalic /NewCenturySchlbk-Italic /Palatino-Bold
 /Palatino-BoldItalic /Palatino-Italic /Palatino-Roman ] {ISOLatin1Encoding reEncode } forall
%%EndProlog
%%BeginSetup
%%EndSetup
newpath  gsave  .25 .25 scale  gsave  0 0 t black[  ] 0 sd 6 lw 1 1 1 c 2268 1769 0 0 bf black 3 lw 1 1 1 c 1894 1482 283 216 bf black 1894 1482 283 216 bl 1 1 1 c 1894 1482 283 216 bf black 1894 1482 283 216 bl 6 lw 283 216 m 1894 X s 0.6 0.6 0.6 c[
 12 12] 0 sd 3 lw 283 1698 m -1482 Y s 520 1698 m -1482 Y s 757 1698 m -1482 Y s 994 1698 m -1482 Y s 1230 1698 m -1482 Y s 1467 1698 m -1482 Y s 1704 1698 m -1482 Y s 1940 1698 m -1482 Y s 2177 1698 m -1482 Y s black[  ] 0 sd 6 lw 283 1698 m 1894 X
 s 283 216 m 1482 Y s 0.6 0.6 0.6 c[ 12 12] 0 sd 3 lw 2177 216 m -1894 X s 2177 463 m -1894 X s 2177 710 m -1894 X s 2177 957 m -1894 X s 2177 1204 m -1894 X s 2177 1451 m -1894 X s 2177 1698 m -1894 X s 2177 216 m -1894 X s black[  ] 0 sd 6 lw 2177
 216 m 1482 Y s 1 1 1 c black 283 216 m 1894 X s 283 216 m 1894 X s
 gsave  2268 1769 0 0 C 1288.48 27.1258 t 0 r /Helvetica findfont 78.6648 sf 0 0 m (Time since launch [years]) show NC gr  283 260 m -44 Y s 331 238 m -22 Y s 378 238 m -22 Y s 425 238 m -22 Y s 473 238 m -22 Y s 520 260 m -44 Y s 567 238 m -22 Y s
 615 238 m -22 Y s 662 238 m -22 Y s 710 238 m -22 Y s 757 260 m -44 Y s 804 238 m -22 Y s 852 238 m -22 Y s 899 238 m -22 Y s 946 238 m -22 Y s 994 260 m -44 Y s 1041 238 m -22 Y s 1088 238 m -22 Y s 1136 238 m -22 Y s 1183 238 m -22 Y s 1230 260 m
 -44 Y s 1278 238 m -22 Y s 1325 238 m -22 Y s 1372 238 m -22 Y s 1420 238 m -22 Y s 1467 260 m -44 Y s 1514 238 m -22 Y s 1562 238 m -22 Y s 1609 238 m -22 Y s 1656 238 m -22 Y s 1704 260 m -44 Y s 1751 238 m -22 Y s 1798 238 m -22 Y s 1846 238 m
 -22 Y s 1893 238 m -22 Y s 1940 260 m -44 Y s 1988 238 m -22 Y s 2035 238 m -22 Y s 2082 238 m -22 Y s 2130 238 m -22 Y s 2177 260 m -44 Y s
 gsave  2268 1769 0 0 C 263.12 146.479 t 0 r /Helvetica findfont 70.5271 sf 0 0 m (0) show NC gr 
 gsave  2268 1769 0 0 C 469.276 146.479 t 0 r /Helvetica findfont 70.5271 sf 0 0 m (0.5) show NC gr 
 gsave  2268 1769 0 0 C 743.247 146.479 t 0 r /Helvetica findfont 70.5271 sf 0 0 m (1) show NC gr 
 gsave  2268 1769 0 0 C 943.978 146.479 t 0 r /Helvetica findfont 70.5271 sf 0 0 m (1.5) show NC gr 
 gsave  2268 1769 0 0 C 1209.81 146.479 t 0 r /Helvetica findfont 70.5271 sf 0 0 m (2) show NC gr 
 gsave  2268 1769 0 0 C 1415.97 146.479 t 0 r /Helvetica findfont 70.5271 sf 0 0 m (2.5) show NC gr 
 gsave  2268 1769 0 0 C 1684.51 146.479 t 0 r /Helvetica findfont 70.5271 sf 0 0 m (3) show NC gr 
 gsave  2268 1769 0 0 C 1890.67 146.479 t 0 r /Helvetica findfont 70.5271 sf 0 0 m (3.5) show NC gr 
 gsave  2268 1769 0 0 C 2156.5 146.479 t 0 r /Helvetica findfont 70.5271 sf 0 0 m (4) show NC gr  283 1698 m 1894 X s 283 1654 m 44 Y s 331 1676 m 22 Y s 378 1676 m 22 Y s 425 1676 m 22 Y s 473 1676 m 22 Y s 520 1654 m 44 Y s 567 1676 m 22 Y s 615
 1676 m 22 Y s 662 1676 m 22 Y s 710 1676 m 22 Y s 757 1654 m 44 Y s 804 1676 m 22 Y s 852 1676 m 22 Y s 899 1676 m 22 Y s 946 1676 m 22 Y s 994 1654 m 44 Y s 1041 1676 m 22 Y s 1088 1676 m 22 Y s 1136 1676 m 22 Y s 1183 1676 m 22 Y s 1230 1654 m 44
 Y s 1278 1676 m 22 Y s 1325 1676 m 22 Y s 1372 1676 m 22 Y s 1420 1676 m 22 Y s 1467 1654 m 44 Y s 1514 1676 m 22 Y s 1562 1676 m 22 Y s 1609 1676 m 22 Y s 1656 1676 m 22 Y s 1704 1654 m 44 Y s 1751 1676 m 22 Y s 1798 1676 m 22 Y s 1846 1676 m 22 Y
 s 1893 1676 m 22 Y s 1940 1654 m 44 Y s 1988 1676 m 22 Y s 2035 1676 m 22 Y s 2082 1676 m 22 Y s 2130 1676 m 22 Y s 2177 1654 m 44 Y s 283 216 m 1482 Y s
 gsave  2268 1769 0 0 C 84.09 943.978 t 90 r /Helvetica findfont 78.6648 sf 0 0 m (Calorimeter light yield) show NC gr  340 216 m -57 X s 312 265 m -29 X s 312 315 m -29 X s 312 364 m -29 X s 312 413 m -29 X s 340 463 m -57 X s 312 512 m -29 X s 312
 562 m -29 X s 312 611 m -29 X s 312 660 m -29 X s 340 710 m -57 X s 312 759 m -29 X s 312 809 m -29 X s 312 858 m -29 X s 312 907 m -29 X s 340 957 m -57 X s 312 1006 m -29 X s 312 1056 m -29 X s 312 1105 m -29 X s 312 1154 m -29 X s 340 1204 m -57
 X s 312 1253 m -29 X s 312 1303 m -29 X s 312 1352 m -29 X s 312 1401 m -29 X s 340 1451 m -57 X s 312 1500 m -29 X s 312 1550 m -29 X s 312 1599 m -29 X s 312 1648 m -29 X s 340 1698 m -57 X s 340 216 m -57 X s
 gsave  2268 1769 0 0 C 135.629 189.881 t 0 r /Helvetica findfont 70.5271 sf 0 0 m (0.95) show NC gr 
 gsave  2268 1769 0 0 C 135.629 436.725 t 0 r /Helvetica findfont 70.5271 sf 0 0 m (0.96) show NC gr 
 gsave  2268 1769 0 0 C 135.629 683.57 t 0 r /Helvetica findfont 70.5271 sf 0 0 m (0.97) show NC gr 
 gsave  2268 1769 0 0 C 135.629 930.415 t 0 r /Helvetica findfont 70.5271 sf 0 0 m (0.98) show NC gr 
 gsave  2268 1769 0 0 C 135.629 1177.26 t 0 r /Helvetica findfont 70.5271 sf 0 0 m (0.99) show NC gr 
 gsave  2268 1769 0 0 C 244.132 1424.1 t 0 r /Helvetica findfont 70.5271 sf 0 0 m (1) show NC gr 
 gsave  2268 1769 0 0 C 146.479 1670.95 t 0 r /Helvetica findfont 70.5271 sf 0 0 m (1.01) show NC gr  2177 216 m 1482 Y s 2120 216 m 57 X s 2149 265 m 28 X s 2149 315 m 28 X s 2149 364 m 28 X s 2149 413 m 28 X s 2120 463 m 57 X s 2149 512 m 28 X s
 2149 562 m 28 X s 2149 611 m 28 X s 2149 660 m 28 X s 2120 710 m 57 X s 2149 759 m 28 X s 2149 809 m 28 X s 2149 858 m 28 X s 2149 907 m 28 X s 2120 957 m 57 X s 2149 1006 m 28 X s 2149 1056 m 28 X s 2149 1105 m 28 X s 2149 1154 m 28 X s 2120 1204 m
 57 X s 2149 1253 m 28 X s 2149 1303 m 28 X s 2149 1352 m 28 X s 2149 1401 m 28 X s 2120 1451 m 57 X s 2149 1500 m 28 X s 2149 1550 m 28 X s 2149 1599 m 28 X s 2149 1648 m 28 X s 2120 1698 m 57 X s 2120 216 m 57 X s 3 lw /w 26 def /w2 {w 2 div} def
 /w3 {w 3 div} def 407 1452 496 1384 582 1298 674 1209 767 1138 859 1089 945 1037 1038 1006 1124 951 1216 914 1306 871 1392 849 1503 815 1620 763 1727 729 1817 702 1906 671 1995 662 2091 612 19 { m20} R 6 lw
 gr  gr showpage
end
%%EOF
