%!PS-Adobe-2.0 EPSF-2.0
%%BoundingBox:  0 0 567 444
%%Title: calorimeter_eres.eps: calorimeter_eres
%%Creator: ROOT Version 5.34/14
%%CreationDate: Thu May 29 15:59:59 2014
%%EndComments
%%BeginProlog
80 dict begin
/s {stroke} def /l {lineto} def /m {moveto} def /t {translate} def
/r {rotate} def /rl {roll}  def /R {repeat} def
/d {rlineto} def /rm {rmoveto} def /gr {grestore} def /f {eofill} def
/c {setrgbcolor} def /black {0 setgray} def /sd {setdash} def
/cl {closepath} def /sf {scalefont setfont} def /lw {setlinewidth} def
/box {m dup 0 exch d exch 0 d 0 exch neg d cl} def
/NC{systemdict begin initclip end}def/C{NC box clip newpath}def
/bl {box s} def /bf {box f} def /Y { 0 exch d} def /X { 0 d} def 
/K {{pop pop 0 moveto} exch kshow} bind def
/ita {/ang 15 def gsave [1 0 ang dup sin exch cos div 1 0 0] concat} def 
/mp {newpath /y exch def /x exch def} def
/side {[w .77 mul w .23 mul] .385 w mul sd w 0 l currentpoint t -144 r} def
/mr {mp x y w2 0 360 arc} def /m24 {mr s} def /m20 {mr f} def
/mb {mp x y w2 add m w2 neg 0 d 0 w neg d w 0 d 0 w d cl} def
/mt {mp x y w2 add m w2 neg w neg d w 0 d cl} def
/m21 {mb f} def /m25 {mb s} def /m22 {mt f} def /m26{mt s} def
/m23 {mp x y w2 sub m w2 w d w neg 0 d cl f} def
/m27 {mp x y w2 add m w3 neg w2 neg d w3 w2 neg d w3 w2 d cl s} def
/m28 {mp x w2 sub y w2 sub w3 add m w3 0 d  0 w3 neg d w3 0 d 0 w3 d w3 0 d  0 w3 d w3 neg 0 d 0 w3 d w3 neg 0 d 0 w3 neg d w3 neg 0 d cl s } def
/m29 {mp gsave x w2 sub y w2 add w3 sub m currentpoint t 4 {side} repeat cl fill gr} def
/m30 {mp gsave x w2 sub y w2 add w3 sub m currentpoint t 4 {side} repeat cl s gr} def
/m31 {mp x y w2 sub m 0 w d x w2 sub y m w 0 d x w2 sub y w2 add m w w neg d x w2 sub y w2 sub m w w d s} def
/m32 {mp x y w2 sub m w2 w d w neg 0 d cl s} def
/m33 {mp x y w2 add m w3 neg w2 neg d w3 w2 neg d w3 w2 d cl f} def
/m34 {mp x w2 sub y w2 sub w3 add m w3 0 d  0 w3 neg d w3 0 d 0 w3 d w3 0 d  0 w3 d w3 neg 0 d 0 w3 d w3 neg 0 d 0 w3 neg d w3 neg 0 d cl f } def
/m2 {mp x y w2 sub m 0 w d x w2 sub y m w 0 d s} def
/m5 {mp x w2 sub y w2 sub m w w d x w2 sub y w2 add m w w neg d s} def
/reEncode {exch findfont dup length dict begin {1 index /FID eq  {pop pop} {def} ifelse } forall /Encoding exch def currentdict end dup /FontName get exch definefont pop } def [/Times-Bold /Times-Italic /Times-BoldItalic /Helvetica /Helvetica-Oblique
 /Helvetica-Bold /Helvetica-BoldOblique /Courier /Courier-Oblique /Courier-Bold /Courier-BoldOblique /Times-Roman /AvantGarde-Book /AvantGarde-BookOblique /AvantGarde-Demi /AvantGarde-DemiOblique /Bookman-Demi /Bookman-DemiItalic /Bookman-Light
 /Bookman-LightItalic /Helvetica-Narrow /Helvetica-Narrow-Bold /Helvetica-Narrow-BoldOblique /Helvetica-Narrow-Oblique /NewCenturySchlbk-Roman /NewCenturySchlbk-Bold /NewCenturySchlbk-BoldItalic /NewCenturySchlbk-Italic /Palatino-Bold
 /Palatino-BoldItalic /Palatino-Italic /Palatino-Roman ] {ISOLatin1Encoding reEncode } forall
%%EndProlog
%%BeginSetup
%%EndSetup
newpath  gsave  .25 .25 scale  gsave  0 0 t black[  ] 0 sd 6 lw 1 1 1 c 2268 1774 0 0 bf black 3 lw 1 1 1 c 1894 1487 283 216 bf black 1894 1487 283 216 bl 1 1 1 c 1894 1487 283 216 bf black 1894 1487 283 216 bl 6 lw 283 216 m 1894 X s 0.6 0.6 0.6 c[
 12 12] 0 sd 3 lw 305 1703 m -1487 Y s 341 1703 m -1487 Y s 372 1703 m -1487 Y s 399 1703 m -1487 Y s 423 1703 m -1487 Y s 444 1703 m -1487 Y s 584 1703 m -1487 Y s 665 1703 m -1487 Y s 723 1703 m -1487 Y s 768 1703 m -1487 Y s 805 1703 m -1487 Y s
 836 1703 m -1487 Y s 863 1703 m -1487 Y s 886 1703 m -1487 Y s 907 1703 m -1487 Y s 1047 1703 m -1487 Y s 1128 1703 m -1487 Y s 1186 1703 m -1487 Y s 1231 1703 m -1487 Y s 1268 1703 m -1487 Y s 1299 1703 m -1487 Y s 1326 1703 m -1487 Y s 1350 1703 m
 -1487 Y s 1371 1703 m -1487 Y s 1510 1703 m -1487 Y s 1592 1703 m -1487 Y s 1650 1703 m -1487 Y s 1695 1703 m -1487 Y s 1731 1703 m -1487 Y s 1762 1703 m -1487 Y s 1789 1703 m -1487 Y s 1813 1703 m -1487 Y s 1834 1703 m -1487 Y s 1973 1703 m -1487 Y
 s 2055 1703 m -1487 Y s 2113 1703 m -1487 Y s 2158 1703 m -1487 Y s black[  ] 0 sd 6 lw 283 1703 m 1894 X s 283 216 m 1487 Y s 0.6 0.6 0.6 c[ 12 12] 0 sd 3 lw 2177 216 m -1894 X s 2177 365 m -1894 X s 2177 514 m -1894 X s 2177 662 m -1894 X s 2177
 811 m -1894 X s 2177 960 m -1894 X s 2177 1108 m -1894 X s 2177 1257 m -1894 X s 2177 1406 m -1894 X s 2177 1554 m -1894 X s 2177 1703 m -1894 X s black[  ] 0 sd 6 lw 2177 216 m 1487 Y s 283 216 m 1894 X s
 gsave  2268 1774 0 0 C 1706.21 27.1258 t 0 r /Helvetica findfont 78.6648 sf 0 0 m (Energy [GeV]) show NC gr  305 239 m -23 Y s 341 239 m -23 Y s 372 239 m -23 Y s 399 239 m -23 Y s 423 239 m -23 Y s 444 261 m -45 Y s
 gsave  2268 1774 0 0 C 463.851 154.617 t 0 r /Helvetica findfont 46.1139 sf 0 0 m (\2551) show NC gr 
 gsave  2268 1774 0 0 C 387.899 122.066 t 0 r /Helvetica findfont 70.5271 sf 0 0 m (10) show NC gr  584 239 m -23 Y s 665 239 m -23 Y s 723 239 m -23 Y s 768 239 m -23 Y s 805 239 m -23 Y s 836 239 m -23 Y s 863 239 m -23 Y s 886 239 m -23 Y s 907
 261 m -45 Y s
 gsave  2268 1774 0 0 C 907.421 120.528 t 0 r  -19 0 t /Helvetica findfont 67.8145 sf 0 0 m (1) show NC gr  1047 239 m -23 Y s 1128 239 m -23 Y s 1186 239 m -23 Y s 1231 239 m -23 Y s 1268 239 m -23 Y s 1299 239 m -23 Y s 1326 239 m -23 Y s 1350 239
 m -23 Y s 1371 261 m -45 Y s
 gsave  2268 1774 0 0 C 1370.71 120.528 t 0 r  -38 0 t /Helvetica findfont 67.8145 sf 0 0 m (10) show NC gr  1510 239 m -23 Y s 1592 239 m -23 Y s 1650 239 m -23 Y s 1695 239 m -23 Y s 1731 239 m -23 Y s 1762 239 m -23 Y s 1789 239 m -23 Y s 1813 239
 m -23 Y s 1834 261 m -45 Y s
 gsave  2268 1774 0 0 C 1858.12 154.617 t 0 r /Helvetica findfont 46.1139 sf 0 0 m (2) show NC gr 
 gsave  2268 1774 0 0 C 1782.16 122.066 t 0 r /Helvetica findfont 70.5271 sf 0 0 m (10) show NC gr  1973 239 m -23 Y s 2055 239 m -23 Y s 2113 239 m -23 Y s 2158 239 m -23 Y s 283 1703 m 1894 X s 305 1681 m 22 Y s 341 1681 m 22 Y s 372 1681 m 22 Y s
 399 1681 m 22 Y s 423 1681 m 22 Y s 444 1659 m 44 Y s 584 1681 m 22 Y s 665 1681 m 22 Y s 723 1681 m 22 Y s 768 1681 m 22 Y s 805 1681 m 22 Y s 836 1681 m 22 Y s 863 1681 m 22 Y s 886 1681 m 22 Y s 907 1659 m 44 Y s 1047 1681 m 22 Y s 1128 1681 m 22
 Y s 1186 1681 m 22 Y s 1231 1681 m 22 Y s 1268 1681 m 22 Y s 1299 1681 m 22 Y s 1326 1681 m 22 Y s 1350 1681 m 22 Y s 1371 1659 m 44 Y s 1510 1681 m 22 Y s 1592 1681 m 22 Y s 1650 1681 m 22 Y s 1695 1681 m 22 Y s 1731 1681 m 22 Y s 1762 1681 m 22 Y
 s 1789 1681 m 22 Y s 1813 1681 m 22 Y s 1834 1659 m 44 Y s 1973 1681 m 22 Y s 2055 1681 m 22 Y s 2113 1681 m 22 Y s 2158 1681 m 22 Y s 283 216 m 1487 Y s
 gsave  2268 1774 0 0 C 84.09 675.432 t 90 r /Helvetica findfont 78.6648 sf 0 0 m (On\255axis energy resolution [%]) show NC gr  340 216 m -57 X s 312 254 m -29 X s 312 291 m -29 X s 312 328 m -29 X s 340 365 m -57 X s 312 402 m -29 X s 312 439 m -29
 X s 312 477 m -29 X s 340 514 m -57 X s 312 551 m -29 X s 312 588 m -29 X s 312 625 m -29 X s 340 662 m -57 X s 312 700 m -29 X s 312 737 m -29 X s 312 774 m -29 X s 340 811 m -57 X s 312 848 m -29 X s 312 885 m -29 X s 312 923 m -29 X s 340 960 m
 -57 X s 312 997 m -29 X s 312 1034 m -29 X s 312 1071 m -29 X s 340 1108 m -57 X s 312 1146 m -29 X s 312 1183 m -29 X s 312 1220 m -29 X s 340 1257 m -57 X s 312 1294 m -29 X s 312 1331 m -29 X s 312 1369 m -29 X s 340 1406 m -57 X s 312 1443 m -29
 X s 312 1480 m -29 X s 312 1517 m -29 X s 340 1554 m -57 X s 312 1592 m -29 X s 312 1629 m -29 X s 312 1666 m -29 X s 340 1703 m -57 X s
 gsave  2268 1774 0 0 C 233.282 189.881 t 0 r /Helvetica findfont 70.5271 sf 0 0 m (0) show NC gr 
 gsave  2268 1774 0 0 C 233.282 339.072 t 0 r /Helvetica findfont 70.5271 sf 0 0 m (2) show NC gr 
 gsave  2268 1774 0 0 C 233.282 488.264 t 0 r /Helvetica findfont 70.5271 sf 0 0 m (4) show NC gr 
 gsave  2268 1774 0 0 C 233.282 637.456 t 0 r /Helvetica findfont 70.5271 sf 0 0 m (6) show NC gr 
 gsave  2268 1774 0 0 C 233.282 786.648 t 0 r /Helvetica findfont 70.5271 sf 0 0 m (8) show NC gr 
 gsave  2268 1774 0 0 C 195.306 933.127 t 0 r /Helvetica findfont 70.5271 sf 0 0 m (10) show NC gr 
 gsave  2268 1774 0 0 C 195.306 1082.32 t 0 r /Helvetica findfont 70.5271 sf 0 0 m (12) show NC gr 
 gsave  2268 1774 0 0 C 195.306 1231.51 t 0 r /Helvetica findfont 70.5271 sf 0 0 m (14) show NC gr 
 gsave  2268 1774 0 0 C 195.306 1380.7 t 0 r /Helvetica findfont 70.5271 sf 0 0 m (16) show NC gr 
 gsave  2268 1774 0 0 C 195.306 1529.89 t 0 r /Helvetica findfont 70.5271 sf 0 0 m (18) show NC gr 
 gsave  2268 1774 0 0 C 195.306 1676.37 t 0 r /Helvetica findfont 70.5271 sf 0 0 m (20) show NC gr  2177 216 m 1487 Y s 2120 216 m 57 X s 2149 254 m 28 X s 2149 291 m 28 X s 2149 328 m 28 X s 2120 365 m 57 X s 2149 402 m 28 X s 2149 439 m 28 X s 2149
 477 m 28 X s 2120 514 m 57 X s 2149 551 m 28 X s 2149 588 m 28 X s 2149 625 m 28 X s 2120 662 m 57 X s 2149 700 m 28 X s 2149 737 m 28 X s 2149 774 m 28 X s 2120 811 m 57 X s 2149 848 m 28 X s 2149 885 m 28 X s 2149 923 m 28 X s 2120 960 m 57 X s
 2149 997 m 28 X s 2149 1034 m 28 X s 2149 1071 m 28 X s 2120 1108 m 57 X s 2149 1146 m 28 X s 2149 1183 m 28 X s 2149 1220 m 28 X s 2120 1257 m 57 X s 2149 1294 m 28 X s 2149 1331 m 28 X s 2149 1369 m 28 X s 2120 1406 m 57 X s 2149 1443 m 28 X s
 2149 1480 m 28 X s 2149 1517 m 28 X s 2120 1554 m 57 X s 2149 1592 m 28 X s 2149 1629 m 28 X s 2149 1666 m 28 X s 2120 1703 m 57 X s[ 20 20] 0 sd 1 1 1 c black 305 1680 m 49 -63 d 52 -64 d 14 -18 d 50 -58 d 66 -75 d 71 -78 d 45 -51 d 54 -66 d 62 -77
 d 116 -152 d 67 -82 d 17 -19 d 16 -14 d 16 -13 d 15 -9 d 16 -8 d 22 -6 d 34 -7 d 28 -4 d 35 -6 d 46 -3 d 35 -1 d 47 1 d 48 2 d 21 2 d 45 6 d 45 9 d 26 6 d 46 13 d 53 18 d 17 7 d 58 23 d 39 18 d 19 10 d 39 22 d 32 19 d 32 22 d 12 9 d 30 25 d 34 30 d
 52 49 d 58 56 d 40 42 d 18 20 d 42 48 d 41 48 d 33 42 d s[  ] 0 sd 0.95 0.95 0.95 c black 1232 577 m 1 -1 d 1 X -1 Y 1 -1 d 1 -1 d 1 X 1 -1 d 1 -1 d 1 -1 d 1 X 1 -1 d 1 -1 d 1 -1 d 1 X 1 -1 d 1 -1 d -1 Y 1 X 1 -1 d 1 -1 d 1 X 1 -1 d 1 -1 d 1 -1 d 1
 X 1 -1 d 1 -1 d 1 X 1 -1 d 1 -1 d -1 Y 1 X 1 -1 d 1 -1 d 1 X 1 -1 d 1 -1 d 1 -1 d 1 X 1 -1 d 1 -1 d 1 X 1 -1 d -1 Y 1 X 1 -1 d 1 -1 d 1 X 1 -1 d s 1277 542 m 1 -1 d 1 X 1 -1 d 1 -1 d 1 X 1 -1 d 1 -1 d 1 X -1 Y 1 -1 d 1 X 1 -1 d 1 -1 d 1 X 1 -1 d 1
 -1 d 1 X 1 -1 d 1 X 1 -1 d 1 -1 d 1 -1 d 1 -1 d 1 X 1 -1 d 1 -1 d 1 X 1 -1 d 1 X 1 -1 d 1 -1 d 1 X 1 -1 d 1 -1 d 1 -1 d 1 X 1 -1 d 1 -1 d 1 X 1 -1 d 1 X 1 -1 d 1 -1 d 1 X 1 -1 d 1 X 1 -1 d s 1323 511 m -1 Y 1 X 1 -1 d 1 X 1 -1 d 1 -1 d 1 X 1 -1 d 1
 X 1 -1 d 1 X 1 -1 d 1 -1 d 1 -1 d 1 X 1 -1 d 1 X 1 -1 d 1 -1 d 1 X 1 -1 d 1 X 1 -1 d 1 X 1 -1 d 1 X -1 Y 1 -1 d 1 X 1 -1 d 1 X 1 -1 d 1 X 1 -1 d 1 X 1 -1 d 1 X 1 -1 d 1 -1 d 1 X -1 Y 1 X 1 -1 d 1 X 1 -1 d 1 X 1 -1 d 1 X s 1368 484 m 1 -1 d 1 X 1 -1
 d 1 X 1 -1 d 1 -1 d 1 X 1 -1 d 1 X 1 -1 d 1 X 1 -1 d 1 X 1 -1 d 1 X 1 -1 d 1 X 1 -1 d 1 -1 d 1 X 1 -1 d 1 X 1 -1 d 1 X 1 -1 d 1 X 1 -1 d 1 X 1 -1 d 1 X -1 Y 1 X 1 -1 d 1 X 1 -1 d 1 X 1 -1 d 1 X 1 -1 d 1 X 1 -1 d 2 X 1 -1 d 1 -1 d 1 X s 1413 460 m 1
 -1 d 1 X 1 -1 d 1 X 1 -1 d 2 X 1 -1 d 1 X 1 -1 d 1 X -1 Y 1 X 1 -1 d 2 X 1 -1 d 1 X 1 -1 d 1 X 1 -1 d 2 X 1 -1 d 1 -1 d 1 X 1 -1 d 2 X 1 -1 d 1 X 1 -1 d 1 X 1 -1 d 2 X 1 -1 d 1 -1 d 2 X 1 -1 d 1 X 1 -1 d 2 X 1 -1 d 1 X s 1459 439 m 1 -1 d 2 X -1 Y 1
 X 1 -1 d 2 X 1 -1 d 1 X 1 -1 d 2 X 1 -1 d 1 X 1 -1 d 1 X 1 -1 d 2 X 1 -1 d 1 X 1 -1 d 2 X 1 -1 d 2 X 1 -1 d 1 X 1 -1 d 1 X 1 -1 d 2 X 1 -1 d 2 X 1 -1 d 2 X -1 Y 1 X 1 -1 d 2 X 1 -1 d s 1504 420 m 2 X 1 -1 d 2 X 1 -1 d 2 X -1 Y 2 X 1 -1 d 2 X 1 -1 d
 2 X 1 -1 d 2 X 1 -1 d 1 X 1 -1 d 2 X 1 -1 d 2 X 1 -1 d 3 X 1 -1 d 1 X 1 -1 d 2 X 1 -1 d 2 X 1 -1 d 2 X 1 -1 d 3 X s 1550 405 m -1 Y 2 X 1 -1 d 3 X 1 -1 d 2 X 1 -1 d 2 X 1 -1 d 2 X 1 -1 d 2 X 1 -1 d 3 X 1 -1 d 2 X 1 -1 d 2 X 1 -1 d 3 X 1 -1 d 3 X 1
 -1 d 1 X 1 -1 d 3 X 1 -1 d 2 X s 1595 391 m 1 X 1 -1 d 3 X -1 Y 3 X 1 -1 d 3 X 1 -1 d 3 X 1 -1 d 2 X 1 -1 d 3 X 1 -1 d 3 X 1 -1 d 3 X 1 -1 d 3 X 1 -1 d 3 X 1 -1 d 3 X 1 -1 d 1 X s 1640 379 m 2 X 1 -1 d 4 X 1 -1 d 3 X 1 -1 d 3 X 1 -1 d 4 X 1 -1 d 3 X
 1 -1 d 4 X 1 -1 d 4 X 1 -1 d 3 X 1 -1 d 5 X 1 -1 d 1 X s 1686 369 m 3 X -1 Y 4 X 1 -1 d 5 X 1 -1 d 3 X 1 -1 d 5 X 1 -1 d 4 X 1 -1 d 5 X 1 -1 d 5 X 1 -1 d 4 X s 1731 361 m 1 -1 d 6 X 1 -1 d 4 X 1 -1 d 6 X 1 -1 d 5 X 1 -1 d 6 X 1 -1 d 5 X 1 -1 d 6 X 1
 -1 d s 1777 353 m 6 X 1 -1 d 6 X 1 -1 d 7 X 1 -1 d 6 X 1 -1 d 8 X 1 -1 d 6 X 1 -1 d s 1822 347 m 7 X 1 -1 d 9 X 1 -1 d 8 X 1 -1 d 8 X 1 -1 d 8 X 1 -1 d s 1867 342 m 11 X -1 Y 10 X 1 -1 d 10 X 1 -1 d 11 X 1 -1 d 1 X s 1913 338 m 10 X 1 -1 d 12 X 1 -1
 d 13 X 1 -1 d 7 X s 1958 335 m 7 X 1 -1 d 14 X 1 -1 d 17 X 1 -1 d 5 X s 2004 332 m 13 X -1 Y 19 X 1 -1 d 12 X s 2049 330 m 9 X 1 -1 d 24 X 1 -1 d 10 X s 2094 328 m 17 X 1 -1 d 28 X s 2140 327 m 3 X -1 Y 14 X s
 gsave  2268 1774 0 0 C 1613.98 1437.67 t 0 r /Helvetica findfont 70.5271 sf 0 0 m (Fermi\255LAT) show NC gr  1 1 1 c 3 lw 1495 1425 m 99 X 68 Y -99 X cl s 6 lw black[ 20 20] 0 sd 1495 1459 m 99 X s[  ] 0 sd 3 lw /w 26 def /w2 {w 2 div} def /w3 {w 3
 div} def 1545 1459 m20[ 20 20] 0 sd 6 lw
 gsave  2268 1774 0 0 C 1613.98 1340.01 t 0 r /Helvetica findfont 70.5271 sf 0 0 m (AMS\25502) show NC gr  0.95 0.95 0.95 c[  ] 0 sd 3 lw 1495 1327 m 99 X 69 Y -99 X cl s[ 20 20] 0 sd 6 lw black[  ] 0 sd 1495 1362 m 99 X s 3 lw /w 2 def /w2 {w 2 div}
 def /w3 {w 3 div} def 1545 1362 m20 6 lw
 gr  gr showpage
end
%%EOF
