%!PS-Adobe-2.0 EPSF-2.0
%%BoundingBox:  0 0 567 444
%%Title: cherenkov_sketch.eps: cherenkov_sketch
%%Creator: ROOT Version 5.34/14
%%CreationDate: Fri May 23 13:00:11 2014
%%EndComments
%%BeginProlog
80 dict begin
/s {stroke} def /l {lineto} def /m {moveto} def /t {translate} def
/r {rotate} def /rl {roll}  def /R {repeat} def
/d {rlineto} def /rm {rmoveto} def /gr {grestore} def /f {eofill} def
/c {setrgbcolor} def /black {0 setgray} def /sd {setdash} def
/cl {closepath} def /sf {scalefont setfont} def /lw {setlinewidth} def
/box {m dup 0 exch d exch 0 d 0 exch neg d cl} def
/NC{systemdict begin initclip end}def/C{NC box clip newpath}def
/bl {box s} def /bf {box f} def /Y { 0 exch d} def /X { 0 d} def 
/K {{pop pop 0 moveto} exch kshow} bind def
/ita {/ang 15 def gsave [1 0 ang dup sin exch cos div 1 0 0] concat} def 
/mp {newpath /y exch def /x exch def} def
/side {[w .77 mul w .23 mul] .385 w mul sd w 0 l currentpoint t -144 r} def
/mr {mp x y w2 0 360 arc} def /m24 {mr s} def /m20 {mr f} def
/mb {mp x y w2 add m w2 neg 0 d 0 w neg d w 0 d 0 w d cl} def
/mt {mp x y w2 add m w2 neg w neg d w 0 d cl} def
/m21 {mb f} def /m25 {mb s} def /m22 {mt f} def /m26{mt s} def
/m23 {mp x y w2 sub m w2 w d w neg 0 d cl f} def
/m27 {mp x y w2 add m w3 neg w2 neg d w3 w2 neg d w3 w2 d cl s} def
/m28 {mp x w2 sub y w2 sub w3 add m w3 0 d  0 w3 neg d w3 0 d 0 w3 d w3 0 d  0 w3 d w3 neg 0 d 0 w3 d w3 neg 0 d 0 w3 neg d w3 neg 0 d cl s } def
/m29 {mp gsave x w2 sub y w2 add w3 sub m currentpoint t 4 {side} repeat cl fill gr} def
/m30 {mp gsave x w2 sub y w2 add w3 sub m currentpoint t 4 {side} repeat cl s gr} def
/m31 {mp x y w2 sub m 0 w d x w2 sub y m w 0 d x w2 sub y w2 add m w w neg d x w2 sub y w2 sub m w w d s} def
/m32 {mp x y w2 sub m w2 w d w neg 0 d cl s} def
/m33 {mp x y w2 add m w3 neg w2 neg d w3 w2 neg d w3 w2 d cl f} def
/m34 {mp x w2 sub y w2 sub w3 add m w3 0 d  0 w3 neg d w3 0 d 0 w3 d w3 0 d  0 w3 d w3 neg 0 d 0 w3 d w3 neg 0 d 0 w3 neg d w3 neg 0 d cl f } def
/m2 {mp x y w2 sub m 0 w d x w2 sub y m w 0 d s} def
/m5 {mp x w2 sub y w2 sub m w w d x w2 sub y w2 add m w w neg d s} def
/reEncode {exch findfont dup length dict begin {1 index /FID eq  {pop pop} {def} ifelse } forall /Encoding exch def currentdict end dup /FontName get exch definefont pop } def [/Times-Bold /Times-Italic /Times-BoldItalic /Helvetica /Helvetica-Oblique
 /Helvetica-Bold /Helvetica-BoldOblique /Courier /Courier-Oblique /Courier-Bold /Courier-BoldOblique /Times-Roman /AvantGarde-Book /AvantGarde-BookOblique /AvantGarde-Demi /AvantGarde-DemiOblique /Bookman-Demi /Bookman-DemiItalic /Bookman-Light
 /Bookman-LightItalic /Helvetica-Narrow /Helvetica-Narrow-Bold /Helvetica-Narrow-BoldOblique /Helvetica-Narrow-Oblique /NewCenturySchlbk-Roman /NewCenturySchlbk-Bold /NewCenturySchlbk-BoldItalic /NewCenturySchlbk-Italic /Palatino-Bold
 /Palatino-BoldItalic /Palatino-Italic /Palatino-Roman ] {ISOLatin1Encoding reEncode } forall
%%EndProlog
%%BeginSetup
%%EndSetup
newpath  gsave  .25 .25 scale  gsave  0 0 t black[  ] 0 sd 6 lw 1 1 1 c 2268 1774 0 0 bf 0.8 0.8 0.8 c 3 lw 1 1 1 c 0.8 0.8 0.8 c 2020 887 m -5 21 d -14 16 d -19 7 d -20 -2 d -17 -12 d -10 -19 d -22 Y 10 -19 d 17 -12 d 20 -2 d 19 7 d 14 16 d 5 21 d s
 1 1 1 c 0.8 0.8 0.8 c 1998 887 m -2 21 d -7 19 d -11 17 d -14 15 d -18 10 d -19 6 d -20 1 d -19 -3 d -18 -9 d -16 -12 d -13 -16 d -9 -18 d -5 -21 d -20 Y 5 -21 d 9 -18 d 13 -16 d 16 -12 d 18 -9 d 19 -3 d 20 1 d 19 6 d 18 10 d 14 15 d 11 17 d 7 19 d
 2 21 d s 1 1 1 c 0.8 0.8 0.8 c 1977 887 m -2 21 d -5 20 d -7 20 d -11 18 d -13 16 d -15 13 d -17 11 d -19 8 d -20 5 d -20 2 d -20 -2 d -20 -5 d -18 -8 d -17 -11 d -16 -13 d -13 -16 d -10 -18 d -8 -20 d -5 -20 d -1 -21 d 1 -21 d 5 -20 d 8 -20 d 10
 -18 d 13 -16 d 16 -13 d 17 -11 d 18 -8 d 20 -5 d 20 -2 d 20 2 d 20 5 d 19 8 d 17 11 d 15 13 d 13 16 d 11 18 d 7 20 d 5 20 d 2 21 d s 1 1 1 c 0.8 0.8 0.8 c 1955 887 m -1 21 d -3 20 d -6 20 d -8 19 d -10 18 d -12 17 d -13 15 d -16 13 d -16 12 d -18 9
 d -19 7 d -19 5 d -20 2 d -20 X -20 -2 d -19 -5 d -19 -7 d -18 -9 d -16 -12 d -16 -13 d -13 -15 d -12 -17 d -10 -18 d -8 -19 d -6 -20 d -3 -20 d -1 -21 d 1 -21 d 3 -20 d 6 -20 d 8 -19 d 10 -18 d 12 -17 d 13 -15 d 16 -13 d 16 -12 d 18 -9 d 19 -7 d 19
 -5 d 20 -2 d 20 X 20 2 d 19 5 d 19 7 d 18 9 d 16 12 d 16 13 d 13 15 d 12 17 d 10 18 d 8 19 d 6 20 d 3 20 d 1 21 d s 1 1 1 c 0.8 0.8 0.8 c 1934 887 m -1 21 d -3 21 d -5 20 d -6 20 d -8 19 d -10 18 d -12 17 d -13 16 d -14 15 d -16 13 d -16 12 d -18 10
 d -19 8 d -19 6 d -19 4 d -20 3 d -20 X -20 -1 d -20 -4 d -20 -5 d -18 -7 d -19 -9 d -17 -11 d -16 -12 d -15 -14 d -14 -16 d -12 -16 d -11 -18 d -9 -18 d -7 -20 d -6 -20 d -3 -21 d -2 -21 d -20 Y 2 -21 d 3 -21 d 6 -20 d 7 -19 d 9 -19 d 11 -18 d 12
 -16 d 14 -16 d 15 -14 d 16 -12 d 17 -11 d 19 -9 d 18 -7 d 20 -5 d 20 -4 d 20 -1 d 20 X 20 3 d 19 4 d 19 6 d 19 8 d 18 10 d 16 12 d 16 13 d 14 15 d 13 16 d 12 17 d 10 18 d 8 19 d 6 20 d 5 20 d 3 21 d 1 21 d s 1 1 1 c 0.8 0.8 0.8 c 1912 887 m 21 Y -3
 20 d -3 21 d -6 20 d -7 19 d -8 19 d -10 19 d -10 17 d -13 16 d -13 16 d -15 14 d -15 13 d -17 12 d -17 10 d -18 9 d -18 8 d -19 6 d -20 4 d -20 3 d -20 1 d -20 X -19 -2 d -20 -4 d -19 -5 d -19 -7 d -18 -8 d -18 -10 d -17 -11 d -16 -12 d -15 -14 d
 -14 -15 d -13 -16 d -11 -17 d -11 -17 d -9 -19 d -7 -19 d -6 -20 d -5 -20 d -3 -21 d -1 -21 d -20 Y 1 -21 d 3 -21 d 5 -20 d 6 -20 d 7 -19 d 9 -18 d 11 -18 d 11 -17 d 13 -16 d 14 -15 d 15 -14 d 16 -12 d 17 -11 d 18 -10 d 18 -8 d 19 -7 d 19 -5 d 20 -4
 d 19 -2 d 20 X 20 1 d 20 3 d 20 4 d 19 6 d 18 8 d 18 9 d 17 10 d 17 12 d 15 13 d 15 14 d 13 16 d 13 16 d 10 17 d 10 19 d 8 19 d 7 19 d 6 20 d 3 21 d 3 20 d 21 Y s 1 1 1 c 0.8 0.8 0.8 c 1891 887 m -1 21 d -2 21 d -3 20 d -5 21 d -6 20 d -7 19 d -8 19
 d -10 18 d -11 18 d -12 17 d -12 16 d -14 15 d -15 14 d -16 13 d -16 12 d -18 10 d -18 10 d -18 8 d -19 7 d -19 5 d -20 4 d -20 3 d -20 2 d -20 X -20 -2 d -20 -3 d -19 -4 d -20 -5 d -19 -7 d -18 -8 d -18 -10 d -17 -10 d -17 -12 d -15 -13 d -15 -14 d
 -14 -15 d -13 -16 d -12 -17 d -11 -18 d -9 -18 d -9 -19 d -7 -19 d -6 -20 d -5 -21 d -3 -20 d -2 -21 d -1 -21 d 1 -21 d 2 -21 d 3 -20 d 5 -21 d 6 -20 d 7 -19 d 9 -19 d 9 -18 d 11 -18 d 12 -17 d 13 -16 d 14 -15 d 15 -14 d 15 -13 d 17 -12 d 17 -10 d
 18 -10 d 18 -8 d 19 -7 d 20 -5 d 19 -4 d 20 -3 d 20 -2 d 20 X 20 2 d 20 3 d 20 4 d 19 5 d 19 7 d 18 8 d 18 10 d 18 10 d 16 12 d 16 13 d 15 14 d 14 15 d 12 16 d 12 17 d 11 18 d 10 18 d 8 19 d 7 19 d 6 20 d 5 21 d 3 20 d 2 21 d 1 21 d s 1 1 1 c 0.8
 0.8 0.8 c 1870 887 m -1 21 d -2 21 d -3 20 d -4 20 d -5 21 d -6 19 d -7 20 d -9 18 d -9 19 d -11 17 d -11 17 d -13 17 d -13 15 d -14 15 d -15 14 d -15 13 d -17 12 d -17 11 d -17 9 d -18 9 d -19 8 d -19 6 d -19 6 d -20 4 d -19 3 d -20 2 d -40 X -20
 -2 d -20 -3 d -19 -4 d -19 -6 d -19 -6 d -19 -8 d -18 -9 d -17 -9 d -17 -11 d -17 -12 d -15 -13 d -15 -14 d -14 -15 d -14 -15 d -12 -17 d -11 -17 d -11 -17 d -9 -19 d -9 -18 d -7 -20 d -6 -19 d -6 -21 d -4 -20 d -2 -20 d -2 -21 d -1 -21 d 1 -21 d 2
 -20 d 2 -21 d 4 -20 d 6 -20 d 6 -20 d 7 -20 d 9 -18 d 9 -19 d 11 -17 d 11 -17 d 12 -17 d 14 -15 d 14 -15 d 15 -14 d 15 -13 d 17 -12 d 17 -11 d 17 -9 d 18 -9 d 19 -8 d 19 -6 d 19 -6 d 19 -4 d 20 -3 d 20 -2 d 40 X 20 2 d 19 3 d 20 4 d 19 6 d 19 6 d 19
 8 d 18 9 d 17 9 d 17 11 d 17 12 d 15 13 d 15 14 d 14 15 d 13 15 d 13 17 d 11 17 d 11 17 d 9 19 d 9 18 d 7 20 d 6 20 d 5 20 d 4 20 d 3 21 d 2 20 d 1 21 d s 1 1 1 c 0.8 0.8 0.8 c 1848 887 m 21 Y -2 20 d -2 21 d -4 20 d -5 20 d -5 20 d -7 20 d -7 19 d
 -8 19 d -10 18 d -10 18 d -11 17 d -12 17 d -13 15 d -13 16 d -14 14 d -15 14 d -16 13 d -16 12 d -17 11 d -17 10 d -18 9 d -18 9 d -19 7 d -19 6 d -19 5 d -19 5 d -20 3 d -20 2 d -19 1 d -20 X -20 -1 d -20 -2 d -19 -3 d -20 -5 d -19 -5 d -19 -6 d
 -19 -7 d -18 -9 d -18 -9 d -17 -10 d -17 -11 d -16 -12 d -15 -13 d -15 -14 d -14 -14 d -14 -16 d -13 -15 d -12 -17 d -11 -17 d -10 -18 d -9 -18 d -9 -19 d -7 -19 d -7 -20 d -5 -20 d -5 -20 d -3 -20 d -3 -21 d -1 -20 d -1 -21 d 1 -21 d 1 -20 d 3 -21
 d 3 -20 d 5 -20 d 5 -20 d 7 -20 d 7 -19 d 9 -19 d 9 -18 d 10 -18 d 11 -17 d 12 -17 d 13 -15 d 14 -16 d 14 -14 d 15 -14 d 15 -13 d 16 -12 d 17 -11 d 17 -10 d 18 -9 d 18 -8 d 19 -8 d 19 -6 d 19 -5 d 20 -5 d 19 -3 d 20 -2 d 20 -1 d 20 X 19 1 d 20 2 d
 20 3 d 19 5 d 19 5 d 19 6 d 19 8 d 18 8 d 18 9 d 17 10 d 17 11 d 16 12 d 16 13 d 15 14 d 14 14 d 13 16 d 13 15 d 12 17 d 11 17 d 10 18 d 10 18 d 8 19 d 7 19 d 7 20 d 5 20 d 5 20 d 4 20 d 2 21 d 2 20 d 21 Y s 1 1 1 c 0.8 0.8 0.8 c 1827 887 m -1 21 d
 -1 21 d -2 20 d -4 21 d -4 20 d -5 20 d -6 20 d -7 20 d -7 19 d -9 19 d -9 18 d -10 18 d -11 17 d -12 17 d -12 16 d -14 16 d -13 15 d -15 14 d -15 14 d -16 12 d -16 12 d -17 12 d -17 10 d -18 10 d -18 8 d -18 8 d -19 7 d -19 6 d -20 5 d -19 4 d -20
 3 d -20 2 d -20 2 d -20 X -19 -1 d -20 -2 d -20 -2 d -20 -4 d -19 -4 d -19 -6 d -19 -6 d -19 -8 d -18 -8 d -18 -9 d -18 -10 d -17 -11 d -16 -11 d -16 -13 d -16 -13 d -15 -14 d -14 -15 d -13 -15 d -13 -16 d -12 -16 d -11 -17 d -11 -18 d -10 -18 d -9
 -19 d -8 -19 d -7 -19 d -6 -20 d -6 -20 d -5 -20 d -3 -21 d -3 -20 d -2 -21 d -1 -21 d -20 Y 1 -21 d 2 -21 d 3 -20 d 3 -21 d 5 -20 d 6 -20 d 6 -20 d 7 -19 d 8 -19 d 9 -19 d 10 -18 d 11 -18 d 11 -17 d 12 -16 d 13 -16 d 13 -15 d 14 -15 d 15 -14 d 16
 -13 d 16 -12 d 16 -12 d 17 -11 d 18 -10 d 18 -9 d 18 -8 d 19 -8 d 19 -6 d 19 -6 d 19 -4 d 20 -4 d 20 -2 d 20 -2 d 19 -1 d 20 X 20 2 d 20 2 d 20 3 d 19 4 d 20 5 d 19 6 d 19 7 d 18 8 d 18 8 d 18 10 d 17 10 d 17 12 d 16 12 d 16 12 d 15 14 d 15 14 d 13
 15 d 14 16 d 12 16 d 12 17 d 11 17 d 10 18 d 9 18 d 9 19 d 7 19 d 7 20 d 6 20 d 5 20 d 4 20 d 4 21 d 2 20 d 1 21 d 1 21 d s 1 1 1 c 0.8 0.8 0.8 c 1805 887 m 21 Y -1 20 d -2 21 d -3 21 d -4 20 d -5 20 d -5 20 d -6 20 d -7 19 d -8 19 d -8 19 d -10 18
 d -10 18 d -10 18 d -12 17 d -12 16 d -13 16 d -13 15 d -14 15 d -15 14 d -15 14 d -15 12 d -16 12 d -17 12 d -17 10 d -18 10 d -17 9 d -19 9 d -18 7 d -19 7 d -19 6 d -19 4 d -20 5 d -19 3 d -20 2 d -20 2 d -40 X -20 -1 d -19 -2 d -20 -3 d -20 -3 d
 -19 -5 d -19 -5 d -19 -7 d -19 -7 d -18 -7 d -18 -9 d -18 -10 d -17 -10 d -17 -11 d -16 -12 d -16 -12 d -16 -13 d -14 -14 d -15 -14 d -13 -15 d -13 -16 d -13 -16 d -12 -17 d -11 -17 d -10 -18 d -10 -18 d -9 -18 d -8 -19 d -7 -20 d -7 -19 d -5 -20 d
 -5 -20 d -5 -20 d -3 -21 d -2 -20 d -2 -21 d -1 -21 d -20 Y 1 -21 d 2 -21 d 2 -20 d 3 -21 d 5 -20 d 5 -20 d 5 -20 d 7 -19 d 7 -20 d 8 -19 d 9 -18 d 10 -18 d 10 -18 d 11 -17 d 12 -17 d 13 -16 d 13 -16 d 13 -15 d 15 -14 d 14 -14 d 16 -13 d 16 -12 d 16
 -12 d 17 -11 d 17 -10 d 18 -10 d 18 -8 d 18 -8 d 19 -7 d 19 -7 d 19 -5 d 19 -5 d 20 -3 d 20 -3 d 19 -2 d 20 -1 d 40 X 20 2 d 20 2 d 19 3 d 20 5 d 19 5 d 19 5 d 19 7 d 18 7 d 19 9 d 17 9 d 18 10 d 17 10 d 17 12 d 16 12 d 15 12 d 15 14 d 15 14 d 14 15
 d 13 15 d 13 16 d 12 16 d 12 17 d 10 18 d 10 18 d 10 18 d 8 19 d 8 19 d 7 19 d 6 20 d 5 20 d 5 20 d 4 21 d 3 20 d 2 21 d 1 20 d 21 Y s 1 1 1 c 0.8 0.8 0.8 c 1784 887 m 21 Y -2 21 d -2 20 d -2 21 d -4 20 d -4 21 d -5 20 d -6 20 d -6 19 d -7 20 d -8
 19 d -9 19 d -9 18 d -10 18 d -11 18 d -11 17 d -12 16 d -12 17 d -13 15 d -14 15 d -14 15 d -15 14 d -15 13 d -16 13 d -16 12 d -17 12 d -17 10 d -18 10 d -17 10 d -18 8 d -19 8 d -19 7 d -19 7 d -19 5 d -19 5 d -20 4 d -20 3 d -19 3 d -20 1 d -20
 1 d -20 X -20 -1 d -20 -1 d -20 -3 d -19 -3 d -20 -4 d -19 -5 d -20 -5 d -18 -7 d -19 -7 d -19 -8 d -18 -8 d -18 -10 d -17 -10 d -17 -10 d -17 -12 d -16 -12 d -16 -13 d -15 -13 d -15 -14 d -14 -15 d -14 -15 d -13 -15 d -12 -17 d -12 -16 d -12 -17 d
 -10 -18 d -10 -18 d -9 -18 d -9 -19 d -8 -19 d -7 -20 d -7 -19 d -5 -20 d -5 -20 d -4 -21 d -4 -20 d -3 -21 d -2 -20 d -1 -21 d -42 Y 1 -21 d 2 -20 d 3 -21 d 4 -20 d 4 -21 d 5 -20 d 5 -20 d 7 -19 d 7 -20 d 8 -19 d 9 -19 d 9 -18 d 10 -18 d 10 -18 d
 12 -17 d 12 -16 d 12 -17 d 13 -15 d 14 -15 d 14 -15 d 15 -14 d 15 -13 d 16 -13 d 16 -12 d 17 -12 d 17 -10 d 17 -10 d 18 -10 d 18 -8 d 19 -8 d 19 -7 d 18 -7 d 20 -5 d 19 -5 d 20 -4 d 19 -3 d 20 -3 d 20 -1 d 20 -1 d 20 X 20 1 d 20 1 d 19 3 d 20 3 d 20
 4 d 19 5 d 19 5 d 19 7 d 19 7 d 19 8 d 18 8 d 17 10 d 18 10 d 17 10 d 17 12 d 16 12 d 16 13 d 15 13 d 15 14 d 14 15 d 14 15 d 13 15 d 12 17 d 12 16 d 11 17 d 11 18 d 10 18 d 9 18 d 9 19 d 8 19 d 7 20 d 6 19 d 6 20 d 5 20 d 4 21 d 4 20 d 2 21 d 2 20
 d 2 21 d 21 Y s 1 1 1 c 0.8 0.8 0.8 c 1763 887 m -1 21 d -1 20 d -2 21 d -2 21 d -3 20 d -4 20 d -5 21 d -5 20 d -6 19 d -7 20 d -7 19 d -8 19 d -8 19 d -10 18 d -9 18 d -11 18 d -11 17 d -12 17 d -12 16 d -12 16 d -14 16 d -14 15 d -14 14 d -15 14
 d -15 13 d -16 13 d -16 12 d -16 12 d -17 11 d -17 10 d -18 9 d -18 9 d -18 9 d -19 7 d -18 7 d -19 6 d -20 6 d -19 5 d -19 4 d -20 3 d -20 3 d -20 1 d -19 1 d -20 1 d -20 -1 d -20 -1 d -20 -1 d -20 -3 d -19 -3 d -20 -4 d -19 -5 d -19 -6 d -19 -6 d
 -19 -7 d -18 -7 d -19 -9 d -18 -9 d -17 -9 d -17 -10 d -17 -11 d -17 -12 d -16 -12 d -16 -13 d -15 -13 d -15 -14 d -14 -14 d -14 -15 d -13 -16 d -13 -16 d -12 -16 d -12 -17 d -11 -17 d -10 -18 d -10 -18 d -9 -18 d -9 -19 d -8 -19 d -7 -19 d -7 -20 d
 -6 -19 d -5 -20 d -4 -21 d -4 -20 d -4 -20 d -2 -21 d -2 -21 d -1 -20 d -42 Y 1 -20 d 2 -21 d 2 -21 d 4 -20 d 4 -20 d 4 -21 d 5 -20 d 6 -19 d 7 -20 d 7 -19 d 8 -19 d 9 -19 d 9 -18 d 10 -18 d 10 -18 d 11 -17 d 12 -17 d 12 -16 d 13 -16 d 13 -16 d 14
 -15 d 14 -14 d 15 -14 d 15 -13 d 16 -13 d 16 -12 d 17 -12 d 17 -11 d 17 -10 d 17 -9 d 18 -9 d 19 -9 d 18 -7 d 19 -7 d 19 -6 d 19 -6 d 19 -5 d 20 -4 d 19 -3 d 20 -2 d 20 -2 d 20 -1 d 20 -1 d 20 1 d 19 1 d 20 2 d 20 2 d 20 3 d 19 4 d 19 5 d 20 6 d 19
 6 d 18 7 d 19 7 d 18 9 d 18 9 d 18 9 d 17 10 d 17 11 d 16 12 d 16 12 d 16 13 d 15 13 d 15 14 d 14 14 d 14 15 d 14 16 d 12 16 d 12 16 d 12 17 d 11 17 d 11 18 d 9 18 d 10 18 d 8 19 d 8 19 d 7 19 d 7 20 d 6 19 d 5 20 d 5 21 d 4 20 d 3 20 d 2 21 d 2 21
 d 1 20 d 1 21 d s 1 1 1 c 0.8 0.8 0.8 c 1741 887 m 21 Y -1 21 d -2 20 d -2 21 d -3 21 d -4 20 d -4 20 d -5 20 d -6 20 d -6 20 d -7 20 d -7 19 d -8 19 d -9 19 d -9 18 d -10 18 d -10 18 d -11 17 d -12 17 d -12 17 d -12 16 d -13 16 d -14 15 d -14 15 d
 -14 14 d -15 14 d -16 13 d -15 13 d -17 12 d -16 11 d -17 11 d -17 11 d -18 10 d -18 9 d -18 8 d -18 8 d -19 8 d -19 6 d -19 6 d -19 5 d -20 5 d -19 4 d -20 3 d -20 3 d -20 2 d -20 1 d -20 1 d -20 -1 d -19 -1 d -20 -1 d -20 -2 d -20 -3 d -20 -4 d
 -19 -4 d -19 -5 d -20 -6 d -19 -6 d -18 -7 d -19 -8 d -18 -8 d -18 -9 d -18 -9 d -17 -10 d -18 -11 d -16 -11 d -17 -12 d -16 -13 d -15 -12 d -15 -14 d -15 -14 d -14 -15 d -14 -15 d -13 -15 d -13 -16 d -13 -16 d -11 -17 d -12 -17 d -10 -18 d -10 -18
 d -10 -18 d -9 -19 d -8 -18 d -8 -20 d -7 -19 d -7 -20 d -5 -20 d -6 -20 d -4 -20 d -4 -20 d -4 -21 d -2 -20 d -2 -21 d -2 -21 d -62 Y 2 -21 d 2 -21 d 2 -20 d 4 -21 d 4 -20 d 4 -20 d 6 -20 d 5 -20 d 7 -20 d 7 -19 d 8 -20 d 8 -18 d 9 -19 d 10 -18 d
 10 -18 d 10 -18 d 12 -17 d 11 -17 d 13 -16 d 13 -16 d 13 -15 d 14 -15 d 14 -15 d 15 -14 d 15 -13 d 15 -13 d 16 -13 d 17 -12 d 16 -11 d 18 -11 d 17 -10 d 18 -9 d 18 -9 d 18 -8 d 19 -8 d 18 -7 d 19 -6 d 20 -6 d 19 -5 d 19 -4 d 20 -4 d 20 -3 d 20 -2 d
 20 -1 d 19 -1 d 40 X 20 1 d 20 2 d 20 3 d 20 3 d 19 4 d 20 5 d 19 5 d 19 6 d 19 6 d 19 8 d 18 8 d 18 8 d 18 9 d 18 10 d 17 11 d 17 11 d 16 11 d 17 12 d 15 13 d 16 13 d 15 14 d 14 14 d 14 15 d 14 15 d 13 16 d 12 16 d 12 17 d 12 17 d 11 17 d 10 18 d
 10 18 d 9 18 d 9 19 d 8 19 d 7 19 d 7 20 d 6 20 d 6 20 d 5 20 d 4 20 d 4 21 d 3 20 d 2 21 d 2 20 d 1 21 d 21 Y s black 6 lw 1 1 1 c black 1720 887 m -1 21 d -1 21 d -1 21 d -2 21 d -3 21 d -4 21 d -4 20 d -5 21 d -5 20 d -6 20 d -6 20 d -7 20 d -8
 19 d -8 19 d -9 19 d -10 19 d -10 18 d -10 18 d -11 18 d -12 17 d -12 17 d -13 16 d -13 16 d -13 16 d -15 15 d -14 15 d -15 14 d -15 13 d -16 14 d -16 12 d -17 12 d -17 12 d -17 11 d -17 10 d -18 10 d -18 9 d -19 9 d -18 8 d -19 8 d -19 6 d -20 7 d
 -19 5 d -20 5 d -19 4 d -20 4 d -20 3 d -20 2 d -20 2 d -21 1 d -40 X -20 -1 d -20 -2 d -20 -2 d -20 -3 d -20 -4 d -20 -4 d -20 -5 d -19 -5 d -19 -7 d -19 -6 d -19 -8 d -19 -8 d -18 -9 d -19 -9 d -17 -10 d -18 -10 d -17 -11 d -17 -12 d -16 -12 d -17
 -12 d -15 -14 d -16 -13 d -15 -14 d -14 -15 d -14 -15 d -14 -16 d -13 -16 d -13 -16 d -12 -17 d -11 -17 d -11 -18 d -11 -18 d -10 -18 d -9 -19 d -9 -19 d -9 -19 d -7 -19 d -7 -20 d -7 -20 d -6 -20 d -5 -20 d -5 -21 d -4 -20 d -3 -21 d -3 -21 d -3
 -21 d -1 -21 d -1 -21 d -42 Y 1 -21 d 1 -21 d 3 -21 d 3 -21 d 3 -21 d 4 -20 d 5 -21 d 5 -20 d 6 -20 d 7 -20 d 7 -20 d 7 -19 d 9 -19 d 9 -19 d 9 -19 d 10 -18 d 11 -18 d 11 -18 d 11 -17 d 12 -17 d 13 -16 d 13 -16 d 14 -16 d 14 -15 d 14 -15 d 15 -14 d
 16 -13 d 15 -14 d 17 -12 d 16 -12 d 17 -12 d 17 -11 d 18 -10 d 17 -10 d 19 -9 d 18 -9 d 19 -8 d 19 -8 d 19 -6 d 19 -7 d 19 -5 d 20 -5 d 20 -4 d 20 -4 d 20 -3 d 20 -2 d 20 -2 d 20 -1 d 40 X 21 1 d 20 2 d 20 2 d 20 3 d 20 4 d 19 4 d 20 5 d 19 5 d 20 7
 d 19 6 d 19 8 d 18 8 d 19 9 d 18 9 d 18 10 d 17 10 d 17 11 d 17 12 d 17 12 d 16 12 d 16 14 d 15 13 d 15 14 d 14 15 d 15 15 d 13 16 d 13 16 d 13 16 d 12 17 d 12 17 d 11 18 d 10 18 d 10 18 d 10 19 d 9 19 d 8 19 d 8 19 d 7 20 d 6 20 d 6 20 d 5 20 d 5
 21 d 4 20 d 4 21 d 3 21 d 2 21 d 1 21 d 1 21 d 1 21 d s 1077 887 m 429 500 d s 2041 887 m -951 887 d s 2041 887 m -951 -887 d s 3 lw /w 22 def /w2 {w 2 div} def /w3 {w 3 div} def 2041 887 m20 6 lw 3 lw 1077 887 m20 6 lw
 gsave  2268 1774 0 0 C 1548.88 811.061 t 0 r /Helvetica findfont 70.5271 sf 0 0 m (ct) show NC gr 
 gsave  2268 1774 0 0 C 1510.91 811.061 t 0 r /Symbol findfont 70.5271 sf 0 0 m (b) show NC gr 
 gsave  2268 1774 0 0 C 1272.2 1226.09 t 0 r /Helvetica findfont 70.5271 sf 0 0 m (n) show NC gr 
 gsave  2268 1774 0 0 C 1264.06 1288.48 t 0 r /Helvetica findfont 70.5271 sf 0 0 m (ct) show NC gr  1264 1275 m 54 X s 1 1 1 c black 1191 887 m -1 12 d -2 13 d -3 12 d -4 11 d -6 11 d -6 11 d -8 9 d -8 9 d -76 -88 d 114 X cl s
 gsave  2268 1774 0 0 C 1239.65 919.565 t 0 r /Helvetica findfont 46.1139 sf 0 0 m (c) show NC gr 
 gsave  2268 1774 0 0 C 1204.39 938.553 t 0 r /Symbol findfont 70.5271 sf 0 0 m (q) show NC gr 
 gsave  2268 1774 0 0 C 146.479 726.971 t 0 r /Helvetica findfont 70.5271 sf 0 0 m ( particle) show NC gr 
 gsave  2268 1774 0 0 C 146.479 811.061 t 0 r /Helvetica findfont 70.5271 sf 0 0 m (Charged) show NC gr 
 gsave  2268 1774 0 0 C 1405.12 1521.76 t -41 r /Helvetica findfont 70.5271 sf 0 0 m (Wavefront) show NC gr  227 887 m 1814 X s
 gr  gr showpage
end
%%EOF
