%!PS-Adobe-2.0 EPSF-2.0
%%BoundingBox:  0 0 567 444
%%Title: cherenkov_beta.eps: cherenkov_beta
%%Creator: ROOT Version 5.34/14
%%CreationDate: Fri May 23 13:00:11 2014
%%EndComments
%%BeginProlog
80 dict begin
/s {stroke} def /l {lineto} def /m {moveto} def /t {translate} def
/r {rotate} def /rl {roll}  def /R {repeat} def
/d {rlineto} def /rm {rmoveto} def /gr {grestore} def /f {eofill} def
/c {setrgbcolor} def /black {0 setgray} def /sd {setdash} def
/cl {closepath} def /sf {scalefont setfont} def /lw {setlinewidth} def
/box {m dup 0 exch d exch 0 d 0 exch neg d cl} def
/NC{systemdict begin initclip end}def/C{NC box clip newpath}def
/bl {box s} def /bf {box f} def /Y { 0 exch d} def /X { 0 d} def 
/K {{pop pop 0 moveto} exch kshow} bind def
/ita {/ang 15 def gsave [1 0 ang dup sin exch cos div 1 0 0] concat} def 
/mp {newpath /y exch def /x exch def} def
/side {[w .77 mul w .23 mul] .385 w mul sd w 0 l currentpoint t -144 r} def
/mr {mp x y w2 0 360 arc} def /m24 {mr s} def /m20 {mr f} def
/mb {mp x y w2 add m w2 neg 0 d 0 w neg d w 0 d 0 w d cl} def
/mt {mp x y w2 add m w2 neg w neg d w 0 d cl} def
/m21 {mb f} def /m25 {mb s} def /m22 {mt f} def /m26{mt s} def
/m23 {mp x y w2 sub m w2 w d w neg 0 d cl f} def
/m27 {mp x y w2 add m w3 neg w2 neg d w3 w2 neg d w3 w2 d cl s} def
/m28 {mp x w2 sub y w2 sub w3 add m w3 0 d  0 w3 neg d w3 0 d 0 w3 d w3 0 d  0 w3 d w3 neg 0 d 0 w3 d w3 neg 0 d 0 w3 neg d w3 neg 0 d cl s } def
/m29 {mp gsave x w2 sub y w2 add w3 sub m currentpoint t 4 {side} repeat cl fill gr} def
/m30 {mp gsave x w2 sub y w2 add w3 sub m currentpoint t 4 {side} repeat cl s gr} def
/m31 {mp x y w2 sub m 0 w d x w2 sub y m w 0 d x w2 sub y w2 add m w w neg d x w2 sub y w2 sub m w w d s} def
/m32 {mp x y w2 sub m w2 w d w neg 0 d cl s} def
/m33 {mp x y w2 add m w3 neg w2 neg d w3 w2 neg d w3 w2 d cl f} def
/m34 {mp x w2 sub y w2 sub w3 add m w3 0 d  0 w3 neg d w3 0 d 0 w3 d w3 0 d  0 w3 d w3 neg 0 d 0 w3 d w3 neg 0 d 0 w3 neg d w3 neg 0 d cl f } def
/m2 {mp x y w2 sub m 0 w d x w2 sub y m w 0 d s} def
/m5 {mp x w2 sub y w2 sub m w w d x w2 sub y w2 add m w w neg d s} def
/reEncode {exch findfont dup length dict begin {1 index /FID eq  {pop pop} {def} ifelse } forall /Encoding exch def currentdict end dup /FontName get exch definefont pop } def [/Times-Bold /Times-Italic /Times-BoldItalic /Helvetica /Helvetica-Oblique
 /Helvetica-Bold /Helvetica-BoldOblique /Courier /Courier-Oblique /Courier-Bold /Courier-BoldOblique /Times-Roman /AvantGarde-Book /AvantGarde-BookOblique /AvantGarde-Demi /AvantGarde-DemiOblique /Bookman-Demi /Bookman-DemiItalic /Bookman-Light
 /Bookman-LightItalic /Helvetica-Narrow /Helvetica-Narrow-Bold /Helvetica-Narrow-BoldOblique /Helvetica-Narrow-Oblique /NewCenturySchlbk-Roman /NewCenturySchlbk-Bold /NewCenturySchlbk-BoldItalic /NewCenturySchlbk-Italic /Palatino-Bold
 /Palatino-BoldItalic /Palatino-Italic /Palatino-Roman ] {ISOLatin1Encoding reEncode } forall
%%EndProlog
%%BeginSetup
%%EndSetup
newpath  gsave  .25 .25 scale  gsave  0 0 t black[  ] 0 sd 6 lw 1 1 1 c 2268 1774 0 0 bf black 3 lw 1 1 1 c 1894 1487 283 216 bf black 1894 1487 283 216 bl 1 1 1 c 1894 1487 283 216 bf black 1894 1487 283 216 bl 6 lw 283 216 m 1894 X s 0.6 0.6 0.6 c[
 12 12] 0 sd 3 lw 283 1703 m -1487 Y s 494 1703 m -1487 Y s 704 1703 m -1487 Y s 915 1703 m -1487 Y s 1125 1703 m -1487 Y s 1335 1703 m -1487 Y s 1546 1703 m -1487 Y s 1756 1703 m -1487 Y s 1967 1703 m -1487 Y s 2177 1703 m -1487 Y s black[  ] 0 sd 6
 lw 283 1703 m 1894 X s 283 216 m 1487 Y s 0.6 0.6 0.6 c[ 12 12] 0 sd 3 lw 2177 216 m -1894 X s 2177 473 m -1894 X s 2177 730 m -1894 X s 2177 987 m -1894 X s 2177 1243 m -1894 X s 2177 1500 m -1894 X s 2177 1500 m -1894 X s black[  ] 0 sd 6 lw 2177
 216 m 1487 Y s 9 lw 0.95 0.95 0.95 c black 293 216 m 928 X s 1221 216 m 246 X 19 37 d 19 67 d 19 64 d 19 61 d 19 59 d 19 57 d 18 55 d 19 53 d 19 51 d 19 49 d 19 47 d 19 46 d 19 44 d 19 42 d 19 42 d 19 39 d 19 39 d 19 37 d 19 36 d 19 35 d 19 34 d 19
 33 d 18 31 d 19 31 d 19 30 d 19 29 d 19 28 d 19 27 d 19 27 d 19 25 d 19 25 d 19 25 d 19 23 d 19 23 d 19 22 d 19 22 d s 2149 1611 m 19 21 d s 6 lw 283 216 m 1894 X s
 gsave  2268 1774 0 0 C 2134.8 27.1258 t 0 r /Symbol findfont 78.6648 sf 0 0 m (b) show NC gr  283 261 m -45 Y s 326 239 m -23 Y s 368 239 m -23 Y s 410 239 m -23 Y s 452 239 m -23 Y s 494 261 m -45 Y s 536 239 m -23 Y s 578 239 m -23 Y s 620 239 m
 -23 Y s 662 239 m -23 Y s 704 261 m -45 Y s 746 239 m -23 Y s 788 239 m -23 Y s 830 239 m -23 Y s 873 239 m -23 Y s 915 261 m -45 Y s 957 239 m -23 Y s 999 239 m -23 Y s 1041 239 m -23 Y s 1083 239 m -23 Y s 1125 261 m -45 Y s 1167 239 m -23 Y s
 1209 239 m -23 Y s 1251 239 m -23 Y s 1293 239 m -23 Y s 1335 261 m -45 Y s 1378 239 m -23 Y s 1420 239 m -23 Y s 1462 239 m -23 Y s 1504 239 m -23 Y s 1546 261 m -45 Y s 1588 239 m -23 Y s 1630 239 m -23 Y s 1672 239 m -23 Y s 1714 239 m -23 Y s
 1756 261 m -45 Y s 1798 239 m -23 Y s 1840 239 m -23 Y s 1882 239 m -23 Y s 1925 239 m -23 Y s 1967 261 m -45 Y s 2009 239 m -23 Y s 2051 239 m -23 Y s 2093 239 m -23 Y s 2135 239 m -23 Y s 2177 261 m -45 Y s
 gsave  2268 1774 0 0 C 238.707 149.192 t 0 r /Helvetica findfont 70.5271 sf 0 0 m (0.1) show NC gr 
 gsave  2268 1774 0 0 C 444.863 149.192 t 0 r /Helvetica findfont 70.5271 sf 0 0 m (0.2) show NC gr 
 gsave  2268 1774 0 0 C 653.732 149.192 t 0 r /Helvetica findfont 70.5271 sf 0 0 m (0.3) show NC gr 
 gsave  2268 1774 0 0 C 865.313 149.192 t 0 r /Helvetica findfont 70.5271 sf 0 0 m (0.4) show NC gr 
 gsave  2268 1774 0 0 C 1074.18 149.192 t 0 r /Helvetica findfont 70.5271 sf 0 0 m (0.5) show NC gr 
 gsave  2268 1774 0 0 C 1285.76 149.192 t 0 r /Helvetica findfont 70.5271 sf 0 0 m (0.6) show NC gr 
 gsave  2268 1774 0 0 C 1494.63 149.192 t 0 r /Helvetica findfont 70.5271 sf 0 0 m (0.7) show NC gr 
 gsave  2268 1774 0 0 C 1706.21 149.192 t 0 r /Helvetica findfont 70.5271 sf 0 0 m (0.8) show NC gr 
 gsave  2268 1774 0 0 C 1915.08 149.192 t 0 r /Helvetica findfont 70.5271 sf 0 0 m (0.9) show NC gr 
 gsave  2268 1774 0 0 C 2161.93 149.192 t 0 r /Helvetica findfont 70.5271 sf 0 0 m (1) show NC gr  283 1703 m 1894 X s 283 1659 m 44 Y s 326 1681 m 22 Y s 368 1681 m 22 Y s 410 1681 m 22 Y s 452 1681 m 22 Y s 494 1659 m 44 Y s 536 1681 m 22 Y s 578
 1681 m 22 Y s 620 1681 m 22 Y s 662 1681 m 22 Y s 704 1659 m 44 Y s 746 1681 m 22 Y s 788 1681 m 22 Y s 830 1681 m 22 Y s 873 1681 m 22 Y s 915 1659 m 44 Y s 957 1681 m 22 Y s 999 1681 m 22 Y s 1041 1681 m 22 Y s 1083 1681 m 22 Y s 1125 1659 m 44 Y
 s 1167 1681 m 22 Y s 1209 1681 m 22 Y s 1251 1681 m 22 Y s 1293 1681 m 22 Y s 1335 1659 m 44 Y s 1378 1681 m 22 Y s 1420 1681 m 22 Y s 1462 1681 m 22 Y s 1504 1681 m 22 Y s 1546 1659 m 44 Y s 1588 1681 m 22 Y s 1630 1681 m 22 Y s 1672 1681 m 22 Y s
 1714 1681 m 22 Y s 1756 1659 m 44 Y s 1798 1681 m 22 Y s 1840 1681 m 22 Y s 1882 1681 m 22 Y s 1925 1681 m 22 Y s 1967 1659 m 44 Y s 2009 1681 m 22 Y s 2051 1681 m 22 Y s 2093 1681 m 22 Y s 2135 1681 m 22 Y s 2177 1659 m 44 Y s 283 216 m 1487 Y s
 gsave  2268 1774 0 0 C 92.2277 1489.21 t 90 r /Helvetica findfont 78.6648 sf 0 0 m ( [a. u.]) show NC gr 
 gsave  2268 1774 0 0 C 92.2277 1445.8 t 90 r /Symbol findfont 78.6648 sf 0 0 m (l) show NC gr 
 gsave  2268 1774 0 0 C 92.2277 1242.36 t 90 r /Helvetica findfont 78.6648 sf 0 0 m (N/dxd) show NC gr 
 gsave  2268 1774 0 0 C 54.2516 1217.95 t 90 r /Helvetica findfont 51.539 sf 0 0 m (2) show NC gr 
 gsave  2268 1774 0 0 C 92.2277 1174.55 t 90 r /Helvetica findfont 78.6648 sf 0 0 m (d) show NC gr  340 216 m -57 X s 312 268 m -29 X s 312 319 m -29 X s 312 370 m -29 X s 312 422 m -29 X s 340 473 m -57 X s 312 524 m -29 X s 312 576 m -29 X s 312
 627 m -29 X s 312 679 m -29 X s 340 730 m -57 X s 312 781 m -29 X s 312 833 m -29 X s 312 884 m -29 X s 312 935 m -29 X s 340 987 m -57 X s 312 1038 m -29 X s 312 1089 m -29 X s 312 1141 m -29 X s 312 1192 m -29 X s 340 1243 m -57 X s 312 1295 m -29
 X s 312 1346 m -29 X s 312 1397 m -29 X s 312 1449 m -29 X s 340 1500 m -57 X s 340 1500 m -57 X s 312 1551 m -29 X s 312 1603 m -29 X s 312 1654 m -29 X s
 gsave  2268 1774 0 0 C 233.282 189.881 t 0 r /Helvetica findfont 70.5271 sf 0 0 m (0) show NC gr 
 gsave  2268 1774 0 0 C 187.168 447.576 t 0 r /Helvetica findfont 70.5271 sf 0 0 m (0.1) show NC gr 
 gsave  2268 1774 0 0 C 176.318 705.271 t 0 r /Helvetica findfont 70.5271 sf 0 0 m (0.2) show NC gr 
 gsave  2268 1774 0 0 C 176.318 960.253 t 0 r /Helvetica findfont 70.5271 sf 0 0 m (0.3) show NC gr 
 gsave  2268 1774 0 0 C 173.605 1217.95 t 0 r /Helvetica findfont 70.5271 sf 0 0 m (0.4) show NC gr 
 gsave  2268 1774 0 0 C 173.605 1472.93 t 0 r /Helvetica findfont 70.5271 sf 0 0 m (0.5) show NC gr  2177 216 m 1487 Y s 2120 216 m 57 X s 2149 268 m 28 X s 2149 319 m 28 X s 2149 370 m 28 X s 2149 422 m 28 X s 2120 473 m 57 X s 2149 524 m 28 X s
 2149 576 m 28 X s 2149 627 m 28 X s 2149 679 m 28 X s 2120 730 m 57 X s 2149 781 m 28 X s 2149 833 m 28 X s 2149 884 m 28 X s 2149 935 m 28 X s 2120 987 m 57 X s 2149 1038 m 28 X s 2149 1089 m 28 X s 2149 1141 m 28 X s 2149 1192 m 28 X s 2120 1243 m
 57 X s 2149 1295 m 28 X s 2149 1346 m 28 X s 2149 1397 m 28 X s 2149 1449 m 28 X s 2120 1500 m 57 X s 2120 1500 m 57 X s 2149 1551 m 28 X s 2149 1603 m 28 X s 2149 1654 m 28 X s
 gsave  2268 1774 0 0 C 453.001 1508.19 t 0 r /Helvetica findfont 70.5271 sf 0 0 m (n = 1.5) show NC gr 
 gr  gr showpage
end
%%EOF
