%!PS-Adobe-2.0 EPSF-2.0
%%BoundingBox:  0 0 567 444
%%Title: cherenkov_betagamma.eps: cherenkov_betagamma
%%Creator: ROOT Version 5.34/14
%%CreationDate: Fri May 23 13:00:11 2014
%%EndComments
%%BeginProlog
80 dict begin
/s {stroke} def /l {lineto} def /m {moveto} def /t {translate} def
/r {rotate} def /rl {roll}  def /R {repeat} def
/d {rlineto} def /rm {rmoveto} def /gr {grestore} def /f {eofill} def
/c {setrgbcolor} def /black {0 setgray} def /sd {setdash} def
/cl {closepath} def /sf {scalefont setfont} def /lw {setlinewidth} def
/box {m dup 0 exch d exch 0 d 0 exch neg d cl} def
/NC{systemdict begin initclip end}def/C{NC box clip newpath}def
/bl {box s} def /bf {box f} def /Y { 0 exch d} def /X { 0 d} def 
/K {{pop pop 0 moveto} exch kshow} bind def
/ita {/ang 15 def gsave [1 0 ang dup sin exch cos div 1 0 0] concat} def 
/mp {newpath /y exch def /x exch def} def
/side {[w .77 mul w .23 mul] .385 w mul sd w 0 l currentpoint t -144 r} def
/mr {mp x y w2 0 360 arc} def /m24 {mr s} def /m20 {mr f} def
/mb {mp x y w2 add m w2 neg 0 d 0 w neg d w 0 d 0 w d cl} def
/mt {mp x y w2 add m w2 neg w neg d w 0 d cl} def
/m21 {mb f} def /m25 {mb s} def /m22 {mt f} def /m26{mt s} def
/m23 {mp x y w2 sub m w2 w d w neg 0 d cl f} def
/m27 {mp x y w2 add m w3 neg w2 neg d w3 w2 neg d w3 w2 d cl s} def
/m28 {mp x w2 sub y w2 sub w3 add m w3 0 d  0 w3 neg d w3 0 d 0 w3 d w3 0 d  0 w3 d w3 neg 0 d 0 w3 d w3 neg 0 d 0 w3 neg d w3 neg 0 d cl s } def
/m29 {mp gsave x w2 sub y w2 add w3 sub m currentpoint t 4 {side} repeat cl fill gr} def
/m30 {mp gsave x w2 sub y w2 add w3 sub m currentpoint t 4 {side} repeat cl s gr} def
/m31 {mp x y w2 sub m 0 w d x w2 sub y m w 0 d x w2 sub y w2 add m w w neg d x w2 sub y w2 sub m w w d s} def
/m32 {mp x y w2 sub m w2 w d w neg 0 d cl s} def
/m33 {mp x y w2 add m w3 neg w2 neg d w3 w2 neg d w3 w2 d cl f} def
/m34 {mp x w2 sub y w2 sub w3 add m w3 0 d  0 w3 neg d w3 0 d 0 w3 d w3 0 d  0 w3 d w3 neg 0 d 0 w3 d w3 neg 0 d 0 w3 neg d w3 neg 0 d cl f } def
/m2 {mp x y w2 sub m 0 w d x w2 sub y m w 0 d s} def
/m5 {mp x w2 sub y w2 sub m w w d x w2 sub y w2 add m w w neg d s} def
/reEncode {exch findfont dup length dict begin {1 index /FID eq  {pop pop} {def} ifelse } forall /Encoding exch def currentdict end dup /FontName get exch definefont pop } def [/Times-Bold /Times-Italic /Times-BoldItalic /Helvetica /Helvetica-Oblique
 /Helvetica-Bold /Helvetica-BoldOblique /Courier /Courier-Oblique /Courier-Bold /Courier-BoldOblique /Times-Roman /AvantGarde-Book /AvantGarde-BookOblique /AvantGarde-Demi /AvantGarde-DemiOblique /Bookman-Demi /Bookman-DemiItalic /Bookman-Light
 /Bookman-LightItalic /Helvetica-Narrow /Helvetica-Narrow-Bold /Helvetica-Narrow-BoldOblique /Helvetica-Narrow-Oblique /NewCenturySchlbk-Roman /NewCenturySchlbk-Bold /NewCenturySchlbk-BoldItalic /NewCenturySchlbk-Italic /Palatino-Bold
 /Palatino-BoldItalic /Palatino-Italic /Palatino-Roman ] {ISOLatin1Encoding reEncode } forall
%%EndProlog
%%BeginSetup
%%EndSetup
newpath  gsave  .25 .25 scale  gsave  0 0 t black[  ] 0 sd 6 lw 1 1 1 c 2268 1774 0 0 bf black 3 lw 1 1 1 c 1894 1487 283 216 bf black 1894 1487 283 216 bl 1 1 1 c 1894 1487 283 216 bf black 1894 1487 283 216 bl 6 lw 283 216 m 1894 X s 0.6 0.6 0.6 c[
 12 12] 0 sd 3 lw 283 1703 m -1487 Y s 473 1703 m -1487 Y s 585 1703 m -1487 Y s 663 1703 m -1487 Y s 725 1703 m -1487 Y s 775 1703 m -1487 Y s 817 1703 m -1487 Y s 853 1703 m -1487 Y s 886 1703 m -1487 Y s 915 1703 m -1487 Y s 1105 1703 m -1487 Y s
 1216 1703 m -1487 Y s 1295 1703 m -1487 Y s 1356 1703 m -1487 Y s 1406 1703 m -1487 Y s 1448 1703 m -1487 Y s 1485 1703 m -1487 Y s 1517 1703 m -1487 Y s 1546 1703 m -1487 Y s 1736 1703 m -1487 Y s 1847 1703 m -1487 Y s 1926 1703 m -1487 Y s 1987
 1703 m -1487 Y s 2037 1703 m -1487 Y s 2079 1703 m -1487 Y s 2116 1703 m -1487 Y s 2148 1703 m -1487 Y s 2177 1703 m -1487 Y s black[  ] 0 sd 6 lw 283 1703 m 1894 X s 283 216 m 1487 Y s 0.6 0.6 0.6 c[ 12 12] 0 sd 3 lw 2177 216 m -1894 X s 2177 471 m
 -1894 X s 2177 726 m -1894 X s 2177 981 m -1894 X s 2177 1236 m -1894 X s 2177 1491 m -1894 X s 2177 1491 m -1894 X s black[  ] 0 sd 6 lw 2177 216 m 1487 Y s 9 lw 0.95 0.95 0.95 c black 293 216 m 587 X 19 147 d 19 164 d 19 142 d 19 125 d 19 108 d 19
 94 d 19 82 d 19 72 d 19 62 d 18 54 d 19 48 d 19 41 d 19 36 d 19 31 d 19 27 d 19 24 d 19 20 d 19 18 d s 1221 1511 m 19 16 d 19 13 d 19 12 d 19 11 d 19 9 d 19 7 d 18 7 d 19 6 d 19 5 d 19 5 d 19 4 d 19 3 d 19 3 d 19 3 d 19 2 d 19 2 d 19 2 d 19 1 d 19 2
 d 19 1 d 19 1 d 19 1 d 18 X 19 1 d 19 1 d 38 X 19 1 d 38 X 19 1 d 76 X 19 1 d 246 X s 2149 1632 m 19 X s 6 lw 283 216 m 1894 X s
 gsave  2268 1774 0 0 C 2134.8 27.1258 t 0 r /Symbol findfont 78.6648 sf 0 0 m (g) show NC gr 
 gsave  2268 1774 0 0 C 2094.11 27.1258 t 0 r /Symbol findfont 78.6648 sf 0 0 m (b) show NC gr  283 261 m -45 Y s
 gsave  2268 1774 0 0 C 303.809 154.617 t 0 r /Helvetica findfont 46.1139 sf 0 0 m (\2551) show NC gr 
 gsave  2268 1774 0 0 C 227.857 122.066 t 0 r /Helvetica findfont 70.5271 sf 0 0 m (10) show NC gr  473 239 m -23 Y s 585 239 m -23 Y s 663 239 m -23 Y s 725 239 m -23 Y s 775 239 m -23 Y s 817 239 m -23 Y s 853 239 m -23 Y s 886 239 m -23 Y s 915
 261 m -45 Y s
 gsave  2268 1774 0 0 C 914.646 120.528 t 0 r  -18 0 t /Helvetica findfont 67.8145 sf 0 0 m (1) show NC gr  1105 239 m -23 Y s 1216 239 m -23 Y s 1295 239 m -23 Y s 1356 239 m -23 Y s 1406 239 m -23 Y s 1448 239 m -23 Y s 1485 239 m -23 Y s 1517 239
 m -23 Y s 1546 261 m -45 Y s
 gsave  2268 1774 0 0 C 1545.83 120.528 t 0 r  -37 0 t /Helvetica findfont 67.8145 sf 0 0 m (10) show NC gr  1736 239 m -23 Y s 1847 239 m -23 Y s 1926 239 m -23 Y s 1987 239 m -23 Y s 2037 239 m -23 Y s 2079 239 m -23 Y s 2116 239 m -23 Y s 2148 239
 m -23 Y s 2177 261 m -45 Y s
 gsave  2268 1774 0 0 C 2199.9 154.617 t 0 r /Helvetica findfont 46.1139 sf 0 0 m (2) show NC gr 
 gsave  2268 1774 0 0 C 2123.95 122.066 t 0 r /Helvetica findfont 70.5271 sf 0 0 m (10) show NC gr  283 1703 m 1894 X s 283 1659 m 44 Y s 473 1681 m 22 Y s 585 1681 m 22 Y s 663 1681 m 22 Y s 725 1681 m 22 Y s 775 1681 m 22 Y s 817 1681 m 22 Y s 853
 1681 m 22 Y s 886 1681 m 22 Y s 915 1659 m 44 Y s 1105 1681 m 22 Y s 1216 1681 m 22 Y s 1295 1681 m 22 Y s 1356 1681 m 22 Y s 1406 1681 m 22 Y s 1448 1681 m 22 Y s 1485 1681 m 22 Y s 1517 1681 m 22 Y s 1546 1659 m 44 Y s 1736 1681 m 22 Y s 1847 1681
 m 22 Y s 1926 1681 m 22 Y s 1987 1681 m 22 Y s 2037 1681 m 22 Y s 2079 1681 m 22 Y s 2116 1681 m 22 Y s 2148 1681 m 22 Y s 2177 1659 m 44 Y s 283 216 m 1487 Y s
 gsave  2268 1774 0 0 C 92.2277 1489.21 t 90 r /Helvetica findfont 78.6648 sf 0 0 m ( [a. u.]) show NC gr 
 gsave  2268 1774 0 0 C 92.2277 1445.8 t 90 r /Symbol findfont 78.6648 sf 0 0 m (l) show NC gr 
 gsave  2268 1774 0 0 C 92.2277 1242.36 t 90 r /Helvetica findfont 78.6648 sf 0 0 m (N/dxd) show NC gr 
 gsave  2268 1774 0 0 C 54.2516 1217.95 t 90 r /Helvetica findfont 51.539 sf 0 0 m (2) show NC gr 
 gsave  2268 1774 0 0 C 92.2277 1174.55 t 90 r /Helvetica findfont 78.6648 sf 0 0 m (d) show NC gr  340 216 m -57 X s 312 267 m -29 X s 312 318 m -29 X s 312 369 m -29 X s 312 420 m -29 X s 340 471 m -57 X s 312 522 m -29 X s 312 573 m -29 X s 312
 624 m -29 X s 312 675 m -29 X s 340 726 m -57 X s 312 777 m -29 X s 312 828 m -29 X s 312 879 m -29 X s 312 930 m -29 X s 340 981 m -57 X s 312 1032 m -29 X s 312 1083 m -29 X s 312 1134 m -29 X s 312 1185 m -29 X s 340 1236 m -57 X s 312 1287 m -29
 X s 312 1338 m -29 X s 312 1389 m -29 X s 312 1440 m -29 X s 340 1491 m -57 X s 340 1491 m -57 X s 312 1542 m -29 X s 312 1593 m -29 X s 312 1644 m -29 X s 312 1695 m -29 X s
 gsave  2268 1774 0 0 C 233.282 189.881 t 0 r /Helvetica findfont 70.5271 sf 0 0 m (0) show NC gr 
 gsave  2268 1774 0 0 C 187.168 444.863 t 0 r /Helvetica findfont 70.5271 sf 0 0 m (0.1) show NC gr 
 gsave  2268 1774 0 0 C 176.318 699.846 t 0 r /Helvetica findfont 70.5271 sf 0 0 m (0.2) show NC gr 
 gsave  2268 1774 0 0 C 176.318 954.828 t 0 r /Helvetica findfont 70.5271 sf 0 0 m (0.3) show NC gr 
 gsave  2268 1774 0 0 C 173.605 1209.81 t 0 r /Helvetica findfont 70.5271 sf 0 0 m (0.4) show NC gr 
 gsave  2268 1774 0 0 C 173.605 1464.79 t 0 r /Helvetica findfont 70.5271 sf 0 0 m (0.5) show NC gr  2177 216 m 1487 Y s 2120 216 m 57 X s 2149 267 m 28 X s 2149 318 m 28 X s 2149 369 m 28 X s 2149 420 m 28 X s 2120 471 m 57 X s 2149 522 m 28 X s
 2149 573 m 28 X s 2149 624 m 28 X s 2149 675 m 28 X s 2120 726 m 57 X s 2149 777 m 28 X s 2149 828 m 28 X s 2149 879 m 28 X s 2149 930 m 28 X s 2120 981 m 57 X s 2149 1032 m 28 X s 2149 1083 m 28 X s 2149 1134 m 28 X s 2149 1185 m 28 X s 2120 1236 m
 57 X s 2149 1287 m 28 X s 2149 1338 m 28 X s 2149 1389 m 28 X s 2149 1440 m 28 X s 2120 1491 m 57 X s 2120 1491 m 57 X s 2149 1542 m 28 X s 2149 1593 m 28 X s 2149 1644 m 28 X s 2149 1695 m 28 X s
 gsave  2268 1774 0 0 C 453.001 1508.19 t 0 r /Helvetica findfont 70.5271 sf 0 0 m (n = 1.5) show NC gr 
 gr  gr showpage
end
%%EOF
