%!PS-Adobe-2.0 EPSF-2.0
%%BoundingBox:  0 0 567 659
%%Title: cr_big_picture.eps: cr_big_picture
%%Creator: ROOT Version 5.34/14
%%CreationDate: Sat Jul 12 20:39:54 2014
%%EndComments
%%BeginProlog
80 dict begin
/s {stroke} def /l {lineto} def /m {moveto} def /t {translate} def
/r {rotate} def /rl {roll}  def /R {repeat} def
/d {rlineto} def /rm {rmoveto} def /gr {grestore} def /f {eofill} def
/c {setrgbcolor} def /black {0 setgray} def /sd {setdash} def
/cl {closepath} def /sf {scalefont setfont} def /lw {setlinewidth} def
/box {m dup 0 exch d exch 0 d 0 exch neg d cl} def
/NC{systemdict begin initclip end}def/C{NC box clip newpath}def
/bl {box s} def /bf {box f} def /Y { 0 exch d} def /X { 0 d} def 
/K {{pop pop 0 moveto} exch kshow} bind def
/ita {/ang 15 def gsave [1 0 ang dup sin exch cos div 1 0 0] concat} def 
/mp {newpath /y exch def /x exch def} def
/side {[w .77 mul w .23 mul] .385 w mul sd w 0 l currentpoint t -144 r} def
/mr {mp x y w2 0 360 arc} def /m24 {mr s} def /m20 {mr f} def
/mb {mp x y w2 add m w2 neg 0 d 0 w neg d w 0 d 0 w d cl} def
/mt {mp x y w2 add m w2 neg w neg d w 0 d cl} def
/m21 {mb f} def /m25 {mb s} def /m22 {mt f} def /m26{mt s} def
/m23 {mp x y w2 sub m w2 w d w neg 0 d cl f} def
/m27 {mp x y w2 add m w3 neg w2 neg d w3 w2 neg d w3 w2 d cl s} def
/m28 {mp x w2 sub y w2 sub w3 add m w3 0 d  0 w3 neg d w3 0 d 0 w3 d w3 0 d  0 w3 d w3 neg 0 d 0 w3 d w3 neg 0 d 0 w3 neg d w3 neg 0 d cl s } def
/m29 {mp gsave x w2 sub y w2 add w3 sub m currentpoint t 4 {side} repeat cl fill gr} def
/m30 {mp gsave x w2 sub y w2 add w3 sub m currentpoint t 4 {side} repeat cl s gr} def
/m31 {mp x y w2 sub m 0 w d x w2 sub y m w 0 d x w2 sub y w2 add m w w neg d x w2 sub y w2 sub m w w d s} def
/m32 {mp x y w2 sub m w2 w d w neg 0 d cl s} def
/m33 {mp x y w2 add m w3 neg w2 neg d w3 w2 neg d w3 w2 d cl f} def
/m34 {mp x w2 sub y w2 sub w3 add m w3 0 d  0 w3 neg d w3 0 d 0 w3 d w3 0 d  0 w3 d w3 neg 0 d 0 w3 d w3 neg 0 d 0 w3 neg d w3 neg 0 d cl f } def
/m2 {mp x y w2 sub m 0 w d x w2 sub y m w 0 d s} def
/m5 {mp x w2 sub y w2 sub m w w d x w2 sub y w2 add m w w neg d s} def
/reEncode {exch findfont dup length dict begin {1 index /FID eq  {pop pop} {def} ifelse } forall /Encoding exch def currentdict end dup /FontName get exch definefont pop } def [/Times-Bold /Times-Italic /Times-BoldItalic /Helvetica /Helvetica-Oblique
 /Helvetica-Bold /Helvetica-BoldOblique /Courier /Courier-Oblique /Courier-Bold /Courier-BoldOblique /Times-Roman /AvantGarde-Book /AvantGarde-BookOblique /AvantGarde-Demi /AvantGarde-DemiOblique /Bookman-Demi /Bookman-DemiItalic /Bookman-Light
 /Bookman-LightItalic /Helvetica-Narrow /Helvetica-Narrow-Bold /Helvetica-Narrow-BoldOblique /Helvetica-Narrow-Oblique /NewCenturySchlbk-Roman /NewCenturySchlbk-Bold /NewCenturySchlbk-BoldItalic /NewCenturySchlbk-Italic /Palatino-Bold
 /Palatino-BoldItalic /Palatino-Italic /Palatino-Roman ] {ISOLatin1Encoding reEncode } forall
%%EndProlog
%%BeginSetup
%%EndSetup
newpath  gsave  .25 .25 scale  gsave  0 0 t black[  ] 0 sd 6 lw 1 1 1 c 2268 2637 0 0 bf black 3 lw 1 1 1 c 1894 2367 283 206 bf black 1894 2367 283 206 bl 1 1 1 c 1894 2367 283 206 bf black 1894 2367 283 206 bl 6 lw 283 206 m 1894 X s 0.6 0.6 0.6 c[
 12 12] 0 sd 3 lw 430 2573 m -2367 Y s 576 2573 m -2367 Y s 722 2573 m -2367 Y s 868 2573 m -2367 Y s 1014 2573 m -2367 Y s 1160 2573 m -2367 Y s 1307 2573 m -2367 Y s 1453 2573 m -2367 Y s 1599 2573 m -2367 Y s 1745 2573 m -2367 Y s 1891 2573 m
 -2367 Y s 2038 2573 m -2367 Y s black[  ] 0 sd 6 lw 283 2573 m 1894 X s 283 206 m 2367 Y s 0.6 0.6 0.6 c[ 12 12] 0 sd 3 lw 2177 206 m -1894 X s 2177 275 m -1894 X s 2177 345 m -1894 X s 2177 415 m -1894 X s 2177 484 m -1894 X s 2177 554 m -1894 X s
 2177 623 m -1894 X s 2177 693 m -1894 X s 2177 763 m -1894 X s 2177 832 m -1894 X s 2177 902 m -1894 X s 2177 972 m -1894 X s 2177 1041 m -1894 X s 2177 1111 m -1894 X s 2177 1181 m -1894 X s 2177 1250 m -1894 X s 2177 1320 m -1894 X s 2177 1390 m
 -1894 X s 2177 1459 m -1894 X s 2177 1529 m -1894 X s 2177 1598 m -1894 X s 2177 1668 m -1894 X s 2177 1738 m -1894 X s 2177 1807 m -1894 X s 2177 1877 m -1894 X s 2177 1947 m -1894 X s 2177 2016 m -1894 X s 2177 2086 m -1894 X s 2177 2156 m -1894 X
 s 2177 2225 m -1894 X s 2177 2295 m -1894 X s 2177 2364 m -1894 X s 2177 2434 m -1894 X s 2177 2504 m -1894 X s 2177 2573 m -1894 X s black[  ] 0 sd 6 lw 2177 206 m 2367 Y s 1 1 1 c black 283 206 m 1894 X s 283 206 m 1894 X s
 gsave  2268 2637 0 0 C 1459.37 21.7006 t 0 r /Helvetica findfont 78.6648 sf 0 0 m (Kinetic energy [GeV]) show NC gr  327 239 m -33 Y s 353 239 m -33 Y s 371 239 m -33 Y s 386 239 m -33 Y s 397 239 m -33 Y s 407 239 m -33 Y s 415 239 m -33 Y s 423
 239 m -33 Y s 430 272 m -66 Y s
 gsave  2268 2637 0 0 C 453.001 141.054 t 0 r /Helvetica findfont 46.1139 sf 0 0 m (9) show NC gr 
 gsave  2268 2637 0 0 C 377.049 105.791 t 0 r /Helvetica findfont 70.5271 sf 0 0 m (10) show NC gr  474 239 m -33 Y s 499 239 m -33 Y s 518 239 m -33 Y s 532 239 m -33 Y s 543 239 m -33 Y s 553 239 m -33 Y s 562 239 m -33 Y s 569 239 m -33 Y s 576
 272 m -66 Y s
 gsave  2268 2637 0 0 C 585.917 141.054 t 0 r /Helvetica findfont 46.1139 sf 0 0 m (10) show NC gr 
 gsave  2268 2637 0 0 C 509.965 105.791 t 0 r /Helvetica findfont 70.5271 sf 0 0 m (10) show NC gr  620 239 m -33 Y s 646 239 m -33 Y s 664 239 m -33 Y s 678 239 m -33 Y s 690 239 m -33 Y s 699 239 m -33 Y s 708 239 m -33 Y s 715 239 m -33 Y s 722
 272 m -66 Y s
 gsave  2268 2637 0 0 C 737.822 138.342 t 0 r /Helvetica findfont 46.1139 sf 0 0 m (11) show NC gr 
 gsave  2268 2637 0 0 C 661.869 105.791 t 0 r /Helvetica findfont 70.5271 sf 0 0 m (10) show NC gr  766 239 m -33 Y s 792 239 m -33 Y s 810 239 m -33 Y s 824 239 m -33 Y s 836 239 m -33 Y s 846 239 m -33 Y s 854 239 m -33 Y s 861 239 m -33 Y s 868
 272 m -66 Y s
 gsave  2268 2637 0 0 C 878.876 138.342 t 0 r /Helvetica findfont 46.1139 sf 0 0 m (12) show NC gr 
 gsave  2268 2637 0 0 C 802.924 105.791 t 0 r /Helvetica findfont 70.5271 sf 0 0 m (10) show NC gr  912 239 m -33 Y s 938 239 m -33 Y s 956 239 m -33 Y s 970 239 m -33 Y s 982 239 m -33 Y s 992 239 m -33 Y s 1000 239 m -33 Y s 1008 239 m -33 Y s 1014
 272 m -66 Y s
 gsave  2268 2637 0 0 C 1022.64 141.054 t 0 r /Helvetica findfont 46.1139 sf 0 0 m (13) show NC gr 
 gsave  2268 2637 0 0 C 946.69 105.791 t 0 r /Helvetica findfont 70.5271 sf 0 0 m (10) show NC gr  1058 239 m -33 Y s 1084 239 m -33 Y s 1102 239 m -33 Y s 1116 239 m -33 Y s 1128 239 m -33 Y s 1138 239 m -33 Y s 1146 239 m -33 Y s 1154 239 m -33 Y s
 1160 272 m -66 Y s
 gsave  2268 2637 0 0 C 1169.12 138.342 t 0 r /Helvetica findfont 46.1139 sf 0 0 m (14) show NC gr 
 gsave  2268 2637 0 0 C 1093.17 105.791 t 0 r /Helvetica findfont 70.5271 sf 0 0 m (10) show NC gr  1204 239 m -33 Y s 1230 239 m -33 Y s 1248 239 m -33 Y s 1263 239 m -33 Y s 1274 239 m -33 Y s 1284 239 m -33 Y s 1293 239 m -33 Y s 1300 239 m -33 Y
 s 1307 272 m -66 Y s
 gsave  2268 2637 0 0 C 1315.6 141.054 t 0 r /Helvetica findfont 46.1139 sf 0 0 m (15) show NC gr 
 gsave  2268 2637 0 0 C 1239.65 105.791 t 0 r /Helvetica findfont 70.5271 sf 0 0 m (10) show NC gr  1351 239 m -33 Y s 1376 239 m -33 Y s 1395 239 m -33 Y s 1409 239 m -33 Y s 1420 239 m -33 Y s 1430 239 m -33 Y s 1439 239 m -33 Y s 1446 239 m -33 Y
 s 1453 272 m -66 Y s
 gsave  2268 2637 0 0 C 1462.08 141.054 t 0 r /Helvetica findfont 46.1139 sf 0 0 m (16) show NC gr 
 gsave  2268 2637 0 0 C 1386.13 105.791 t 0 r /Helvetica findfont 70.5271 sf 0 0 m (10) show NC gr  1497 239 m -33 Y s 1523 239 m -33 Y s 1541 239 m -33 Y s 1555 239 m -33 Y s 1567 239 m -33 Y s 1576 239 m -33 Y s 1585 239 m -33 Y s 1592 239 m -33 Y
 s 1599 272 m -66 Y s
 gsave  2268 2637 0 0 C 1608.56 138.342 t 0 r /Helvetica findfont 46.1139 sf 0 0 m (17) show NC gr 
 gsave  2268 2637 0 0 C 1532.61 105.791 t 0 r /Helvetica findfont 70.5271 sf 0 0 m (10) show NC gr  1643 239 m -33 Y s 1669 239 m -33 Y s 1687 239 m -33 Y s 1701 239 m -33 Y s 1713 239 m -33 Y s 1723 239 m -33 Y s 1731 239 m -33 Y s 1738 239 m -33 Y
 s 1745 272 m -66 Y s
 gsave  2268 2637 0 0 C 1755.04 141.054 t 0 r /Helvetica findfont 46.1139 sf 0 0 m (18) show NC gr 
 gsave  2268 2637 0 0 C 1679.09 105.791 t 0 r /Helvetica findfont 70.5271 sf 0 0 m (10) show NC gr  1789 239 m -33 Y s 1815 239 m -33 Y s 1833 239 m -33 Y s 1847 239 m -33 Y s 1859 239 m -33 Y s 1869 239 m -33 Y s 1877 239 m -33 Y s 1885 239 m -33 Y
 s 1891 272 m -66 Y s
 gsave  2268 2637 0 0 C 1901.52 141.054 t 0 r /Helvetica findfont 46.1139 sf 0 0 m (19) show NC gr 
 gsave  2268 2637 0 0 C 1825.57 105.791 t 0 r /Helvetica findfont 70.5271 sf 0 0 m (10) show NC gr  1935 239 m -33 Y s 1961 239 m -33 Y s 1979 239 m -33 Y s 1994 239 m -33 Y s 2005 239 m -33 Y s 2015 239 m -33 Y s 2023 239 m -33 Y s 2031 239 m -33 Y
 s 2038 272 m -66 Y s
 gsave  2268 2637 0 0 C 2048 141.054 t 0 r /Helvetica findfont 46.1139 sf 0 0 m (20) show NC gr 
 gsave  2268 2637 0 0 C 1972.05 105.791 t 0 r /Helvetica findfont 70.5271 sf 0 0 m (10) show NC gr  2082 239 m -33 Y s 2107 239 m -33 Y s 2126 239 m -33 Y s 2140 239 m -33 Y s 2151 239 m -33 Y s 2161 239 m -33 Y s 2170 239 m -33 Y s 2177 239 m -33 Y
 s 283 2573 m 1894 X s 327 2540 m 33 Y s 353 2540 m 33 Y s 371 2540 m 33 Y s 386 2540 m 33 Y s 397 2540 m 33 Y s 407 2540 m 33 Y s 415 2540 m 33 Y s 423 2540 m 33 Y s 430 2507 m 66 Y s 474 2540 m 33 Y s 499 2540 m 33 Y s 518 2540 m 33 Y s 532 2540 m
 33 Y s 543 2540 m 33 Y s 553 2540 m 33 Y s 562 2540 m 33 Y s 569 2540 m 33 Y s 576 2507 m 66 Y s 620 2540 m 33 Y s 646 2540 m 33 Y s 664 2540 m 33 Y s 678 2540 m 33 Y s 690 2540 m 33 Y s 699 2540 m 33 Y s 708 2540 m 33 Y s 715 2540 m 33 Y s 722 2507
 m 66 Y s 766 2540 m 33 Y s 792 2540 m 33 Y s 810 2540 m 33 Y s 824 2540 m 33 Y s 836 2540 m 33 Y s 846 2540 m 33 Y s 854 2540 m 33 Y s 861 2540 m 33 Y s 868 2507 m 66 Y s 912 2540 m 33 Y s 938 2540 m 33 Y s 956 2540 m 33 Y s 970 2540 m 33 Y s 982
 2540 m 33 Y s 992 2540 m 33 Y s 1000 2540 m 33 Y s 1008 2540 m 33 Y s 1014 2507 m 66 Y s 1058 2540 m 33 Y s 1084 2540 m 33 Y s 1102 2540 m 33 Y s 1116 2540 m 33 Y s 1128 2540 m 33 Y s 1138 2540 m 33 Y s 1146 2540 m 33 Y s 1154 2540 m 33 Y s 1160
 2507 m 66 Y s 1204 2540 m 33 Y s 1230 2540 m 33 Y s 1248 2540 m 33 Y s 1263 2540 m 33 Y s 1274 2540 m 33 Y s 1284 2540 m 33 Y s 1293 2540 m 33 Y s 1300 2540 m 33 Y s 1307 2507 m 66 Y s 1351 2540 m 33 Y s 1376 2540 m 33 Y s 1395 2540 m 33 Y s 1409
 2540 m 33 Y s 1420 2540 m 33 Y s 1430 2540 m 33 Y s 1439 2540 m 33 Y s 1446 2540 m 33 Y s 1453 2507 m 66 Y s 1497 2540 m 33 Y s 1523 2540 m 33 Y s 1541 2540 m 33 Y s 1555 2540 m 33 Y s 1567 2540 m 33 Y s 1576 2540 m 33 Y s 1585 2540 m 33 Y s 1592
 2540 m 33 Y s 1599 2507 m 66 Y s 1643 2540 m 33 Y s 1669 2540 m 33 Y s 1687 2540 m 33 Y s 1701 2540 m 33 Y s 1713 2540 m 33 Y s 1723 2540 m 33 Y s 1731 2540 m 33 Y s 1738 2540 m 33 Y s 1745 2507 m 66 Y s 1789 2540 m 33 Y s 1815 2540 m 33 Y s 1833
 2540 m 33 Y s 1847 2540 m 33 Y s 1859 2540 m 33 Y s 1869 2540 m 33 Y s 1877 2540 m 33 Y s 1885 2540 m 33 Y s 1891 2507 m 66 Y s 1935 2540 m 33 Y s 1961 2540 m 33 Y s 1979 2540 m 33 Y s 1994 2540 m 33 Y s 2005 2540 m 33 Y s 2015 2540 m 33 Y s 2023
 2540 m 33 Y s 2031 2540 m 33 Y s 2038 2507 m 66 Y s 2082 2540 m 33 Y s 2107 2540 m 33 Y s 2126 2540 m 33 Y s 2140 2540 m 33 Y s 2151 2540 m 33 Y s 2161 2540 m 33 Y s 2170 2540 m 33 Y s 2177 2540 m 33 Y s 283 206 m 2367 Y s
 gsave  2268 2637 0 0 C 81.3774 2555.25 t 90 r /Helvetica findfont 78.6648 sf 0 0 m (]) show NC gr 
 gsave  2268 2637 0 0 C 56.9642 2519.99 t 90 r /Helvetica findfont 51.539 sf 0 0 m (\2551) show NC gr 
 gsave  2268 2637 0 0 C 81.3774 2433.18 t 90 r /Helvetica findfont 78.6648 sf 0 0 m ( sr) show NC gr 
 gsave  2268 2637 0 0 C 46.1139 2397.92 t 90 r /Helvetica findfont 51.539 sf 0 0 m (\2551) show NC gr 
 gsave  2268 2637 0 0 C 81.3774 2218.89 t 90 r /Helvetica findfont 78.6648 sf 0 0 m ( GeV) show NC gr 
 gsave  2268 2637 0 0 C 56.9642 2183.63 t 90 r /Helvetica findfont 51.539 sf 0 0 m (\2551) show NC gr 
 gsave  2268 2637 0 0 C 81.3774 2123.95 t 90 r /Helvetica findfont 78.6648 sf 0 0 m ( s) show NC gr 
 gsave  2268 2637 0 0 C 46.1139 2077.84 t 90 r /Helvetica findfont 51.539 sf 0 0 m (\2552) show NC gr 
 gsave  2268 2637 0 0 C 81.3774 1947.63 t 90 r /Helvetica findfont 78.6648 sf 0 0 m (\) [m) show NC gr 
 gsave  2268 2637 0 0 C 124.779 1920.51 t 90 r /Helvetica findfont 51.539 sf 0 0 m (k) show NC gr 
 gsave  2268 2637 0 0 C 81.3774 1803.87 t 90 r /Helvetica findfont 78.6648 sf 0 0 m (J\(E) show NC gr  345 206 m -62 X s 314 254 m -31 X s 345 275 m -62 X s
 gsave  2268 2637 0 0 C 200.731 276.683 t 0 r /Helvetica findfont 46.1139 sf 0 0 m (\25529) show NC gr 
 gsave  2268 2637 0 0 C 124.779 244.132 t 0 r /Helvetica findfont 70.5271 sf 0 0 m (10) show NC gr  314 324 m -31 X s 345 345 m -62 X s 314 394 m -31 X s 345 415 m -62 X s 314 463 m -31 X s 345 484 m -62 X s
 gsave  2268 2637 0 0 C 200.731 485.552 t 0 r /Helvetica findfont 46.1139 sf 0 0 m (\25526) show NC gr 
 gsave  2268 2637 0 0 C 124.779 453.001 t 0 r /Helvetica findfont 70.5271 sf 0 0 m (10) show NC gr  314 533 m -31 X s 345 554 m -62 X s 314 603 m -31 X s 345 623 m -62 X s 314 672 m -31 X s 345 693 m -62 X s
 gsave  2268 2637 0 0 C 200.731 694.42 t 0 r /Helvetica findfont 46.1139 sf 0 0 m (\25523) show NC gr 
 gsave  2268 2637 0 0 C 124.779 661.869 t 0 r /Helvetica findfont 70.5271 sf 0 0 m (10) show NC gr  314 742 m -31 X s 345 763 m -62 X s 314 811 m -31 X s 345 832 m -62 X s 314 881 m -31 X s 345 902 m -62 X s
 gsave  2268 2637 0 0 C 200.731 903.289 t 0 r /Helvetica findfont 46.1139 sf 0 0 m (\25520) show NC gr 
 gsave  2268 2637 0 0 C 124.779 870.738 t 0 r /Helvetica findfont 70.5271 sf 0 0 m (10) show NC gr  314 951 m -31 X s 345 972 m -62 X s 314 1020 m -31 X s 345 1041 m -62 X s 314 1090 m -31 X s 345 1111 m -62 X s
 gsave  2268 2637 0 0 C 200.731 1109.45 t 0 r /Helvetica findfont 46.1139 sf 0 0 m (\25517) show NC gr 
 gsave  2268 2637 0 0 C 124.779 1079.61 t 0 r /Helvetica findfont 70.5271 sf 0 0 m (10) show NC gr  314 1160 m -31 X s 345 1181 m -62 X s 314 1229 m -31 X s 345 1250 m -62 X s 314 1299 m -31 X s 345 1320 m -62 X s
 gsave  2268 2637 0 0 C 200.731 1318.31 t 0 r /Helvetica findfont 46.1139 sf 0 0 m (\25514) show NC gr 
 gsave  2268 2637 0 0 C 124.779 1288.48 t 0 r /Helvetica findfont 70.5271 sf 0 0 m (10) show NC gr  314 1369 m -31 X s 345 1390 m -62 X s 314 1438 m -31 X s 345 1459 m -62 X s 314 1508 m -31 X s 345 1529 m -62 X s
 gsave  2268 2637 0 0 C 206.156 1527.18 t 0 r /Helvetica findfont 46.1139 sf 0 0 m (\25511) show NC gr 
 gsave  2268 2637 0 0 C 130.204 1497.34 t 0 r /Helvetica findfont 70.5271 sf 0 0 m (10) show NC gr  314 1577 m -31 X s 345 1598 m -62 X s 314 1647 m -31 X s 345 1668 m -62 X s 314 1717 m -31 X s 345 1738 m -62 X s
 gsave  2268 2637 0 0 C 225.144 1738.76 t 0 r /Helvetica findfont 46.1139 sf 0 0 m (\2558) show NC gr 
 gsave  2268 2637 0 0 C 149.192 1706.21 t 0 r /Helvetica findfont 70.5271 sf 0 0 m (10) show NC gr  314 1786 m -31 X s 345 1807 m -62 X s 314 1856 m -31 X s 345 1877 m -62 X s 314 1926 m -31 X s 345 1947 m -62 X s
 gsave  2268 2637 0 0 C 225.144 1947.63 t 0 r /Helvetica findfont 46.1139 sf 0 0 m (\2555) show NC gr 
 gsave  2268 2637 0 0 C 149.192 1915.08 t 0 r /Helvetica findfont 70.5271 sf 0 0 m (10) show NC gr  314 1995 m -31 X s 345 2016 m -62 X s 314 2065 m -31 X s 345 2086 m -62 X s 314 2135 m -31 X s 345 2156 m -62 X s
 gsave  2268 2637 0 0 C 225.144 2153.79 t 0 r /Helvetica findfont 46.1139 sf 0 0 m (\2552) show NC gr 
 gsave  2268 2637 0 0 C 149.192 2123.95 t 0 r /Helvetica findfont 70.5271 sf 0 0 m (10) show NC gr  314 2204 m -31 X s 345 2225 m -62 X s 314 2274 m -31 X s 345 2295 m -62 X s 314 2343 m -31 X s 345 2364 m -62 X s
 gsave  2268 2637 0 0 C 266.919 2335.14 t 0 r  -75 0 t /Helvetica findfont 67.8145 sf 0 0 m (10) show NC gr  314 2413 m -31 X s 345 2434 m -62 X s 314 2483 m -31 X s 345 2504 m -62 X s 314 2552 m -31 X s 345 2573 m -62 X s
 gsave  2268 2637 0 0 C 241.42 2571.53 t 0 r /Helvetica findfont 46.1139 sf 0 0 m (4) show NC gr 
 gsave  2268 2637 0 0 C 165.467 2541.69 t 0 r /Helvetica findfont 70.5271 sf 0 0 m (10) show NC gr  2177 206 m 2367 Y s 2116 206 m 61 X s 2146 254 m 31 X s 2116 275 m 61 X s 2146 324 m 31 X s 2116 345 m 61 X s 2146 394 m 31 X s 2116 415 m 61 X s 2146
 463 m 31 X s 2116 484 m 61 X s 2146 533 m 31 X s 2116 554 m 61 X s 2146 603 m 31 X s 2116 623 m 61 X s 2146 672 m 31 X s 2116 693 m 61 X s 2146 742 m 31 X s 2116 763 m 61 X s 2146 811 m 31 X s 2116 832 m 61 X s 2146 881 m 31 X s 2116 902 m 61 X s
 2146 951 m 31 X s 2116 972 m 61 X s 2146 1020 m 31 X s 2116 1041 m 61 X s 2146 1090 m 31 X s 2116 1111 m 61 X s 2146 1160 m 31 X s 2116 1181 m 61 X s 2146 1229 m 31 X s 2116 1250 m 61 X s 2146 1299 m 31 X s 2116 1320 m 61 X s 2146 1369 m 31 X s 2116
 1390 m 61 X s 2146 1438 m 31 X s 2116 1459 m 61 X s 2146 1508 m 31 X s 2116 1529 m 61 X s 2146 1577 m 31 X s 2116 1598 m 61 X s 2146 1647 m 31 X s 2116 1668 m 61 X s 2146 1717 m 31 X s 2116 1738 m 61 X s 2146 1786 m 31 X s 2116 1807 m 61 X s 2146
 1856 m 31 X s 2116 1877 m 61 X s 2146 1926 m 31 X s 2116 1947 m 61 X s 2146 1995 m 31 X s 2116 2016 m 61 X s 2146 2065 m 31 X s 2116 2086 m 61 X s 2146 2135 m 31 X s 2116 2156 m 61 X s 2146 2204 m 31 X s 2116 2225 m 61 X s 2146 2274 m 31 X s 2116
 2295 m 61 X s 2146 2343 m 31 X s 2116 2364 m 61 X s 2146 2413 m 31 X s 2116 2434 m 61 X s 2146 2483 m 31 X s 2116 2504 m 61 X s 2146 2552 m 31 X s 2116 2573 m 61 X s 1 1 1 c black 3 lw /w 22 def /w2 {w 2 div} def /w3 {w 3 div} def 1169 1667 1181
 1652 1198 1628 1211 1612 1227 1591 1242 1572 1254 1554 1271 1533 1284 1515 1299 1498 1315 1477 1328 1460 1345 1438 1360 1421 1376 1399 1388 1382 1401 1364 1416 1343 1429 1323 1444 1301 1460 1276 1475 1254 1488 1234 1503 1213 1518 1191 1532 1170 1549
 1145 1563 1128 1575 1108 1590 1086 1609 1064 1619 1041 1635 1017 33 { m25} R 6 lw 1 1 1 c black 3 lw 1488 1235 1505 1212 1519 1192 1534 1170 1548 1150 1562 1131 1578 1109 1592 1088 1605 1068 1622 1042 1635 1024 1649 1002 1664 978 1678 957 1701 929
 1731 875 16 { m20} R 6 lw 1 1 1 c black 3 lw 1678 953 1694 930 1708 907 1722 886 1736 863 1752 838 1768 818 1780 796 1795 772 1808 754 1825 728 1839 706 1853 685 1869 666 1884 647 1897 630 1912 611 1926 591 1943 569 1957 547 1970 528 1985 496 2001
 465 2015 438 2030 383 2046 347 2060 306 27 { m24} R 6 lw[ 20 20] 0 sd 1 1 1 c black 378 2518 m 8 X 8 -1 d 9 -2 d 8 -2 d 8 -2 d 9 -3 d 8 -3 d 8 -4 d 9 -4 d 8 -5 d 8 -5 d 9 -5 d 8 -6 d 8 -6 d 9 -6 d 8 -7 d 9 -7 d 8 -7 d 8 -8 d 9 -8 d 8 -8 d 8 -8 d 9
 -9 d 8 -9 d 8 -9 d 9 -9 d 8 -9 d 8 -10 d 9 -10 d 8 -9 d 8 -10 d 9 -10 d 8 -10 d 9 -11 d 8 -10 d 8 -11 d 9 -11 d 8 -10 d 8 -11 d 9 -10 d 8 -11 d 8 -10 d 9 -11 d 8 -10 d 8 -10 d 9 -11 d 8 -10 d 8 -11 d 9 -10 d 8 -11 d 9 -10 d 8 -10 d 8 -11 d 9 -10 d 8
 -10 d 8 -10 d 9 -10 d 8 -10 d 8 -11 d 9 -10 d 8 -11 d 8 -10 d 9 -10 d 8 -10 d 8 -10 d 9 -11 d 8 -12 d 9 -11 d 8 -10 d 8 -11 d 9 -10 d 8 -11 d 8 -10 d 9 -11 d 8 -10 d 8 -11 d 9 -10 d 8 -10 d 8 -10 d 9 -10 d 8 -11 d 8 -10 d 9 -10 d 8 -11 d 9 -10 d 8
 -11 d 8 -10 d 9 -11 d 8 -11 d 8 -11 d 9 -11 d 8 -11 d 8 -11 d 9 -10 d 8 -11 d 8 -11 d 9 -11 d 8 -11 d s[  ] 0 sd 1453 1668 m -347 Y s 1474 1358 m -21 -37 d -21 37 d s
 gsave  2268 2637 0 0 C 1947.63 1689.94 t 0 r /Helvetica findfont 70.5271 sf 0 0 m ( eV) show NC gr 
 gsave  2268 2637 0 0 C 1896.09 1725.2 t 0 r /Helvetica findfont 46.1139 sf 0 0 m (16) show NC gr 
 gsave  2268 2637 0 0 C 1589.57 1689.94 t 0 r /Helvetica findfont 70.5271 sf 0 0 m ( above 10) show NC gr 
 gsave  2268 2637 0 0 C 1557.02 1714.35 t 0 r /Helvetica findfont 46.1139 sf 0 0 m (\2551) show NC gr 
 gsave  2268 2637 0 0 C 1399.69 1689.94 t 0 r /Helvetica findfont 70.5271 sf 0 0 m ( year) show NC gr 
 gsave  2268 2637 0 0 C 1367.14 1714.35 t 0 r /Helvetica findfont 46.1139 sf 0 0 m (\2551) show NC gr 
 gsave  2268 2637 0 0 C 1288.48 1689.94 t 0 r /Helvetica findfont 70.5271 sf 0 0 m ( sr) show NC gr 
 gsave  2268 2637 0 0 C 1247.79 1722.49 t 0 r /Helvetica findfont 46.1139 sf 0 0 m (\2552) show NC gr 
 gsave  2268 2637 0 0 C 846.325 1689.94 t 0 r /Helvetica findfont 70.5271 sf 0 0 m (~1 particle m) show NC gr 
 gsave  2268 2637 0 0 C 1727.91 1372.57 t 0 r /Helvetica findfont 70.5271 sf 0 0 m (Tibet) show NC gr  3 lw 1658 1396 m25 6 lw
 gsave  2268 2637 0 0 C 1727.91 1264.06 t 0 r /Helvetica findfont 70.5271 sf 0 0 m (Kaskade) show NC gr  3 lw 1658 1287 m20 6 lw
 gsave  2268 2637 0 0 C 1727.91 1155.56 t 0 r /Helvetica findfont 70.5271 sf 0 0 m (Auger) show NC gr  3 lw 1658 1178 m24 6 lw
 gsave  2268 2637 0 0 C 729.684 2330.11 t 0 r /Helvetica findfont 70.5271 sf 0 0 m (CR species) show NC gr 
 gsave  2268 2637 0 0 C 729.684 2406.06 t 0 r /Helvetica findfont 70.5271 sf 0 0 m (Sum of individual) show NC gr [ 20 20] 0 sd 611 2406 m 99 X s 1307 206 m 2367 Y s
 gr  gr showpage
end
%%EOF
