%!PS-Adobe-2.0 EPSF-2.0
%%BoundingBox:  0 0 567 444
%%Title: cr_int_rate_protons.eps: cr_int_rate_protons
%%Creator: ROOT Version 5.34/14
%%CreationDate: Thu Mar 20 11:06:05 2014
%%EndComments
%%BeginProlog
80 dict begin
/s {stroke} def /l {lineto} def /m {moveto} def /t {translate} def
/r {rotate} def /rl {roll}  def /R {repeat} def
/d {rlineto} def /rm {rmoveto} def /gr {grestore} def /f {eofill} def
/c {setrgbcolor} def /black {0 setgray} def /sd {setdash} def
/cl {closepath} def /sf {scalefont setfont} def /lw {setlinewidth} def
/box {m dup 0 exch d exch 0 d 0 exch neg d cl} def
/NC{systemdict begin initclip end}def/C{NC box clip newpath}def
/bl {box s} def /bf {box f} def /Y { 0 exch d} def /X { 0 d} def 
/K {{pop pop 0 moveto} exch kshow} bind def
/ita {/ang 15 def gsave [1 0 ang dup sin exch cos div 1 0 0] concat} def 
/mp {newpath /y exch def /x exch def} def
/side {[w .77 mul w .23 mul] .385 w mul sd w 0 l currentpoint t -144 r} def
/mr {mp x y w2 0 360 arc} def /m24 {mr s} def /m20 {mr f} def
/mb {mp x y w2 add m w2 neg 0 d 0 w neg d w 0 d 0 w d cl} def
/mt {mp x y w2 add m w2 neg w neg d w 0 d cl} def
/m21 {mb f} def /m25 {mb s} def /m22 {mt f} def /m26{mt s} def
/m23 {mp x y w2 sub m w2 w d w neg 0 d cl f} def
/m27 {mp x y w2 add m w3 neg w2 neg d w3 w2 neg d w3 w2 d cl s} def
/m28 {mp x w2 sub y w2 sub w3 add m w3 0 d  0 w3 neg d w3 0 d 0 w3 d w3 0 d  0 w3 d w3 neg 0 d 0 w3 d w3 neg 0 d 0 w3 neg d w3 neg 0 d cl s } def
/m29 {mp gsave x w2 sub y w2 add w3 sub m currentpoint t 4 {side} repeat cl fill gr} def
/m30 {mp gsave x w2 sub y w2 add w3 sub m currentpoint t 4 {side} repeat cl s gr} def
/m31 {mp x y w2 sub m 0 w d x w2 sub y m w 0 d x w2 sub y w2 add m w w neg d x w2 sub y w2 sub m w w d s} def
/m32 {mp x y w2 sub m w2 w d w neg 0 d cl s} def
/m33 {mp x y w2 add m w3 neg w2 neg d w3 w2 neg d w3 w2 d cl f} def
/m34 {mp x w2 sub y w2 sub w3 add m w3 0 d  0 w3 neg d w3 0 d 0 w3 d w3 0 d  0 w3 d w3 neg 0 d 0 w3 d w3 neg 0 d 0 w3 neg d w3 neg 0 d cl f } def
/m2 {mp x y w2 sub m 0 w d x w2 sub y m w 0 d s} def
/m5 {mp x w2 sub y w2 sub m w w d x w2 sub y w2 add m w w neg d s} def
/reEncode {exch findfont dup length dict begin {1 index /FID eq  {pop pop} {def} ifelse } forall /Encoding exch def currentdict end dup /FontName get exch definefont pop } def [/Times-Bold /Times-Italic /Times-BoldItalic /Helvetica /Helvetica-Oblique
 /Helvetica-Bold /Helvetica-BoldOblique /Courier /Courier-Oblique /Courier-Bold /Courier-BoldOblique /Times-Roman /AvantGarde-Book /AvantGarde-BookOblique /AvantGarde-Demi /AvantGarde-DemiOblique /Bookman-Demi /Bookman-DemiItalic /Bookman-Light
 /Bookman-LightItalic /Helvetica-Narrow /Helvetica-Narrow-Bold /Helvetica-Narrow-BoldOblique /Helvetica-Narrow-Oblique /NewCenturySchlbk-Roman /NewCenturySchlbk-Bold /NewCenturySchlbk-BoldItalic /NewCenturySchlbk-Italic /Palatino-Bold
 /Palatino-BoldItalic /Palatino-Italic /Palatino-Roman ] {ISOLatin1Encoding reEncode } forall
%%EndProlog
%%BeginSetup
%%EndSetup
newpath  gsave  .25 .25 scale  gsave  0 0 t black[  ] 0 sd 6 lw 1 1 1 c 2268 1774 0 0 bf black 3 lw 1 1 1 c 1894 1487 283 216 bf black 1894 1487 283 216 bl 1 1 1 c 1894 1487 283 216 bf black 1894 1487 283 216 bl 6 lw 283 216 m 1894 X s 0.6 0.6 0.6 c[
 12 12] 0 sd 3 lw 284 1703 m -1487 Y s 599 1703 m -1487 Y s 915 1703 m -1487 Y s 1230 1703 m -1487 Y s 1546 1703 m -1487 Y s 1861 1703 m -1487 Y s 2177 1703 m -1487 Y s black[  ] 0 sd 6 lw 283 1703 m 1894 X s 283 216 m 1487 Y s 0.6 0.6 0.6 c[ 12 12]
 0 sd 3 lw 2177 217 m -1894 X s 2177 402 m -1894 X s 2177 588 m -1894 X s 2177 774 m -1894 X s 2177 960 m -1894 X s 2177 1146 m -1894 X s 2177 1331 m -1894 X s 2177 1517 m -1894 X s 2177 1703 m -1894 X s black[  ] 0 sd 6 lw 2177 216 m 1487 Y s 1 1 1
 c black 283 216 m 1894 X s 283 216 m 1894 X s
 gsave  2268 1774 0 0 C 1459.37 27.1258 t 0 r /Helvetica findfont 78.6648 sf 0 0 m (Kinetic energy [GeV]) show NC gr  284 261 m -45 Y s
 gsave  2268 1774 0 0 C 283.601 120.528 t 0 r  -37 0 t /Helvetica findfont 67.8145 sf 0 0 m (10) show NC gr  379 239 m -23 Y s 434 239 m -23 Y s 474 239 m -23 Y s 504 239 m -23 Y s 529 239 m -23 Y s 550 239 m -23 Y s 569 239 m -23 Y s 585 239 m -23 Y
 s 599 261 m -45 Y s
 gsave  2268 1774 0 0 C 621.181 154.617 t 0 r /Helvetica findfont 46.1139 sf 0 0 m (2) show NC gr 
 gsave  2268 1774 0 0 C 545.229 122.066 t 0 r /Helvetica findfont 70.5271 sf 0 0 m (10) show NC gr  694 239 m -23 Y s 750 239 m -23 Y s 789 239 m -23 Y s 820 239 m -23 Y s 845 239 m -23 Y s 866 239 m -23 Y s 884 239 m -23 Y s 900 239 m -23 Y s 915
 261 m -45 Y s
 gsave  2268 1774 0 0 C 938.553 157.33 t 0 r /Helvetica findfont 46.1139 sf 0 0 m (3) show NC gr 
 gsave  2268 1774 0 0 C 862.6 122.066 t 0 r /Helvetica findfont 70.5271 sf 0 0 m (10) show NC gr  1010 239 m -23 Y s 1065 239 m -23 Y s 1105 239 m -23 Y s 1135 239 m -23 Y s 1160 239 m -23 Y s 1181 239 m -23 Y s 1200 239 m -23 Y s 1216 239 m -23 Y s
 1230 261 m -45 Y s
 gsave  2268 1774 0 0 C 1253.21 154.617 t 0 r /Helvetica findfont 46.1139 sf 0 0 m (4) show NC gr 
 gsave  2268 1774 0 0 C 1177.26 122.066 t 0 r /Helvetica findfont 70.5271 sf 0 0 m (10) show NC gr  1325 239 m -23 Y s 1381 239 m -23 Y s 1420 239 m -23 Y s 1451 239 m -23 Y s 1476 239 m -23 Y s 1497 239 m -23 Y s 1515 239 m -23 Y s 1531 239 m -23 Y
 s 1546 261 m -45 Y s
 gsave  2268 1774 0 0 C 1567.87 157.33 t 0 r /Helvetica findfont 46.1139 sf 0 0 m (5) show NC gr 
 gsave  2268 1774 0 0 C 1491.92 122.066 t 0 r /Helvetica findfont 70.5271 sf 0 0 m (10) show NC gr  1641 239 m -23 Y s 1696 239 m -23 Y s 1736 239 m -23 Y s 1766 239 m -23 Y s 1791 239 m -23 Y s 1813 239 m -23 Y s 1831 239 m -23 Y s 1847 239 m -23 Y
 s 1861 261 m -45 Y s
 gsave  2268 1774 0 0 C 1885.24 157.33 t 0 r /Helvetica findfont 46.1139 sf 0 0 m (6) show NC gr 
 gsave  2268 1774 0 0 C 1809.29 122.066 t 0 r /Helvetica findfont 70.5271 sf 0 0 m (10) show NC gr  1956 239 m -23 Y s 2012 239 m -23 Y s 2051 239 m -23 Y s 2082 239 m -23 Y s 2107 239 m -23 Y s 2128 239 m -23 Y s 2146 239 m -23 Y s 2163 239 m -23 Y
 s 2177 261 m -45 Y s
 gsave  2268 1774 0 0 C 2199.9 154.617 t 0 r /Helvetica findfont 46.1139 sf 0 0 m (7) show NC gr 
 gsave  2268 1774 0 0 C 2123.95 122.066 t 0 r /Helvetica findfont 70.5271 sf 0 0 m (10) show NC gr  283 1703 m 1894 X s 284 1659 m 44 Y s 379 1681 m 22 Y s 434 1681 m 22 Y s 474 1681 m 22 Y s 504 1681 m 22 Y s 529 1681 m 22 Y s 550 1681 m 22 Y s 569
 1681 m 22 Y s 585 1681 m 22 Y s 599 1659 m 44 Y s 694 1681 m 22 Y s 750 1681 m 22 Y s 789 1681 m 22 Y s 820 1681 m 22 Y s 845 1681 m 22 Y s 866 1681 m 22 Y s 884 1681 m 22 Y s 900 1681 m 22 Y s 915 1659 m 44 Y s 1010 1681 m 22 Y s 1065 1681 m 22 Y s
 1105 1681 m 22 Y s 1135 1681 m 22 Y s 1160 1681 m 22 Y s 1181 1681 m 22 Y s 1200 1681 m 22 Y s 1216 1681 m 22 Y s 1230 1659 m 44 Y s 1325 1681 m 22 Y s 1381 1681 m 22 Y s 1420 1681 m 22 Y s 1451 1681 m 22 Y s 1476 1681 m 22 Y s 1497 1681 m 22 Y s
 1515 1681 m 22 Y s 1531 1681 m 22 Y s 1546 1659 m 44 Y s 1641 1681 m 22 Y s 1696 1681 m 22 Y s 1736 1681 m 22 Y s 1766 1681 m 22 Y s 1791 1681 m 22 Y s 1813 1681 m 22 Y s 1831 1681 m 22 Y s 1847 1681 m 22 Y s 1861 1659 m 44 Y s 1956 1681 m 22 Y s
 2012 1681 m 22 Y s 2051 1681 m 22 Y s 2082 1681 m 22 Y s 2107 1681 m 22 Y s 2128 1681 m 22 Y s 2146 1681 m 22 Y s 2163 1681 m 22 Y s 2177 1659 m 44 Y s 283 216 m 1487 Y s
 gsave  2268 1774 0 0 C 84.09 309.234 t 90 r /Helvetica findfont 78.6648 sf 0 0 m (Number of events above a given energy) show NC gr  340 217 m -57 X s
 gsave  2268 1774 0 0 C 264.387 187.216 t 0 r  -75 0 t /Helvetica findfont 67.8145 sf 0 0 m (10) show NC gr  312 272 m -29 X s 312 305 m -29 X s 312 328 m -29 X s 312 346 m -29 X s 312 361 m -29 X s 312 374 m -29 X s 312 384 m -29 X s 312 394 m -29 X
 s 340 402 m -57 X s
 gsave  2268 1774 0 0 C 238.707 401.462 t 0 r /Helvetica findfont 46.1139 sf 0 0 m (2) show NC gr 
 gsave  2268 1774 0 0 C 162.755 371.623 t 0 r /Helvetica findfont 70.5271 sf 0 0 m (10) show NC gr  312 458 m -29 X s 312 491 m -29 X s 312 514 m -29 X s 312 532 m -29 X s 312 547 m -29 X s 312 559 m -29 X s 312 570 m -29 X s 312 580 m -29 X s 340
 588 m -57 X s
 gsave  2268 1774 0 0 C 238.707 588.63 t 0 r /Helvetica findfont 46.1139 sf 0 0 m (3) show NC gr 
 gsave  2268 1774 0 0 C 162.755 556.079 t 0 r /Helvetica findfont 70.5271 sf 0 0 m (10) show NC gr  312 644 m -29 X s 312 677 m -29 X s 312 700 m -29 X s 312 718 m -29 X s 312 733 m -29 X s 312 745 m -29 X s 312 756 m -29 X s 312 765 m -29 X s 340
 774 m -57 X s
 gsave  2268 1774 0 0 C 238.707 773.085 t 0 r /Helvetica findfont 46.1139 sf 0 0 m (4) show NC gr 
 gsave  2268 1774 0 0 C 162.755 743.247 t 0 r /Helvetica findfont 70.5271 sf 0 0 m (10) show NC gr  312 830 m -29 X s 312 863 m -29 X s 312 886 m -29 X s 312 904 m -29 X s 312 919 m -29 X s 312 931 m -29 X s 312 942 m -29 X s 312 951 m -29 X s 340
 960 m -57 X s
 gsave  2268 1774 0 0 C 238.707 960.253 t 0 r /Helvetica findfont 46.1139 sf 0 0 m (5) show NC gr 
 gsave  2268 1774 0 0 C 162.755 927.702 t 0 r /Helvetica findfont 70.5271 sf 0 0 m (10) show NC gr  312 1016 m -29 X s 312 1048 m -29 X s 312 1072 m -29 X s 312 1090 m -29 X s 312 1104 m -29 X s 312 1117 m -29 X s 312 1128 m -29 X s 312 1137 m -29 X
 s 340 1146 m -57 X s
 gsave  2268 1774 0 0 C 238.707 1147.42 t 0 r /Helvetica findfont 46.1139 sf 0 0 m (6) show NC gr 
 gsave  2268 1774 0 0 C 162.755 1114.87 t 0 r /Helvetica findfont 70.5271 sf 0 0 m (10) show NC gr  312 1202 m -29 X s 312 1234 m -29 X s 312 1257 m -29 X s 312 1275 m -29 X s 312 1290 m -29 X s 312 1303 m -29 X s 312 1313 m -29 X s 312 1323 m -29 X
 s 340 1331 m -57 X s
 gsave  2268 1774 0 0 C 238.707 1329.16 t 0 r /Helvetica findfont 46.1139 sf 0 0 m (7) show NC gr 
 gsave  2268 1774 0 0 C 162.755 1299.33 t 0 r /Helvetica findfont 70.5271 sf 0 0 m (10) show NC gr  312 1387 m -29 X s 312 1420 m -29 X s 312 1443 m -29 X s 312 1461 m -29 X s 312 1476 m -29 X s 312 1488 m -29 X s 312 1499 m -29 X s 312 1509 m -29 X
 s 340 1517 m -57 X s
 gsave  2268 1774 0 0 C 238.707 1519.04 t 0 r /Helvetica findfont 46.1139 sf 0 0 m (8) show NC gr 
 gsave  2268 1774 0 0 C 162.755 1486.49 t 0 r /Helvetica findfont 70.5271 sf 0 0 m (10) show NC gr  312 1573 m -29 X s 312 1606 m -29 X s 312 1629 m -29 X s 312 1647 m -29 X s 312 1662 m -29 X s 312 1674 m -29 X s 312 1685 m -29 X s 312 1695 m -29 X
 s 340 1703 m -57 X s
 gsave  2268 1774 0 0 C 238.707 1703.5 t 0 r /Helvetica findfont 46.1139 sf 0 0 m (9) show NC gr 
 gsave  2268 1774 0 0 C 162.755 1670.95 t 0 r /Helvetica findfont 70.5271 sf 0 0 m (10) show NC gr  2177 216 m 1487 Y s 2120 217 m 57 X s 2149 272 m 28 X s 2149 305 m 28 X s 2149 328 m 28 X s 2149 346 m 28 X s 2149 361 m 28 X s 2149 374 m 28 X s 2149
 384 m 28 X s 2149 394 m 28 X s 2120 402 m 57 X s 2149 458 m 28 X s 2149 491 m 28 X s 2149 514 m 28 X s 2149 532 m 28 X s 2149 547 m 28 X s 2149 559 m 28 X s 2149 570 m 28 X s 2149 580 m 28 X s 2120 588 m 57 X s 2149 644 m 28 X s 2149 677 m 28 X s
 2149 700 m 28 X s 2149 718 m 28 X s 2149 733 m 28 X s 2149 745 m 28 X s 2149 756 m 28 X s 2149 765 m 28 X s 2120 774 m 57 X s 2149 830 m 28 X s 2149 863 m 28 X s 2149 886 m 28 X s 2149 904 m 28 X s 2149 919 m 28 X s 2149 931 m 28 X s 2149 942 m 28 X
 s 2149 951 m 28 X s 2120 960 m 57 X s 2149 1016 m 28 X s 2149 1048 m 28 X s 2149 1072 m 28 X s 2149 1090 m 28 X s 2149 1104 m 28 X s 2149 1117 m 28 X s 2149 1128 m 28 X s 2149 1137 m 28 X s 2120 1146 m 57 X s 2149 1202 m 28 X s 2149 1234 m 28 X s
 2149 1257 m 28 X s 2149 1275 m 28 X s 2149 1290 m 28 X s 2149 1303 m 28 X s 2149 1313 m 28 X s 2149 1323 m 28 X s 2120 1331 m 57 X s 2149 1387 m 28 X s 2149 1420 m 28 X s 2149 1443 m 28 X s 2149 1461 m 28 X s 2149 1476 m 28 X s 2149 1488 m 28 X s
 2149 1499 m 28 X s 2149 1509 m 28 X s 2120 1517 m 57 X s 2149 1573 m 28 X s 2149 1606 m 28 X s 2149 1629 m 28 X s 2149 1647 m 28 X s 2149 1662 m 28 X s 2149 1674 m 28 X s 2149 1685 m 28 X s 2149 1695 m 28 X s 2120 1703 m 57 X s 1 1 1 c black 283
 1264 m 5 -4 d s 288 1260 m 18 -17 d 18 -17 d 18 -17 d 18 -18 d 19 -18 d 18 -18 d 18 -19 d 18 -19 d 18 -19 d 18 -19 d 18 -19 d 18 -19 d 18 -19 d 18 -19 d 18 -19 d 18 -18 d 18 -19 d 18 -18 d 18 -18 d 18 -18 d 18 -18 d 18 -18 d 18 -18 d 18 -18 d 18 -18
 d 18 -17 d 18 -18 d 18 -17 d 18 -18 d 18 -17 d 18 -18 d 18 -17 d 18 -18 d 18 -18 d 19 -18 d 18 -17 d 18 -18 d 18 -18 d 18 -18 d 18 -19 d 18 -19 d 18 -20 d 18 -19 d 18 -17 d 18 -18 d 18 -17 d 18 -18 d 18 -17 d 18 -18 d 18 -17 d 18 -18 d 18 -17 d 18
 -18 d 18 -19 d 18 -18 d 18 -19 d 18 -19 d 12 -13 d s[ 20 20] 0 sd 1 1 1 c black 283 1264 m 5 -4 d s 288 1260 m 18 -17 d 18 -17 d 18 -17 d 18 -18 d 19 -18 d 18 -18 d 18 -19 d 18 -19 d 18 -19 d 18 -19 d 18 -19 d 18 -19 d 18 -19 d 18 -19 d 18 -19 d 18
 -18 d 18 -19 d 18 -18 d 18 -18 d 18 -18 d 18 -18 d 18 -18 d 18 -18 d 18 -18 d 18 -18 d 18 -17 d 18 -18 d 18 -17 d 18 -18 d 18 -17 d 18 -18 d 18 -17 d 18 -18 d 18 -18 d 19 -18 d 18 -17 d 18 -18 d 18 -18 d 18 -18 d 18 -19 d 18 -19 d 18 -20 d 18 -19 d
 18 -17 d 18 -18 d 18 -17 d 18 -18 d 18 -17 d 18 -18 d 18 -17 d 18 -18 d 18 -17 d 18 -18 d 18 -19 d 18 -18 d 18 -19 d 18 -19 d 12 -13 d s
 gsave  2268 1774 0 0 C 1063.33 507.252 t -44 r /Helvetica findfont 54.2516 sf 0 0 m ( sr year) show NC gr 
 gsave  2268 1774 0 0 C 1066.04 539.803 t -44 r /Helvetica findfont 37.9761 sf 0 0 m (2) show NC gr 
 gsave  2268 1774 0 0 C 914.139 656.444 t -44 r /Helvetica findfont 54.2516 sf 0 0 m (0.001 m) show NC gr [  ] 0 sd 1 1 1 c black 283 1450 m 5 -4 d s 288 1446 m 18 -17 d 18 -17 d 18 -17 d 18 -18 d 19 -18 d 18 -19 d 18 -18 d 18 -19 d 18 -19 d 18 -19 d
 18 -19 d 18 -20 d 18 -18 d 18 -19 d 18 -19 d 18 -18 d 18 -19 d 18 -18 d 18 -18 d 18 -18 d 18 -19 d 18 -18 d 18 -18 d 18 -17 d 18 -18 d 18 -18 d 18 -17 d 18 -17 d 18 -18 d 18 -17 d 18 -18 d 18 -18 d 18 -17 d 18 -18 d 19 -18 d 18 -17 d 18 -18 d 18 -18
 d 18 -18 d 18 -19 d 18 -19 d 18 -20 d 18 -19 d 18 -17 d 18 -18 d 18 -18 d 18 -17 d 18 -18 d 18 -17 d 18 -17 d 18 -18 d 18 -17 d 18 -18 d 18 -19 d 18 -18 d 18 -19 d 18 -19 d 18 -20 d 18 -19 d 18 -19 d 18 -20 d 18 -19 d 18 -19 d 18 -20 d 19 -19 d 18
 -20 d 18 -19 d 4 -5 d s[ 20 20] 0 sd 1 1 1 c black 283 1450 m 5 -4 d s 288 1446 m 18 -17 d 18 -17 d 18 -17 d 18 -18 d 19 -18 d 18 -19 d 18 -18 d 18 -19 d 18 -19 d 18 -19 d 18 -19 d 18 -20 d 18 -18 d 18 -19 d 18 -19 d 18 -18 d 18 -19 d 18 -18 d 18
 -18 d 18 -18 d 18 -19 d 18 -18 d 18 -18 d 18 -17 d 18 -18 d 18 -18 d 18 -17 d 18 -17 d 18 -18 d 18 -17 d 18 -18 d 18 -18 d 18 -17 d 18 -18 d 19 -18 d 18 -17 d 18 -18 d 18 -18 d 18 -18 d 18 -19 d 18 -19 d 18 -20 d 18 -19 d 18 -17 d 18 -18 d 18 -18 d
 18 -17 d 18 -18 d 18 -17 d 18 -17 d 18 -18 d 18 -17 d 18 -18 d 18 -19 d 18 -18 d 18 -19 d 18 -19 d 18 -20 d 18 -19 d 18 -19 d 18 -20 d 18 -19 d 18 -19 d 18 -20 d 19 -19 d 18 -20 d 18 -19 d 4 -5 d s
 gsave  2268 1774 0 0 C 1044.34 710.696 t -44 r /Helvetica findfont 54.2516 sf 0 0 m ( sr year) show NC gr 
 gsave  2268 1774 0 0 C 1044.34 743.247 t -44 r /Helvetica findfont 37.9761 sf 0 0 m (2) show NC gr 
 gsave  2268 1774 0 0 C 914.139 840.9 t -44 r /Helvetica findfont 54.2516 sf 0 0 m (0.01 m) show NC gr [  ] 0 sd 1 1 1 c black 283 1636 m 5 -4 d s 288 1632 m 18 -17 d 18 -17 d 18 -18 d 18 -17 d 19 -18 d 18 -19 d 18 -18 d 18 -19 d 18 -19 d 18 -19 d 18
 -20 d 18 -19 d 18 -19 d 18 -18 d 18 -19 d 18 -19 d 18 -18 d 18 -18 d 18 -19 d 18 -18 d 18 -18 d 18 -18 d 18 -18 d 18 -18 d 18 -17 d 18 -18 d 18 -17 d 18 -18 d 18 -17 d 18 -18 d 18 -17 d 18 -18 d 18 -17 d 18 -18 d 19 -18 d 18 -18 d 18 -17 d 18 -18 d
 18 -19 d 18 -18 d 18 -19 d 18 -20 d 18 -19 d 18 -18 d 18 -17 d 18 -18 d 18 -17 d 18 -18 d 18 -17 d 18 -18 d 18 -17 d 18 -18 d 18 -18 d 18 -18 d 18 -19 d 18 -18 d 18 -19 d 18 -20 d 18 -19 d 18 -19 d 18 -20 d 18 -19 d 18 -19 d 18 -20 d 19 -19 d 18 -20
 d 18 -19 d 18 -20 d 18 -19 d 18 -20 d 18 -19 d 18 -20 d 18 -20 d 18 -19 d 18 -20 d 30 -34 d s[ 20 20] 0 sd 1 1 1 c black 283 1636 m 5 -4 d s 288 1632 m 18 -17 d 18 -17 d 18 -18 d 18 -17 d 19 -18 d 18 -19 d 18 -18 d 18 -19 d 18 -19 d 18 -19 d 18 -20
 d 18 -19 d 18 -19 d 18 -18 d 18 -19 d 18 -19 d 18 -18 d 18 -18 d 18 -19 d 18 -18 d 18 -18 d 18 -18 d 18 -18 d 18 -18 d 18 -17 d 18 -18 d 18 -17 d 18 -18 d 18 -17 d 18 -18 d 18 -17 d 18 -18 d 18 -17 d 18 -18 d 19 -18 d 18 -18 d 18 -17 d 18 -18 d 18
 -19 d 18 -18 d 18 -19 d 18 -20 d 18 -19 d 18 -18 d 18 -17 d 18 -18 d 18 -17 d 18 -18 d 18 -17 d 18 -18 d 18 -17 d 18 -18 d 18 -18 d 18 -18 d 18 -19 d 18 -18 d 18 -19 d 18 -20 d 18 -19 d 18 -19 d 18 -20 d 18 -19 d 18 -19 d 18 -20 d 19 -19 d 18 -20 d
 18 -19 d 18 -20 d 18 -19 d 18 -20 d 18 -19 d 18 -20 d 18 -20 d 18 -19 d 18 -20 d 30 -34 d s
 gsave  2268 1774 0 0 C 1022.64 919.565 t -44 r /Helvetica findfont 54.2516 sf 0 0 m ( sr year) show NC gr 
 gsave  2268 1774 0 0 C 1025.36 952.115 t -44 r /Helvetica findfont 37.9761 sf 0 0 m (2) show NC gr 
 gsave  2268 1774 0 0 C 914.139 1028.07 t -44 r /Helvetica findfont 54.2516 sf 0 0 m (0.1 m) show NC gr [  ] 0 sd 1 1 1 c black 405 1703 m 10 -10 d s 415 1693 m 18 -18 d 18 -19 d 18 -19 d 18 -20 d 18 -19 d 18 -19 d 18 -19 d 18 -18 d 18 -19 d 18 -18 d
 18 -19 d 18 -18 d 18 -18 d 18 -18 d 18 -18 d 18 -18 d 18 -18 d 18 -17 d 18 -18 d 18 -17 d 18 -18 d 18 -17 d 18 -18 d 18 -17 d 18 -18 d 18 -18 d 18 -17 d 19 -18 d 18 -18 d 18 -17 d 18 -18 d 18 -19 d 18 -18 d 18 -20 d 18 -19 d 18 -19 d 18 -18 d 18 -17
 d 18 -18 d 18 -17 d 18 -18 d 18 -17 d 18 -18 d 18 -17 d 18 -18 d 18 -18 d 18 -18 d 18 -19 d 18 -19 d 18 -19 d 18 -19 d 18 -19 d 18 -20 d 18 -19 d 18 -19 d 18 -20 d 18 -19 d 19 -20 d 18 -19 d 18 -20 d 18 -19 d 18 -20 d 18 -19 d 18 -20 d 18 -19 d 18
 -20 d 18 -19 d 18 -20 d 35 -39 d 35 -39 d s[ 20 20] 0 sd 1 1 1 c black 405 1703 m 10 -10 d s 415 1693 m 18 -18 d 18 -19 d 18 -19 d 18 -20 d 18 -19 d 18 -19 d 18 -19 d 18 -18 d 18 -19 d 18 -18 d 18 -19 d 18 -18 d 18 -18 d 18 -18 d 18 -18 d 18 -18 d
 18 -18 d 18 -17 d 18 -18 d 18 -17 d 18 -18 d 18 -17 d 18 -18 d 18 -17 d 18 -18 d 18 -18 d 18 -17 d 19 -18 d 18 -18 d 18 -17 d 18 -18 d 18 -19 d 18 -18 d 18 -20 d 18 -19 d 18 -19 d 18 -18 d 18 -17 d 18 -18 d 18 -17 d 18 -18 d 18 -17 d 18 -18 d 18 -17
 d 18 -18 d 18 -18 d 18 -18 d 18 -19 d 18 -19 d 18 -19 d 18 -19 d 18 -19 d 18 -20 d 18 -19 d 18 -19 d 18 -20 d 18 -19 d 19 -20 d 18 -19 d 18 -20 d 18 -19 d 18 -20 d 18 -19 d 18 -20 d 18 -19 d 18 -20 d 18 -19 d 18 -20 d 35 -39 d 35 -36 d 70 -76 d 64
 -69 d s
 gsave  2268 1774 0 0 C 1022.64 1104.02 t -44 r /Helvetica findfont 54.2516 sf 0 0 m ( sr year) show NC gr 
 gsave  2268 1774 0 0 C 1025.36 1136.57 t -44 r /Helvetica findfont 37.9761 sf 0 0 m (2) show NC gr 
 gsave  2268 1774 0 0 C 914.139 1212.52 t -44 r /Helvetica findfont 54.2516 sf 0 0 m (1.0 m) show NC gr [  ] 0 sd 1 1 1 c black 583 1703 m 12 -12 d s 595 1691 m 18 -19 d 18 -18 d 18 -18 d 18 -18 d 18 -18 d 18 -18 d 18 -18 d 18 -18 d 18 -17 d 18 -18 d
 18 -17 d 18 -17 d 18 -18 d 18 -18 d 18 -17 d 18 -18 d 18 -18 d 19 -17 d 18 -18 d 18 -18 d 18 -18 d 18 -18 d 18 -19 d 18 -19 d 18 -20 d 18 -19 d 18 -17 d 18 -18 d 18 -17 d 18 -18 d 18 -17 d 18 -17 d 18 -18 d 18 -17 d 18 -18 d 18 -18 d 18 -18 d 18 -19
 d 18 -19 d 18 -19 d 18 -19 d 18 -19 d 18 -20 d 18 -19 d 18 -20 d 18 -19 d 18 -19 d 19 -20 d 18 -19 d 18 -20 d 18 -19 d 18 -20 d 18 -19 d 18 -20 d 18 -19 d 18 -20 d 18 -20 d 18 -19 d 35 -39 d 35 -39 d s[ 20 20] 0 sd 1 1 1 c black 583 1703 m 12 -12 d
 s 595 1691 m 18 -19 d 18 -18 d 18 -18 d 18 -18 d 18 -18 d 18 -18 d 18 -18 d 18 -18 d 18 -17 d 18 -18 d 18 -17 d 18 -17 d 18 -18 d 18 -18 d 18 -17 d 18 -18 d 18 -18 d 19 -17 d 18 -18 d 18 -18 d 18 -18 d 18 -18 d 18 -19 d 18 -19 d 18 -20 d 18 -19 d 18
 -17 d 18 -18 d 18 -17 d 18 -18 d 18 -17 d 18 -17 d 18 -18 d 18 -17 d 18 -18 d 18 -18 d 18 -18 d 18 -19 d 18 -19 d 18 -19 d 18 -19 d 18 -19 d 18 -20 d 18 -19 d 18 -20 d 18 -19 d 18 -19 d 19 -20 d 18 -19 d 18 -20 d 18 -19 d 18 -20 d 18 -19 d 18 -20 d
 18 -19 d 18 -20 d 18 -20 d 18 -19 d 35 -39 d 35 -36 d 70 -76 d 70 -76 d 70 -75 d 70 -76 d 26 -28 d s
 gsave  2268 1774 0 0 C 1044.34 1269.49 t -44 r /Helvetica findfont 54.2516 sf 0 0 m ( sr year) show NC gr 
 gsave  2268 1774 0 0 C 1044.34 1302.04 t -44 r /Helvetica findfont 37.9761 sf 0 0 m (2) show NC gr 
 gsave  2268 1774 0 0 C 914.139 1399.69 t -44 r /Helvetica findfont 54.2516 sf 0 0 m (10.0 m) show NC gr [  ] 0 sd 1 1 1 c black 769 1703 m 6 -6 d s 775 1697 m 18 -17 d 18 -18 d 18 -17 d 18 -18 d 18 -17 d 18 -18 d 18 -18 d 19 -17 d 18 -18 d 18 -18 d
 18 -18 d 18 -18 d 18 -19 d 18 -19 d 18 -20 d 18 -19 d 18 -17 d 18 -18 d 18 -17 d 18 -18 d 18 -17 d 18 -18 d 18 -17 d 18 -18 d 18 -17 d 18 -18 d 18 -18 d 18 -19 d 18 -19 d 18 -19 d 18 -19 d 18 -20 d 18 -19 d 18 -19 d 18 -20 d 18 -19 d 18 -19 d 19 -20
 d 18 -19 d 18 -20 d 18 -19 d 18 -20 d 18 -19 d 18 -20 d 18 -20 d 18 -19 d 18 -20 d 18 -19 d 35 -39 d 35 -39 d s[ 20 20] 0 sd 1 1 1 c black 769 1703 m 6 -6 d s 775 1697 m 18 -17 d 18 -18 d 18 -17 d 18 -18 d 18 -17 d 18 -18 d 18 -18 d 19 -17 d 18 -18
 d 18 -18 d 18 -18 d 18 -18 d 18 -19 d 18 -19 d 18 -20 d 18 -19 d 18 -17 d 18 -18 d 18 -17 d 18 -18 d 18 -17 d 18 -18 d 18 -17 d 18 -18 d 18 -17 d 18 -18 d 18 -18 d 18 -19 d 18 -19 d 18 -19 d 18 -19 d 18 -20 d 18 -19 d 18 -19 d 18 -20 d 18 -19 d 18
 -19 d 19 -20 d 18 -19 d 18 -20 d 18 -19 d 18 -20 d 18 -19 d 18 -20 d 18 -20 d 18 -19 d 18 -20 d 18 -19 d 35 -39 d 35 -37 d 70 -75 d 70 -76 d 70 -75 d 70 -76 d 71 -76 d 70 -75 d 45 -49 d s
 gsave  2268 1774 0 0 C 1063.33 1434.95 t -44 r /Helvetica findfont 54.2516 sf 0 0 m ( sr year) show NC gr 
 gsave  2268 1774 0 0 C 1066.04 1467.51 t -44 r /Helvetica findfont 37.9761 sf 0 0 m (2) show NC gr 
 gsave  2268 1774 0 0 C 914.139 1584.15 t -44 r /Helvetica findfont 54.2516 sf 0 0 m (100.0 m) show NC gr 
 gsave  2268 1774 0 0 C 1654.67 1472.93 t 0 r /Helvetica findfont 70.5271 sf 0 0 m (Protons) show NC gr 
 gr  gr showpage
end
%%EOF
