%!PS-Adobe-2.0 EPSF-2.0
%%BoundingBox:  0 0 567 444
%%Title: cr_int_rate_electrons.eps: cr_int_rate_electrons
%%Creator: ROOT Version 5.34/14
%%CreationDate: Thu Mar 20 11:06:06 2014
%%EndComments
%%BeginProlog
80 dict begin
/s {stroke} def /l {lineto} def /m {moveto} def /t {translate} def
/r {rotate} def /rl {roll}  def /R {repeat} def
/d {rlineto} def /rm {rmoveto} def /gr {grestore} def /f {eofill} def
/c {setrgbcolor} def /black {0 setgray} def /sd {setdash} def
/cl {closepath} def /sf {scalefont setfont} def /lw {setlinewidth} def
/box {m dup 0 exch d exch 0 d 0 exch neg d cl} def
/NC{systemdict begin initclip end}def/C{NC box clip newpath}def
/bl {box s} def /bf {box f} def /Y { 0 exch d} def /X { 0 d} def 
/K {{pop pop 0 moveto} exch kshow} bind def
/ita {/ang 15 def gsave [1 0 ang dup sin exch cos div 1 0 0] concat} def 
/mp {newpath /y exch def /x exch def} def
/side {[w .77 mul w .23 mul] .385 w mul sd w 0 l currentpoint t -144 r} def
/mr {mp x y w2 0 360 arc} def /m24 {mr s} def /m20 {mr f} def
/mb {mp x y w2 add m w2 neg 0 d 0 w neg d w 0 d 0 w d cl} def
/mt {mp x y w2 add m w2 neg w neg d w 0 d cl} def
/m21 {mb f} def /m25 {mb s} def /m22 {mt f} def /m26{mt s} def
/m23 {mp x y w2 sub m w2 w d w neg 0 d cl f} def
/m27 {mp x y w2 add m w3 neg w2 neg d w3 w2 neg d w3 w2 d cl s} def
/m28 {mp x w2 sub y w2 sub w3 add m w3 0 d  0 w3 neg d w3 0 d 0 w3 d w3 0 d  0 w3 d w3 neg 0 d 0 w3 d w3 neg 0 d 0 w3 neg d w3 neg 0 d cl s } def
/m29 {mp gsave x w2 sub y w2 add w3 sub m currentpoint t 4 {side} repeat cl fill gr} def
/m30 {mp gsave x w2 sub y w2 add w3 sub m currentpoint t 4 {side} repeat cl s gr} def
/m31 {mp x y w2 sub m 0 w d x w2 sub y m w 0 d x w2 sub y w2 add m w w neg d x w2 sub y w2 sub m w w d s} def
/m32 {mp x y w2 sub m w2 w d w neg 0 d cl s} def
/m33 {mp x y w2 add m w3 neg w2 neg d w3 w2 neg d w3 w2 d cl f} def
/m34 {mp x w2 sub y w2 sub w3 add m w3 0 d  0 w3 neg d w3 0 d 0 w3 d w3 0 d  0 w3 d w3 neg 0 d 0 w3 d w3 neg 0 d 0 w3 neg d w3 neg 0 d cl f } def
/m2 {mp x y w2 sub m 0 w d x w2 sub y m w 0 d s} def
/m5 {mp x w2 sub y w2 sub m w w d x w2 sub y w2 add m w w neg d s} def
/reEncode {exch findfont dup length dict begin {1 index /FID eq  {pop pop} {def} ifelse } forall /Encoding exch def currentdict end dup /FontName get exch definefont pop } def [/Times-Bold /Times-Italic /Times-BoldItalic /Helvetica /Helvetica-Oblique
 /Helvetica-Bold /Helvetica-BoldOblique /Courier /Courier-Oblique /Courier-Bold /Courier-BoldOblique /Times-Roman /AvantGarde-Book /AvantGarde-BookOblique /AvantGarde-Demi /AvantGarde-DemiOblique /Bookman-Demi /Bookman-DemiItalic /Bookman-Light
 /Bookman-LightItalic /Helvetica-Narrow /Helvetica-Narrow-Bold /Helvetica-Narrow-BoldOblique /Helvetica-Narrow-Oblique /NewCenturySchlbk-Roman /NewCenturySchlbk-Bold /NewCenturySchlbk-BoldItalic /NewCenturySchlbk-Italic /Palatino-Bold
 /Palatino-BoldItalic /Palatino-Italic /Palatino-Roman ] {ISOLatin1Encoding reEncode } forall
%%EndProlog
%%BeginSetup
%%EndSetup
newpath  gsave  .25 .25 scale  gsave  0 0 t black[  ] 0 sd 6 lw 1 1 1 c 2268 1774 0 0 bf black 3 lw 1 1 1 c 1894 1487 283 216 bf black 1894 1487 283 216 bl 1 1 1 c 1894 1487 283 216 bf black 1894 1487 283 216 bl 6 lw 283 216 m 1894 X s 0.6 0.6 0.6 c[
 12 12] 0 sd 3 lw 284 1703 m -1487 Y s 757 1703 m -1487 Y s 1230 1703 m -1487 Y s 1704 1703 m -1487 Y s 2177 1703 m -1487 Y s black[  ] 0 sd 6 lw 283 1703 m 1894 X s 283 216 m 1487 Y s 0.6 0.6 0.6 c[ 12 12] 0 sd 3 lw 2177 217 m -1894 X s 2177 429 m
 -1894 X s 2177 641 m -1894 X s 2177 854 m -1894 X s 2177 1066 m -1894 X s 2177 1278 m -1894 X s 2177 1491 m -1894 X s 2177 1703 m -1894 X s black[  ] 0 sd 6 lw 2177 216 m 1487 Y s 1 1 1 c black 283 216 m 1894 X s 283 216 m 1894 X s
 gsave  2268 1774 0 0 C 1706.21 27.1258 t 0 r /Helvetica findfont 78.6648 sf 0 0 m (Energy [GeV]) show NC gr  284 261 m -45 Y s
 gsave  2268 1774 0 0 C 283.67 120.528 t 0 r  -37 0 t /Helvetica findfont 67.8145 sf 0 0 m (10) show NC gr  426 239 m -23 Y s 510 239 m -23 Y s 569 239 m -23 Y s 615 239 m -23 Y s 652 239 m -23 Y s 684 239 m -23 Y s 711 239 m -23 Y s 735 239 m -23 Y
 s 757 261 m -45 Y s
 gsave  2268 1774 0 0 C 781.223 154.617 t 0 r /Helvetica findfont 46.1139 sf 0 0 m (2) show NC gr 
 gsave  2268 1774 0 0 C 705.271 122.066 t 0 r /Helvetica findfont 70.5271 sf 0 0 m (10) show NC gr  899 239 m -23 Y s 983 239 m -23 Y s 1042 239 m -23 Y s 1088 239 m -23 Y s 1125 239 m -23 Y s 1157 239 m -23 Y s 1184 239 m -23 Y s 1209 239 m -23 Y s
 1230 261 m -45 Y s
 gsave  2268 1774 0 0 C 1253.21 157.33 t 0 r /Helvetica findfont 46.1139 sf 0 0 m (3) show NC gr 
 gsave  2268 1774 0 0 C 1177.26 122.066 t 0 r /Helvetica findfont 70.5271 sf 0 0 m (10) show NC gr  1373 239 m -23 Y s 1456 239 m -23 Y s 1515 239 m -23 Y s 1561 239 m -23 Y s 1599 239 m -23 Y s 1630 239 m -23 Y s 1658 239 m -23 Y s 1682 239 m -23 Y
 s 1704 261 m -45 Y s
 gsave  2268 1774 0 0 C 1727.91 154.617 t 0 r /Helvetica findfont 46.1139 sf 0 0 m (4) show NC gr 
 gsave  2268 1774 0 0 C 1651.96 122.066 t 0 r /Helvetica findfont 70.5271 sf 0 0 m (10) show NC gr  1846 239 m -23 Y s 1930 239 m -23 Y s 1989 239 m -23 Y s 2035 239 m -23 Y s 2072 239 m -23 Y s 2104 239 m -23 Y s 2131 239 m -23 Y s 2155 239 m -23 Y
 s 2177 261 m -45 Y s
 gsave  2268 1774 0 0 C 2199.9 157.33 t 0 r /Helvetica findfont 46.1139 sf 0 0 m (5) show NC gr 
 gsave  2268 1774 0 0 C 2123.95 122.066 t 0 r /Helvetica findfont 70.5271 sf 0 0 m (10) show NC gr  283 1703 m 1894 X s 284 1659 m 44 Y s 426 1681 m 22 Y s 510 1681 m 22 Y s 569 1681 m 22 Y s 615 1681 m 22 Y s 652 1681 m 22 Y s 684 1681 m 22 Y s 711
 1681 m 22 Y s 735 1681 m 22 Y s 757 1659 m 44 Y s 899 1681 m 22 Y s 983 1681 m 22 Y s 1042 1681 m 22 Y s 1088 1681 m 22 Y s 1125 1681 m 22 Y s 1157 1681 m 22 Y s 1184 1681 m 22 Y s 1209 1681 m 22 Y s 1230 1659 m 44 Y s 1373 1681 m 22 Y s 1456 1681 m
 22 Y s 1515 1681 m 22 Y s 1561 1681 m 22 Y s 1599 1681 m 22 Y s 1630 1681 m 22 Y s 1658 1681 m 22 Y s 1682 1681 m 22 Y s 1704 1659 m 44 Y s 1846 1681 m 22 Y s 1930 1681 m 22 Y s 1989 1681 m 22 Y s 2035 1681 m 22 Y s 2072 1681 m 22 Y s 2104 1681 m 22
 Y s 2131 1681 m 22 Y s 2155 1681 m 22 Y s 2177 1659 m 44 Y s 283 216 m 1487 Y s
 gsave  2268 1774 0 0 C 84.09 309.234 t 90 r /Helvetica findfont 78.6648 sf 0 0 m (Number of events above a given energy) show NC gr  340 217 m -57 X s
 gsave  2268 1774 0 0 C 264.387 188.313 t 0 r  -75 0 t /Helvetica findfont 67.8145 sf 0 0 m (10) show NC gr  312 280 m -29 X s 312 318 m -29 X s 312 344 m -29 X s 312 365 m -29 X s 312 382 m -29 X s 312 396 m -29 X s 312 408 m -29 X s 312 419 m -29 X
 s 340 429 m -57 X s
 gsave  2268 1774 0 0 C 238.707 428.588 t 0 r /Helvetica findfont 46.1139 sf 0 0 m (2) show NC gr 
 gsave  2268 1774 0 0 C 162.755 398.749 t 0 r /Helvetica findfont 70.5271 sf 0 0 m (10) show NC gr  312 493 m -29 X s 312 530 m -29 X s 312 557 m -29 X s 312 577 m -29 X s 312 594 m -29 X s 312 608 m -29 X s 312 621 m -29 X s 312 632 m -29 X s 340
 641 m -57 X s
 gsave  2268 1774 0 0 C 238.707 642.881 t 0 r /Helvetica findfont 46.1139 sf 0 0 m (3) show NC gr 
 gsave  2268 1774 0 0 C 162.755 610.33 t 0 r /Helvetica findfont 70.5271 sf 0 0 m (10) show NC gr  312 705 m -29 X s 312 743 m -29 X s 312 769 m -29 X s 312 790 m -29 X s 312 807 m -29 X s 312 821 m -29 X s 312 833 m -29 X s 312 844 m -29 X s 340 854
 m -57 X s
 gsave  2268 1774 0 0 C 238.707 851.75 t 0 r /Helvetica findfont 46.1139 sf 0 0 m (4) show NC gr 
 gsave  2268 1774 0 0 C 162.755 821.912 t 0 r /Helvetica findfont 70.5271 sf 0 0 m (10) show NC gr  312 918 m -29 X s 312 955 m -29 X s 312 981 m -29 X s 312 1002 m -29 X s 312 1019 m -29 X s 312 1033 m -29 X s 312 1045 m -29 X s 312 1056 m -29 X s
 340 1066 m -57 X s
 gsave  2268 1774 0 0 C 238.707 1066.04 t 0 r /Helvetica findfont 46.1139 sf 0 0 m (5) show NC gr 
 gsave  2268 1774 0 0 C 162.755 1033.49 t 0 r /Helvetica findfont 70.5271 sf 0 0 m (10) show NC gr  312 1130 m -29 X s 312 1167 m -29 X s 312 1194 m -29 X s 312 1214 m -29 X s 312 1231 m -29 X s 312 1245 m -29 X s 312 1258 m -29 X s 312 1269 m -29 X
 s 340 1278 m -57 X s
 gsave  2268 1774 0 0 C 238.707 1280.34 t 0 r /Helvetica findfont 46.1139 sf 0 0 m (6) show NC gr 
 gsave  2268 1774 0 0 C 162.755 1247.79 t 0 r /Helvetica findfont 70.5271 sf 0 0 m (10) show NC gr  312 1342 m -29 X s 312 1380 m -29 X s 312 1406 m -29 X s 312 1427 m -29 X s 312 1444 m -29 X s 312 1458 m -29 X s 312 1470 m -29 X s 312 1481 m -29 X
 s 340 1491 m -57 X s
 gsave  2268 1774 0 0 C 238.707 1489.21 t 0 r /Helvetica findfont 46.1139 sf 0 0 m (7) show NC gr 
 gsave  2268 1774 0 0 C 162.755 1459.37 t 0 r /Helvetica findfont 70.5271 sf 0 0 m (10) show NC gr  312 1555 m -29 X s 312 1592 m -29 X s 312 1619 m -29 X s 312 1639 m -29 X s 312 1656 m -29 X s 312 1670 m -29 X s 312 1682 m -29 X s 312 1693 m -29 X
 s 340 1703 m -57 X s
 gsave  2268 1774 0 0 C 238.707 1703.5 t 0 r /Helvetica findfont 46.1139 sf 0 0 m (8) show NC gr 
 gsave  2268 1774 0 0 C 162.755 1670.95 t 0 r /Helvetica findfont 70.5271 sf 0 0 m (10) show NC gr  2177 216 m 1487 Y s 2120 217 m 57 X s 2149 280 m 28 X s 2149 318 m 28 X s 2149 344 m 28 X s 2149 365 m 28 X s 2149 382 m 28 X s 2149 396 m 28 X s 2149
 408 m 28 X s 2149 419 m 28 X s 2120 429 m 57 X s 2149 493 m 28 X s 2149 530 m 28 X s 2149 557 m 28 X s 2149 577 m 28 X s 2149 594 m 28 X s 2149 608 m 28 X s 2149 621 m 28 X s 2149 632 m 28 X s 2120 641 m 57 X s 2149 705 m 28 X s 2149 743 m 28 X s
 2149 769 m 28 X s 2149 790 m 28 X s 2149 807 m 28 X s 2149 821 m 28 X s 2149 833 m 28 X s 2149 844 m 28 X s 2120 854 m 57 X s 2149 918 m 28 X s 2149 955 m 28 X s 2149 981 m 28 X s 2149 1002 m 28 X s 2149 1019 m 28 X s 2149 1033 m 28 X s 2149 1045 m
 28 X s 2149 1056 m 28 X s 2120 1066 m 57 X s 2149 1130 m 28 X s 2149 1167 m 28 X s 2149 1194 m 28 X s 2149 1214 m 28 X s 2149 1231 m 28 X s 2149 1245 m 28 X s 2149 1258 m 28 X s 2149 1269 m 28 X s 2120 1278 m 57 X s 2149 1342 m 28 X s 2149 1380 m 28
 X s 2149 1406 m 28 X s 2149 1427 m 28 X s 2149 1444 m 28 X s 2149 1458 m 28 X s 2149 1470 m 28 X s 2149 1481 m 28 X s 2120 1491 m 57 X s 2149 1555 m 28 X s 2149 1592 m 28 X s 2149 1619 m 28 X s 2149 1639 m 28 X s 2149 1656 m 28 X s 2149 1670 m 28 X
 s 2149 1682 m 28 X s 2149 1693 m 28 X s 2120 1703 m 57 X s 1 1 1 c black 283 949 m 7 -7 d s 290 942 m 20 -19 d 20 -20 d 20 -20 d 19 -19 d 20 -20 d 20 -20 d 20 -19 d 20 -19 d 20 -19 d 19 -18 d 20 -19 d 20 -19 d 20 -19 d 20 -18 d 20 -19 d 19 -18 d 20
 -18 d 20 -18 d 20 -17 d 20 -18 d 20 -17 d 19 -17 d 20 -17 d 20 -18 d 20 -19 d 20 -18 d 20 -19 d 19 -18 d 20 -19 d 20 -18 d 20 -19 d 20 -18 d 20 -18 d 19 -18 d 20 -19 d 20 -19 d 20 -19 d 20 -19 d 20 -19 d 1 -2 d s[ 20 20] 0 sd 1 1 1 c black 283 949 m
 7 -7 d s 290 942 m 20 -19 d 20 -20 d 20 -20 d 19 -19 d 20 -20 d 20 -20 d 20 -19 d 20 -19 d 20 -19 d 19 -18 d 20 -19 d 20 -19 d 20 -19 d 20 -18 d 20 -19 d 19 -18 d 20 -18 d 20 -18 d 20 -17 d 20 -18 d 20 -17 d 19 -17 d 20 -17 d 20 -18 d 20 -19 d 20
 -18 d 20 -19 d 19 -18 d 20 -19 d 20 -18 d 20 -19 d 20 -18 d 20 -18 d 19 -18 d 20 -19 d 20 -19 d 20 -19 d 20 -19 d 20 -19 d 1 -2 d s
 gsave  2268 1774 0 0 C 914.139 390.611 t -41 r /Helvetica findfont 54.2516 sf 0 0 m ( sr year) show NC gr 
 gsave  2268 1774 0 0 C 914.139 423.162 t -41 r /Helvetica findfont 37.9761 sf 0 0 m (2) show NC gr 
 gsave  2268 1774 0 0 C 756.81 531.666 t -41 r /Helvetica findfont 54.2516 sf 0 0 m (0.001 m) show NC gr [  ] 0 sd 1 1 1 c black 283 1161 m 7 -6 d s 290 1155 m 20 -20 d 20 -20 d 20 -19 d 19 -20 d 20 -20 d 20 -19 d 20 -20 d 20 -19 d 20 -18 d 19 -19 d
 20 -19 d 20 -18 d 20 -19 d 20 -19 d 20 -18 d 19 -19 d 20 -18 d 20 -18 d 20 -17 d 20 -17 d 20 -17 d 19 -17 d 20 -18 d 20 -18 d 20 -18 d 20 -19 d 20 -18 d 19 -19 d 20 -18 d 20 -19 d 20 -18 d 20 -19 d 20 -18 d 19 -18 d 20 -19 d 20 -18 d 20 -19 d 20 -19
 d 20 -20 d 19 -19 d 20 -20 d 20 -19 d 20 -22 d 20 -23 d 20 -24 d 19 -25 d 20 -26 d 20 -26 d 7 -10 d s[ 20 20] 0 sd 1 1 1 c black 283 1161 m 7 -6 d s 290 1155 m 20 -20 d 20 -20 d 20 -19 d 19 -20 d 20 -20 d 20 -19 d 20 -20 d 20 -19 d 20 -18 d 19 -19 d
 20 -19 d 20 -18 d 20 -19 d 20 -19 d 20 -18 d 19 -19 d 20 -18 d 20 -18 d 20 -17 d 20 -17 d 20 -17 d 19 -17 d 20 -18 d 20 -18 d 20 -18 d 20 -19 d 20 -18 d 19 -19 d 20 -18 d 20 -19 d 20 -18 d 20 -19 d 20 -18 d 19 -18 d 20 -19 d 20 -18 d 20 -19 d 20 -19
 d 20 -20 d 19 -19 d 20 -20 d 20 -19 d 20 -22 d 20 -23 d 20 -24 d 19 -25 d 20 -26 d 20 -26 d 7 -10 d s
 gsave  2268 1774 0 0 C 892.439 621.181 t -41 r /Helvetica findfont 54.2516 sf 0 0 m ( sr year) show NC gr 
 gsave  2268 1774 0 0 C 892.439 653.732 t -41 r /Helvetica findfont 37.9761 sf 0 0 m (2) show NC gr 
 gsave  2268 1774 0 0 C 756.81 743.247 t -41 r /Helvetica findfont 54.2516 sf 0 0 m (0.01 m) show NC gr [  ] 0 sd 1 1 1 c black 283 1374 m 7 -7 d s 290 1367 m 20 -19 d 20 -20 d 20 -20 d 19 -20 d 20 -19 d 20 -20 d 20 -19 d 20 -19 d 20 -19 d 19 -19 d
 20 -18 d 20 -19 d 20 -19 d 20 -19 d 20 -18 d 19 -18 d 20 -19 d 20 -17 d 20 -18 d 20 -17 d 20 -17 d 19 -17 d 20 -18 d 20 -18 d 20 -18 d 20 -18 d 20 -19 d 19 -19 d 20 -18 d 20 -18 d 20 -19 d 20 -18 d 20 -19 d 19 -18 d 20 -18 d 20 -19 d 20 -19 d 20 -19
 d 20 -19 d 19 -20 d 20 -20 d 20 -19 d 20 -21 d 20 -24 d 20 -24 d 19 -25 d 20 -26 d 20 -26 d 20 -26 d 20 -26 d 20 -26 d 19 -27 d 20 -26 d 20 -26 d 20 -26 d 20 -26 d 9 -13 d s[ 20 20] 0 sd 1 1 1 c black 283 1374 m 7 -7 d s 290 1367 m 20 -19 d 20 -20 d
 20 -20 d 19 -20 d 20 -19 d 20 -20 d 20 -19 d 20 -19 d 20 -19 d 19 -19 d 20 -18 d 20 -19 d 20 -19 d 20 -19 d 20 -18 d 19 -18 d 20 -19 d 20 -17 d 20 -18 d 20 -17 d 20 -17 d 19 -17 d 20 -18 d 20 -18 d 20 -18 d 20 -18 d 20 -19 d 19 -19 d 20 -18 d 20 -18
 d 20 -19 d 20 -18 d 20 -19 d 19 -18 d 20 -18 d 20 -19 d 20 -19 d 20 -19 d 20 -19 d 19 -20 d 20 -20 d 20 -19 d 20 -21 d 20 -24 d 20 -24 d 19 -25 d 20 -26 d 20 -26 d 20 -26 d 20 -26 d 20 -26 d 19 -27 d 20 -26 d 20 -26 d 20 -26 d 20 -26 d 9 -13 d s
 gsave  2268 1774 0 0 C 870.738 851.75 t -41 r /Helvetica findfont 54.2516 sf 0 0 m ( sr year) show NC gr 
 gsave  2268 1774 0 0 C 870.738 884.301 t -41 r /Helvetica findfont 37.9761 sf 0 0 m (2) show NC gr 
 gsave  2268 1774 0 0 C 756.81 954.828 t -41 r /Helvetica findfont 54.2516 sf 0 0 m (0.1 m) show NC gr [  ] 0 sd 1 1 1 c black 283 1586 m 7 -7 d s 290 1579 m 20 -19 d 20 -20 d 20 -20 d 19 -19 d 20 -20 d 20 -19 d 20 -20 d 20 -19 d 20 -19 d 19 -18 d 20
 -19 d 20 -19 d 20 -19 d 20 -18 d 20 -19 d 19 -18 d 20 -18 d 20 -18 d 20 -17 d 20 -17 d 20 -18 d 19 -17 d 20 -17 d 20 -18 d 20 -18 d 20 -19 d 20 -19 d 19 -18 d 20 -19 d 20 -18 d 20 -19 d 20 -18 d 20 -18 d 19 -18 d 20 -19 d 20 -19 d 20 -18 d 20 -20 d
 20 -19 d 19 -19 d 20 -20 d 20 -20 d 20 -21 d 20 -24 d 20 -24 d 19 -25 d 20 -26 d 20 -26 d 20 -26 d 20 -26 d 20 -26 d 19 -26 d 20 -26 d 20 -27 d 20 -26 d 20 -26 d 20 -26 d 19 -26 d 20 -26 d 20 -26 d 20 -27 d 20 -26 d 20 -26 d 31 -42 d s[ 20 20] 0 sd
 1 1 1 c black 283 1586 m 7 -7 d s 290 1579 m 20 -19 d 20 -20 d 20 -20 d 19 -19 d 20 -20 d 20 -19 d 20 -20 d 20 -19 d 20 -19 d 19 -18 d 20 -19 d 20 -19 d 20 -19 d 20 -18 d 20 -19 d 19 -18 d 20 -18 d 20 -18 d 20 -17 d 20 -17 d 20 -18 d 19 -17 d 20 -17
 d 20 -18 d 20 -18 d 20 -19 d 20 -19 d 19 -18 d 20 -19 d 20 -18 d 20 -19 d 20 -18 d 20 -18 d 19 -18 d 20 -19 d 20 -19 d 20 -18 d 20 -20 d 20 -19 d 19 -19 d 20 -20 d 20 -20 d 20 -21 d 20 -24 d 20 -24 d 19 -25 d 20 -26 d 20 -26 d 20 -26 d 20 -26 d 20
 -26 d 19 -26 d 20 -26 d 20 -27 d 20 -26 d 20 -26 d 20 -26 d 19 -26 d 20 -26 d 20 -26 d 20 -27 d 20 -26 d 20 -26 d 31 -42 d s
 gsave  2268 1774 0 0 C 870.738 1066.04 t -41 r /Helvetica findfont 54.2516 sf 0 0 m ( sr year) show NC gr 
 gsave  2268 1774 0 0 C 870.738 1098.59 t -41 r /Helvetica findfont 37.9761 sf 0 0 m (2) show NC gr 
 gsave  2268 1774 0 0 C 756.81 1169.12 t -41 r /Helvetica findfont 54.2516 sf 0 0 m (1.0 m) show NC gr [  ] 0 sd 1 1 1 c black 380 1703 m 9 -9 d s 389 1694 m 20 -20 d 20 -19 d 20 -19 d 20 -19 d 19 -19 d 20 -19 d 20 -18 d 20 -19 d 20 -19 d 20 -18 d 19
 -19 d 20 -18 d 20 -18 d 20 -17 d 20 -17 d 20 -17 d 19 -17 d 20 -18 d 20 -18 d 20 -18 d 20 -19 d 20 -18 d 19 -19 d 20 -18 d 20 -19 d 20 -18 d 20 -19 d 20 -18 d 19 -18 d 20 -18 d 20 -19 d 20 -19 d 20 -19 d 20 -20 d 19 -19 d 20 -20 d 20 -19 d 20 -22 d
 20 -23 d 20 -24 d 19 -25 d 20 -26 d 20 -26 d 20 -26 d 20 -27 d 20 -26 d 19 -26 d 20 -26 d 20 -26 d 20 -26 d 20 -26 d 20 -27 d 19 -26 d 20 -26 d 20 -26 d 20 -26 d 20 -26 d 20 -27 d 52 -69 d 53 -70 d s[ 20 20] 0 sd 1 1 1 c black 380 1703 m 9 -9 d s
 389 1694 m 20 -20 d 20 -19 d 20 -19 d 20 -19 d 19 -19 d 20 -19 d 20 -18 d 20 -19 d 20 -19 d 20 -18 d 19 -19 d 20 -18 d 20 -18 d 20 -17 d 20 -17 d 20 -17 d 19 -17 d 20 -18 d 20 -18 d 20 -18 d 20 -19 d 20 -18 d 19 -19 d 20 -18 d 20 -19 d 20 -18 d 20
 -19 d 20 -18 d 19 -18 d 20 -18 d 20 -19 d 20 -19 d 20 -19 d 20 -20 d 19 -19 d 20 -20 d 20 -19 d 20 -22 d 20 -23 d 20 -24 d 19 -25 d 20 -26 d 20 -26 d 20 -26 d 20 -27 d 20 -26 d 19 -26 d 20 -26 d 20 -26 d 20 -26 d 20 -26 d 20 -27 d 19 -26 d 20 -26 d
 20 -26 d 20 -26 d 20 -26 d 20 -27 d 52 -69 d 53 -65 d 92 -120 d s
 gsave  2268 1774 0 0 C 892.439 1258.64 t -41 r /Helvetica findfont 54.2516 sf 0 0 m ( sr year) show NC gr 
 gsave  2268 1774 0 0 C 892.439 1291.19 t -41 r /Helvetica findfont 37.9761 sf 0 0 m (2) show NC gr 
 gsave  2268 1774 0 0 C 756.81 1380.7 t -41 r /Helvetica findfont 54.2516 sf 0 0 m (10.0 m) show NC gr [  ] 0 sd 1 1 1 c black 603 1703 m 4 -4 d s 607 1699 m 20 -18 d 20 -18 d 20 -18 d 20 -17 d 20 -17 d 19 -17 d 20 -18 d 20 -17 d 20 -19 d 20 -18 d 20
 -19 d 19 -18 d 20 -19 d 20 -18 d 20 -19 d 20 -18 d 20 -18 d 19 -19 d 20 -18 d 20 -19 d 20 -19 d 20 -19 d 20 -19 d 19 -20 d 20 -19 d 20 -20 d 20 -21 d 20 -24 d 20 -24 d 19 -25 d 20 -26 d 20 -26 d 20 -26 d 20 -26 d 20 -26 d 19 -26 d 20 -27 d 20 -26 d
 20 -26 d 20 -26 d 20 -26 d 19 -26 d 20 -27 d 20 -26 d 20 -26 d 20 -26 d 20 -26 d 52 -70 d 53 -69 d s[ 20 20] 0 sd 1 1 1 c black 603 1703 m 4 -4 d s 607 1699 m 20 -18 d 20 -18 d 20 -18 d 20 -17 d 20 -17 d 19 -17 d 20 -18 d 20 -17 d 20 -19 d 20 -18 d
 20 -19 d 19 -18 d 20 -19 d 20 -18 d 20 -19 d 20 -18 d 20 -18 d 19 -19 d 20 -18 d 20 -19 d 20 -19 d 20 -19 d 20 -19 d 19 -20 d 20 -19 d 20 -20 d 20 -21 d 20 -24 d 20 -24 d 19 -25 d 20 -26 d 20 -26 d 20 -26 d 20 -26 d 20 -26 d 19 -26 d 20 -27 d 20 -26
 d 20 -26 d 20 -26 d 20 -26 d 19 -26 d 20 -27 d 20 -26 d 20 -26 d 20 -26 d 20 -26 d 52 -70 d 53 -65 d 105 -136 d 105 -136 d 46 -60 d s
 gsave  2268 1774 0 0 C 914.139 1451.23 t -41 r /Helvetica findfont 54.2516 sf 0 0 m ( sr year) show NC gr 
 gsave  2268 1774 0 0 C 914.139 1483.78 t -41 r /Helvetica findfont 37.9761 sf 0 0 m (2) show NC gr 
 gsave  2268 1774 0 0 C 756.81 1592.28 t -41 r /Helvetica findfont 54.2516 sf 0 0 m (100.0 m) show NC gr 
 gsave  2268 1774 0 0 C 1426.82 1472.93 t 0 r /Helvetica findfont 70.5271 sf 0 0 m (Electrons + positrons) show NC gr 
 gr  gr showpage
end
%%EOF
