%!PS-Adobe-2.0 EPSF-2.0
%%BoundingBox:  0 0 567 444
%%Title: cr_int_rate_iron.eps: cr_int_rate_iron
%%Creator: ROOT Version 5.34/14
%%CreationDate: Thu Mar 20 11:06:07 2014
%%EndComments
%%BeginProlog
80 dict begin
/s {stroke} def /l {lineto} def /m {moveto} def /t {translate} def
/r {rotate} def /rl {roll}  def /R {repeat} def
/d {rlineto} def /rm {rmoveto} def /gr {grestore} def /f {eofill} def
/c {setrgbcolor} def /black {0 setgray} def /sd {setdash} def
/cl {closepath} def /sf {scalefont setfont} def /lw {setlinewidth} def
/box {m dup 0 exch d exch 0 d 0 exch neg d cl} def
/NC{systemdict begin initclip end}def/C{NC box clip newpath}def
/bl {box s} def /bf {box f} def /Y { 0 exch d} def /X { 0 d} def 
/K {{pop pop 0 moveto} exch kshow} bind def
/ita {/ang 15 def gsave [1 0 ang dup sin exch cos div 1 0 0] concat} def 
/mp {newpath /y exch def /x exch def} def
/side {[w .77 mul w .23 mul] .385 w mul sd w 0 l currentpoint t -144 r} def
/mr {mp x y w2 0 360 arc} def /m24 {mr s} def /m20 {mr f} def
/mb {mp x y w2 add m w2 neg 0 d 0 w neg d w 0 d 0 w d cl} def
/mt {mp x y w2 add m w2 neg w neg d w 0 d cl} def
/m21 {mb f} def /m25 {mb s} def /m22 {mt f} def /m26{mt s} def
/m23 {mp x y w2 sub m w2 w d w neg 0 d cl f} def
/m27 {mp x y w2 add m w3 neg w2 neg d w3 w2 neg d w3 w2 d cl s} def
/m28 {mp x w2 sub y w2 sub w3 add m w3 0 d  0 w3 neg d w3 0 d 0 w3 d w3 0 d  0 w3 d w3 neg 0 d 0 w3 d w3 neg 0 d 0 w3 neg d w3 neg 0 d cl s } def
/m29 {mp gsave x w2 sub y w2 add w3 sub m currentpoint t 4 {side} repeat cl fill gr} def
/m30 {mp gsave x w2 sub y w2 add w3 sub m currentpoint t 4 {side} repeat cl s gr} def
/m31 {mp x y w2 sub m 0 w d x w2 sub y m w 0 d x w2 sub y w2 add m w w neg d x w2 sub y w2 sub m w w d s} def
/m32 {mp x y w2 sub m w2 w d w neg 0 d cl s} def
/m33 {mp x y w2 add m w3 neg w2 neg d w3 w2 neg d w3 w2 d cl f} def
/m34 {mp x w2 sub y w2 sub w3 add m w3 0 d  0 w3 neg d w3 0 d 0 w3 d w3 0 d  0 w3 d w3 neg 0 d 0 w3 d w3 neg 0 d 0 w3 neg d w3 neg 0 d cl f } def
/m2 {mp x y w2 sub m 0 w d x w2 sub y m w 0 d s} def
/m5 {mp x w2 sub y w2 sub m w w d x w2 sub y w2 add m w w neg d s} def
/reEncode {exch findfont dup length dict begin {1 index /FID eq  {pop pop} {def} ifelse } forall /Encoding exch def currentdict end dup /FontName get exch definefont pop } def [/Times-Bold /Times-Italic /Times-BoldItalic /Helvetica /Helvetica-Oblique
 /Helvetica-Bold /Helvetica-BoldOblique /Courier /Courier-Oblique /Courier-Bold /Courier-BoldOblique /Times-Roman /AvantGarde-Book /AvantGarde-BookOblique /AvantGarde-Demi /AvantGarde-DemiOblique /Bookman-Demi /Bookman-DemiItalic /Bookman-Light
 /Bookman-LightItalic /Helvetica-Narrow /Helvetica-Narrow-Bold /Helvetica-Narrow-BoldOblique /Helvetica-Narrow-Oblique /NewCenturySchlbk-Roman /NewCenturySchlbk-Bold /NewCenturySchlbk-BoldItalic /NewCenturySchlbk-Italic /Palatino-Bold
 /Palatino-BoldItalic /Palatino-Italic /Palatino-Roman ] {ISOLatin1Encoding reEncode } forall
%%EndProlog
%%BeginSetup
%%EndSetup
newpath  gsave  .25 .25 scale  gsave  0 0 t black[  ] 0 sd 6 lw 1 1 1 c 2268 1774 0 0 bf black 3 lw 1 1 1 c 1894 1487 283 216 bf black 1894 1487 283 216 bl 1 1 1 c 1894 1487 283 216 bf black 1894 1487 283 216 bl 6 lw 283 216 m 1894 X s 0.6 0.6 0.6 c[
 12 12] 0 sd 3 lw 284 1703 m -1487 Y s 757 1703 m -1487 Y s 1230 1703 m -1487 Y s 1704 1703 m -1487 Y s 2177 1703 m -1487 Y s black[  ] 0 sd 6 lw 283 1703 m 1894 X s 283 216 m 1487 Y s 0.6 0.6 0.6 c[ 12 12] 0 sd 3 lw 2177 217 m -1894 X s 2177 514 m
 -1894 X s 2177 811 m -1894 X s 2177 1108 m -1894 X s 2177 1406 m -1894 X s 2177 1703 m -1894 X s black[  ] 0 sd 6 lw 2177 216 m 1487 Y s 1 1 1 c black 283 216 m 1894 X s 283 216 m 1894 X s
 gsave  2268 1774 0 0 C 862.6 27.1258 t 0 r /Helvetica findfont 78.6648 sf 0 0 m (Kinetic energy/nucleon [GeV/nucleon]) show NC gr  284 261 m -45 Y s
 gsave  2268 1774 0 0 C 283.67 120.528 t 0 r  -37 0 t /Helvetica findfont 67.8145 sf 0 0 m (10) show NC gr  426 239 m -23 Y s 510 239 m -23 Y s 569 239 m -23 Y s 615 239 m -23 Y s 652 239 m -23 Y s 684 239 m -23 Y s 711 239 m -23 Y s 735 239 m -23 Y
 s 757 261 m -45 Y s
 gsave  2268 1774 0 0 C 781.223 154.617 t 0 r /Helvetica findfont 46.1139 sf 0 0 m (2) show NC gr 
 gsave  2268 1774 0 0 C 705.271 122.066 t 0 r /Helvetica findfont 70.5271 sf 0 0 m (10) show NC gr  899 239 m -23 Y s 983 239 m -23 Y s 1042 239 m -23 Y s 1088 239 m -23 Y s 1125 239 m -23 Y s 1157 239 m -23 Y s 1184 239 m -23 Y s 1209 239 m -23 Y s
 1230 261 m -45 Y s
 gsave  2268 1774 0 0 C 1253.21 157.33 t 0 r /Helvetica findfont 46.1139 sf 0 0 m (3) show NC gr 
 gsave  2268 1774 0 0 C 1177.26 122.066 t 0 r /Helvetica findfont 70.5271 sf 0 0 m (10) show NC gr  1373 239 m -23 Y s 1456 239 m -23 Y s 1515 239 m -23 Y s 1561 239 m -23 Y s 1599 239 m -23 Y s 1630 239 m -23 Y s 1658 239 m -23 Y s 1682 239 m -23 Y
 s 1704 261 m -45 Y s
 gsave  2268 1774 0 0 C 1727.91 154.617 t 0 r /Helvetica findfont 46.1139 sf 0 0 m (4) show NC gr 
 gsave  2268 1774 0 0 C 1651.96 122.066 t 0 r /Helvetica findfont 70.5271 sf 0 0 m (10) show NC gr  1846 239 m -23 Y s 1930 239 m -23 Y s 1989 239 m -23 Y s 2035 239 m -23 Y s 2072 239 m -23 Y s 2104 239 m -23 Y s 2131 239 m -23 Y s 2155 239 m -23 Y
 s 2177 261 m -45 Y s
 gsave  2268 1774 0 0 C 2199.9 157.33 t 0 r /Helvetica findfont 46.1139 sf 0 0 m (5) show NC gr 
 gsave  2268 1774 0 0 C 2123.95 122.066 t 0 r /Helvetica findfont 70.5271 sf 0 0 m (10) show NC gr  283 1703 m 1894 X s 284 1659 m 44 Y s 426 1681 m 22 Y s 510 1681 m 22 Y s 569 1681 m 22 Y s 615 1681 m 22 Y s 652 1681 m 22 Y s 684 1681 m 22 Y s 711
 1681 m 22 Y s 735 1681 m 22 Y s 757 1659 m 44 Y s 899 1681 m 22 Y s 983 1681 m 22 Y s 1042 1681 m 22 Y s 1088 1681 m 22 Y s 1125 1681 m 22 Y s 1157 1681 m 22 Y s 1184 1681 m 22 Y s 1209 1681 m 22 Y s 1230 1659 m 44 Y s 1373 1681 m 22 Y s 1456 1681 m
 22 Y s 1515 1681 m 22 Y s 1561 1681 m 22 Y s 1599 1681 m 22 Y s 1630 1681 m 22 Y s 1658 1681 m 22 Y s 1682 1681 m 22 Y s 1704 1659 m 44 Y s 1846 1681 m 22 Y s 1930 1681 m 22 Y s 1989 1681 m 22 Y s 2035 1681 m 22 Y s 2072 1681 m 22 Y s 2104 1681 m 22
 Y s 2131 1681 m 22 Y s 2155 1681 m 22 Y s 2177 1659 m 44 Y s 283 216 m 1487 Y s
 gsave  2268 1774 0 0 C 84.09 309.234 t 90 r /Helvetica findfont 78.6648 sf 0 0 m (Number of events above a given energy) show NC gr  340 217 m -57 X s
 gsave  2268 1774 0 0 C 264.387 187.264 t 0 r  -75 0 t /Helvetica findfont 67.8145 sf 0 0 m (10) show NC gr  312 306 m -29 X s 312 358 m -29 X s 312 396 m -29 X s 312 424 m -29 X s 312 448 m -29 X s 312 468 m -29 X s 312 485 m -29 X s 312 500 m -29 X
 s 340 514 m -57 X s
 gsave  2268 1774 0 0 C 238.707 512.678 t 0 r /Helvetica findfont 46.1139 sf 0 0 m (2) show NC gr 
 gsave  2268 1774 0 0 C 162.755 482.839 t 0 r /Helvetica findfont 70.5271 sf 0 0 m (10) show NC gr  312 603 m -29 X s 312 656 m -29 X s 312 693 m -29 X s 312 722 m -29 X s 312 745 m -29 X s 312 765 m -29 X s 312 782 m -29 X s 312 798 m -29 X s 340
 811 m -57 X s
 gsave  2268 1774 0 0 C 238.707 813.774 t 0 r /Helvetica findfont 46.1139 sf 0 0 m (3) show NC gr 
 gsave  2268 1774 0 0 C 162.755 781.223 t 0 r /Helvetica findfont 70.5271 sf 0 0 m (10) show NC gr  312 901 m -29 X s 312 953 m -29 X s 312 990 m -29 X s 312 1019 m -29 X s 312 1043 m -29 X s 312 1062 m -29 X s 312 1080 m -29 X s 312 1095 m -29 X s
 340 1108 m -57 X s
 gsave  2268 1774 0 0 C 238.707 1106.73 t 0 r /Helvetica findfont 46.1139 sf 0 0 m (4) show NC gr 
 gsave  2268 1774 0 0 C 162.755 1076.89 t 0 r /Helvetica findfont 70.5271 sf 0 0 m (10) show NC gr  312 1198 m -29 X s 312 1250 m -29 X s 312 1287 m -29 X s 312 1316 m -29 X s 312 1340 m -29 X s 312 1360 m -29 X s 312 1377 m -29 X s 312 1392 m -29 X
 s 340 1406 m -57 X s
 gsave  2268 1774 0 0 C 238.707 1407.83 t 0 r /Helvetica findfont 46.1139 sf 0 0 m (5) show NC gr 
 gsave  2268 1774 0 0 C 162.755 1375.28 t 0 r /Helvetica findfont 70.5271 sf 0 0 m (10) show NC gr  312 1495 m -29 X s 312 1548 m -29 X s 312 1585 m -29 X s 312 1614 m -29 X s 312 1637 m -29 X s 312 1657 m -29 X s 312 1674 m -29 X s 312 1689 m -29 X
 s 340 1703 m -57 X s
 gsave  2268 1774 0 0 C 238.707 1703.5 t 0 r /Helvetica findfont 46.1139 sf 0 0 m (6) show NC gr 
 gsave  2268 1774 0 0 C 162.755 1670.95 t 0 r /Helvetica findfont 70.5271 sf 0 0 m (10) show NC gr  2177 216 m 1487 Y s 2120 217 m 57 X s 2149 306 m 28 X s 2149 358 m 28 X s 2149 396 m 28 X s 2149 424 m 28 X s 2149 448 m 28 X s 2149 468 m 28 X s 2149
 485 m 28 X s 2149 500 m 28 X s 2120 514 m 57 X s 2149 603 m 28 X s 2149 656 m 28 X s 2149 693 m 28 X s 2149 722 m 28 X s 2149 745 m 28 X s 2149 765 m 28 X s 2149 782 m 28 X s 2149 798 m 28 X s 2120 811 m 57 X s 2149 901 m 28 X s 2149 953 m 28 X s
 2149 990 m 28 X s 2149 1019 m 28 X s 2149 1043 m 28 X s 2149 1062 m 28 X s 2149 1080 m 28 X s 2149 1095 m 28 X s 2120 1108 m 57 X s 2149 1198 m 28 X s 2149 1250 m 28 X s 2149 1287 m 28 X s 2149 1316 m 28 X s 2149 1340 m 28 X s 2149 1360 m 28 X s
 2149 1377 m 28 X s 2149 1392 m 28 X s 2120 1406 m 57 X s 2149 1495 m 28 X s 2149 1548 m 28 X s 2149 1585 m 28 X s 2149 1614 m 28 X s 2149 1637 m 28 X s 2149 1657 m 28 X s 2149 1674 m 28 X s 2149 1689 m 28 X s 2120 1703 m 57 X s 1 1 1 c black 283 796
 m 5 -4 d s 288 792 m 18 -17 d 19 -17 d 18 -18 d 18 -18 d 19 -18 d 18 -17 d 18 -17 d 18 -18 d 19 -18 d 18 -18 d 18 -18 d 19 -19 d 18 -19 d 18 -19 d 18 -20 d 19 -19 d 18 -20 d 18 -20 d 19 -21 d 18 -20 d 18 -21 d 18 -20 d 19 -21 d 18 -20 d 18 -20 d 19
 -20 d 18 -19 d 18 -19 d 18 -19 d 19 -18 d 7 -8 d s[ 20 20] 0 sd 1 1 1 c black 283 796 m 5 -4 d s 288 792 m 18 -17 d 19 -17 d 18 -18 d 18 -18 d 19 -18 d 18 -17 d 18 -17 d 18 -18 d 19 -18 d 18 -18 d 18 -18 d 19 -19 d 18 -19 d 18 -19 d 18 -20 d 19 -19
 d 18 -20 d 18 -20 d 19 -21 d 18 -20 d 18 -21 d 18 -20 d 19 -21 d 18 -20 d 18 -20 d 19 -20 d 18 -19 d 18 -19 d 18 -19 d 19 -18 d 7 -8 d s
 gsave  2268 1774 0 0 C 716.121 401.462 t -44 r /Helvetica findfont 54.2516 sf 0 0 m ( sr year) show NC gr 
 gsave  2268 1774 0 0 C 718.834 434.013 t -44 r /Helvetica findfont 37.9761 sf 0 0 m (2) show NC gr 
 gsave  2268 1774 0 0 C 566.929 550.654 t -44 r /Helvetica findfont 54.2516 sf 0 0 m (0.001 m) show NC gr [  ] 0 sd 1 1 1 c black 283 1094 m 5 -4 d s 288 1090 m 18 -18 d 19 -17 d 18 -18 d 18 -18 d 19 -18 d 18 -17 d 18 -17 d 18 -18 d 19 -18 d 18 -18 d
 18 -18 d 19 -19 d 18 -19 d 18 -19 d 18 -19 d 19 -20 d 18 -20 d 18 -20 d 19 -20 d 18 -21 d 18 -21 d 18 -20 d 19 -21 d 18 -20 d 18 -20 d 19 -20 d 18 -19 d 18 -19 d 18 -19 d 19 -18 d 18 -18 d 18 -17 d 19 -17 d 18 -17 d 18 -17 d 18 -17 d 19 -18 d 18 -17
 d 18 -18 d 19 -18 d 18 -19 d 18 -20 d 18 -20 d 19 -22 d 18 -23 d 18 -23 d 3 -4 d s[ 20 20] 0 sd 1 1 1 c black 283 1094 m 5 -4 d s 288 1090 m 18 -18 d 19 -17 d 18 -18 d 18 -18 d 19 -18 d 18 -17 d 18 -17 d 18 -18 d 19 -18 d 18 -18 d 18 -18 d 19 -19 d
 18 -19 d 18 -19 d 18 -19 d 19 -20 d 18 -20 d 18 -20 d 19 -20 d 18 -21 d 18 -21 d 18 -20 d 19 -21 d 18 -20 d 18 -20 d 19 -20 d 18 -19 d 18 -19 d 18 -19 d 19 -18 d 18 -18 d 18 -17 d 19 -17 d 18 -17 d 18 -17 d 18 -17 d 19 -18 d 18 -17 d 18 -18 d 19 -18
 d 18 -19 d 18 -20 d 18 -20 d 19 -22 d 18 -23 d 18 -23 d 3 -4 d s
 gsave  2268 1774 0 0 C 840.9 558.791 t -44 r /Helvetica findfont 54.2516 sf 0 0 m ( sr year) show NC gr 
 gsave  2268 1774 0 0 C 840.9 591.342 t -44 r /Helvetica findfont 37.9761 sf 0 0 m (2) show NC gr 
 gsave  2268 1774 0 0 C 710.696 688.995 t -44 r /Helvetica findfont 54.2516 sf 0 0 m (0.01 m) show NC gr [  ] 0 sd 1 1 1 c black 283 1391 m 5 -4 d s 288 1387 m 18 -17 d 19 -18 d 18 -18 d 18 -18 d 19 -17 d 18 -17 d 18 -18 d 18 -17 d 19 -18 d 18 -18 d
 18 -19 d 19 -19 d 18 -18 d 18 -20 d 18 -19 d 19 -20 d 18 -20 d 18 -20 d 19 -20 d 18 -21 d 18 -20 d 18 -21 d 19 -20 d 18 -21 d 18 -20 d 19 -19 d 18 -20 d 18 -19 d 18 -18 d 19 -19 d 18 -18 d 18 -17 d 19 -17 d 18 -17 d 18 -17 d 18 -17 d 19 -17 d 18 -18
 d 18 -17 d 19 -19 d 18 -19 d 18 -19 d 18 -21 d 19 -22 d 18 -23 d 18 -23 d 19 -23 d 18 -21 d 18 -20 d 18 -20 d 19 -20 d 18 -19 d 18 -20 d 19 -19 d 18 -20 d 18 -20 d 18 -19 d 19 -20 d 18 -20 d 18 -19 d 19 -20 d -1 Y s[ 20 20] 0 sd 1 1 1 c black 283
 1391 m 5 -4 d s 288 1387 m 18 -17 d 19 -18 d 18 -18 d 18 -18 d 19 -17 d 18 -17 d 18 -18 d 18 -17 d 19 -18 d 18 -18 d 18 -19 d 19 -19 d 18 -18 d 18 -20 d 18 -19 d 19 -20 d 18 -20 d 18 -20 d 19 -20 d 18 -21 d 18 -20 d 18 -21 d 19 -20 d 18 -21 d 18 -20
 d 19 -19 d 18 -20 d 18 -19 d 18 -18 d 19 -19 d 18 -18 d 18 -17 d 19 -17 d 18 -17 d 18 -17 d 18 -17 d 19 -17 d 18 -18 d 18 -17 d 19 -19 d 18 -19 d 18 -19 d 18 -21 d 19 -22 d 18 -23 d 18 -23 d 19 -23 d 18 -21 d 18 -20 d 18 -20 d 19 -20 d 18 -19 d 18
 -20 d 19 -19 d 18 -20 d 18 -20 d 18 -19 d 19 -20 d 18 -20 d 18 -19 d 19 -20 d -1 Y s
 gsave  2268 1774 0 0 C 900.576 789.361 t -44 r /Helvetica findfont 54.2516 sf 0 0 m ( sr year) show NC gr 
 gsave  2268 1774 0 0 C 903.289 821.912 t -44 r /Helvetica findfont 37.9761 sf 0 0 m (2) show NC gr 
 gsave  2268 1774 0 0 C 792.073 897.864 t -44 r /Helvetica findfont 54.2516 sf 0 0 m (0.1 m) show NC gr [  ] 0 sd 1 1 1 c black 283 1688 m 5 -4 d s 288 1684 m 18 -17 d 19 -17 d 18 -18 d 18 -18 d 19 -18 d 18 -17 d 18 -17 d 18 -18 d 19 -18 d 18 -18 d
 18 -19 d 19 -18 d 18 -19 d 18 -19 d 18 -20 d 19 -19 d 18 -20 d 18 -20 d 19 -21 d 18 -20 d 18 -21 d 18 -21 d 19 -20 d 18 -20 d 18 -20 d 19 -20 d 18 -19 d 18 -20 d 18 -18 d 19 -18 d 18 -18 d 18 -18 d 19 -17 d 18 -16 d 18 -18 d 18 -17 d 19 -17 d 18 -17
 d 18 -18 d 19 -18 d 18 -19 d 18 -20 d 18 -21 d 19 -21 d 18 -23 d 18 -24 d 19 -23 d 18 -21 d 18 -20 d 18 -20 d 19 -19 d 18 -20 d 18 -19 d 19 -20 d 18 -20 d 18 -19 d 18 -20 d 19 -20 d 18 -19 d 18 -20 d 19 -20 d 18 -19 d 18 -20 d 18 -20 d 19 -20 d 18
 -19 d 18 -20 d 19 -20 d 52 -58 d 53 -59 d s[ 20 20] 0 sd 1 1 1 c black 283 1688 m 5 -4 d s 288 1684 m 18 -17 d 19 -17 d 18 -18 d 18 -18 d 19 -18 d 18 -17 d 18 -17 d 18 -18 d 19 -18 d 18 -18 d 18 -19 d 19 -18 d 18 -19 d 18 -19 d 18 -20 d 19 -19 d 18
 -20 d 18 -20 d 19 -21 d 18 -20 d 18 -21 d 18 -21 d 19 -20 d 18 -20 d 18 -20 d 19 -20 d 18 -19 d 18 -20 d 18 -18 d 19 -18 d 18 -18 d 18 -18 d 19 -17 d 18 -16 d 18 -18 d 18 -17 d 19 -17 d 18 -17 d 18 -18 d 19 -18 d 18 -19 d 18 -20 d 18 -21 d 19 -21 d
 18 -23 d 18 -24 d 19 -23 d 18 -21 d 18 -20 d 18 -20 d 19 -19 d 18 -20 d 18 -19 d 19 -20 d 18 -20 d 18 -19 d 18 -20 d 19 -20 d 18 -19 d 18 -20 d 19 -20 d 18 -19 d 18 -20 d 18 -20 d 19 -20 d 18 -19 d 18 -20 d 19 -20 d 52 -58 d 53 -55 d 43 -47 d s
 gsave  2268 1774 0 0 C 960.253 1025.36 t -44 r /Helvetica findfont 54.2516 sf 0 0 m ( sr year) show NC gr 
 gsave  2268 1774 0 0 C 962.966 1057.91 t -44 r /Helvetica findfont 37.9761 sf 0 0 m (2) show NC gr 
 gsave  2268 1774 0 0 C 851.75 1133.86 t -44 r /Helvetica findfont 54.2516 sf 0 0 m (1.0 m) show NC gr [  ] 0 sd 1 1 1 c black 569 1703 m 12 -12 d s 581 1691 m 18 -20 d 18 -20 d 19 -20 d 18 -21 d 18 -21 d 18 -20 d 19 -21 d 18 -20 d 18 -20 d 19 -20 d
 18 -19 d 18 -19 d 18 -19 d 19 -18 d 18 -18 d 18 -17 d 19 -17 d 18 -17 d 18 -17 d 18 -17 d 19 -18 d 18 -17 d 18 -18 d 19 -18 d 18 -19 d 18 -20 d 18 -20 d 19 -22 d 18 -23 d 18 -23 d 19 -23 d 18 -22 d 18 -20 d 18 -19 d 19 -20 d 18 -20 d 18 -19 d 19 -20
 d 18 -19 d 18 -20 d 18 -20 d 19 -19 d 18 -20 d 18 -20 d 19 -19 d 18 -20 d 18 -20 d 18 -20 d 19 -19 d 18 -20 d 18 -20 d 19 -20 d 52 -58 d 53 -58 d s[ 20 20] 0 sd 1 1 1 c black 569 1703 m 12 -12 d s 581 1691 m 18 -20 d 18 -20 d 19 -20 d 18 -21 d 18
 -21 d 18 -20 d 19 -21 d 18 -20 d 18 -20 d 19 -20 d 18 -19 d 18 -19 d 18 -19 d 19 -18 d 18 -18 d 18 -17 d 19 -17 d 18 -17 d 18 -17 d 18 -17 d 19 -18 d 18 -17 d 18 -18 d 19 -18 d 18 -19 d 18 -20 d 18 -20 d 19 -22 d 18 -23 d 18 -23 d 19 -23 d 18 -22 d
 18 -20 d 18 -19 d 19 -20 d 18 -20 d 18 -19 d 19 -20 d 18 -19 d 18 -20 d 18 -20 d 19 -19 d 18 -20 d 18 -20 d 19 -19 d 18 -20 d 18 -20 d 18 -20 d 19 -19 d 18 -20 d 18 -20 d 19 -20 d 52 -58 d 53 -55 d 105 -113 d 105 -113 d 105 -113 d 5 -5 d s
 gsave  2268 1774 0 0 C 1028.07 1258.64 t -44 r /Helvetica findfont 54.2516 sf 0 0 m ( sr year) show NC gr 
 gsave  2268 1774 0 0 C 1028.07 1291.19 t -44 r /Helvetica findfont 37.9761 sf 0 0 m (2) show NC gr 
 gsave  2268 1774 0 0 C 897.864 1388.84 t -44 r /Helvetica findfont 54.2516 sf 0 0 m (10.0 m) show NC gr [  ] 0 sd 1 1 1 c black 844 1703 m 11 -11 d s 855 1692 m 18 -17 d 19 -17 d 18 -17 d 18 -17 d 18 -17 d 19 -17 d 18 -18 d 18 -17 d 19 -19 d 18 -19
 d 18 -20 d 18 -20 d 19 -22 d 18 -23 d 18 -23 d 19 -23 d 18 -21 d 18 -20 d 18 -20 d 19 -20 d 18 -19 d 18 -20 d 19 -19 d 18 -20 d 18 -20 d 18 -19 d 19 -20 d 18 -20 d 18 -19 d 19 -20 d 18 -20 d 18 -19 d 18 -20 d 19 -20 d 18 -20 d 18 -20 d 19 -20 d 52
 -57 d 53 -59 d s[ 20 20] 0 sd 1 1 1 c black 844 1703 m 11 -11 d s 855 1692 m 18 -17 d 19 -17 d 18 -17 d 18 -17 d 18 -17 d 19 -17 d 18 -18 d 18 -17 d 19 -19 d 18 -19 d 18 -20 d 18 -20 d 19 -22 d 18 -23 d 18 -23 d 19 -23 d 18 -21 d 18 -20 d 18 -20 d
 19 -20 d 18 -19 d 18 -20 d 19 -19 d 18 -20 d 18 -20 d 18 -19 d 19 -20 d 18 -20 d 18 -19 d 19 -20 d 18 -20 d 18 -19 d 18 -20 d 19 -20 d 18 -20 d 18 -20 d 19 -20 d 52 -57 d 53 -55 d 105 -113 d 105 -113 d 105 -114 d 106 -113 d 105 -113 d 14 -15 d s
 gsave  2268 1774 0 0 C 1085.03 1502.77 t -44 r /Helvetica findfont 54.2516 sf 0 0 m ( sr year) show NC gr 
 gsave  2268 1774 0 0 C 1087.74 1535.32 t -44 r /Helvetica findfont 37.9761 sf 0 0 m (2) show NC gr 
 gsave  2268 1774 0 0 C 935.84 1651.96 t -44 r /Helvetica findfont 54.2516 sf 0 0 m (100.0 m) show NC gr 
 gsave  2268 1774 0 0 C 1654.67 1472.93 t 0 r /Helvetica findfont 70.5271 sf 0 0 m (Iron) show NC gr 
 gr  gr showpage
end
%%EOF
