%!PS-Adobe-2.0 EPSF-2.0
%%BoundingBox:  0 0 567 444
%%Title: cr_int_rate_positrons.eps: cr_int_rate_positrons
%%Creator: ROOT Version 5.34/14
%%CreationDate: Thu Mar 20 11:06:07 2014
%%EndComments
%%BeginProlog
80 dict begin
/s {stroke} def /l {lineto} def /m {moveto} def /t {translate} def
/r {rotate} def /rl {roll}  def /R {repeat} def
/d {rlineto} def /rm {rmoveto} def /gr {grestore} def /f {eofill} def
/c {setrgbcolor} def /black {0 setgray} def /sd {setdash} def
/cl {closepath} def /sf {scalefont setfont} def /lw {setlinewidth} def
/box {m dup 0 exch d exch 0 d 0 exch neg d cl} def
/NC{systemdict begin initclip end}def/C{NC box clip newpath}def
/bl {box s} def /bf {box f} def /Y { 0 exch d} def /X { 0 d} def 
/K {{pop pop 0 moveto} exch kshow} bind def
/ita {/ang 15 def gsave [1 0 ang dup sin exch cos div 1 0 0] concat} def 
/mp {newpath /y exch def /x exch def} def
/side {[w .77 mul w .23 mul] .385 w mul sd w 0 l currentpoint t -144 r} def
/mr {mp x y w2 0 360 arc} def /m24 {mr s} def /m20 {mr f} def
/mb {mp x y w2 add m w2 neg 0 d 0 w neg d w 0 d 0 w d cl} def
/mt {mp x y w2 add m w2 neg w neg d w 0 d cl} def
/m21 {mb f} def /m25 {mb s} def /m22 {mt f} def /m26{mt s} def
/m23 {mp x y w2 sub m w2 w d w neg 0 d cl f} def
/m27 {mp x y w2 add m w3 neg w2 neg d w3 w2 neg d w3 w2 d cl s} def
/m28 {mp x w2 sub y w2 sub w3 add m w3 0 d  0 w3 neg d w3 0 d 0 w3 d w3 0 d  0 w3 d w3 neg 0 d 0 w3 d w3 neg 0 d 0 w3 neg d w3 neg 0 d cl s } def
/m29 {mp gsave x w2 sub y w2 add w3 sub m currentpoint t 4 {side} repeat cl fill gr} def
/m30 {mp gsave x w2 sub y w2 add w3 sub m currentpoint t 4 {side} repeat cl s gr} def
/m31 {mp x y w2 sub m 0 w d x w2 sub y m w 0 d x w2 sub y w2 add m w w neg d x w2 sub y w2 sub m w w d s} def
/m32 {mp x y w2 sub m w2 w d w neg 0 d cl s} def
/m33 {mp x y w2 add m w3 neg w2 neg d w3 w2 neg d w3 w2 d cl f} def
/m34 {mp x w2 sub y w2 sub w3 add m w3 0 d  0 w3 neg d w3 0 d 0 w3 d w3 0 d  0 w3 d w3 neg 0 d 0 w3 d w3 neg 0 d 0 w3 neg d w3 neg 0 d cl f } def
/m2 {mp x y w2 sub m 0 w d x w2 sub y m w 0 d s} def
/m5 {mp x w2 sub y w2 sub m w w d x w2 sub y w2 add m w w neg d s} def
/reEncode {exch findfont dup length dict begin {1 index /FID eq  {pop pop} {def} ifelse } forall /Encoding exch def currentdict end dup /FontName get exch definefont pop } def [/Times-Bold /Times-Italic /Times-BoldItalic /Helvetica /Helvetica-Oblique
 /Helvetica-Bold /Helvetica-BoldOblique /Courier /Courier-Oblique /Courier-Bold /Courier-BoldOblique /Times-Roman /AvantGarde-Book /AvantGarde-BookOblique /AvantGarde-Demi /AvantGarde-DemiOblique /Bookman-Demi /Bookman-DemiItalic /Bookman-Light
 /Bookman-LightItalic /Helvetica-Narrow /Helvetica-Narrow-Bold /Helvetica-Narrow-BoldOblique /Helvetica-Narrow-Oblique /NewCenturySchlbk-Roman /NewCenturySchlbk-Bold /NewCenturySchlbk-BoldItalic /NewCenturySchlbk-Italic /Palatino-Bold
 /Palatino-BoldItalic /Palatino-Italic /Palatino-Roman ] {ISOLatin1Encoding reEncode } forall
%%EndProlog
%%BeginSetup
%%EndSetup
newpath  gsave  .25 .25 scale  gsave  0 0 t black[  ] 0 sd 6 lw 1 1 1 c 2268 1774 0 0 bf black 3 lw 1 1 1 c 1894 1487 283 216 bf black 1894 1487 283 216 bl 1 1 1 c 1894 1487 283 216 bf black 1894 1487 283 216 bl 6 lw 283 216 m 1894 X s 0.6 0.6 0.6 c[
 12 12] 0 sd 3 lw 284 1703 m -1487 Y s 915 1703 m -1487 Y s 1546 1703 m -1487 Y s 2177 1703 m -1487 Y s black[  ] 0 sd 6 lw 283 1703 m 1894 X s 283 216 m 1487 Y s 0.6 0.6 0.6 c[ 12 12] 0 sd 3 lw 2177 217 m -1894 X s 2177 588 m -1894 X s 2177 960 m
 -1894 X s 2177 1331 m -1894 X s 2177 1703 m -1894 X s black[  ] 0 sd 6 lw 2177 216 m 1487 Y s 1 1 1 c black 283 216 m 1894 X s 283 216 m 1894 X s
 gsave  2268 1774 0 0 C 1706.21 27.1258 t 0 r /Helvetica findfont 78.6648 sf 0 0 m (Energy [GeV]) show NC gr  284 261 m -45 Y s
 gsave  2268 1774 0 0 C 283.738 120.528 t 0 r  -37 0 t /Helvetica findfont 67.8145 sf 0 0 m (10) show NC gr  474 239 m -23 Y s 585 239 m -23 Y s 664 239 m -23 Y s 725 239 m -23 Y s 775 239 m -23 Y s 817 239 m -23 Y s 854 239 m -23 Y s 886 239 m -23 Y
 s 915 261 m -45 Y s
 gsave  2268 1774 0 0 C 938.553 154.617 t 0 r /Helvetica findfont 46.1139 sf 0 0 m (2) show NC gr 
 gsave  2268 1774 0 0 C 862.6 122.066 t 0 r /Helvetica findfont 70.5271 sf 0 0 m (10) show NC gr  1105 239 m -23 Y s 1216 239 m -23 Y s 1295 239 m -23 Y s 1356 239 m -23 Y s 1406 239 m -23 Y s 1448 239 m -23 Y s 1485 239 m -23 Y s 1517 239 m -23 Y s
 1546 261 m -45 Y s
 gsave  2268 1774 0 0 C 1567.87 157.33 t 0 r /Helvetica findfont 46.1139 sf 0 0 m (3) show NC gr 
 gsave  2268 1774 0 0 C 1491.92 122.066 t 0 r /Helvetica findfont 70.5271 sf 0 0 m (10) show NC gr  1736 239 m -23 Y s 1847 239 m -23 Y s 1926 239 m -23 Y s 1987 239 m -23 Y s 2037 239 m -23 Y s 2079 239 m -23 Y s 2116 239 m -23 Y s 2148 239 m -23 Y
 s 2177 261 m -45 Y s
 gsave  2268 1774 0 0 C 2199.9 154.617 t 0 r /Helvetica findfont 46.1139 sf 0 0 m (4) show NC gr 
 gsave  2268 1774 0 0 C 2123.95 122.066 t 0 r /Helvetica findfont 70.5271 sf 0 0 m (10) show NC gr  283 1703 m 1894 X s 284 1659 m 44 Y s 474 1681 m 22 Y s 585 1681 m 22 Y s 664 1681 m 22 Y s 725 1681 m 22 Y s 775 1681 m 22 Y s 817 1681 m 22 Y s 854
 1681 m 22 Y s 886 1681 m 22 Y s 915 1659 m 44 Y s 1105 1681 m 22 Y s 1216 1681 m 22 Y s 1295 1681 m 22 Y s 1356 1681 m 22 Y s 1406 1681 m 22 Y s 1448 1681 m 22 Y s 1485 1681 m 22 Y s 1517 1681 m 22 Y s 1546 1659 m 44 Y s 1736 1681 m 22 Y s 1847 1681
 m 22 Y s 1926 1681 m 22 Y s 1987 1681 m 22 Y s 2037 1681 m 22 Y s 2079 1681 m 22 Y s 2116 1681 m 22 Y s 2148 1681 m 22 Y s 2177 1659 m 44 Y s 283 216 m 1487 Y s
 gsave  2268 1774 0 0 C 84.09 309.234 t 90 r /Helvetica findfont 78.6648 sf 0 0 m (Number of events above a given energy) show NC gr  340 217 m -57 X s
 gsave  2268 1774 0 0 C 264.387 187.297 t 0 r  -75 0 t /Helvetica findfont 67.8145 sf 0 0 m (10) show NC gr  312 328 m -29 X s 312 394 m -29 X s 312 440 m -29 X s 312 476 m -29 X s 312 506 m -29 X s 312 531 m -29 X s 312 552 m -29 X s 312 571 m -29 X
 s 340 588 m -57 X s
 gsave  2268 1774 0 0 C 238.707 585.917 t 0 r /Helvetica findfont 46.1139 sf 0 0 m (2) show NC gr 
 gsave  2268 1774 0 0 C 162.755 556.079 t 0 r /Helvetica findfont 70.5271 sf 0 0 m (10) show NC gr  312 700 m -29 X s 312 766 m -29 X s 312 812 m -29 X s 312 848 m -29 X s 312 877 m -29 X s 312 902 m -29 X s 312 924 m -29 X s 312 943 m -29 X s 340
 960 m -57 X s
 gsave  2268 1774 0 0 C 238.707 960.253 t 0 r /Helvetica findfont 46.1139 sf 0 0 m (3) show NC gr 
 gsave  2268 1774 0 0 C 162.755 927.702 t 0 r /Helvetica findfont 70.5271 sf 0 0 m (10) show NC gr  312 1072 m -29 X s 312 1137 m -29 X s 312 1184 m -29 X s 312 1220 m -29 X s 312 1249 m -29 X s 312 1274 m -29 X s 312 1295 m -29 X s 312 1314 m -29 X
 s 340 1331 m -57 X s
 gsave  2268 1774 0 0 C 238.707 1329.16 t 0 r /Helvetica findfont 46.1139 sf 0 0 m (4) show NC gr 
 gsave  2268 1774 0 0 C 162.755 1299.33 t 0 r /Helvetica findfont 70.5271 sf 0 0 m (10) show NC gr  312 1443 m -29 X s 312 1509 m -29 X s 312 1555 m -29 X s 312 1591 m -29 X s 312 1621 m -29 X s 312 1646 m -29 X s 312 1667 m -29 X s 312 1686 m -29 X
 s 340 1703 m -57 X s
 gsave  2268 1774 0 0 C 238.707 1703.5 t 0 r /Helvetica findfont 46.1139 sf 0 0 m (5) show NC gr 
 gsave  2268 1774 0 0 C 162.755 1670.95 t 0 r /Helvetica findfont 70.5271 sf 0 0 m (10) show NC gr  2177 216 m 1487 Y s 2120 217 m 57 X s 2149 328 m 28 X s 2149 394 m 28 X s 2149 440 m 28 X s 2149 476 m 28 X s 2149 506 m 28 X s 2149 531 m 28 X s 2149
 552 m 28 X s 2149 571 m 28 X s 2120 588 m 57 X s 2149 700 m 28 X s 2149 766 m 28 X s 2149 812 m 28 X s 2149 848 m 28 X s 2149 877 m 28 X s 2149 902 m 28 X s 2149 924 m 28 X s 2149 943 m 28 X s 2120 960 m 57 X s 2149 1072 m 28 X s 2149 1137 m 28 X s
 2149 1184 m 28 X s 2149 1220 m 28 X s 2149 1249 m 28 X s 2149 1274 m 28 X s 2149 1295 m 28 X s 2149 1314 m 28 X s 2120 1331 m 57 X s 2149 1443 m 28 X s 2149 1509 m 28 X s 2149 1555 m 28 X s 2149 1591 m 28 X s 2149 1621 m 28 X s 2149 1646 m 28 X s
 2149 1667 m 28 X s 2149 1686 m 28 X s 2120 1703 m 57 X s 1 1 1 c black 283 1041 m 9 -10 d s 292 1031 m 27 -30 d 26 -30 d 27 -29 d 26 -29 d 27 -29 d 26 -28 d 26 -28 d 27 -28 d 26 -27 d 27 -27 d 26 -26 d 27 -27 d 26 -26 d 27 -26 d 26 -26 d 26 -26 d 27
 -26 d 26 -26 d 27 -25 d 26 -25 d 27 -24 d 26 -25 d 27 -26 d 26 -27 d 26 -27 d 27 -28 d s[ 20 20] 0 sd 1 1 1 c black 283 1041 m 9 -10 d s 292 1031 m 27 -30 d 26 -30 d 27 -29 d 26 -29 d 27 -29 d 26 -28 d 26 -28 d 27 -28 d 26 -27 d 27 -27 d 26 -26 d 27
 -27 d 26 -26 d 27 -26 d 26 -26 d 26 -26 d 27 -26 d 26 -26 d 27 -25 d 26 -25 d 27 -24 d 26 -25 d 27 -26 d 26 -26 d 26 -25 d 27 -25 d 126 -120 d s
 gsave  2268 1774 0 0 C 930.415 406.887 t -41 r /Helvetica findfont 54.2516 sf 0 0 m ( sr year) show NC gr 
 gsave  2268 1774 0 0 C 930.415 439.438 t -41 r /Helvetica findfont 37.9761 sf 0 0 m (2) show NC gr 
 gsave  2268 1774 0 0 C 773.085 547.941 t -41 r /Helvetica findfont 54.2516 sf 0 0 m (0.001 m) show NC gr [  ] 0 sd 1 1 1 c black 283 1413 m 9 -10 d s 292 1403 m 27 -30 d 26 -30 d 27 -30 d 26 -29 d 27 -28 d 26 -28 d 26 -28 d 27 -28 d 26 -27 d 27 -27
 d 26 -27 d 27 -26 d 26 -26 d 27 -26 d 26 -27 d 26 -26 d 27 -26 d 26 -25 d 27 -25 d 26 -25 d 27 -25 d 26 -25 d 27 -26 d 26 -26 d 26 -27 d 27 -28 d s[ 20 20] 0 sd 1 1 1 c black 283 1413 m 9 -10 d s 292 1403 m 27 -30 d 26 -30 d 27 -30 d 26 -29 d 27 -28
 d 26 -28 d 26 -28 d 27 -28 d 26 -27 d 27 -27 d 26 -27 d 27 -26 d 26 -26 d 27 -26 d 26 -27 d 26 -26 d 27 -26 d 26 -25 d 27 -25 d 26 -25 d 27 -25 d 26 -25 d 27 -26 d 26 -25 d 26 -25 d 27 -25 d 140 -134 d 140 -133 d 141 -134 d 95 -91 d s
 gsave  2268 1774 0 0 C 1098.59 618.468 t -41 r /Helvetica findfont 54.2516 sf 0 0 m ( sr year) show NC gr 
 gsave  2268 1774 0 0 C 1098.59 651.019 t -41 r /Helvetica findfont 37.9761 sf 0 0 m (2) show NC gr 
 gsave  2268 1774 0 0 C 962.966 740.534 t -41 r /Helvetica findfont 54.2516 sf 0 0 m (0.01 m) show NC gr [  ] 0 sd 1 1 1 c black 355 1703 m 17 -18 d s 372 1685 m 26 -29 d 27 -28 d 26 -29 d 26 -28 d 27 -28 d 26 -27 d 27 -27 d 26 -26 d 27 -26 d 26 -26
 d 27 -27 d 26 -26 d 26 -26 d 27 -26 d 26 -26 d 27 -25 d 26 -24 d 27 -25 d 26 -25 d 27 -26 d 26 -27 d 26 -27 d 27 -28 d s[ 20 20] 0 sd 1 1 1 c black 355 1703 m 17 -18 d s 372 1685 m 26 -29 d 27 -28 d 26 -29 d 26 -28 d 27 -28 d 26 -27 d 27 -27 d 26
 -26 d 27 -26 d 26 -26 d 27 -27 d 26 -26 d 26 -26 d 27 -26 d 26 -26 d 27 -25 d 26 -24 d 27 -25 d 26 -25 d 27 -26 d 26 -25 d 26 -26 d 27 -25 d 140 -133 d 140 -134 d 141 -133 d 140 -134 d 140 -133 d 140 -134 d 65 -62 d s
 gsave  2268 1774 0 0 C 1188.11 922.277 t -41 r /Helvetica findfont 54.2516 sf 0 0 m ( sr year) show NC gr 
 gsave  2268 1774 0 0 C 1188.11 954.828 t -41 r /Helvetica findfont 37.9761 sf 0 0 m (2) show NC gr 
 gsave  2268 1774 0 0 C 1074.18 1025.36 t -41 r /Helvetica findfont 54.2516 sf 0 0 m (0.1 m) show NC gr [  ] 0 sd 1 1 1 c black 716 1703 m 26 -26 d s 742 1677 m 26 -25 d 27 -25 d 26 -25 d 27 -25 d 26 -25 d 27 -25 d 26 -27 d 26 -27 d 27 -28 d s[ 20
 20] 0 sd 1 1 1 c black 716 1703 m 26 -26 d s 742 1677 m 26 -25 d 27 -25 d 26 -25 d 27 -25 d 26 -25 d 27 -25 d 26 -26 d 26 -25 d 27 -25 d 140 -134 d 140 -133 d 141 -134 d 140 -133 d 140 -134 d 140 -133 d 141 -134 d 140 -133 d 75 -72 d s
 gsave  2268 1774 0 0 C 1266.77 1212.52 t -41 r /Helvetica findfont 54.2516 sf 0 0 m ( sr year) show NC gr 
 gsave  2268 1774 0 0 C 1266.77 1245.07 t -41 r /Helvetica findfont 37.9761 sf 0 0 m (2) show NC gr 
 gsave  2268 1774 0 0 C 1152.85 1315.6 t -41 r /Helvetica findfont 54.2516 sf 0 0 m (1.0 m) show NC gr 
 gsave  2268 1774 0 0 C 1654.67 1472.93 t 0 r /Helvetica findfont 70.5271 sf 0 0 m (Positrons) show NC gr 
 gr  gr showpage
end
%%EOF
