%!PS-Adobe-2.0 EPSF-2.0
%%BoundingBox:  0 0 567 659
%%Title: cr_ratios.eps: cr_ratios
%%Creator: ROOT Version 5.34/14
%%CreationDate: Mon Jul 28 19:56:22 2014
%%EndComments
%%BeginProlog
80 dict begin
/s {stroke} def /l {lineto} def /m {moveto} def /t {translate} def
/r {rotate} def /rl {roll}  def /R {repeat} def
/d {rlineto} def /rm {rmoveto} def /gr {grestore} def /f {eofill} def
/c {setrgbcolor} def /black {0 setgray} def /sd {setdash} def
/cl {closepath} def /sf {scalefont setfont} def /lw {setlinewidth} def
/box {m dup 0 exch d exch 0 d 0 exch neg d cl} def
/NC{systemdict begin initclip end}def/C{NC box clip newpath}def
/bl {box s} def /bf {box f} def /Y { 0 exch d} def /X { 0 d} def 
/K {{pop pop 0 moveto} exch kshow} bind def
/ita {/ang 15 def gsave [1 0 ang dup sin exch cos div 1 0 0] concat} def 
/mp {newpath /y exch def /x exch def} def
/side {[w .77 mul w .23 mul] .385 w mul sd w 0 l currentpoint t -144 r} def
/mr {mp x y w2 0 360 arc} def /m24 {mr s} def /m20 {mr f} def
/mb {mp x y w2 add m w2 neg 0 d 0 w neg d w 0 d 0 w d cl} def
/mt {mp x y w2 add m w2 neg w neg d w 0 d cl} def
/m21 {mb f} def /m25 {mb s} def /m22 {mt f} def /m26{mt s} def
/m23 {mp x y w2 sub m w2 w d w neg 0 d cl f} def
/m27 {mp x y w2 add m w3 neg w2 neg d w3 w2 neg d w3 w2 d cl s} def
/m28 {mp x w2 sub y w2 sub w3 add m w3 0 d  0 w3 neg d w3 0 d 0 w3 d w3 0 d  0 w3 d w3 neg 0 d 0 w3 d w3 neg 0 d 0 w3 neg d w3 neg 0 d cl s } def
/m29 {mp gsave x w2 sub y w2 add w3 sub m currentpoint t 4 {side} repeat cl fill gr} def
/m30 {mp gsave x w2 sub y w2 add w3 sub m currentpoint t 4 {side} repeat cl s gr} def
/m31 {mp x y w2 sub m 0 w d x w2 sub y m w 0 d x w2 sub y w2 add m w w neg d x w2 sub y w2 sub m w w d s} def
/m32 {mp x y w2 sub m w2 w d w neg 0 d cl s} def
/m33 {mp x y w2 add m w3 neg w2 neg d w3 w2 neg d w3 w2 d cl f} def
/m34 {mp x w2 sub y w2 sub w3 add m w3 0 d  0 w3 neg d w3 0 d 0 w3 d w3 0 d  0 w3 d w3 neg 0 d 0 w3 d w3 neg 0 d 0 w3 neg d w3 neg 0 d cl f } def
/m2 {mp x y w2 sub m 0 w d x w2 sub y m w 0 d s} def
/m5 {mp x w2 sub y w2 sub m w w d x w2 sub y w2 add m w w neg d s} def
/reEncode {exch findfont dup length dict begin {1 index /FID eq  {pop pop} {def} ifelse } forall /Encoding exch def currentdict end dup /FontName get exch definefont pop } def [/Times-Bold /Times-Italic /Times-BoldItalic /Helvetica /Helvetica-Oblique
 /Helvetica-Bold /Helvetica-BoldOblique /Courier /Courier-Oblique /Courier-Bold /Courier-BoldOblique /Times-Roman /AvantGarde-Book /AvantGarde-BookOblique /AvantGarde-Demi /AvantGarde-DemiOblique /Bookman-Demi /Bookman-DemiItalic /Bookman-Light
 /Bookman-LightItalic /Helvetica-Narrow /Helvetica-Narrow-Bold /Helvetica-Narrow-BoldOblique /Helvetica-Narrow-Oblique /NewCenturySchlbk-Roman /NewCenturySchlbk-Bold /NewCenturySchlbk-BoldItalic /NewCenturySchlbk-Italic /Palatino-Bold
 /Palatino-BoldItalic /Palatino-Italic /Palatino-Roman ] {ISOLatin1Encoding reEncode } forall
%%EndProlog
%%BeginSetup
%%EndSetup
newpath  gsave  .25 .25 scale  gsave  0 0 t black[  ] 0 sd 6 lw 1 1 1 c 2268 2637 0 0 bf black 3 lw 1 1 1 c 1894 2367 283 206 bf black 1894 2367 283 206 bl 1 1 1 c 1894 2367 283 206 bf black 1894 2367 283 206 bl 6 lw 283 206 m 1894 X s 0.6 0.6 0.6 c[
 12 12] 0 sd 3 lw 407 2573 m -2367 Y s 819 2573 m -2367 Y s 1230 2573 m -2367 Y s 1642 2573 m -2367 Y s 2053 2573 m -2367 Y s black[  ] 0 sd 6 lw 283 2573 m 1894 X s 283 206 m 2367 Y s 0.6 0.6 0.6 c[ 12 12] 0 sd 3 lw 2177 206 m -1894 X s 2177 644 m
 -1894 X s 2177 1083 m -1894 X s 2177 1522 m -1894 X s 2177 1960 m -1894 X s 2177 2399 m -1894 X s black[  ] 0 sd 6 lw 2177 206 m 2367 Y s 1 1 1 c black 283 206 m 1894 X s 283 206 m 1894 X s
 gsave  2268 2637 0 0 C 1459.37 21.7006 t 0 r /Helvetica findfont 78.6648 sf 0 0 m (Kinetic energy [GeV]) show NC gr  283 239 m -33 Y s 316 239 m -33 Y s 344 239 m -33 Y s 367 239 m -33 Y s 388 239 m -33 Y s 407 272 m -66 Y s
 gsave  2268 2637 0 0 C 407.325 105.441 t 0 r  -19 0 t /Helvetica findfont 67.8145 sf 0 0 m (1) show NC gr  531 239 m -33 Y s 604 239 m -33 Y s 655 239 m -33 Y s 695 239 m -33 Y s 728 239 m -33 Y s 755 239 m -33 Y s 779 239 m -33 Y s 800 239 m -33 Y
 s 819 272 m -66 Y s
 gsave  2268 2637 0 0 C 818.781 105.441 t 0 r  -38 0 t /Helvetica findfont 67.8145 sf 0 0 m (10) show NC gr  943 239 m -33 Y s 1015 239 m -33 Y s 1067 239 m -33 Y s 1106 239 m -33 Y s 1139 239 m -33 Y s 1167 239 m -33 Y s 1190 239 m -33 Y s 1211 239
 m -33 Y s 1230 272 m -66 Y s
 gsave  2268 2637 0 0 C 1253.21 138.342 t 0 r /Helvetica findfont 46.1139 sf 0 0 m (2) show NC gr 
 gsave  2268 2637 0 0 C 1177.26 105.791 t 0 r /Helvetica findfont 70.5271 sf 0 0 m (10) show NC gr  1354 239 m -33 Y s 1427 239 m -33 Y s 1478 239 m -33 Y s 1518 239 m -33 Y s 1550 239 m -33 Y s 1578 239 m -33 Y s 1602 239 m -33 Y s 1623 239 m -33 Y
 s 1642 272 m -66 Y s
 gsave  2268 2637 0 0 C 1665.52 141.054 t 0 r /Helvetica findfont 46.1139 sf 0 0 m (3) show NC gr 
 gsave  2268 2637 0 0 C 1589.57 105.791 t 0 r /Helvetica findfont 70.5271 sf 0 0 m (10) show NC gr  1766 239 m -33 Y s 1838 239 m -33 Y s 1889 239 m -33 Y s 1929 239 m -33 Y s 1962 239 m -33 Y s 1989 239 m -33 Y s 2013 239 m -33 Y s 2034 239 m -33 Y
 s 2053 272 m -66 Y s
 gsave  2268 2637 0 0 C 2075.12 138.342 t 0 r /Helvetica findfont 46.1139 sf 0 0 m (4) show NC gr 
 gsave  2268 2637 0 0 C 1999.17 105.791 t 0 r /Helvetica findfont 70.5271 sf 0 0 m (10) show NC gr  2177 239 m -33 Y s 283 2573 m 1894 X s 283 2540 m 33 Y s 316 2540 m 33 Y s 344 2540 m 33 Y s 367 2540 m 33 Y s 388 2540 m 33 Y s 407 2507 m 66 Y s 531
 2540 m 33 Y s 604 2540 m 33 Y s 655 2540 m 33 Y s 695 2540 m 33 Y s 728 2540 m 33 Y s 755 2540 m 33 Y s 779 2540 m 33 Y s 800 2540 m 33 Y s 819 2507 m 66 Y s 943 2540 m 33 Y s 1015 2540 m 33 Y s 1067 2540 m 33 Y s 1106 2540 m 33 Y s 1139 2540 m 33 Y
 s 1167 2540 m 33 Y s 1190 2540 m 33 Y s 1211 2540 m 33 Y s 1230 2507 m 66 Y s 1354 2540 m 33 Y s 1427 2540 m 33 Y s 1478 2540 m 33 Y s 1518 2540 m 33 Y s 1550 2540 m 33 Y s 1578 2540 m 33 Y s 1602 2540 m 33 Y s 1623 2540 m 33 Y s 1642 2507 m 66 Y s
 1766 2540 m 33 Y s 1838 2540 m 33 Y s 1889 2540 m 33 Y s 1929 2540 m 33 Y s 1962 2540 m 33 Y s 1989 2540 m 33 Y s 2013 2540 m 33 Y s 2034 2540 m 33 Y s 2053 2507 m 66 Y s 2177 2540 m 33 Y s 283 206 m 2367 Y s
 gsave  2268 2637 0 0 C 94.9403 1548.88 t 90 r /Helvetica findfont 78.6648 sf 0 0 m (Ratio of differential intensities) show NC gr  345 206 m -62 X s
 gsave  2268 2637 0 0 C 225.144 206.156 t 0 r /Helvetica findfont 46.1139 sf 0 0 m (\2556) show NC gr 
 gsave  2268 2637 0 0 C 149.192 173.605 t 0 r /Helvetica findfont 70.5271 sf 0 0 m (10) show NC gr  314 338 m -31 X s 314 415 m -31 X s 314 470 m -31 X s 314 512 m -31 X s 314 547 m -31 X s 314 576 m -31 X s 314 602 m -31 X s 314 624 m -31 X s 345
 644 m -62 X s
 gsave  2268 2637 0 0 C 225.144 645.594 t 0 r /Helvetica findfont 46.1139 sf 0 0 m (\2555) show NC gr 
 gsave  2268 2637 0 0 C 149.192 613.043 t 0 r /Helvetica findfont 70.5271 sf 0 0 m (10) show NC gr  314 776 m -31 X s 314 854 m -31 X s 314 908 m -31 X s 314 951 m -31 X s 314 986 m -31 X s 314 1015 m -31 X s 314 1040 m -31 X s 314 1063 m -31 X s 345
 1083 m -62 X s
 gsave  2268 2637 0 0 C 225.144 1082.32 t 0 r /Helvetica findfont 46.1139 sf 0 0 m (\2554) show NC gr 
 gsave  2268 2637 0 0 C 149.192 1052.48 t 0 r /Helvetica findfont 70.5271 sf 0 0 m (10) show NC gr  314 1215 m -31 X s 314 1292 m -31 X s 314 1347 m -31 X s 314 1390 m -31 X s 314 1424 m -31 X s 314 1454 m -31 X s 314 1479 m -31 X s 314 1501 m -31 X
 s 345 1522 m -62 X s
 gsave  2268 2637 0 0 C 225.144 1521.76 t 0 r /Helvetica findfont 46.1139 sf 0 0 m (\2553) show NC gr 
 gsave  2268 2637 0 0 C 149.192 1489.21 t 0 r /Helvetica findfont 70.5271 sf 0 0 m (10) show NC gr  314 1654 m -31 X s 314 1731 m -31 X s 314 1786 m -31 X s 314 1828 m -31 X s 314 1863 m -31 X s 314 1892 m -31 X s 314 1918 m -31 X s 314 1940 m -31 X
 s 345 1960 m -62 X s
 gsave  2268 2637 0 0 C 225.144 1958.48 t 0 r /Helvetica findfont 46.1139 sf 0 0 m (\2552) show NC gr 
 gsave  2268 2637 0 0 C 149.192 1928.64 t 0 r /Helvetica findfont 70.5271 sf 0 0 m (10) show NC gr  314 2092 m -31 X s 314 2169 m -31 X s 314 2224 m -31 X s 314 2267 m -31 X s 314 2301 m -31 X s 314 2331 m -31 X s 314 2356 m -31 X s 314 2379 m -31 X
 s 345 2399 m -62 X s
 gsave  2268 2637 0 0 C 233.282 2397.92 t 0 r /Helvetica findfont 46.1139 sf 0 0 m (\2551) show NC gr 
 gsave  2268 2637 0 0 C 157.33 2368.08 t 0 r /Helvetica findfont 70.5271 sf 0 0 m (10) show NC gr  314 2531 m -31 X s 2177 206 m 2367 Y s 2116 206 m 61 X s 2146 338 m 31 X s 2146 415 m 31 X s 2146 470 m 31 X s 2146 512 m 31 X s 2146 547 m 31 X s 2146
 576 m 31 X s 2146 602 m 31 X s 2146 624 m 31 X s 2116 644 m 61 X s 2146 776 m 31 X s 2146 854 m 31 X s 2146 908 m 31 X s 2146 951 m 31 X s 2146 986 m 31 X s 2146 1015 m 31 X s 2146 1040 m 31 X s 2146 1063 m 31 X s 2116 1083 m 61 X s 2146 1215 m 31 X
 s 2146 1292 m 31 X s 2146 1347 m 31 X s 2146 1390 m 31 X s 2146 1424 m 31 X s 2146 1454 m 31 X s 2146 1479 m 31 X s 2146 1501 m 31 X s 2116 1522 m 61 X s 2146 1654 m 31 X s 2146 1731 m 31 X s 2146 1786 m 31 X s 2146 1828 m 31 X s 2146 1863 m 31 X s
 2146 1892 m 31 X s 2146 1918 m 31 X s 2146 1940 m 31 X s 2116 1960 m 61 X s 2146 2092 m 31 X s 2146 2169 m 31 X s 2146 2224 m 31 X s 2146 2267 m 31 X s 2146 2301 m 31 X s 2146 2331 m 31 X s 2146 2356 m 31 X s 2146 2379 m 31 X s 2116 2399 m 61 X s
 2146 2531 m 31 X s 1 1 1 c black 283 2130 m 12 7 d s 295 2137 m 27 15 d 26 11 d 28 9 d 26 6 d 27 3 d 24 -1 d 25 -3 d 27 -7 d 30 -10 d 34 -15 d 40 -22 d 8 -4 d 24 -16 d 163 -141 d 132 -108 d 28 -21 d 28 -17 d 29 -15 d 34 -14 d 44 -15 d 80 -23 d 44
 -11 d 105 -22 d 39 -11 d 58 -16 d 41 -12 d 29 -12 d 23 -11 d 23 -13 d 13 -9 d 23 -17 d 24 -22 d 31 -32 d 105 -119 d 5 -5 d 82 -89 d 86 -97 d 19 -22 d s 1 1 1 c black 283 1678 m 1 1 d s 284 1679 m 13 9 d 13 8 d 16 8 d 12 5 d 14 4 d 13 3 d 15 2 d 13 1
 d 13 -1 d 4 -1 d 10 -2 d 11 -3 d 11 -5 d 13 -7 d 16 -10 d 17 -12 d 60 -49 d 18 -15 d 121 -114 d 21 -21 d 64 -62 d 18 -16 d 15 -12 d 15 -12 d 5 -4 d 21 -14 d 18 -10 d 20 -11 d 20 -9 d 21 -9 d 19 -6 d 20 -6 d 17 -3 d 19 -3 d 20 -2 d 23 X 28 1 d 31 2 d
 18 3 d 22 4 d 34 9 d 35 9 d 20 4 d 10 2 d 26 3 d 34 2 d 78 4 d 94 5 d 45 1 d s 1 1 1 c black 283 1233 m 12 5 d s 295 1238 m 17 10 d 21 17 d 13 14 d 15 18 d 16 25 d 21 37 d 34 66 d 31 59 d 18 33 d 118 197 d 30 50 d 48 80 d 44 75 d 29 46 d 23 33 d 4 7
 d 30 38 d 30 35 d 31 32 d 29 27 d 28 24 d 24 17 d 29 17 d 37 17 d 59 23 d 37 12 d 111 27 d 134 37 d 14 4 d 69 24 d 79 31 d s 1 1 1 c black 283 1195 m 3 -4 d s 286 1191 m 26 -50 d 23 -43 d 23 -39 d 23 -38 d 16 -26 d 24 -35 d 21 -28 d 24 -31 d 25 -31
 d 29 -32 d 33 -34 d 24 -24 d 27 -23 d 30 -25 d 44 -32 d 30 -22 d 82 -58 d 24 -14 d 18 -9 d 17 -7 d 15 -4 d 18 -3 d 21 -1 d 19 1 d 25 3 d 27 6 d 46 13 d 25 8 d 34 14 d 74 34 d 22 9 d 59 21 d 59 19 d 38 11 d 61 17 d 70 15 d 24 5 d 65 13 d 68 11 d 23 3
 d s 1 1 1 c black 283 860 m 4 -9 d s 287 851 m 24 -49 d 25 -50 d 23 -43 d 25 -44 d 21 -37 d 24 -38 d 25 -38 d 27 -38 d 28 -39 d 16 -21 d 33 -41 d 27 -32 d 26 -28 d 20 -20 d 19 -17 d 17 -13 d 22 -15 d 18 -11 d 22 -11 d 21 -8 d 22 -6 d 21 -5 d 16 -2 d
 18 X 19 2 d 22 5 d 30 9 d 53 18 d 23 9 d 38 19 d 37 18 d 22 9 d 21 7 d 19 3 d 22 1 d 44 -3 d 30 -1 d 19 1 d 8 1 d 24 6 d 31 9 d 74 26 d 13 4 d 64 17 d 78 19 d s 1 1 1 c black 283 586 m 5 7 d s 288 593 m 44 59 d 41 57 d 23 33 d 37 56 d 36 55 d 21 31
 d 15 20 d 32 41 d 32 39 d 25 29 d 25 26 d 18 18 d 28 26 d 26 23 d 26 20 d 22 14 d 22 13 d 7 4 d 21 10 d 22 8 d 26 7 d 30 5 d 33 5 d 132 -1 d 52 3 d 56 6 d 23 3 d 35 6 d 59 12 d 26 4 d 12 1 d 35 1 d 35 -1 d 33 -3 d 29 -4 d s
 gsave  2268 2637 0 0 C 1977.47 1174.55 t 0 r /Helvetica findfont 70.5271 sf 0 0 m (\) / p) show NC gr 
 gsave  2268 2637 0 0 C 1963.91 1209.81 t 0 r /Helvetica findfont 46.1139 sf 0 0 m (\255) show NC gr 
 gsave  2268 2637 0 0 C 1847.27 1174.55 t 0 r /Helvetica findfont 70.5271 sf 0 0 m ( + e) show NC gr 
 gsave  2268 2637 0 0 C 1820.14 1207.1 t 0 r /Helvetica findfont 46.1139 sf 0 0 m (+) show NC gr 
 gsave  2268 2637 0 0 C 1757.75 1174.55 t 0 r /Helvetica findfont 70.5271 sf 0 0 m (\(e) show NC gr 
 gsave  2268 2637 0 0 C 1600.42 1331.88 t 0 r /Helvetica findfont 70.5271 sf 0 0 m ( / p) show NC gr 
 gsave  2268 2637 0 0 C 1573.3 1359 t 0 r /Helvetica findfont 46.1139 sf 0 0 m (+) show NC gr 
 gsave  2268 2637 0 0 C 1516.33 1331.88 t 0 r /Helvetica findfont 70.5271 sf 0 0 m ( e) show NC gr 
 gsave  2268 2637 0 0 C 1676.37 2387.07 t 0 r /Helvetica findfont 46.1139 sf 0 0 m (\255) show NC gr 
 gsave  2268 2637 0 0 C 1578.72 2343.67 t 0 r /Helvetica findfont 70.5271 sf 0 0 m ( / e) show NC gr 
 gsave  2268 2637 0 0 C 1540.75 2343.67 t 0 r /Helvetica findfont 70.5271 sf 0 0 m (p) show NC gr  1541 2390 m 38 X s
 gsave  2268 2637 0 0 C 1516.33 2343.67 t 0 r /Helvetica findfont 70.5271 sf 0 0 m ( ) show NC gr 
 gsave  2268 2637 0 0 C 1700.79 767.66 t 0 r /Helvetica findfont 70.5271 sf 0 0 m ( \(all sky\) / p) show NC gr 
 gsave  2268 2637 0 0 C 1665.52 767.66 t 0 r /Symbol findfont 70.5271 sf 0 0 m (g) show NC gr 
 gsave  2268 2637 0 0 C 1641.11 767.66 t 0 r /Helvetica findfont 70.5271 sf 0 0 m ( ) show NC gr 
 gsave  2268 2637 0 0 C 1576.01 404.174 t 0 r /Helvetica findfont 70.5271 sf 0 0 m ( \(EGB\) / p) show NC gr 
 gsave  2268 2637 0 0 C 1540.75 404.174 t 0 r /Symbol findfont 70.5271 sf 0 0 m (g) show NC gr 
 gsave  2268 2637 0 0 C 1516.33 404.174 t 0 r /Helvetica findfont 70.5271 sf 0 0 m ( ) show NC gr 
 gsave  2268 2637 0 0 C 1486.49 1193.54 t 0 r /Helvetica findfont 70.5271 sf 0 0 m ( / p) show NC gr 
 gsave  2268 2637 0 0 C 1448.52 1193.54 t 0 r /Helvetica findfont 70.5271 sf 0 0 m (p) show NC gr  1449 1240 m 37 X s
 gsave  2268 2637 0 0 C 1424.1 1193.54 t 0 r /Helvetica findfont 70.5271 sf 0 0 m ( ) show NC gr 
 gr  gr showpage
end
%%EOF
