%!PS-Adobe-2.0 EPSF-2.0
%%BoundingBox:  0 0 567 659
%%Title: cr_spectra_uhecr.eps: cr_spectra_uhecr
%%Creator: ROOT Version 5.34/14
%%CreationDate: Fri Jan 31 22:18:44 2014
%%EndComments
%%BeginProlog
80 dict begin
/s {stroke} def /l {lineto} def /m {moveto} def /t {translate} def
/r {rotate} def /rl {roll}  def /R {repeat} def
/d {rlineto} def /rm {rmoveto} def /gr {grestore} def /f {eofill} def
/c {setrgbcolor} def /black {0 setgray} def /sd {setdash} def
/cl {closepath} def /sf {scalefont setfont} def /lw {setlinewidth} def
/box {m dup 0 exch d exch 0 d 0 exch neg d cl} def
/NC{systemdict begin initclip end}def/C{NC box clip newpath}def
/bl {box s} def /bf {box f} def /Y { 0 exch d} def /X { 0 d} def 
/K {{pop pop 0 moveto} exch kshow} bind def
/ita {/ang 15 def gsave [1 0 ang dup sin exch cos div 1 0 0] concat} def 
/mp {newpath /y exch def /x exch def} def
/side {[w .77 mul w .23 mul] .385 w mul sd w 0 l currentpoint t -144 r} def
/mr {mp x y w2 0 360 arc} def /m24 {mr s} def /m20 {mr f} def
/mb {mp x y w2 add m w2 neg 0 d 0 w neg d w 0 d 0 w d cl} def
/mt {mp x y w2 add m w2 neg w neg d w 0 d cl} def
/m21 {mb f} def /m25 {mb s} def /m22 {mt f} def /m26{mt s} def
/m23 {mp x y w2 sub m w2 w d w neg 0 d cl f} def
/m27 {mp x y w2 add m w3 neg w2 neg d w3 w2 neg d w3 w2 d cl s} def
/m28 {mp x w2 sub y w2 sub w3 add m w3 0 d  0 w3 neg d w3 0 d 0 w3 d w3 0 d  0 w3 d w3 neg 0 d 0 w3 d w3 neg 0 d 0 w3 neg d w3 neg 0 d cl s } def
/m29 {mp gsave x w2 sub y w2 add w3 sub m currentpoint t 4 {side} repeat cl fill gr} def
/m30 {mp gsave x w2 sub y w2 add w3 sub m currentpoint t 4 {side} repeat cl s gr} def
/m31 {mp x y w2 sub m 0 w d x w2 sub y m w 0 d x w2 sub y w2 add m w w neg d x w2 sub y w2 sub m w w d s} def
/m32 {mp x y w2 sub m w2 w d w neg 0 d cl s} def
/m33 {mp x y w2 add m w3 neg w2 neg d w3 w2 neg d w3 w2 d cl f} def
/m34 {mp x w2 sub y w2 sub w3 add m w3 0 d  0 w3 neg d w3 0 d 0 w3 d w3 0 d  0 w3 d w3 neg 0 d 0 w3 d w3 neg 0 d 0 w3 neg d w3 neg 0 d cl f } def
/m2 {mp x y w2 sub m 0 w d x w2 sub y m w 0 d s} def
/m5 {mp x w2 sub y w2 sub m w w d x w2 sub y w2 add m w w neg d s} def
/reEncode {exch findfont dup length dict begin {1 index /FID eq  {pop pop} {def} ifelse } forall /Encoding exch def currentdict end dup /FontName get exch definefont pop } def [/Times-Bold /Times-Italic /Times-BoldItalic /Helvetica /Helvetica-Oblique
 /Helvetica-Bold /Helvetica-BoldOblique /Courier /Courier-Oblique /Courier-Bold /Courier-BoldOblique /Times-Roman /AvantGarde-Book /AvantGarde-BookOblique /AvantGarde-Demi /AvantGarde-DemiOblique /Bookman-Demi /Bookman-DemiItalic /Bookman-Light
 /Bookman-LightItalic /Helvetica-Narrow /Helvetica-Narrow-Bold /Helvetica-Narrow-BoldOblique /Helvetica-Narrow-Oblique /NewCenturySchlbk-Roman /NewCenturySchlbk-Bold /NewCenturySchlbk-BoldItalic /NewCenturySchlbk-Italic /Palatino-Bold
 /Palatino-BoldItalic /Palatino-Italic /Palatino-Roman ] {ISOLatin1Encoding reEncode } forall
%%EndProlog
%%BeginSetup
%%EndSetup
newpath  gsave  .25 .25 scale  gsave  0 0 t black[  ] 0 sd 6 lw 1 1 1 c 2268 2637 0 0 bf black 3 lw 1 1 1 c 1894 2367 283 206 bf black 1894 2367 283 206 bl 1 1 1 c 1894 2367 283 206 bf black 1894 2367 283 206 bl 6 lw 283 206 m 1894 X s 0.6 0.6 0.6 c[
 12 12] 0 sd 3 lw 334 2573 m -2367 Y s 501 2573 m -2367 Y s 669 2573 m -2367 Y s 837 2573 m -2367 Y s 1004 2573 m -2367 Y s 1172 2573 m -2367 Y s 1339 2573 m -2367 Y s 1507 2573 m -2367 Y s 1674 2573 m -2367 Y s 1842 2573 m -2367 Y s 2009 2573 m
 -2367 Y s 2177 2573 m -2367 Y s black[  ] 0 sd 6 lw 283 2573 m 1894 X s 283 206 m 2367 Y s 0.6 0.6 0.6 c[ 12 12] 0 sd 3 lw 2177 206 m -1894 X s 2177 275 m -1894 X s 2177 345 m -1894 X s 2177 415 m -1894 X s 2177 484 m -1894 X s 2177 554 m -1894 X s
 2177 623 m -1894 X s 2177 693 m -1894 X s 2177 763 m -1894 X s 2177 832 m -1894 X s 2177 902 m -1894 X s 2177 972 m -1894 X s 2177 1041 m -1894 X s 2177 1111 m -1894 X s 2177 1181 m -1894 X s 2177 1250 m -1894 X s 2177 1320 m -1894 X s 2177 1390 m
 -1894 X s 2177 1459 m -1894 X s 2177 1529 m -1894 X s 2177 1598 m -1894 X s 2177 1668 m -1894 X s 2177 1738 m -1894 X s 2177 1807 m -1894 X s 2177 1877 m -1894 X s 2177 1947 m -1894 X s 2177 2016 m -1894 X s 2177 2086 m -1894 X s 2177 2156 m -1894 X
 s 2177 2225 m -1894 X s 2177 2295 m -1894 X s 2177 2364 m -1894 X s 2177 2434 m -1894 X s 2177 2504 m -1894 X s 2177 2573 m -1894 X s black[  ] 0 sd 6 lw 2177 206 m 2367 Y s 1 1 1 c black 283 206 m 1894 X s 283 206 m 1894 X s
 gsave  2268 2637 0 0 C 1768.6 32.551 t 0 r /Helvetica findfont 78.6648 sf 0 0 m (Energy [eV]) show NC gr  297 239 m -33 Y s 308 239 m -33 Y s 318 239 m -33 Y s 326 239 m -33 Y s 334 272 m -66 Y s
 gsave  2268 2637 0 0 C 358.061 141.054 t 0 r /Helvetica findfont 46.1139 sf 0 0 m (9) show NC gr 
 gsave  2268 2637 0 0 C 282.108 105.791 t 0 r /Helvetica findfont 70.5271 sf 0 0 m (10) show NC gr  384 239 m -33 Y s 414 239 m -33 Y s 435 239 m -33 Y s 451 239 m -33 Y s 464 239 m -33 Y s 476 239 m -33 Y s 485 239 m -33 Y s 494 239 m -33 Y s 501
 272 m -66 Y s
 gsave  2268 2637 0 0 C 509.965 141.054 t 0 r /Helvetica findfont 46.1139 sf 0 0 m (10) show NC gr 
 gsave  2268 2637 0 0 C 434.013 105.791 t 0 r /Helvetica findfont 70.5271 sf 0 0 m (10) show NC gr  552 239 m -33 Y s 581 239 m -33 Y s 602 239 m -33 Y s 619 239 m -33 Y s 632 239 m -33 Y s 643 239 m -33 Y s 653 239 m -33 Y s 661 239 m -33 Y s 669
 272 m -66 Y s
 gsave  2268 2637 0 0 C 683.57 138.342 t 0 r /Helvetica findfont 46.1139 sf 0 0 m (11) show NC gr 
 gsave  2268 2637 0 0 C 607.618 105.791 t 0 r /Helvetica findfont 70.5271 sf 0 0 m (10) show NC gr  719 239 m -33 Y s 749 239 m -33 Y s 770 239 m -33 Y s 786 239 m -33 Y s 799 239 m -33 Y s 811 239 m -33 Y s 820 239 m -33 Y s 829 239 m -33 Y s 837
 272 m -66 Y s
 gsave  2268 2637 0 0 C 846.325 138.342 t 0 r /Helvetica findfont 46.1139 sf 0 0 m (12) show NC gr 
 gsave  2268 2637 0 0 C 770.373 105.791 t 0 r /Helvetica findfont 70.5271 sf 0 0 m (10) show NC gr  887 239 m -33 Y s 917 239 m -33 Y s 937 239 m -33 Y s 954 239 m -33 Y s 967 239 m -33 Y s 978 239 m -33 Y s 988 239 m -33 Y s 996 239 m -33 Y s 1004
 272 m -66 Y s
 gsave  2268 2637 0 0 C 1014.5 141.054 t 0 r /Helvetica findfont 46.1139 sf 0 0 m (13) show NC gr 
 gsave  2268 2637 0 0 C 938.553 105.791 t 0 r /Helvetica findfont 70.5271 sf 0 0 m (10) show NC gr  1055 239 m -33 Y s 1084 239 m -33 Y s 1105 239 m -33 Y s 1121 239 m -33 Y s 1135 239 m -33 Y s 1146 239 m -33 Y s 1155 239 m -33 Y s 1164 239 m -33 Y
 s 1172 272 m -66 Y s
 gsave  2268 2637 0 0 C 1179.97 138.342 t 0 r /Helvetica findfont 46.1139 sf 0 0 m (14) show NC gr 
 gsave  2268 2637 0 0 C 1104.02 105.791 t 0 r /Helvetica findfont 70.5271 sf 0 0 m (10) show NC gr  1222 239 m -33 Y s 1252 239 m -33 Y s 1273 239 m -33 Y s 1289 239 m -33 Y s 1302 239 m -33 Y s 1313 239 m -33 Y s 1323 239 m -33 Y s 1332 239 m -33 Y
 s 1339 272 m -66 Y s
 gsave  2268 2637 0 0 C 1348.15 141.054 t 0 r /Helvetica findfont 46.1139 sf 0 0 m (15) show NC gr 
 gsave  2268 2637 0 0 C 1272.2 105.791 t 0 r /Helvetica findfont 70.5271 sf 0 0 m (10) show NC gr  1390 239 m -33 Y s 1419 239 m -33 Y s 1440 239 m -33 Y s 1456 239 m -33 Y s 1470 239 m -33 Y s 1481 239 m -33 Y s 1491 239 m -33 Y s 1499 239 m -33 Y s
 1507 272 m -66 Y s
 gsave  2268 2637 0 0 C 1516.33 141.054 t 0 r /Helvetica findfont 46.1139 sf 0 0 m (16) show NC gr 
 gsave  2268 2637 0 0 C 1440.38 105.791 t 0 r /Helvetica findfont 70.5271 sf 0 0 m (10) show NC gr  1557 239 m -33 Y s 1587 239 m -33 Y s 1608 239 m -33 Y s 1624 239 m -33 Y s 1637 239 m -33 Y s 1648 239 m -33 Y s 1658 239 m -33 Y s 1667 239 m -33 Y
 s 1674 272 m -66 Y s
 gsave  2268 2637 0 0 C 1684.51 138.342 t 0 r /Helvetica findfont 46.1139 sf 0 0 m (17) show NC gr 
 gsave  2268 2637 0 0 C 1608.56 105.791 t 0 r /Helvetica findfont 70.5271 sf 0 0 m (10) show NC gr  1725 239 m -33 Y s 1754 239 m -33 Y s 1775 239 m -33 Y s 1791 239 m -33 Y s 1805 239 m -33 Y s 1816 239 m -33 Y s 1826 239 m -33 Y s 1834 239 m -33 Y
 s 1842 272 m -66 Y s
 gsave  2268 2637 0 0 C 1852.69 141.054 t 0 r /Helvetica findfont 46.1139 sf 0 0 m (18) show NC gr 
 gsave  2268 2637 0 0 C 1776.74 105.791 t 0 r /Helvetica findfont 70.5271 sf 0 0 m (10) show NC gr  1892 239 m -33 Y s 1922 239 m -33 Y s 1943 239 m -33 Y s 1959 239 m -33 Y s 1972 239 m -33 Y s 1983 239 m -33 Y s 1993 239 m -33 Y s 2002 239 m -33 Y
 s 2009 272 m -66 Y s
 gsave  2268 2637 0 0 C 2018.16 141.054 t 0 r /Helvetica findfont 46.1139 sf 0 0 m (19) show NC gr 
 gsave  2268 2637 0 0 C 1942.21 105.791 t 0 r /Helvetica findfont 70.5271 sf 0 0 m (10) show NC gr  2060 239 m -33 Y s 2089 239 m -33 Y s 2110 239 m -33 Y s 2127 239 m -33 Y s 2140 239 m -33 Y s 2151 239 m -33 Y s 2161 239 m -33 Y s 2169 239 m -33 Y
 s 2177 272 m -66 Y s
 gsave  2268 2637 0 0 C 2186.34 141.054 t 0 r /Helvetica findfont 46.1139 sf 0 0 m (20) show NC gr 
 gsave  2268 2637 0 0 C 2110.39 105.791 t 0 r /Helvetica findfont 70.5271 sf 0 0 m (10) show NC gr  283 2573 m 1894 X s 297 2540 m 33 Y s 308 2540 m 33 Y s 318 2540 m 33 Y s 326 2540 m 33 Y s 334 2507 m 66 Y s 384 2540 m 33 Y s 414 2540 m 33 Y s 435
 2540 m 33 Y s 451 2540 m 33 Y s 464 2540 m 33 Y s 476 2540 m 33 Y s 485 2540 m 33 Y s 494 2540 m 33 Y s 501 2507 m 66 Y s 552 2540 m 33 Y s 581 2540 m 33 Y s 602 2540 m 33 Y s 619 2540 m 33 Y s 632 2540 m 33 Y s 643 2540 m 33 Y s 653 2540 m 33 Y s
 661 2540 m 33 Y s 669 2507 m 66 Y s 719 2540 m 33 Y s 749 2540 m 33 Y s 770 2540 m 33 Y s 786 2540 m 33 Y s 799 2540 m 33 Y s 811 2540 m 33 Y s 820 2540 m 33 Y s 829 2540 m 33 Y s 837 2507 m 66 Y s 887 2540 m 33 Y s 917 2540 m 33 Y s 937 2540 m 33 Y
 s 954 2540 m 33 Y s 967 2540 m 33 Y s 978 2540 m 33 Y s 988 2540 m 33 Y s 996 2540 m 33 Y s 1004 2507 m 66 Y s 1055 2540 m 33 Y s 1084 2540 m 33 Y s 1105 2540 m 33 Y s 1121 2540 m 33 Y s 1135 2540 m 33 Y s 1146 2540 m 33 Y s 1155 2540 m 33 Y s 1164
 2540 m 33 Y s 1172 2507 m 66 Y s 1222 2540 m 33 Y s 1252 2540 m 33 Y s 1273 2540 m 33 Y s 1289 2540 m 33 Y s 1302 2540 m 33 Y s 1313 2540 m 33 Y s 1323 2540 m 33 Y s 1332 2540 m 33 Y s 1339 2507 m 66 Y s 1390 2540 m 33 Y s 1419 2540 m 33 Y s 1440
 2540 m 33 Y s 1456 2540 m 33 Y s 1470 2540 m 33 Y s 1481 2540 m 33 Y s 1491 2540 m 33 Y s 1499 2540 m 33 Y s 1507 2507 m 66 Y s 1557 2540 m 33 Y s 1587 2540 m 33 Y s 1608 2540 m 33 Y s 1624 2540 m 33 Y s 1637 2540 m 33 Y s 1648 2540 m 33 Y s 1658
 2540 m 33 Y s 1667 2540 m 33 Y s 1674 2507 m 66 Y s 1725 2540 m 33 Y s 1754 2540 m 33 Y s 1775 2540 m 33 Y s 1791 2540 m 33 Y s 1805 2540 m 33 Y s 1816 2540 m 33 Y s 1826 2540 m 33 Y s 1834 2540 m 33 Y s 1842 2507 m 66 Y s 1892 2540 m 33 Y s 1922
 2540 m 33 Y s 1943 2540 m 33 Y s 1959 2540 m 33 Y s 1972 2540 m 33 Y s 1983 2540 m 33 Y s 1993 2540 m 33 Y s 2002 2540 m 33 Y s 2009 2507 m 66 Y s 2060 2540 m 33 Y s 2089 2540 m 33 Y s 2110 2540 m 33 Y s 2127 2540 m 33 Y s 2140 2540 m 33 Y s 2151
 2540 m 33 Y s 2161 2540 m 33 Y s 2169 2540 m 33 Y s 2177 2507 m 66 Y s 283 206 m 2367 Y s
 gsave  2268 2637 0 0 C 94.9403 2555.25 t 90 r /Helvetica findfont 78.6648 sf 0 0 m (]) show NC gr 
 gsave  2268 2637 0 0 C 56.9642 2519.99 t 90 r /Helvetica findfont 51.539 sf 0 0 m (\2551) show NC gr 
 gsave  2268 2637 0 0 C 94.9403 2340.96 t 90 r /Helvetica findfont 78.6648 sf 0 0 m ( GeV) show NC gr 
 gsave  2268 2637 0 0 C 67.8145 2305.69 t 90 r /Helvetica findfont 51.539 sf 0 0 m (\2551) show NC gr 
 gsave  2268 2637 0 0 C 94.9403 2218.89 t 90 r /Helvetica findfont 78.6648 sf 0 0 m ( sr) show NC gr 
 gsave  2268 2637 0 0 C 67.8145 2183.63 t 90 r /Helvetica findfont 51.539 sf 0 0 m (\2551) show NC gr 
 gsave  2268 2637 0 0 C 94.9403 2123.95 t 90 r /Helvetica findfont 78.6648 sf 0 0 m ( s) show NC gr 
 gsave  2268 2637 0 0 C 56.9642 2077.84 t 90 r /Helvetica findfont 51.539 sf 0 0 m (\2552) show NC gr 
 gsave  2268 2637 0 0 C 94.9403 1822.85 t 90 r /Helvetica findfont 78.6648 sf 0 0 m (Flux [m) show NC gr  345 206 m -62 X s 314 254 m -31 X s 345 275 m -62 X s
 gsave  2268 2637 0 0 C 200.731 276.683 t 0 r /Helvetica findfont 46.1139 sf 0 0 m (\25529) show NC gr 
 gsave  2268 2637 0 0 C 124.779 244.132 t 0 r /Helvetica findfont 70.5271 sf 0 0 m (10) show NC gr  314 324 m -31 X s 345 345 m -62 X s 314 394 m -31 X s 345 415 m -62 X s 314 463 m -31 X s 345 484 m -62 X s
 gsave  2268 2637 0 0 C 200.731 485.552 t 0 r /Helvetica findfont 46.1139 sf 0 0 m (\25526) show NC gr 
 gsave  2268 2637 0 0 C 124.779 453.001 t 0 r /Helvetica findfont 70.5271 sf 0 0 m (10) show NC gr  314 533 m -31 X s 345 554 m -62 X s 314 603 m -31 X s 345 623 m -62 X s 314 672 m -31 X s 345 693 m -62 X s
 gsave  2268 2637 0 0 C 200.731 694.42 t 0 r /Helvetica findfont 46.1139 sf 0 0 m (\25523) show NC gr 
 gsave  2268 2637 0 0 C 124.779 661.869 t 0 r /Helvetica findfont 70.5271 sf 0 0 m (10) show NC gr  314 742 m -31 X s 345 763 m -62 X s 314 811 m -31 X s 345 832 m -62 X s 314 881 m -31 X s 345 902 m -62 X s
 gsave  2268 2637 0 0 C 200.731 903.289 t 0 r /Helvetica findfont 46.1139 sf 0 0 m (\25520) show NC gr 
 gsave  2268 2637 0 0 C 124.779 870.738 t 0 r /Helvetica findfont 70.5271 sf 0 0 m (10) show NC gr  314 951 m -31 X s 345 972 m -62 X s 314 1020 m -31 X s 345 1041 m -62 X s 314 1090 m -31 X s 345 1111 m -62 X s
 gsave  2268 2637 0 0 C 200.731 1109.45 t 0 r /Helvetica findfont 46.1139 sf 0 0 m (\25517) show NC gr 
 gsave  2268 2637 0 0 C 124.779 1079.61 t 0 r /Helvetica findfont 70.5271 sf 0 0 m (10) show NC gr  314 1160 m -31 X s 345 1181 m -62 X s 314 1229 m -31 X s 345 1250 m -62 X s 314 1299 m -31 X s 345 1320 m -62 X s
 gsave  2268 2637 0 0 C 200.731 1318.31 t 0 r /Helvetica findfont 46.1139 sf 0 0 m (\25514) show NC gr 
 gsave  2268 2637 0 0 C 124.779 1288.48 t 0 r /Helvetica findfont 70.5271 sf 0 0 m (10) show NC gr  314 1369 m -31 X s 345 1390 m -62 X s 314 1438 m -31 X s 345 1459 m -62 X s 314 1508 m -31 X s 345 1529 m -62 X s
 gsave  2268 2637 0 0 C 206.156 1527.18 t 0 r /Helvetica findfont 46.1139 sf 0 0 m (\25511) show NC gr 
 gsave  2268 2637 0 0 C 130.204 1497.34 t 0 r /Helvetica findfont 70.5271 sf 0 0 m (10) show NC gr  314 1577 m -31 X s 345 1598 m -62 X s 314 1647 m -31 X s 345 1668 m -62 X s 314 1717 m -31 X s 345 1738 m -62 X s
 gsave  2268 2637 0 0 C 225.144 1738.76 t 0 r /Helvetica findfont 46.1139 sf 0 0 m (\2558) show NC gr 
 gsave  2268 2637 0 0 C 149.192 1706.21 t 0 r /Helvetica findfont 70.5271 sf 0 0 m (10) show NC gr  314 1786 m -31 X s 345 1807 m -62 X s 314 1856 m -31 X s 345 1877 m -62 X s 314 1926 m -31 X s 345 1947 m -62 X s
 gsave  2268 2637 0 0 C 225.144 1947.63 t 0 r /Helvetica findfont 46.1139 sf 0 0 m (\2555) show NC gr 
 gsave  2268 2637 0 0 C 149.192 1915.08 t 0 r /Helvetica findfont 70.5271 sf 0 0 m (10) show NC gr  314 1995 m -31 X s 345 2016 m -62 X s 314 2065 m -31 X s 345 2086 m -62 X s 314 2135 m -31 X s 345 2156 m -62 X s
 gsave  2268 2637 0 0 C 225.144 2153.79 t 0 r /Helvetica findfont 46.1139 sf 0 0 m (\2552) show NC gr 
 gsave  2268 2637 0 0 C 149.192 2123.95 t 0 r /Helvetica findfont 70.5271 sf 0 0 m (10) show NC gr  314 2204 m -31 X s 345 2225 m -62 X s 314 2274 m -31 X s 345 2295 m -62 X s 314 2343 m -31 X s 345 2364 m -62 X s
 gsave  2268 2637 0 0 C 266.919 2335.14 t 0 r  -75 0 t /Helvetica findfont 67.8145 sf 0 0 m (10) show NC gr  314 2413 m -31 X s 345 2434 m -62 X s 314 2483 m -31 X s 345 2504 m -62 X s 314 2552 m -31 X s 345 2573 m -62 X s
 gsave  2268 2637 0 0 C 241.42 2571.53 t 0 r /Helvetica findfont 46.1139 sf 0 0 m (4) show NC gr 
 gsave  2268 2637 0 0 C 165.467 2541.69 t 0 r /Helvetica findfont 70.5271 sf 0 0 m (10) show NC gr  2177 206 m 2367 Y s 2116 206 m 61 X s 2146 254 m 31 X s 2116 275 m 61 X s 2146 324 m 31 X s 2116 345 m 61 X s 2146 394 m 31 X s 2116 415 m 61 X s 2146
 463 m 31 X s 2116 484 m 61 X s 2146 533 m 31 X s 2116 554 m 61 X s 2146 603 m 31 X s 2116 623 m 61 X s 2146 672 m 31 X s 2116 693 m 61 X s 2146 742 m 31 X s 2116 763 m 61 X s 2146 811 m 31 X s 2116 832 m 61 X s 2146 881 m 31 X s 2116 902 m 61 X s
 2146 951 m 31 X s 2116 972 m 61 X s 2146 1020 m 31 X s 2116 1041 m 61 X s 2146 1090 m 31 X s 2116 1111 m 61 X s 2146 1160 m 31 X s 2116 1181 m 61 X s 2146 1229 m 31 X s 2116 1250 m 61 X s 2146 1299 m 31 X s 2116 1320 m 61 X s 2146 1369 m 31 X s 2116
 1390 m 61 X s 2146 1438 m 31 X s 2116 1459 m 61 X s 2146 1508 m 31 X s 2116 1529 m 61 X s 2146 1577 m 31 X s 2116 1598 m 61 X s 2146 1647 m 31 X s 2116 1668 m 61 X s 2146 1717 m 31 X s 2116 1738 m 61 X s 2146 1786 m 31 X s 2116 1807 m 61 X s 2146
 1856 m 31 X s 2116 1877 m 61 X s 2146 1926 m 31 X s 2116 1947 m 61 X s 2146 1995 m 31 X s 2116 2016 m 61 X s 2146 2065 m 31 X s 2116 2086 m 61 X s 2146 2135 m 31 X s 2116 2156 m 61 X s 2146 2204 m 31 X s 2116 2225 m 61 X s 2146 2274 m 31 X s 2116
 2295 m 61 X s 2146 2343 m 31 X s 2116 2364 m 61 X s 2146 2413 m 31 X s 2116 2434 m 61 X s 2146 2483 m 31 X s 2116 2504 m 61 X s 2146 2552 m 31 X s 2116 2573 m 61 X s
 gr  gr showpage
end
%%EOF
