%!PS-Adobe-2.0 EPSF-2.0
%%BoundingBox:  0 0 567 659
%%Title: cr_spectra_single_charge.eps: cr_spectra_single_charge
%%Creator: ROOT Version 5.34/14
%%CreationDate: Fri May 16 22:10:37 2014
%%EndComments
%%BeginProlog
80 dict begin
/s {stroke} def /l {lineto} def /m {moveto} def /t {translate} def
/r {rotate} def /rl {roll}  def /R {repeat} def
/d {rlineto} def /rm {rmoveto} def /gr {grestore} def /f {eofill} def
/c {setrgbcolor} def /black {0 setgray} def /sd {setdash} def
/cl {closepath} def /sf {scalefont setfont} def /lw {setlinewidth} def
/box {m dup 0 exch d exch 0 d 0 exch neg d cl} def
/NC{systemdict begin initclip end}def/C{NC box clip newpath}def
/bl {box s} def /bf {box f} def /Y { 0 exch d} def /X { 0 d} def 
/K {{pop pop 0 moveto} exch kshow} bind def
/ita {/ang 15 def gsave [1 0 ang dup sin exch cos div 1 0 0] concat} def 
/mp {newpath /y exch def /x exch def} def
/side {[w .77 mul w .23 mul] .385 w mul sd w 0 l currentpoint t -144 r} def
/mr {mp x y w2 0 360 arc} def /m24 {mr s} def /m20 {mr f} def
/mb {mp x y w2 add m w2 neg 0 d 0 w neg d w 0 d 0 w d cl} def
/mt {mp x y w2 add m w2 neg w neg d w 0 d cl} def
/m21 {mb f} def /m25 {mb s} def /m22 {mt f} def /m26{mt s} def
/m23 {mp x y w2 sub m w2 w d w neg 0 d cl f} def
/m27 {mp x y w2 add m w3 neg w2 neg d w3 w2 neg d w3 w2 d cl s} def
/m28 {mp x w2 sub y w2 sub w3 add m w3 0 d  0 w3 neg d w3 0 d 0 w3 d w3 0 d  0 w3 d w3 neg 0 d 0 w3 d w3 neg 0 d 0 w3 neg d w3 neg 0 d cl s } def
/m29 {mp gsave x w2 sub y w2 add w3 sub m currentpoint t 4 {side} repeat cl fill gr} def
/m30 {mp gsave x w2 sub y w2 add w3 sub m currentpoint t 4 {side} repeat cl s gr} def
/m31 {mp x y w2 sub m 0 w d x w2 sub y m w 0 d x w2 sub y w2 add m w w neg d x w2 sub y w2 sub m w w d s} def
/m32 {mp x y w2 sub m w2 w d w neg 0 d cl s} def
/m33 {mp x y w2 add m w3 neg w2 neg d w3 w2 neg d w3 w2 d cl f} def
/m34 {mp x w2 sub y w2 sub w3 add m w3 0 d  0 w3 neg d w3 0 d 0 w3 d w3 0 d  0 w3 d w3 neg 0 d 0 w3 d w3 neg 0 d 0 w3 neg d w3 neg 0 d cl f } def
/m2 {mp x y w2 sub m 0 w d x w2 sub y m w 0 d s} def
/m5 {mp x w2 sub y w2 sub m w w d x w2 sub y w2 add m w w neg d s} def
/reEncode {exch findfont dup length dict begin {1 index /FID eq  {pop pop} {def} ifelse } forall /Encoding exch def currentdict end dup /FontName get exch definefont pop } def [/Times-Bold /Times-Italic /Times-BoldItalic /Helvetica /Helvetica-Oblique
 /Helvetica-Bold /Helvetica-BoldOblique /Courier /Courier-Oblique /Courier-Bold /Courier-BoldOblique /Times-Roman /AvantGarde-Book /AvantGarde-BookOblique /AvantGarde-Demi /AvantGarde-DemiOblique /Bookman-Demi /Bookman-DemiItalic /Bookman-Light
 /Bookman-LightItalic /Helvetica-Narrow /Helvetica-Narrow-Bold /Helvetica-Narrow-BoldOblique /Helvetica-Narrow-Oblique /NewCenturySchlbk-Roman /NewCenturySchlbk-Bold /NewCenturySchlbk-BoldItalic /NewCenturySchlbk-Italic /Palatino-Bold
 /Palatino-BoldItalic /Palatino-Italic /Palatino-Roman ] {ISOLatin1Encoding reEncode } forall
%%EndProlog
%%BeginSetup
%%EndSetup
newpath  gsave  .25 .25 scale  gsave  0 0 t black[  ] 0 sd 6 lw 1 1 1 c 2268 2637 0 0 bf black 3 lw 1 1 1 c 1894 2367 283 206 bf black 1894 2367 283 206 bl 1 1 1 c 1894 2367 283 206 bf black 1894 2367 283 206 bl 6 lw 283 206 m 1894 X s 0.6 0.6 0.6 c[
 12 12] 0 sd 3 lw 374 2573 m -2367 Y s 674 2573 m -2367 Y s 975 2573 m -2367 Y s 1275 2573 m -2367 Y s 1576 2573 m -2367 Y s 1876 2573 m -2367 Y s 2177 2573 m -2367 Y s black[  ] 0 sd 6 lw 283 2573 m 1894 X s 283 206 m 2367 Y s 0.6 0.6 0.6 c[ 12 12]
 0 sd 3 lw 2177 206 m -1894 X s 2177 354 m -1894 X s 2177 502 m -1894 X s 2177 650 m -1894 X s 2177 798 m -1894 X s 2177 946 m -1894 X s 2177 1094 m -1894 X s 2177 1242 m -1894 X s 2177 1390 m -1894 X s 2177 1537 m -1894 X s 2177 1685 m -1894 X s
 2177 1833 m -1894 X s 2177 1981 m -1894 X s 2177 2129 m -1894 X s 2177 2277 m -1894 X s 2177 2425 m -1894 X s 2177 2573 m -1894 X s black[  ] 0 sd 6 lw 2177 206 m 2367 Y s 1 1 1 c black 283 206 m 1894 X s 283 206 m 1894 X s
 gsave  2268 2637 0 0 C 1459.37 21.7006 t 0 r /Helvetica findfont 78.6648 sf 0 0 m (Kinetic energy [GeV]) show NC gr  283 239 m -33 Y s 307 239 m -33 Y s 327 239 m -33 Y s 345 239 m -33 Y s 360 239 m -33 Y s 374 272 m -66 Y s
 gsave  2268 2637 0 0 C 373.928 105.441 t 0 r  -19 0 t /Helvetica findfont 67.8145 sf 0 0 m (1) show NC gr  464 239 m -33 Y s 517 239 m -33 Y s 555 239 m -33 Y s 584 239 m -33 Y s 608 239 m -33 Y s 628 239 m -33 Y s 645 239 m -33 Y s 661 239 m -33 Y
 s 674 272 m -66 Y s
 gsave  2268 2637 0 0 C 674.442 105.441 t 0 r  -37 0 t /Helvetica findfont 67.8145 sf 0 0 m (10) show NC gr  765 239 m -33 Y s 818 239 m -33 Y s 855 239 m -33 Y s 884 239 m -33 Y s 908 239 m -33 Y s 928 239 m -33 Y s 946 239 m -33 Y s 961 239 m -33 Y
 s 975 272 m -66 Y s
 gsave  2268 2637 0 0 C 998.229 138.342 t 0 r /Helvetica findfont 46.1139 sf 0 0 m (2) show NC gr 
 gsave  2268 2637 0 0 C 922.277 105.791 t 0 r /Helvetica findfont 70.5271 sf 0 0 m (10) show NC gr  1065 239 m -33 Y s 1118 239 m -33 Y s 1156 239 m -33 Y s 1185 239 m -33 Y s 1209 239 m -33 Y s 1229 239 m -33 Y s 1246 239 m -33 Y s 1262 239 m -33 Y
 s 1275 272 m -66 Y s
 gsave  2268 2637 0 0 C 1299.33 141.054 t 0 r /Helvetica findfont 46.1139 sf 0 0 m (3) show NC gr 
 gsave  2268 2637 0 0 C 1223.37 105.791 t 0 r /Helvetica findfont 70.5271 sf 0 0 m (10) show NC gr  1366 239 m -33 Y s 1419 239 m -33 Y s 1456 239 m -33 Y s 1486 239 m -33 Y s 1509 239 m -33 Y s 1529 239 m -33 Y s 1547 239 m -33 Y s 1562 239 m -33 Y
 s 1576 272 m -66 Y s
 gsave  2268 2637 0 0 C 1597.71 138.342 t 0 r /Helvetica findfont 46.1139 sf 0 0 m (4) show NC gr 
 gsave  2268 2637 0 0 C 1521.76 105.791 t 0 r /Helvetica findfont 70.5271 sf 0 0 m (10) show NC gr  1666 239 m -33 Y s 1719 239 m -33 Y s 1757 239 m -33 Y s 1786 239 m -33 Y s 1810 239 m -33 Y s 1830 239 m -33 Y s 1847 239 m -33 Y s 1863 239 m -33 Y
 s 1876 272 m -66 Y s
 gsave  2268 2637 0 0 C 1898.81 141.054 t 0 r /Helvetica findfont 46.1139 sf 0 0 m (5) show NC gr 
 gsave  2268 2637 0 0 C 1822.85 105.791 t 0 r /Helvetica findfont 70.5271 sf 0 0 m (10) show NC gr  1967 239 m -33 Y s 2020 239 m -33 Y s 2057 239 m -33 Y s 2087 239 m -33 Y s 2110 239 m -33 Y s 2130 239 m -33 Y s 2148 239 m -33 Y s 2163 239 m -33 Y
 s 2177 272 m -66 Y s
 gsave  2268 2637 0 0 C 2199.9 141.054 t 0 r /Helvetica findfont 46.1139 sf 0 0 m (6) show NC gr 
 gsave  2268 2637 0 0 C 2123.95 105.791 t 0 r /Helvetica findfont 70.5271 sf 0 0 m (10) show NC gr  283 2573 m 1894 X s 283 2540 m 33 Y s 307 2540 m 33 Y s 327 2540 m 33 Y s 345 2540 m 33 Y s 360 2540 m 33 Y s 374 2507 m 66 Y s 464 2540 m 33 Y s 517
 2540 m 33 Y s 555 2540 m 33 Y s 584 2540 m 33 Y s 608 2540 m 33 Y s 628 2540 m 33 Y s 645 2540 m 33 Y s 661 2540 m 33 Y s 674 2507 m 66 Y s 765 2540 m 33 Y s 818 2540 m 33 Y s 855 2540 m 33 Y s 884 2540 m 33 Y s 908 2540 m 33 Y s 928 2540 m 33 Y s
 946 2540 m 33 Y s 961 2540 m 33 Y s 975 2507 m 66 Y s 1065 2540 m 33 Y s 1118 2540 m 33 Y s 1156 2540 m 33 Y s 1185 2540 m 33 Y s 1209 2540 m 33 Y s 1229 2540 m 33 Y s 1246 2540 m 33 Y s 1262 2540 m 33 Y s 1275 2507 m 66 Y s 1366 2540 m 33 Y s 1419
 2540 m 33 Y s 1456 2540 m 33 Y s 1486 2540 m 33 Y s 1509 2540 m 33 Y s 1529 2540 m 33 Y s 1547 2540 m 33 Y s 1562 2540 m 33 Y s 1576 2507 m 66 Y s 1666 2540 m 33 Y s 1719 2540 m 33 Y s 1757 2540 m 33 Y s 1786 2540 m 33 Y s 1810 2540 m 33 Y s 1830
 2540 m 33 Y s 1847 2540 m 33 Y s 1863 2540 m 33 Y s 1876 2507 m 66 Y s 1967 2540 m 33 Y s 2020 2540 m 33 Y s 2057 2540 m 33 Y s 2087 2540 m 33 Y s 2110 2540 m 33 Y s 2130 2540 m 33 Y s 2148 2540 m 33 Y s 2163 2540 m 33 Y s 2177 2507 m 66 Y s 283 206
 m 2367 Y s
 gsave  2268 2637 0 0 C 81.3774 2555.25 t 90 r /Helvetica findfont 78.6648 sf 0 0 m (]) show NC gr 
 gsave  2268 2637 0 0 C 56.9642 2519.99 t 90 r /Helvetica findfont 51.539 sf 0 0 m (\2551) show NC gr 
 gsave  2268 2637 0 0 C 81.3774 2433.18 t 90 r /Helvetica findfont 78.6648 sf 0 0 m ( sr) show NC gr 
 gsave  2268 2637 0 0 C 46.1139 2397.92 t 90 r /Helvetica findfont 51.539 sf 0 0 m (\2551) show NC gr 
 gsave  2268 2637 0 0 C 81.3774 2218.89 t 90 r /Helvetica findfont 78.6648 sf 0 0 m ( GeV) show NC gr 
 gsave  2268 2637 0 0 C 56.9642 2183.63 t 90 r /Helvetica findfont 51.539 sf 0 0 m (\2551) show NC gr 
 gsave  2268 2637 0 0 C 81.3774 2123.95 t 90 r /Helvetica findfont 78.6648 sf 0 0 m ( s) show NC gr 
 gsave  2268 2637 0 0 C 46.1139 2077.84 t 90 r /Helvetica findfont 51.539 sf 0 0 m (\2552) show NC gr 
 gsave  2268 2637 0 0 C 81.3774 1947.63 t 90 r /Helvetica findfont 78.6648 sf 0 0 m (\) [m) show NC gr 
 gsave  2268 2637 0 0 C 124.779 1920.51 t 90 r /Helvetica findfont 51.539 sf 0 0 m (k) show NC gr 
 gsave  2268 2637 0 0 C 81.3774 1803.87 t 90 r /Helvetica findfont 78.6648 sf 0 0 m (J\(E) show NC gr  345 206 m -62 X s
 gsave  2268 2637 0 0 C 200.731 203.443 t 0 r /Helvetica findfont 46.1139 sf 0 0 m (\25512) show NC gr 
 gsave  2268 2637 0 0 C 124.779 173.605 t 0 r /Helvetica findfont 70.5271 sf 0 0 m (10) show NC gr  314 250 m -31 X s 314 276 m -31 X s 314 295 m -31 X s 314 309 m -31 X s 314 321 m -31 X s 314 331 m -31 X s 314 339 m -31 X s 314 347 m -31 X s 345
 354 m -62 X s
 gsave  2268 2637 0 0 C 206.156 352.635 t 0 r /Helvetica findfont 46.1139 sf 0 0 m (\25511) show NC gr 
 gsave  2268 2637 0 0 C 130.204 322.797 t 0 r /Helvetica findfont 70.5271 sf 0 0 m (10) show NC gr  314 398 m -31 X s 314 424 m -31 X s 314 443 m -31 X s 314 457 m -31 X s 314 469 m -31 X s 314 479 m -31 X s 314 487 m -31 X s 314 495 m -31 X s 345
 502 m -62 X s
 gsave  2268 2637 0 0 C 200.731 501.827 t 0 r /Helvetica findfont 46.1139 sf 0 0 m (\25510) show NC gr 
 gsave  2268 2637 0 0 C 124.779 469.276 t 0 r /Helvetica findfont 70.5271 sf 0 0 m (10) show NC gr  314 546 m -31 X s 314 572 m -31 X s 314 591 m -31 X s 314 605 m -31 X s 314 617 m -31 X s 314 627 m -31 X s 314 635 m -31 X s 314 643 m -31 X s 345
 650 m -62 X s
 gsave  2268 2637 0 0 C 225.144 651.019 t 0 r /Helvetica findfont 46.1139 sf 0 0 m (\2559) show NC gr 
 gsave  2268 2637 0 0 C 149.192 618.468 t 0 r /Helvetica findfont 70.5271 sf 0 0 m (10) show NC gr  314 694 m -31 X s 314 720 m -31 X s 314 739 m -31 X s 314 753 m -31 X s 314 765 m -31 X s 314 775 m -31 X s 314 783 m -31 X s 314 791 m -31 X s 345
 798 m -62 X s
 gsave  2268 2637 0 0 C 225.144 800.211 t 0 r /Helvetica findfont 46.1139 sf 0 0 m (\2558) show NC gr 
 gsave  2268 2637 0 0 C 149.192 767.66 t 0 r /Helvetica findfont 70.5271 sf 0 0 m (10) show NC gr  314 842 m -31 X s 314 868 m -31 X s 314 887 m -31 X s 314 901 m -31 X s 314 913 m -31 X s 314 923 m -31 X s 314 931 m -31 X s 314 939 m -31 X s 345 946
 m -62 X s
 gsave  2268 2637 0 0 C 225.144 943.978 t 0 r /Helvetica findfont 46.1139 sf 0 0 m (\2557) show NC gr 
 gsave  2268 2637 0 0 C 149.192 914.139 t 0 r /Helvetica findfont 70.5271 sf 0 0 m (10) show NC gr  314 990 m -31 X s 314 1016 m -31 X s 314 1035 m -31 X s 314 1049 m -31 X s 314 1061 m -31 X s 314 1071 m -31 X s 314 1079 m -31 X s 314 1087 m -31 X s
 345 1094 m -62 X s
 gsave  2268 2637 0 0 C 225.144 1095.88 t 0 r /Helvetica findfont 46.1139 sf 0 0 m (\2556) show NC gr 
 gsave  2268 2637 0 0 C 149.192 1063.33 t 0 r /Helvetica findfont 70.5271 sf 0 0 m (10) show NC gr  314 1138 m -31 X s 314 1164 m -31 X s 314 1183 m -31 X s 314 1197 m -31 X s 314 1209 m -31 X s 314 1219 m -31 X s 314 1227 m -31 X s 314 1235 m -31 X
 s 345 1242 m -62 X s
 gsave  2268 2637 0 0 C 225.144 1242.36 t 0 r /Helvetica findfont 46.1139 sf 0 0 m (\2555) show NC gr 
 gsave  2268 2637 0 0 C 149.192 1209.81 t 0 r /Helvetica findfont 70.5271 sf 0 0 m (10) show NC gr  314 1286 m -31 X s 314 1312 m -31 X s 314 1331 m -31 X s 314 1345 m -31 X s 314 1357 m -31 X s 314 1367 m -31 X s 314 1375 m -31 X s 314 1383 m -31 X
 s 345 1390 m -62 X s
 gsave  2268 2637 0 0 C 225.144 1388.84 t 0 r /Helvetica findfont 46.1139 sf 0 0 m (\2554) show NC gr 
 gsave  2268 2637 0 0 C 149.192 1359 t 0 r /Helvetica findfont 70.5271 sf 0 0 m (10) show NC gr  314 1434 m -31 X s 314 1460 m -31 X s 314 1479 m -31 X s 314 1493 m -31 X s 314 1505 m -31 X s 314 1515 m -31 X s 314 1523 m -31 X s 314 1531 m -31 X s
 345 1537 m -62 X s
 gsave  2268 2637 0 0 C 225.144 1538.03 t 0 r /Helvetica findfont 46.1139 sf 0 0 m (\2553) show NC gr 
 gsave  2268 2637 0 0 C 149.192 1505.48 t 0 r /Helvetica findfont 70.5271 sf 0 0 m (10) show NC gr  314 1582 m -31 X s 314 1608 m -31 X s 314 1627 m -31 X s 314 1641 m -31 X s 314 1653 m -31 X s 314 1663 m -31 X s 314 1671 m -31 X s 314 1679 m -31 X
 s 345 1685 m -62 X s
 gsave  2268 2637 0 0 C 225.144 1684.51 t 0 r /Helvetica findfont 46.1139 sf 0 0 m (\2552) show NC gr 
 gsave  2268 2637 0 0 C 149.192 1654.67 t 0 r /Helvetica findfont 70.5271 sf 0 0 m (10) show NC gr  314 1730 m -31 X s 314 1756 m -31 X s 314 1775 m -31 X s 314 1789 m -31 X s 314 1801 m -31 X s 314 1811 m -31 X s 314 1819 m -31 X s 314 1827 m -31 X
 s 345 1833 m -62 X s
 gsave  2268 2637 0 0 C 233.282 1830.99 t 0 r /Helvetica findfont 46.1139 sf 0 0 m (\2551) show NC gr 
 gsave  2268 2637 0 0 C 157.33 1801.15 t 0 r /Helvetica findfont 70.5271 sf 0 0 m (10) show NC gr  314 1878 m -31 X s 314 1904 m -31 X s 314 1923 m -31 X s 314 1937 m -31 X s 314 1949 m -31 X s 314 1959 m -31 X s 314 1967 m -31 X s 314 1975 m -31 X s
 345 1981 m -62 X s
 gsave  2268 2637 0 0 C 266.919 1952.13 t 0 r  -38 0 t /Helvetica findfont 67.8145 sf 0 0 m (1) show NC gr  314 2026 m -31 X s 314 2052 m -31 X s 314 2071 m -31 X s 314 2085 m -31 X s 314 2097 m -31 X s 314 2106 m -31 X s 314 2115 m -31 X s 314 2123
 m -31 X s 345 2129 m -62 X s
 gsave  2268 2637 0 0 C 266.919 2100.11 t 0 r  -75 0 t /Helvetica findfont 67.8145 sf 0 0 m (10) show NC gr  314 2174 m -31 X s 314 2200 m -31 X s 314 2218 m -31 X s 314 2233 m -31 X s 314 2245 m -31 X s 314 2254 m -31 X s 314 2263 m -31 X s 314 2271
 m -31 X s 345 2277 m -62 X s
 gsave  2268 2637 0 0 C 241.42 2275.85 t 0 r /Helvetica findfont 46.1139 sf 0 0 m (2) show NC gr 
 gsave  2268 2637 0 0 C 165.467 2246.02 t 0 r /Helvetica findfont 70.5271 sf 0 0 m (10) show NC gr  314 2322 m -31 X s 314 2348 m -31 X s 314 2366 m -31 X s 314 2381 m -31 X s 314 2393 m -31 X s 314 2402 m -31 X s 314 2411 m -31 X s 314 2419 m -31 X
 s 345 2425 m -62 X s
 gsave  2268 2637 0 0 C 241.42 2427.76 t 0 r /Helvetica findfont 46.1139 sf 0 0 m (3) show NC gr 
 gsave  2268 2637 0 0 C 165.467 2395.21 t 0 r /Helvetica findfont 70.5271 sf 0 0 m (10) show NC gr  314 2470 m -31 X s 314 2496 m -31 X s 314 2514 m -31 X s 314 2529 m -31 X s 314 2541 m -31 X s 314 2550 m -31 X s 314 2559 m -31 X s 314 2567 m -31 X
 s 345 2573 m -62 X s
 gsave  2268 2637 0 0 C 241.42 2571.53 t 0 r /Helvetica findfont 46.1139 sf 0 0 m (4) show NC gr 
 gsave  2268 2637 0 0 C 165.467 2541.69 t 0 r /Helvetica findfont 70.5271 sf 0 0 m (10) show NC gr  2177 206 m 2367 Y s 2116 206 m 61 X s 2146 250 m 31 X s 2146 276 m 31 X s 2146 295 m 31 X s 2146 309 m 31 X s 2146 321 m 31 X s 2146 331 m 31 X s 2146
 339 m 31 X s 2146 347 m 31 X s 2116 354 m 61 X s 2146 398 m 31 X s 2146 424 m 31 X s 2146 443 m 31 X s 2146 457 m 31 X s 2146 469 m 31 X s 2146 479 m 31 X s 2146 487 m 31 X s 2146 495 m 31 X s 2116 502 m 61 X s 2146 546 m 31 X s 2146 572 m 31 X s
 2146 591 m 31 X s 2146 605 m 31 X s 2146 617 m 31 X s 2146 627 m 31 X s 2146 635 m 31 X s 2146 643 m 31 X s 2116 650 m 61 X s 2146 694 m 31 X s 2146 720 m 31 X s 2146 739 m 31 X s 2146 753 m 31 X s 2146 765 m 31 X s 2146 775 m 31 X s 2146 783 m 31 X
 s 2146 791 m 31 X s 2116 798 m 61 X s 2146 842 m 31 X s 2146 868 m 31 X s 2146 887 m 31 X s 2146 901 m 31 X s 2146 913 m 31 X s 2146 923 m 31 X s 2146 931 m 31 X s 2146 939 m 31 X s 2116 946 m 61 X s 2146 990 m 31 X s 2146 1016 m 31 X s 2146 1035 m
 31 X s 2146 1049 m 31 X s 2146 1061 m 31 X s 2146 1071 m 31 X s 2146 1079 m 31 X s 2146 1087 m 31 X s 2116 1094 m 61 X s 2146 1138 m 31 X s 2146 1164 m 31 X s 2146 1183 m 31 X s 2146 1197 m 31 X s 2146 1209 m 31 X s 2146 1219 m 31 X s 2146 1227 m 31
 X s 2146 1235 m 31 X s 2116 1242 m 61 X s 2146 1286 m 31 X s 2146 1312 m 31 X s 2146 1331 m 31 X s 2146 1345 m 31 X s 2146 1357 m 31 X s 2146 1367 m 31 X s 2146 1375 m 31 X s 2146 1383 m 31 X s 2116 1390 m 61 X s 2146 1434 m 31 X s 2146 1460 m 31 X
 s 2146 1479 m 31 X s 2146 1493 m 31 X s 2146 1505 m 31 X s 2146 1515 m 31 X s 2146 1523 m 31 X s 2146 1531 m 31 X s 2116 1537 m 61 X s 2146 1582 m 31 X s 2146 1608 m 31 X s 2146 1627 m 31 X s 2146 1641 m 31 X s 2146 1653 m 31 X s 2146 1663 m 31 X s
 2146 1671 m 31 X s 2146 1679 m 31 X s 2116 1685 m 61 X s 2146 1730 m 31 X s 2146 1756 m 31 X s 2146 1775 m 31 X s 2146 1789 m 31 X s 2146 1801 m 31 X s 2146 1811 m 31 X s 2146 1819 m 31 X s 2146 1827 m 31 X s 2116 1833 m 61 X s 2146 1878 m 31 X s
 2146 1904 m 31 X s 2146 1923 m 31 X s 2146 1937 m 31 X s 2146 1949 m 31 X s 2146 1959 m 31 X s 2146 1967 m 31 X s 2146 1975 m 31 X s 2116 1981 m 61 X s 2146 2026 m 31 X s 2146 2052 m 31 X s 2146 2071 m 31 X s 2146 2085 m 31 X s 2146 2097 m 31 X s
 2146 2106 m 31 X s 2146 2115 m 31 X s 2146 2123 m 31 X s 2116 2129 m 61 X s 2146 2174 m 31 X s 2146 2200 m 31 X s 2146 2218 m 31 X s 2146 2233 m 31 X s 2146 2245 m 31 X s 2146 2254 m 31 X s 2146 2263 m 31 X s 2146 2271 m 31 X s 2116 2277 m 61 X s
 2146 2322 m 31 X s 2146 2348 m 31 X s 2146 2366 m 31 X s 2146 2381 m 31 X s 2146 2393 m 31 X s 2146 2402 m 31 X s 2146 2411 m 31 X s 2146 2419 m 31 X s 2116 2425 m 61 X s 2146 2470 m 31 X s 2146 2496 m 31 X s 2146 2514 m 31 X s 2146 2529 m 31 X s
 2146 2541 m 31 X s 2146 2550 m 31 X s 2146 2559 m 31 X s 2146 2567 m 31 X s 2116 2573 m 61 X s[ 20 20] 0 sd 1 1 1 c black 283 2453 m 1 X s 284 2453 m 17 -3 d 17 -3 d 17 -5 d 18 -6 d 17 -6 d 17 -8 d 17 -8 d 17 -10 d 18 -10 d 17 -11 d 17 -11 d 17 -13
 d 17 -13 d 17 -14 d 18 -15 d 17 -16 d 17 -17 d 17 -17 d 17 -17 d 17 -19 d 18 -19 d 17 -19 d 17 -20 d 17 -20 d 17 -21 d 17 -21 d 18 -22 d 17 -22 d 17 -22 d 17 -22 d 17 -23 d 18 -23 d 17 -23 d 17 -23 d 17 -26 d 17 -24 d 17 -23 d 18 -24 d 17 -24 d 17
 -23 d 17 -24 d 17 -23 d 17 -23 d 18 -23 d 17 -23 d 17 -23 d 17 -23 d 17 -23 d 17 -23 d 18 -23 d 17 -22 d 17 -22 d 17 -22 d 17 -23 d 17 -22 d 18 -22 d 17 -23 d 17 -23 d 17 -22 d 17 -22 d 18 -22 d 17 -22 d 17 -21 d 17 -22 d 17 -22 d 17 -33 d 18 -22 d
 17 -23 d 17 -22 d 17 -23 d 17 -22 d 17 -23 d 18 -22 d 17 -22 d 17 -21 d 17 -22 d 17 -22 d 17 -22 d 18 -23 d 17 -23 d 17 -23 d 17 -24 d 17 -23 d 18 -24 d 17 -25 d 17 -23 d 17 -24 d 17 -24 d 17 -24 d 18 -24 d 17 -24 d 17 -24 d 17 -24 d 17 -23 d 17 -24
 d 18 -24 d 17 -24 d 17 -24 d 33 -47 d 34 -46 d 33 -47 d 34 -46 d 33 -47 d 8 -11 d s 1 1 1 c black 283 2213 m 5 1 d s 288 2214 m 13 5 d 12 5 d 13 4 d 13 -6 d 12 -8 d 13 -9 d 12 2 d 13 -7 d 13 -7 d 12 -7 d 13 -8 d 12 -10 d 13 -9 d 12 -11 d 13 -9 d 13
 -12 d 12 -13 d 13 -13 d 12 -14 d 13 -15 d 13 -16 d 12 -17 d 13 -17 d 12 -18 d 13 -18 d 13 -17 d 12 -18 d 13 -20 d 12 -19 d 13 -21 d 13 -21 d 12 -19 d 13 -21 d 12 -19 d 13 -20 d 12 -20 d 13 -21 d 13 -20 d 12 -21 d 13 -19 d 12 -20 d 13 -19 d 13 -19 d
 12 -19 d 13 -21 d 12 -19 d 13 -19 d 13 -20 d 12 -21 d 13 -19 d 12 -18 d 13 -19 d 13 -17 d 12 -16 d 13 -18 d 12 -18 d 13 -18 d 13 -20 d 12 -19 d 13 -19 d 12 -20 d 13 -19 d 12 -19 d 13 -19 d 13 -19 d 12 -18 d 13 -18 d 12 -19 d 13 -19 d 13 -19 d 12 -19
 d 13 -20 d 12 -21 d 13 -9 d 13 -21 d 12 -21 d 13 -21 d 12 -23 d 13 -24 d 13 -25 d 12 -24 d 13 -25 d 12 -24 d 13 -24 d 13 -25 d 12 -24 d 13 -25 d 12 -24 d 13 -25 d 12 -24 d 13 -24 d 13 -25 d 12 -24 d 13 -25 d 33 -64 d 34 -65 d 33 -65 d 33 -65 d 34
 -64 d 25 -48 d s 1 1 1 c black 288 2064 m 13 4 d 12 3 d 11 4 d 2 X 13 -7 d 12 -9 d 13 -9 d 12 -1 d 13 -9 d 13 -9 d 12 -10 d 13 -10 d 12 -12 d 13 -12 d 12 -13 d 13 -13 d 13 -15 d 12 -14 d 13 -14 d 12 -17 d 13 -16 d 13 -16 d 12 -19 d 13 -18 d 12 -19 d
 13 -19 d 13 -17 d 12 -18 d 13 -19 d 12 -20 d 13 -19 d 13 -21 d 12 -18 d 13 -19 d 12 -19 d 13 -20 d 12 -16 d 13 -19 d 13 -17 d 12 -19 d 13 -18 d 12 -18 d 13 -17 d 13 -18 d 12 -16 d 13 -16 d 12 -17 d 13 -17 d 13 -17 d 12 -19 d 13 -17 d 12 -16 d 13 -16
 d 13 -15 d 12 -13 d 13 -16 d 12 -15 d 13 -16 d 13 -17 d 12 -17 d 13 -17 d 12 -17 d 13 -17 d 12 -16 d 13 -17 d 13 -17 d 12 -15 d 13 -16 d 12 -16 d 13 -17 d 13 -16 d 12 -17 d 13 -17 d 12 -19 d 7 -5 d 6 -2 d s 1 1 1 c black 283 1685 m 6 1 d s 289 1686
 m 8 2 d 8 4 d 8 5 d 8 6 d 8 5 d 8 5 d 8 5 d 8 3 d 8 3 d 8 2 d 9 3 d 8 2 d 8 3 d 8 2 d 8 2 d 8 X 8 -1 d 8 -1 d 8 1 d 8 3 d 8 3 d 8 3 d 9 -4 d 8 -4 d 8 -4 d 8 -1 d 8 -2 d 8 -2 d 8 -4 d 8 -5 d 8 -3 d 8 -2 d 8 -2 d 8 -3 d 9 -6 d 8 -6 d 8 -5 d 8 -5 d 8
 -5 d 8 -7 d 8 -7 d 8 -7 d 8 -7 d 8 -6 d 8 -6 d 8 -7 d 9 -7 d 8 -8 d 8 -10 d 8 -10 d 8 -11 d 8 -9 d 8 -9 d 8 -9 d 8 -10 d 8 -10 d 8 -10 d 8 -10 d 9 -10 d 8 -11 d 8 -10 d 8 -11 d 8 -10 d 8 -11 d 8 -11 d 8 -11 d 8 -11 d 8 -11 d 8 -11 d 8 -10 d 9 -11 d
 8 -11 d 8 -11 d 8 -11 d 8 -11 d 8 -11 d 8 -11 d 8 -10 d 8 -11 d 8 -11 d 8 -11 d 9 -11 d 8 -11 d 8 -11 d 8 -11 d 8 -11 d 8 -10 d 8 -11 d 8 -11 d 33 -45 d 34 -45 d 33 -45 d 34 -45 d 33 -45 d 33 -45 d 34 -45 d 33 -45 d 34 -45 d s[  ] 0 sd 1664 874 m -2
 Y s 1658 872 m 11 X s 1724 803 m 4 Y s 1718 807 m 11 X s 1724 781 m -9 Y s 1718 772 m 11 X s 1 1 1 c black 3 lw /w 22 def /w2 {w 2 div} def /w3 {w 3 div} def 882 1908 942 1826 1002 1744 1063 1663 1123 1582 1183 1504 1243 1427 1302 1348 1363 1271
 1423 1195 1483 1115 1543 1038 1603 966 1664 885 1724 792 15 { m20} R 6 lw 1726 795 m s 1721 795 m 11 X s 1726 773 m -2 Y s 1721 771 m 11 X s 1787 711 m 5 Y s 1781 716 m 11 X s 1787 689 m -9 Y s 1781 680 m 11 X s 1846 629 m 12 Y s 1841 641 m 11 X s
 1846 607 m -18 Y s 1841 589 m 11 X s 1907 550 m 22 Y s 1902 572 m 11 X s 1907 529 m -34 Y s 1902 495 m 11 X s 1967 457 m 42 Y s 1962 499 m 10 X s 1967 435 m -96 Y s 1962 339 m 10 X s 1 1 1 c black 3 lw 1426 1178 1486 1100 1546 1020 1607 942 1666 864
 1726 784 1787 700 1846 618 1907 539 1967 446 10 { m20} R 6 lw 1 1 1 c black 3 lw 289 2453 298 2451 307 2449 318 2447 327 2445 336 2442 345 2439 354 2436 363 2432 373 2429 382 2425 390 2421 399 2416 407 2412 416 2408 424 2403 433 2398 441 2393 449
 2388 457 2382 465 2377 473 2372 481 2366 488 2360 496 2354 504 2349 511 2343 519 2336 526 2330 533 2324 541 2318 552 2308 566 2294 580 2281 594 2267 607 2253 621 2238 634 2224 648 2209 661 2194 674 2179 687 2164 700 2148 713 2133 726 2117 738 2101
 751 2085 763 2069 776 2053 789 2037 801 2020 813 2004 826 1988 838 1971 850 1954 863 1938 875 1922 887 1904 899 1888 912 1871 924 1856 936 1840 948 1822 960 1804 975 1783 994 1759 1012 1733 1030 1708 1048 1682 1066 1657 1084 1629 1102 1607 1121 1583
 1142 1555 1171 1513 1205 1475 1238 1431 1277 1376 78 { m20} R 6 lw 1196 1136 m 2 Y s 1191 1138 m 11 X s 1196 1115 m -1 Y s 1191 1114 m 11 X s 1218 1073 m 9 Y s 1213 1082 m 11 X s 1218 1052 m -9 Y s 1213 1043 m 11 X s 1237 1034 m 15 Y s 1232 1049 m
 11 X s 1237 1012 m -16 Y s 1232 996 m 11 X s 1260 959 m 20 Y s 1255 979 m 11 X s 1260 937 m -21 Y s 1255 916 m 11 X s 1313 891 m 13 Y s 1308 904 m 10 X s 1313 869 m -15 Y s 1308 854 m 10 X s 1390 692 m 65 Y s 1384 757 m 11 X s 1390 670 m -102 Y s
 1384 568 m 11 X s 1 1 1 c black 3 lw 789 1700 835 1624 869 1570 896 1528 918 1492 937 1466 953 1445 968 1430 999 1383 1045 1314 1079 1260 1106 1218 1128 1205 1147 1192 1170 1147 1196 1126 1218 1062 1237 1023 1260 948 1313 880 1390 681 21 { m25} R 6
 lw 1403 680 m s 1398 680 m 11 X s 1437 625 m 7 Y s 1431 632 m 11 X s 1437 603 m -13 Y s 1431 590 m 11 X s 1472 616 m s 1466 616 m 11 X s 1472 594 m -2 Y s 1466 592 m 11 X s 1 1 1 c black 3 lw 1232 1036 1266 978 1300 914 1335 839 1368 780 1403 691
 1437 614 1472 605 8 { m25} R 6 lw 629 1953 m 1 Y s 623 1954 m 11 X s 1 1 1 c black 3 lw 629 1943 638 1929 647 1912 656 1896 666 1886 676 1868 687 1851 698 1834 708 1816 719 1803 729 1783 740 1768 750 1752 761 1735 771 1719 782 1703 793 1687 806 1666
 819 1649 831 1630 845 1609 858 1588 872 1567 886 1544 901 1521 917 1497 933 1473 950 1448 967 1422 985 1395 1003 1369 1022 1341 1041 1313 1062 1283 1082 1253 1103 1221 1126 1188 1149 1153 1173 1115 1199 1075 1227 1030 1259 983 42 { m25} R 6 lw 986
 1400 m 1 Y s 980 1401 m 11 X s 986 1379 m -4 Y s 980 1375 m 11 X s 1039 1316 m s 1034 1316 m 11 X s 1039 1295 m -3 Y s 1034 1292 m 11 X s 1078 1250 m 7 Y s 1073 1257 m 11 X s 1078 1228 m -9 Y s 1073 1219 m 11 X s 1126 1171 m 13 Y s 1120 1184 m 11 X
 s 1126 1149 m -22 Y s 1120 1127 m 11 X s 1183 1098 m 26 Y s 1177 1124 m 11 X s 1183 1076 m -62 Y s 1177 1014 m 11 X s 1 1 1 c black 3 lw 388 2203 406 2193 424 2183 442 2170 460 2156 478 2141 496 2122 514 2103 532 2082 550 2060 568 2035 587 2010 603
 1985 622 1960 640 1933 658 1906 676 1875 694 1848 713 1818 730 1791 748 1761 766 1733 784 1700 802 1678 820 1643 838 1622 856 1588 874 1559 893 1540 910 1499 929 1480 947 1437 965 1416 986 1390 1010 1367 1039 1305 1078 1239 1126 1160 1183 1087 39 {
 m25} R 6 lw 283 2202 m -1 Y s 283 2201 m 6 X s 517 2095 m 2 Y s 512 2097 m 11 X s 517 2073 m -3 Y s 512 2070 m 11 X s 584 2023 m 5 Y s 579 2028 m 10 X s 584 2002 m -1 Y s 579 2001 m 10 X s 661 1939 m 5 Y s 655 1944 m 11 X s 661 1918 m -4 Y s 655
 1914 m 11 X s 1 1 1 c black 3 lw 283 2213 327 2229 367 2203 398 2186 464 2131 517 2084 584 2013 661 1929 8 { m25} R 6 lw 900 1383 m -2 Y s 895 1381 m 10 X s 930 1362 m 5 Y s 925 1367 m 11 X s 930 1340 m -10 Y s 925 1330 m 11 X s 960 1340 m 7 Y s 955
 1347 m 10 X s 960 1318 m -15 Y s 955 1303 m 10 X s 990 1291 m 8 Y s 985 1299 m 10 X s 990 1270 m -17 Y s 985 1253 m 10 X s 1020 1268 m 10 Y s 1015 1278 m 11 X s 1020 1247 m -21 Y s 1015 1226 m 11 X s 1050 1246 m 18 Y s 1045 1264 m 11 X s 1050 1225 m
 -42 Y s 1045 1183 m 11 X s 1 1 1 c black 3 lw 780 1568 810 1523 840 1484 870 1440 900 1394 930 1351 960 1329 990 1280 1020 1257 1050 1236 10 { m24} R 6 lw 595 1827 m 1 Y s 590 1828 m 11 X s 595 1805 m -4 Y s 590 1801 m 11 X s 631 1765 m -2 Y s 625
 1763 m 11 X s 688 1691 m 2 Y s 683 1693 m 10 X s 688 1669 m -5 Y s 683 1664 m 10 X s 758 1548 m 16 Y s 752 1564 m 11 X s 758 1527 m -20 Y s 752 1507 m 11 X s 836 1448 m 31 Y s 831 1479 m 11 X s 836 1426 m -36 Y s 831 1390 m 11 X s 1 1 1 c black 3 lw
 595 1816 631 1775 688 1680 758 1537 836 1437 5 { m24} R 6 lw 298 1699 m 9 Y s 293 1708 m 11 X s 298 1677 m -19 Y s 293 1658 m 11 X s 346 1730 m 2 Y s 341 1732 m 11 X s 346 1708 m -6 Y s 341 1702 m 11 X s 383 1742 m s 377 1742 m 11 X s 383 1720 m -3
 Y s 377 1717 m 11 X s 412 1728 m -2 Y s 407 1726 m 11 X s 923 1311 m 1 Y s 918 1312 m 11 X s 923 1290 m -4 Y s 918 1286 m 11 X s 1008 1201 m 28 Y s 1003 1229 m 11 X s 1008 1179 m -24 Y s 1003 1155 m 11 X s 1 1 1 c black 3 lw 298 1688 346 1719 383
 1731 412 1738 438 1735 466 1746 489 1734 513 1730 536 1717 559 1713 582 1696 606 1682 628 1662 652 1643 676 1623 701 1590 730 1557 762 1517 800 1468 849 1402 923 1300 1008 1190 22 { m21} R 6 lw
 gsave  2268 2637 0 0 C 1432.24 2321.97 t 0 r /Helvetica findfont 70.5271 sf 0 0 m (Protons) show NC gr  1 1 1 c 3 lw 1314 2302 m 99 X 102 Y -99 X f 6 lw black 1314 2353 m 99 X s 3 lw 1363 2353 m20 6 lw
 gsave  2268 2637 0 0 C 1432.24 2178.2 t 0 r /Helvetica findfont 70.5271 sf 0 0 m (Electrons + positrons) show NC gr  1 1 1 c 3 lw 1314 2157 m 99 X 102 Y -99 X f 6 lw black 1314 2208 m 99 X s 3 lw 1363 2208 m25 6 lw
 gsave  2268 2637 0 0 C 1432.24 2031.72 t 0 r /Helvetica findfont 70.5271 sf 0 0 m (Positrons) show NC gr  1 1 1 c 3 lw 1314 2012 m 99 X 102 Y -99 X f 6 lw black 1314 2063 m 99 X s 3 lw 1363 2063 m24 6 lw
 gsave  2268 2637 0 0 C 1432.24 1887.96 t 0 r /Helvetica findfont 70.5271 sf 0 0 m (Anti\255protons) show NC gr  1 1 1 c 3 lw 1314 1867 m 99 X 102 Y -99 X f 6 lw black 1314 1918 m 99 X s 3 lw 1363 1918 m21 6 lw
 gr  gr showpage
end
%%EOF
