%!PS-Adobe-2.0 EPSF-2.0
%%BoundingBox:  0 0 567 442
%%Title: cre_broadband_spectra.eps: cre_broadband_spectra
%%Creator: ROOT Version 5.34/14
%%CreationDate: Thu Jul  3 21:44:18 2014
%%EndComments
%%BeginProlog
80 dict begin
/s {stroke} def /l {lineto} def /m {moveto} def /t {translate} def
/r {rotate} def /rl {roll}  def /R {repeat} def
/d {rlineto} def /rm {rmoveto} def /gr {grestore} def /f {eofill} def
/c {setrgbcolor} def /black {0 setgray} def /sd {setdash} def
/cl {closepath} def /sf {scalefont setfont} def /lw {setlinewidth} def
/box {m dup 0 exch d exch 0 d 0 exch neg d cl} def
/NC{systemdict begin initclip end}def/C{NC box clip newpath}def
/bl {box s} def /bf {box f} def /Y { 0 exch d} def /X { 0 d} def 
/K {{pop pop 0 moveto} exch kshow} bind def
/ita {/ang 15 def gsave [1 0 ang dup sin exch cos div 1 0 0] concat} def 
/mp {newpath /y exch def /x exch def} def
/side {[w .77 mul w .23 mul] .385 w mul sd w 0 l currentpoint t -144 r} def
/mr {mp x y w2 0 360 arc} def /m24 {mr s} def /m20 {mr f} def
/mb {mp x y w2 add m w2 neg 0 d 0 w neg d w 0 d 0 w d cl} def
/mt {mp x y w2 add m w2 neg w neg d w 0 d cl} def
/m21 {mb f} def /m25 {mb s} def /m22 {mt f} def /m26{mt s} def
/m23 {mp x y w2 sub m w2 w d w neg 0 d cl f} def
/m27 {mp x y w2 add m w3 neg w2 neg d w3 w2 neg d w3 w2 d cl s} def
/m28 {mp x w2 sub y w2 sub w3 add m w3 0 d  0 w3 neg d w3 0 d 0 w3 d w3 0 d  0 w3 d w3 neg 0 d 0 w3 d w3 neg 0 d 0 w3 neg d w3 neg 0 d cl s } def
/m29 {mp gsave x w2 sub y w2 add w3 sub m currentpoint t 4 {side} repeat cl fill gr} def
/m30 {mp gsave x w2 sub y w2 add w3 sub m currentpoint t 4 {side} repeat cl s gr} def
/m31 {mp x y w2 sub m 0 w d x w2 sub y m w 0 d x w2 sub y w2 add m w w neg d x w2 sub y w2 sub m w w d s} def
/m32 {mp x y w2 sub m w2 w d w neg 0 d cl s} def
/m33 {mp x y w2 add m w3 neg w2 neg d w3 w2 neg d w3 w2 d cl f} def
/m34 {mp x w2 sub y w2 sub w3 add m w3 0 d  0 w3 neg d w3 0 d 0 w3 d w3 0 d  0 w3 d w3 neg 0 d 0 w3 d w3 neg 0 d 0 w3 neg d w3 neg 0 d cl f } def
/m2 {mp x y w2 sub m 0 w d x w2 sub y m w 0 d s} def
/m5 {mp x w2 sub y w2 sub m w w d x w2 sub y w2 add m w w neg d s} def
/reEncode {exch findfont dup length dict begin {1 index /FID eq  {pop pop} {def} ifelse } forall /Encoding exch def currentdict end dup /FontName get exch definefont pop } def [/Times-Bold /Times-Italic /Times-BoldItalic /Helvetica /Helvetica-Oblique
 /Helvetica-Bold /Helvetica-BoldOblique /Courier /Courier-Oblique /Courier-Bold /Courier-BoldOblique /Times-Roman /AvantGarde-Book /AvantGarde-BookOblique /AvantGarde-Demi /AvantGarde-DemiOblique /Bookman-Demi /Bookman-DemiItalic /Bookman-Light
 /Bookman-LightItalic /Helvetica-Narrow /Helvetica-Narrow-Bold /Helvetica-Narrow-BoldOblique /Helvetica-Narrow-Oblique /NewCenturySchlbk-Roman /NewCenturySchlbk-Bold /NewCenturySchlbk-BoldItalic /NewCenturySchlbk-Italic /Palatino-Bold
 /Palatino-BoldItalic /Palatino-Italic /Palatino-Roman ] {ISOLatin1Encoding reEncode } forall
%%EndProlog
%%BeginSetup
%%EndSetup
newpath  gsave  .25 .25 scale  gsave  0 0 t black[  ] 0 sd 6 lw 1 1 1 c 2268 1769 0 0 bf black 3 lw 1 1 1 c 1894 1482 283 216 bf black 1894 1482 283 216 bl 1 1 1 c 1894 1482 283 216 bf black 1894 1482 283 216 bl 6 lw 283 216 m 1894 X s 0.6 0.6 0.6 c[
 12 12] 0 sd 3 lw 283 1698 m -1482 Y s 616 1698 m -1482 Y s 810 1698 m -1482 Y s 948 1698 m -1482 Y s 1055 1698 m -1482 Y s 1142 1698 m -1482 Y s 1216 1698 m -1482 Y s 1280 1698 m -1482 Y s 1336 1698 m -1482 Y s 1387 1698 m -1482 Y s 1719 1698 m
 -1482 Y s 1913 1698 m -1482 Y s 2051 1698 m -1482 Y s 2158 1698 m -1482 Y s black[  ] 0 sd 6 lw 283 1698 m 1894 X s 283 216 m 1482 Y s 0.6 0.6 0.6 c[ 12 12] 0 sd 3 lw 2177 261 m -1894 X s 2177 620 m -1894 X s 2177 979 m -1894 X s 2177 1339 m -1894 X
 s 2177 1698 m -1894 X s black[  ] 0 sd 6 lw 2177 216 m 1482 Y s 1 1 1 c black 283 216 m 1894 X s 283 216 m 1894 X s
 gsave  2268 1769 0 0 C 1706.21 27.1258 t 0 r /Helvetica findfont 78.6648 sf 0 0 m (Energy [GeV]) show NC gr  283 260 m -44 Y s
 gsave  2268 1769 0 0 C 283.466 119.893 t 0 r  -19 0 t /Helvetica findfont 67.8145 sf 0 0 m (1) show NC gr  616 238 m -22 Y s 810 238 m -22 Y s 948 238 m -22 Y s 1055 238 m -22 Y s 1142 238 m -22 Y s 1216 238 m -22 Y s 1280 238 m -22 Y s 1336 238 m
 -22 Y s 1387 260 m -44 Y s
 gsave  2268 1769 0 0 C 1386.93 119.893 t 0 r  -38 0 t /Helvetica findfont 67.8145 sf 0 0 m (10) show NC gr  1719 238 m -22 Y s 1913 238 m -22 Y s 2051 238 m -22 Y s 2158 238 m -22 Y s 283 1698 m 1894 X s 283 1654 m 44 Y s 616 1676 m 22 Y s 810 1676
 m 22 Y s 948 1676 m 22 Y s 1055 1676 m 22 Y s 1142 1676 m 22 Y s 1216 1676 m 22 Y s 1280 1676 m 22 Y s 1336 1676 m 22 Y s 1387 1654 m 44 Y s 1719 1676 m 22 Y s 1913 1676 m 22 Y s 2051 1676 m 22 Y s 2158 1676 m 22 Y s 283 216 m 1482 Y s
 gsave  2268 1769 0 0 C 92.2277 1679.09 t 90 r /Helvetica findfont 78.6648 sf 0 0 m (]) show NC gr 
 gsave  2268 1769 0 0 C 65.1019 1643.82 t 90 r /Helvetica findfont 51.539 sf 0 0 m (\2551) show NC gr 
 gsave  2268 1769 0 0 C 92.2277 1557.02 t 90 r /Helvetica findfont 78.6648 sf 0 0 m ( sr) show NC gr 
 gsave  2268 1769 0 0 C 54.2516 1521.76 t 90 r /Helvetica findfont 51.539 sf 0 0 m (\2551) show NC gr 
 gsave  2268 1769 0 0 C 92.2277 1342.73 t 90 r /Helvetica findfont 78.6648 sf 0 0 m ( GeV) show NC gr 
 gsave  2268 1769 0 0 C 65.1019 1307.46 t 90 r /Helvetica findfont 51.539 sf 0 0 m (\2551) show NC gr 
 gsave  2268 1769 0 0 C 92.2277 1247.79 t 90 r /Helvetica findfont 78.6648 sf 0 0 m ( s) show NC gr 
 gsave  2268 1769 0 0 C 54.2516 1201.67 t 90 r /Helvetica findfont 51.539 sf 0 0 m (\2552) show NC gr 
 gsave  2268 1769 0 0 C 92.2277 952.115 t 90 r /Helvetica findfont 78.6648 sf 0 0 m (J\(E\) [m) show NC gr  312 226 m -29 X s 312 244 m -29 X s 340 261 m -57 X s
 gsave  2268 1769 0 0 C 222.432 263.12 t 0 r /Helvetica findfont 46.1139 sf 0 0 m (\2553) show NC gr 
 gsave  2268 1769 0 0 C 146.479 230.569 t 0 r /Helvetica findfont 70.5271 sf 0 0 m (10) show NC gr  312 369 m -29 X s 312 432 m -29 X s 312 477 m -29 X s 312 512 m -29 X s 312 540 m -29 X s 312 564 m -29 X s 312 585 m -29 X s 312 604 m -29 X s 340
 620 m -57 X s
 gsave  2268 1769 0 0 C 222.432 618.468 t 0 r /Helvetica findfont 46.1139 sf 0 0 m (\2552) show NC gr 
 gsave  2268 1769 0 0 C 146.479 588.63 t 0 r /Helvetica findfont 70.5271 sf 0 0 m (10) show NC gr  312 728 m -29 X s 312 791 m -29 X s 312 836 m -29 X s 312 871 m -29 X s 312 900 m -29 X s 312 924 m -29 X s 312 944 m -29 X s 312 963 m -29 X s 340 979
 m -57 X s
 gsave  2268 1769 0 0 C 230.569 979.241 t 0 r /Helvetica findfont 46.1139 sf 0 0 m (\2551) show NC gr 
 gsave  2268 1769 0 0 C 154.617 949.403 t 0 r /Helvetica findfont 70.5271 sf 0 0 m (10) show NC gr  312 1087 m -29 X s 312 1151 m -29 X s 312 1196 m -29 X s 312 1230 m -29 X s 312 1259 m -29 X s 312 1283 m -29 X s 312 1304 m -29 X s 312 1322 m -29 X
 s 340 1339 m -57 X s
 gsave  2268 1769 0 0 C 264.363 1309.26 t 0 r  -38 0 t /Helvetica findfont 67.8145 sf 0 0 m (1) show NC gr  312 1447 m -29 X s 312 1510 m -29 X s 312 1555 m -29 X s 312 1590 m -29 X s 312 1618 m -29 X s 312 1642 m -29 X s 312 1663 m -29 X s 312 1681
 m -29 X s 340 1698 m -57 X s
 gsave  2268 1769 0 0 C 264.363 1668.56 t 0 r  -76 0 t /Helvetica findfont 67.8145 sf 0 0 m (10) show NC gr  2177 216 m 1482 Y s 2149 226 m 28 X s 2149 244 m 28 X s 2120 261 m 57 X s 2149 369 m 28 X s 2149 432 m 28 X s 2149 477 m 28 X s 2149 512 m 28
 X s 2149 540 m 28 X s 2149 564 m 28 X s 2149 585 m 28 X s 2149 604 m 28 X s 2120 620 m 57 X s 2149 728 m 28 X s 2149 791 m 28 X s 2149 836 m 28 X s 2149 871 m 28 X s 2149 900 m 28 X s 2149 924 m 28 X s 2149 944 m 28 X s 2149 963 m 28 X s 2120 979 m
 57 X s 2149 1087 m 28 X s 2149 1151 m 28 X s 2149 1196 m 28 X s 2149 1230 m 28 X s 2149 1259 m 28 X s 2149 1283 m 28 X s 2149 1304 m 28 X s 2149 1322 m 28 X s 2120 1339 m 57 X s 2149 1447 m 28 X s 2149 1510 m 28 X s 2149 1555 m 28 X s 2149 1590 m 28
 X s 2149 1618 m 28 X s 2149 1642 m 28 X s 2149 1663 m 28 X s 2149 1681 m 28 X s 2120 1698 m 57 X s[ 20 20] 0 sd 1 1 1 c black 322 1557 m 73 -70 d 74 -73 d 21 -16 d 52 -35 d 53 -41 d 21 -18 d 73 -66 d 62 -53 d 12 -12 d 30 -31 d 44 -48 d 73 -81 d 31
 -29 d 43 -39 d 73 -77 d 50 -47 d 24 -18 d 22 -13 d 31 -13 d 20 -7 d 53 -21 d 16 -2 d 5 X 13 4 d 14 7 d 47 29 d 35 21 d 24 14 d 14 6 d 23 4 d 27 2 d 24 -2 d 28 -5 d 32 -10 d 13 -6 d 30 -14 d 31 -19 d 13 -9 d 28 -22 d 45 -42 d 74 -64 d 74 -70 d 66 -59
 d 7 -7 d 74 -77 d 62 -63 d 11 -11 d 54 -48 d 20 -18 d s[  ] 0 sd 3 lw /w 26 def /w2 {w 2 div} def /w3 {w 3 div} def 322 1557 395 1487 469 1414 542 1363 616 1304 689 1238 763 1173 837 1094 910 1013 984 945 1057 868 1131 803 1204 770 1278 747 1352 787
 1425 828 1499 832 1572 811 1646 769 1719 705 1793 641 1867 571 1940 505 2014 428 2087 354 2161 288 26 { m20} R[ 20 20] 0 sd 6 lw 1 1 1 c black 322 1471 m 53 -55 d 20 -20 d 56 -54 d 18 -14 d 22 -15 d 41 -24 d 10 -7 d 74 -64 d 73 -60 d 65 -54 d 9 -8 d
 55 -51 d 19 -18 d 73 -75 d 47 -45 d 27 -24 d 46 -38 d 27 -19 d 41 -24 d 15 -6 d 15 -3 d 3 X 14 2 d 18 7 d 20 11 d 21 13 d 21 16 d 41 35 d 12 9 d 36 22 d 22 10 d 16 5 d 25 4 d 22 X 26 -5 d 21 -7 d 53 -28 d 50 -30 d 23 -15 d 55 -37 d 19 -15 d 73 -72 d
 64 -54 d 10 -9 d 74 -75 d 73 -75 d 74 -73 d 31 -28 d 27 -26 d 15 -16 d 26 -32 d 24 -33 d 24 -36 d s[  ] 0 sd 3 lw /w 22 def /w2 {w 2 div} def /w3 {w 3 div} def 322 1471 395 1396 469 1328 542 1282 616 1218 689 1158 763 1096 837 1027 910 952 984 883
 1057 826 1131 793 1204 826 1278 886 1352 923 1425 922 1499 887 1572 842 1646 790 1719 718 1793 655 1867 580 1940 505 2014 432 2087 362 2161 261 26 { m24} R[ 20 20] 0 sd 6 lw 1 1 1 c black 322 1432 m 24 -35 d 21 -27 d 23 -26 d 5 -5 d 15 -14 d 25 -18
 d 27 -19 d 7 -6 d 73 -71 d 17 -9 d 28 -11 d 18 -8 d 11 -7 d 16 -13 d 57 -59 d 16 -10 d 40 -20 d 15 -10 d 3 -2 d 14 -15 d 46 -55 d 14 -13 d 15 -11 d 20 -11 d 32 -17 d 6 -5 d 56 -49 d 13 -8 d 5 -2 d 16 -5 d 21 -1 d 20 2 d 16 5 d 20 8 d 21 12 d 22 16 d
 11 10 d 14 15 d 22 27 d 21 27 d 13 13 d 3 3 d 20 14 d 19 11 d 19 7 d 16 4 d 17 1 d 21 -4 d 36 -11 d 27 -11 d 27 -15 d 19 -12 d 74 -63 d 55 -42 d 18 -14 d 32 -30 d 42 -40 d 73 -70 d 55 -55 d 19 -21 d 74 -87 d 20 -19 d 43 -35 d 10 -9 d 66 -73 d 8 -7 d
 21 -18 d 39 -27 d 13 -11 d 27 -27 d 27 -30 d 20 -23 d s[  ] 0 sd 3 lw 322 1432 395 1339 469 1282 542 1211 616 1176 689 1104 763 1062 837 979 910 935 984 876 1057 877 1131 923 1204 1008 1278 1044 1352 1030 1425 992 1499 929 1572 873 1646 803 1719 733
 1793 657 1867 570 1940 507 2014 427 2087 371 2161 291 26 { m21} R[ 20 20] 0 sd 6 lw 1 1 1 c black 322 1392 m 46 -44 d 27 -24 d 48 -40 d 26 -19 d 26 -17 d 47 -28 d 74 -51 d 73 -47 d 74 -45 d 60 -38 d 14 -10 d 73 -62 d 24 -11 d 17 -6 d 14 -2 d 14 1 d
 5 1 d 12 4 d 15 10 d 16 14 d 30 29 d 15 16 d 28 35 d 20 24 d 11 10 d 24 19 d 18 11 d 19 8 d 12 3 d 18 2 d 22 -2 d 27 -7 d 7 -3 d 22 -10 d 27 -17 d 25 -17 d 31 -23 d 42 -35 d 74 -67 d 59 -52 d 14 -14 d 74 -82 d 57 -57 d 16 -18 d 74 -87 d 15 -13 d 22
 -14 d 22 -15 d 15 -13 d 13 -15 d 56 -79 d 4 -5 d 12 -10 d 18 -9 d 26 -13 d 13 -8 d 5 -5 d 14 -15 d 20 -26 d 39 -56 d 45 -65 d 29 -42 d s[  ] 0 sd 3 lw 322 1392 395 1324 469 1265 542 1220 616 1169 689 1122 763 1077 837 1029 910 967 984 950 1057 1007
 1131 1092 1204 1133 1278 1123 1352 1079 1425 1021 1499 954 1572 888 1646 806 1719 731 1793 644 1867 589 1940 490 2014 445 2087 348 2161 241 26 { m25} R[ 20 20] 0 sd 6 lw 1 1 1 c black 322 1401 m 44 -35 d 29 -26 d 62 -61 d 12 -9 d 15 -8 d 24 -9 d 25
 -8 d 9 -4 d 61 -43 d 13 -8 d 24 -11 d 33 -14 d 16 -10 d 16 -13 d 51 -50 d 7 -5 d 14 -6 d 23 -5 d 25 -4 d 12 -4 d 73 -50 d 15 X 15 4 d 17 8 d 19 12 d 8 7 d 13 13 d 18 23 d 27 39 d 15 17 d 25 22 d 20 15 d 21 12 d 8 4 d 24 8 d 18 4 d 18 X 13 -2 d 16 -5
 d 18 -10 d 40 -28 d 29 -23 d 45 -38 d 49 -45 d 24 -23 d 74 -76 d 73 -71 d 51 -52 d 23 -25 d 73 -91 d 39 -41 d 23 -23 d 12 -9 d 16 -11 d 41 -21 d 17 -12 d 21 -19 d 24 -27 d 28 -34 d 17 -25 d 51 -78 d 6 -8 d 16 -18 d 35 -34 d 22 -22 d 31 -37 d 33 -42
 d 10 -13 d s[  ] 0 sd 3 lw /w 26 def /w2 {w 2 div} def /w3 {w 3 div} def 322 1401 395 1340 469 1270 542 1241 616 1190 689 1155 763 1087 837 1068 910 1018 984 1049 1057 1141 1131 1194 1204 1204 1278 1161 1352 1100 1425 1032 1499 956 1572 885 1646 808
 1719 717 1793 644 1867 600 1940 520 2014 409 2087 335 2161 243 26 { m22} R[ 20 20] 0 sd 6 lw
 gsave  2268 1769 0 0 C 1546.17 1521.76 t 0 r /Helvetica findfont 70.5271 sf 0 0 m (1.00 < L < 1.14) show NC gr  1 1 1 c[  ] 0 sd 3 lw 1427 1509 m 99 X 68 Y -99 X f[ 20 20] 0 sd 6 lw black 1427 1543 m 99 X s[  ] 0 sd 3 lw 1477 1543 m20[ 20 20] 0 sd 6
 lw
 gsave  2268 1769 0 0 C 1546.17 1424.1 t 0 r /Helvetica findfont 70.5271 sf 0 0 m (1.14 < L < 1.28) show NC gr  1 1 1 c[  ] 0 sd 3 lw 1427 1412 m 99 X 68 Y -99 X f[ 20 20] 0 sd 6 lw black 1427 1446 m 99 X s[  ] 0 sd 3 lw /w 22 def /w2 {w 2 div} def
 /w3 {w 3 div} def 1477 1446 m24[ 20 20] 0 sd 6 lw
 gsave  2268 1769 0 0 C 1546.17 1329.16 t 0 r /Helvetica findfont 70.5271 sf 0 0 m (1.28 < L < 1.42) show NC gr  1 1 1 c[  ] 0 sd 3 lw 1427 1315 m 99 X 68 Y -99 X f[ 20 20] 0 sd 6 lw black 1427 1349 m 99 X s[  ] 0 sd 3 lw 1477 1349 m21[ 20 20] 0 sd 6
 lw
 gsave  2268 1769 0 0 C 1546.17 1231.51 t 0 r /Helvetica findfont 70.5271 sf 0 0 m (1.42 < L < 1.56) show NC gr  1 1 1 c[  ] 0 sd 3 lw 1427 1217 m 99 X 68 Y -99 X f[ 20 20] 0 sd 6 lw black 1427 1251 m 99 X s[  ] 0 sd 3 lw 1477 1251 m25[ 20 20] 0 sd 6
 lw
 gsave  2268 1769 0 0 C 1546.17 1133.86 t 0 r /Helvetica findfont 70.5271 sf 0 0 m (1.56 < L < 1.70) show NC gr  1 1 1 c[  ] 0 sd 3 lw 1427 1120 m 99 X 68 Y -99 X f[ 20 20] 0 sd 6 lw black 1427 1154 m 99 X s[  ] 0 sd 3 lw /w 26 def /w2 {w 2 div} def
 /w3 {w 3 div} def 1477 1154 m22[ 20 20] 0 sd 6 lw
 gr  gr showpage
end
%%EOF
