%!PS-Adobe-2.0 EPSF-2.0
%%BoundingBox:  0 0 567 442
%%Title: cre_cutoff_fermi.eps: cre_cutoff_fermi
%%Creator: ROOT Version 5.34/14
%%CreationDate: Sat Jul 26 12:08:49 2014
%%EndComments
%%BeginProlog
80 dict begin
/s {stroke} def /l {lineto} def /m {moveto} def /t {translate} def
/r {rotate} def /rl {roll}  def /R {repeat} def
/d {rlineto} def /rm {rmoveto} def /gr {grestore} def /f {eofill} def
/c {setrgbcolor} def /black {0 setgray} def /sd {setdash} def
/cl {closepath} def /sf {scalefont setfont} def /lw {setlinewidth} def
/box {m dup 0 exch d exch 0 d 0 exch neg d cl} def
/NC{systemdict begin initclip end}def/C{NC box clip newpath}def
/bl {box s} def /bf {box f} def /Y { 0 exch d} def /X { 0 d} def 
/K {{pop pop 0 moveto} exch kshow} bind def
/ita {/ang 15 def gsave [1 0 ang dup sin exch cos div 1 0 0] concat} def 
/mp {newpath /y exch def /x exch def} def
/side {[w .77 mul w .23 mul] .385 w mul sd w 0 l currentpoint t -144 r} def
/mr {mp x y w2 0 360 arc} def /m24 {mr s} def /m20 {mr f} def
/mb {mp x y w2 add m w2 neg 0 d 0 w neg d w 0 d 0 w d cl} def
/mt {mp x y w2 add m w2 neg w neg d w 0 d cl} def
/m21 {mb f} def /m25 {mb s} def /m22 {mt f} def /m26{mt s} def
/m23 {mp x y w2 sub m w2 w d w neg 0 d cl f} def
/m27 {mp x y w2 add m w3 neg w2 neg d w3 w2 neg d w3 w2 d cl s} def
/m28 {mp x w2 sub y w2 sub w3 add m w3 0 d  0 w3 neg d w3 0 d 0 w3 d w3 0 d  0 w3 d w3 neg 0 d 0 w3 d w3 neg 0 d 0 w3 neg d w3 neg 0 d cl s } def
/m29 {mp gsave x w2 sub y w2 add w3 sub m currentpoint t 4 {side} repeat cl fill gr} def
/m30 {mp gsave x w2 sub y w2 add w3 sub m currentpoint t 4 {side} repeat cl s gr} def
/m31 {mp x y w2 sub m 0 w d x w2 sub y m w 0 d x w2 sub y w2 add m w w neg d x w2 sub y w2 sub m w w d s} def
/m32 {mp x y w2 sub m w2 w d w neg 0 d cl s} def
/m33 {mp x y w2 add m w3 neg w2 neg d w3 w2 neg d w3 w2 d cl f} def
/m34 {mp x w2 sub y w2 sub w3 add m w3 0 d  0 w3 neg d w3 0 d 0 w3 d w3 0 d  0 w3 d w3 neg 0 d 0 w3 d w3 neg 0 d 0 w3 neg d w3 neg 0 d cl f } def
/m2 {mp x y w2 sub m 0 w d x w2 sub y m w 0 d s} def
/m5 {mp x w2 sub y w2 sub m w w d x w2 sub y w2 add m w w neg d s} def
/reEncode {exch findfont dup length dict begin {1 index /FID eq  {pop pop} {def} ifelse } forall /Encoding exch def currentdict end dup /FontName get exch definefont pop } def [/Times-Bold /Times-Italic /Times-BoldItalic /Helvetica /Helvetica-Oblique
 /Helvetica-Bold /Helvetica-BoldOblique /Courier /Courier-Oblique /Courier-Bold /Courier-BoldOblique /Times-Roman /AvantGarde-Book /AvantGarde-BookOblique /AvantGarde-Demi /AvantGarde-DemiOblique /Bookman-Demi /Bookman-DemiItalic /Bookman-Light
 /Bookman-LightItalic /Helvetica-Narrow /Helvetica-Narrow-Bold /Helvetica-Narrow-BoldOblique /Helvetica-Narrow-Oblique /NewCenturySchlbk-Roman /NewCenturySchlbk-Bold /NewCenturySchlbk-BoldItalic /NewCenturySchlbk-Italic /Palatino-Bold
 /Palatino-BoldItalic /Palatino-Italic /Palatino-Roman ] {ISOLatin1Encoding reEncode } forall
%%EndProlog
%%BeginSetup
%%EndSetup
newpath  gsave  .25 .25 scale  gsave  0 0 t black[  ] 0 sd 6 lw 1 1 1 c 2268 1769 0 0 bf black 3 lw 1 1 1 c 1894 1482 283 216 bf black 1894 1482 283 216 bl 1 1 1 c 1894 1482 283 216 bf black 1894 1482 283 216 bl 6 lw 283 216 m 1894 X s 0.6 0.6 0.6 c[
 12 12] 0 sd 3 lw 439 1698 m -1482 Y s 559 1698 m -1482 Y s 658 1698 m -1482 Y s 741 1698 m -1482 Y s 813 1698 m -1482 Y s 877 1698 m -1482 Y s 934 1698 m -1482 Y s 1308 1698 m -1482 Y s 1527 1698 m -1482 Y s 1682 1698 m -1482 Y s 1803 1698 m -1482 Y
 s 1901 1698 m -1482 Y s 1984 1698 m -1482 Y s 2057 1698 m -1482 Y s 2120 1698 m -1482 Y s 2177 1698 m -1482 Y s black[  ] 0 sd 6 lw 283 1698 m 1894 X s 283 216 m 1482 Y s 0.6 0.6 0.6 c[ 12 12] 0 sd 3 lw 2177 216 m -1894 X s 2177 364 m -1894 X s 2177
 512 m -1894 X s 2177 660 m -1894 X s 2177 809 m -1894 X s 2177 957 m -1894 X s 2177 1105 m -1894 X s 2177 1253 m -1894 X s 2177 1401 m -1894 X s 2177 1550 m -1894 X s 2177 1698 m -1894 X s black[  ] 0 sd 6 lw 2177 216 m 1482 Y s 1 1 1 c black 283
 216 m 1894 X s 283 216 m 1894 X s
 gsave  2268 1769 0 0 C 1706.21 27.1258 t 0 r /Helvetica findfont 78.6648 sf 0 0 m (Energy [GeV]) show NC gr  439 238 m -22 Y s 559 238 m -22 Y s 658 238 m -22 Y s 741 238 m -22 Y s 813 238 m -22 Y s 877 238 m -22 Y s 934 260 m -44 Y s
 gsave  2268 1769 0 0 C 933.61 119.893 t 0 r  -37 0 t /Helvetica findfont 67.8145 sf 0 0 m (10) show NC gr  1308 238 m -22 Y s 1527 238 m -22 Y s 1682 238 m -22 Y s 1803 238 m -22 Y s 1901 238 m -22 Y s 1984 238 m -22 Y s 2057 238 m -22 Y s 2120 238
 m -22 Y s 2177 260 m -44 Y s
 gsave  2268 1769 0 0 C 2199.9 154.617 t 0 r /Helvetica findfont 46.1139 sf 0 0 m (2) show NC gr 
 gsave  2268 1769 0 0 C 2123.95 122.066 t 0 r /Helvetica findfont 70.5271 sf 0 0 m (10) show NC gr  283 1698 m 1894 X s 439 1676 m 22 Y s 559 1676 m 22 Y s 658 1676 m 22 Y s 741 1676 m 22 Y s 813 1676 m 22 Y s 877 1676 m 22 Y s 934 1654 m 44 Y s 1308
 1676 m 22 Y s 1527 1676 m 22 Y s 1682 1676 m 22 Y s 1803 1676 m 22 Y s 1901 1676 m 22 Y s 1984 1676 m 22 Y s 2057 1676 m 22 Y s 2120 1676 m 22 Y s 2177 1654 m 44 Y s 283 216 m 1482 Y s
 gsave  2268 1769 0 0 C 92.2277 1679.09 t 90 r /Helvetica findfont 78.6648 sf 0 0 m (]) show NC gr 
 gsave  2268 1769 0 0 C 54.2516 1643.82 t 90 r /Helvetica findfont 51.539 sf 0 0 m (\2551) show NC gr 
 gsave  2268 1769 0 0 C 92.2277 1193.54 t 90 r /Helvetica findfont 78.6648 sf 0 0 m (Counts [GeV) show NC gr  340 216 m -57 X s 312 245 m -29 X s 312 275 m -29 X s 312 305 m -29 X s 312 334 m -29 X s 340 364 m -57 X s 312 394 m -29 X s 312 423 m -29
 X s 312 453 m -29 X s 312 483 m -29 X s 340 512 m -57 X s 312 542 m -29 X s 312 571 m -29 X s 312 601 m -29 X s 312 631 m -29 X s 340 660 m -57 X s 312 690 m -29 X s 312 720 m -29 X s 312 749 m -29 X s 312 779 m -29 X s 340 809 m -57 X s 312 838 m
 -29 X s 312 868 m -29 X s 312 898 m -29 X s 312 927 m -29 X s 340 957 m -57 X s 312 986 m -29 X s 312 1016 m -29 X s 312 1046 m -29 X s 312 1075 m -29 X s 340 1105 m -57 X s 312 1135 m -29 X s 312 1164 m -29 X s 312 1194 m -29 X s 312 1224 m -29 X s
 340 1253 m -57 X s 312 1283 m -29 X s 312 1313 m -29 X s 312 1342 m -29 X s 312 1372 m -29 X s 340 1401 m -57 X s 312 1431 m -29 X s 312 1461 m -29 X s 312 1490 m -29 X s 312 1520 m -29 X s 340 1550 m -57 X s 312 1579 m -29 X s 312 1609 m -29 X s
 312 1639 m -29 X s 312 1668 m -29 X s 340 1698 m -57 X s
 gsave  2268 1769 0 0 C 233.282 189.881 t 0 r /Helvetica findfont 70.5271 sf 0 0 m (0) show NC gr 
 gsave  2268 1769 0 0 C 233.282 339.072 t 0 r /Helvetica findfont 70.5271 sf 0 0 m (5) show NC gr 
 gsave  2268 1769 0 0 C 195.306 485.552 t 0 r /Helvetica findfont 70.5271 sf 0 0 m (10) show NC gr 
 gsave  2268 1769 0 0 C 195.306 634.744 t 0 r /Helvetica findfont 70.5271 sf 0 0 m (15) show NC gr 
 gsave  2268 1769 0 0 C 195.306 783.935 t 0 r /Helvetica findfont 70.5271 sf 0 0 m (20) show NC gr 
 gsave  2268 1769 0 0 C 195.306 930.415 t 0 r /Helvetica findfont 70.5271 sf 0 0 m (25) show NC gr 
 gsave  2268 1769 0 0 C 195.306 1079.61 t 0 r /Helvetica findfont 70.5271 sf 0 0 m (30) show NC gr 
 gsave  2268 1769 0 0 C 195.306 1228.8 t 0 r /Helvetica findfont 70.5271 sf 0 0 m (35) show NC gr 
 gsave  2268 1769 0 0 C 195.306 1375.28 t 0 r /Helvetica findfont 70.5271 sf 0 0 m (40) show NC gr 
 gsave  2268 1769 0 0 C 195.306 1524.47 t 0 r /Helvetica findfont 70.5271 sf 0 0 m (45) show NC gr 
 gsave  2268 1769 0 0 C 195.306 1670.95 t 0 r /Helvetica findfont 70.5271 sf 0 0 m (50) show NC gr  2177 216 m 1482 Y s 2120 216 m 57 X s 2149 245 m 28 X s 2149 275 m 28 X s 2149 305 m 28 X s 2149 334 m 28 X s 2120 364 m 57 X s 2149 394 m 28 X s 2149
 423 m 28 X s 2149 453 m 28 X s 2149 483 m 28 X s 2120 512 m 57 X s 2149 542 m 28 X s 2149 571 m 28 X s 2149 601 m 28 X s 2149 631 m 28 X s 2120 660 m 57 X s 2149 690 m 28 X s 2149 720 m 28 X s 2149 749 m 28 X s 2149 779 m 28 X s 2120 809 m 57 X s
 2149 838 m 28 X s 2149 868 m 28 X s 2149 898 m 28 X s 2149 927 m 28 X s 2120 957 m 57 X s 2149 986 m 28 X s 2149 1016 m 28 X s 2149 1046 m 28 X s 2149 1075 m 28 X s 2120 1105 m 57 X s 2149 1135 m 28 X s 2149 1164 m 28 X s 2149 1194 m 28 X s 2149
 1224 m 28 X s 2120 1253 m 57 X s 2149 1283 m 28 X s 2149 1313 m 28 X s 2149 1342 m 28 X s 2149 1372 m 28 X s 2120 1401 m 57 X s 2149 1431 m 28 X s 2149 1461 m 28 X s 2149 1490 m 28 X s 2149 1520 m 28 X s 2120 1550 m 57 X s 2149 1579 m 28 X s 2149
 1609 m 28 X s 2149 1639 m 28 X s 2149 1668 m 28 X s 2120 1698 m 57 X s 283 216 m 28 X s 311 216 m 379 X 46 1 d 8 2 d 30 10 d 9 7 d 8 8 d 7 11 d 11 19 d 9 21 d 9 23 d 9 26 d 7 26 d 8 29 d 1 5 d 7 29 d 6 34 d 7 39 d 8 45 d 26 174 d 9 56 d 12 87 d 13
 94 d 7 47 d 6 37 d 6 35 d 1 8 d 11 51 d 9 42 d 8 37 d 9 32 d 7 25 d 8 22 d 3 7 d 8 18 d 8 15 d 9 12 d 9 10 d 9 5 d 11 1 d 8 -2 d 7 -5 d 10 -11 d 11 -16 d 18 -31 d 9 -18 d 10 -24 d 35 -91 d 54 -151 d 46 -129 d 8 -20 d 27 -68 d 27 -64 d 39 -91 d 15
 -32 d 16 -30 d 20 -32 d 18 -29 d 29 -42 d 25 -35 d 23 -27 d 25 -25 d 7 -6 d 20 -18 d 34 -24 d 34 -23 d 20 -12 d 34 -16 d 20 -8 d 45 -15 d 9 -3 d 54 -14 d 54 -10 d 54 -8 d 54 -5 d 54 -4 d 55 -3 d 54 -2 d s
 gsave  2268 1769 0 0 C 729.684 1396.98 t 0 r /Helvetica findfont 62.3893 sf 0 0 m (L = 1.00\2551.14) show NC gr  283 216 m 28 X s 311 216 m 217 X 37 2 d 9 3 d 8 2 d 17 9 d 11 8 d 9 7 d 7 7 d 8 9 d 2 3 d 7 11 d 7 13 d 8 16 d 9 19 d 12 27 d 11 27 d 7
 19 d 8 22 d 11 36 d 16 53 d 8 23 d 4 11 d 16 47 d 12 32 d 8 21 d 6 14 d 5 12 d 6 10 d 1 2 d 8 12 d 7 8 d 8 9 d 7 6 d 9 6 d 7 3 d 8 2 d 7 X 7 -2 d 7 -3 d 9 -6 d 24 -19 d 12 -11 d 15 -15 d 13 -15 d 14 -18 d 11 -15 d 44 -71 d 18 -26 d 15 -21 d 16 -19 d
 5 -6 d 14 -15 d 20 -20 d 20 -19 d 36 -34 d 18 -16 d 20 -16 d 21 -14 d 13 -8 d 19 -11 d 35 -18 d 45 -23 d 9 -4 d 17 -5 d 37 -10 d 54 -14 d 26 -4 d 28 -5 d 55 -7 d 54 -6 d 54 -4 d 54 -3 d 54 -2 d 54 -2 d 54 -1 d 54 -1 d 54 -1 d 163 X s
 gsave  2268 1769 0 0 C 512.678 756.81 t 0 r /Helvetica findfont 62.3893 sf 0 0 m (L = 1.28\2551.42) show NC gr  311 216 m cl s 311 216 m 49 1 d 5 X 33 4 d 8 2 d 9 2 d 4 2 d 13 7 d 10 6 d 9 7 d 8 6 d 6 7 d 7 8 d 1 2 d 6 8 d 6 11 d 7 12 d 7 13 d 8 19
 d 21 46 d 6 15 d 8 18 d 18 49 d 7 16 d 6 13 d 5 11 d 4 7 d 10 17 d 10 16 d 7 11 d 9 10 d 6 8 d 7 5 d 5 4 d 6 4 d 8 3 d 6 2 d 8 1 d 10 X 16 -1 d 10 -2 d 11 -3 d 11 -5 d 9 -5 d 9 -6 d 4 -3 d 7 -7 d 9 -9 d 38 -47 d 54 -68 d 18 -20 d 15 -16 d 14 -14 d 7
 -7 d 15 -13 d 16 -12 d 17 -13 d 6 -4 d 15 -9 d 20 -11 d 20 -10 d 34 -17 d 16 -7 d 4 -2 d 15 -5 d 23 -6 d 16 -4 d 37 -9 d 17 -4 d 26 -4 d 28 -4 d 43 -6 d 11 -1 d 44 -5 d 10 X 54 -4 d 54 -2 d 54 -3 d 55 -1 d 54 -1 d 54 -1 d 54 -1 d 108 X 54 -1 d 271 X
 s
 gsave  2268 1769 0 0 C 349.923 618.468 t 0 r /Helvetica findfont 62.3893 sf 0 0 m (L = 1.56\2551.80) show NC gr 
 gr  gr showpage
end
%%EOF
