%!PS-Adobe-2.0 EPSF-2.0
%%BoundingBox:  0 0 567 442
%%Title: critical_energy.eps: critical_energy
%%Creator: ROOT Version 5.34/14
%%CreationDate: Mon Jun  2 00:05:36 2014
%%EndComments
%%BeginProlog
80 dict begin
/s {stroke} def /l {lineto} def /m {moveto} def /t {translate} def
/r {rotate} def /rl {roll}  def /R {repeat} def
/d {rlineto} def /rm {rmoveto} def /gr {grestore} def /f {eofill} def
/c {setrgbcolor} def /black {0 setgray} def /sd {setdash} def
/cl {closepath} def /sf {scalefont setfont} def /lw {setlinewidth} def
/box {m dup 0 exch d exch 0 d 0 exch neg d cl} def
/NC{systemdict begin initclip end}def/C{NC box clip newpath}def
/bl {box s} def /bf {box f} def /Y { 0 exch d} def /X { 0 d} def 
/K {{pop pop 0 moveto} exch kshow} bind def
/ita {/ang 15 def gsave [1 0 ang dup sin exch cos div 1 0 0] concat} def 
/mp {newpath /y exch def /x exch def} def
/side {[w .77 mul w .23 mul] .385 w mul sd w 0 l currentpoint t -144 r} def
/mr {mp x y w2 0 360 arc} def /m24 {mr s} def /m20 {mr f} def
/mb {mp x y w2 add m w2 neg 0 d 0 w neg d w 0 d 0 w d cl} def
/mt {mp x y w2 add m w2 neg w neg d w 0 d cl} def
/m21 {mb f} def /m25 {mb s} def /m22 {mt f} def /m26{mt s} def
/m23 {mp x y w2 sub m w2 w d w neg 0 d cl f} def
/m27 {mp x y w2 add m w3 neg w2 neg d w3 w2 neg d w3 w2 d cl s} def
/m28 {mp x w2 sub y w2 sub w3 add m w3 0 d  0 w3 neg d w3 0 d 0 w3 d w3 0 d  0 w3 d w3 neg 0 d 0 w3 d w3 neg 0 d 0 w3 neg d w3 neg 0 d cl s } def
/m29 {mp gsave x w2 sub y w2 add w3 sub m currentpoint t 4 {side} repeat cl fill gr} def
/m30 {mp gsave x w2 sub y w2 add w3 sub m currentpoint t 4 {side} repeat cl s gr} def
/m31 {mp x y w2 sub m 0 w d x w2 sub y m w 0 d x w2 sub y w2 add m w w neg d x w2 sub y w2 sub m w w d s} def
/m32 {mp x y w2 sub m w2 w d w neg 0 d cl s} def
/m33 {mp x y w2 add m w3 neg w2 neg d w3 w2 neg d w3 w2 d cl f} def
/m34 {mp x w2 sub y w2 sub w3 add m w3 0 d  0 w3 neg d w3 0 d 0 w3 d w3 0 d  0 w3 d w3 neg 0 d 0 w3 d w3 neg 0 d 0 w3 neg d w3 neg 0 d cl f } def
/m2 {mp x y w2 sub m 0 w d x w2 sub y m w 0 d s} def
/m5 {mp x w2 sub y w2 sub m w w d x w2 sub y w2 add m w w neg d s} def
/reEncode {exch findfont dup length dict begin {1 index /FID eq  {pop pop} {def} ifelse } forall /Encoding exch def currentdict end dup /FontName get exch definefont pop } def [/Times-Bold /Times-Italic /Times-BoldItalic /Helvetica /Helvetica-Oblique
 /Helvetica-Bold /Helvetica-BoldOblique /Courier /Courier-Oblique /Courier-Bold /Courier-BoldOblique /Times-Roman /AvantGarde-Book /AvantGarde-BookOblique /AvantGarde-Demi /AvantGarde-DemiOblique /Bookman-Demi /Bookman-DemiItalic /Bookman-Light
 /Bookman-LightItalic /Helvetica-Narrow /Helvetica-Narrow-Bold /Helvetica-Narrow-BoldOblique /Helvetica-Narrow-Oblique /NewCenturySchlbk-Roman /NewCenturySchlbk-Bold /NewCenturySchlbk-BoldItalic /NewCenturySchlbk-Italic /Palatino-Bold
 /Palatino-BoldItalic /Palatino-Italic /Palatino-Roman ] {ISOLatin1Encoding reEncode } forall
%%EndProlog
%%BeginSetup
%%EndSetup
newpath  gsave  .25 .25 scale  gsave  0 0 t black[  ] 0 sd 6 lw 1 1 1 c 2268 1769 0 0 bf black 3 lw 1 1 1 c 1894 1482 283 216 bf black 1894 1482 283 216 bl 1 1 1 c 1894 1482 283 216 bf black 1894 1482 283 216 bl 6 lw 283 216 m 1894 X s 0.6 0.6 0.6 c[
 12 12] 0 sd 3 lw 283 1698 m -1482 Y s 568 1698 m -1482 Y s 735 1698 m -1482 Y s 853 1698 m -1482 Y s 945 1698 m -1482 Y s 1020 1698 m -1482 Y s 1084 1698 m -1482 Y s 1138 1698 m -1482 Y s 1187 1698 m -1482 Y s 1230 1698 m -1482 Y s 1515 1698 m -1482
 Y s 1682 1698 m -1482 Y s 1800 1698 m -1482 Y s 1892 1698 m -1482 Y s 1967 1698 m -1482 Y s 2030 1698 m -1482 Y s 2085 1698 m -1482 Y s 2134 1698 m -1482 Y s 2177 1698 m -1482 Y s black[  ] 0 sd 6 lw 283 1698 m 1894 X s 283 216 m 1482 Y s 0.6 0.6
 0.6 c[ 12 12] 0 sd 3 lw 2177 256 m -1894 X s 2177 294 m -1894 X s 2177 328 m -1894 X s 2177 552 m -1894 X s 2177 683 m -1894 X s 2177 775 m -1894 X s 2177 847 m -1894 X s 2177 906 m -1894 X s 2177 956 m -1894 X s 2177 999 m -1894 X s 2177 1037 m
 -1894 X s 2177 1071 m -1894 X s 2177 1294 m -1894 X s 2177 1425 m -1894 X s 2177 1518 m -1894 X s 2177 1589 m -1894 X s 2177 1648 m -1894 X s black[  ] 0 sd 6 lw 2177 216 m 1482 Y s 0.95 0.95 0.95 c black 284 1492 m 2 -1 d 2 -1 d 2 X 2 -1 d 2 -1 d 2
 -1 d 2 -1 d 2 X 1 -1 d 2 -1 d 2 -1 d 2 -1 d 2 X 2 -1 d 2 -1 d 2 -1 d 2 -1 d 1 X 2 -1 d 2 -1 d 2 -1 d 2 -1 d 2 X 2 -1 d 2 -1 d 2 -1 d 2 -1 d 1 X 2 -1 d 2 -1 d 2 -1 d 2 -1 d 2 -1 d 2 X 2 -1 d 2 -1 d 1 -1 d 2 -1 d 2 -1 d 2 X 2 -1 d 2 -1 d 2 -1 d 2 -1 d
 2 -1 d 2 -1 d 1 X 2 -1 d 2 -1 d s 377 1452 m 2 -1 d 2 -1 d 2 -1 d 2 -1 d 2 X 2 -1 d 1 -1 d 2 -1 d 2 -1 d 2 -1 d 2 -1 d 2 -1 d 2 X 2 -1 d 2 -1 d 1 -1 d 2 -1 d 2 -1 d 2 -1 d 2 -1 d 2 X 2 -1 d 2 -1 d 2 -1 d 2 -1 d 1 -1 d 2 -1 d 2 -1 d 2 -1 d 2 -1 d 2 X
 2 -1 d 2 -1 d 2 -1 d 1 -1 d 2 -1 d 2 -1 d 2 -1 d 2 -1 d 2 -1 d 2 -1 d 2 -1 d 2 X 2 -1 d 1 -1 d 2 -1 d 2 -1 d 2 -1 d 2 -1 d s 470 1408 m 2 -1 d 2 -1 d 2 -1 d 2 -1 d 1 -1 d 2 -1 d 2 -1 d 2 -1 d 2 -1 d 2 -1 d 2 X 2 -1 d 2 -1 d 1 -1 d 2 -1 d 2 -1 d 2 -1
 d 2 -1 d 2 -1 d 2 -1 d 2 -1 d 2 -1 d 2 -1 d 1 -1 d 2 -1 d 2 -1 d 2 -1 d 2 -1 d 2 -1 d 2 -1 d 2 -1 d 2 -1 d 1 -1 d 2 -1 d 2 -1 d 2 -1 d 2 -1 d 2 -1 d 2 -1 d 2 -1 d 2 -1 d 2 -1 d 1 -1 d 2 -1 d 2 -1 d 2 -1 d 2 -1 d 2 -1 d 2 -1 d s 563 1360 m 2 -1 d 2
 -1 d 1 -1 d 2 -1 d 2 -1 d 2 -1 d 2 -1 d 2 -1 d 2 -1 d 2 -1 d 2 -1 d 1 -1 d 2 -1 d 2 -1 d 2 -1 d 2 -1 d 2 -1 d 2 -1 d 2 -1 d 2 -1 d 2 -1 d 1 -1 d 2 -2 d 2 -1 d 2 -1 d 2 -1 d 2 -1 d 2 -1 d 2 -1 d 2 -1 d 1 -1 d 2 -1 d 2 -1 d 2 -1 d 2 -1 d 2 -1 d 2 -1 d
 2 -1 d 2 -1 d 2 -2 d 1 -1 d 2 -1 d 2 -1 d 2 -1 d 2 -1 d 2 -1 d 2 -1 d 2 -1 d 2 -1 d s 656 1309 m 1 -1 d 2 -1 d 2 -1 d 2 -2 d 2 -1 d 2 -1 d 2 -1 d 2 -1 d 2 -1 d 1 -1 d 2 -1 d 2 -1 d 2 -1 d 2 -1 d 2 -2 d 2 -1 d 2 -1 d 2 -1 d 2 -1 d 1 -1 d 2 -1 d 2 -1
 d 2 -1 d 2 -2 d 2 -1 d 2 -1 d 2 -1 d 2 -1 d 1 -1 d 2 -1 d 2 -1 d 2 -1 d 2 -2 d 2 -1 d 2 -1 d 2 -1 d 2 -1 d 2 -1 d 1 -1 d 2 -2 d 2 -1 d 2 -1 d 2 -1 d 2 -1 d 2 -1 d 2 -1 d 2 -1 d 1 -2 d 2 -1 d s 748 1254 m 2 -1 d 2 -1 d 2 -1 d 2 -1 d 2 -2 d 2 -1 d 2
 -1 d 1 -1 d 2 -1 d 2 -1 d 2 -1 d 2 -2 d 2 -1 d 2 -1 d 2 -1 d 2 -1 d 2 -1 d 1 -2 d 2 -1 d 2 -1 d 2 -1 d 2 -1 d 2 -1 d 2 -2 d 2 -1 d 2 -1 d 1 -1 d 2 -1 d 2 -1 d 2 -2 d 2 -1 d 2 -1 d 2 -1 d 2 -1 d 2 -2 d 1 -1 d 2 -1 d 2 -1 d 2 -1 d 2 -1 d 2 -2 d 2 -1 d
 2 -1 d 2 -1 d 2 -1 d 1 -2 d 2 -1 d 2 -1 d 2 -1 d s 841 1197 m 2 -1 d 2 -2 d 2 -1 d 2 -1 d 2 -1 d 1 -1 d 2 -2 d 2 -1 d 2 -1 d 2 -1 d 2 -2 d 2 -1 d 2 -1 d 2 -1 d 2 -1 d 1 -2 d 2 -1 d 2 -1 d 2 -1 d 2 -1 d 2 -2 d 2 -1 d 2 -1 d 2 -1 d 1 -2 d 2 -1 d 2 -1
 d 2 -1 d 2 -1 d 2 -2 d 2 -1 d 2 -1 d 2 -1 d 1 -2 d 2 -1 d 2 -1 d 2 -1 d 2 -2 d 2 -1 d 2 -1 d 2 -1 d 2 -2 d 2 -1 d 1 -1 d 2 -1 d 2 -2 d 2 -1 d 2 -1 d 2 -1 d s 934 1137 m 2 -2 d 2 -1 d 2 -1 d 1 -1 d 2 -2 d 2 -1 d 2 -1 d 2 -1 d 2 -2 d 2 -1 d 2 -1 d 2
 -1 d 2 -2 d 1 -1 d 2 -1 d 2 -1 d 2 -2 d 2 -1 d 2 -1 d 2 -1 d 2 -2 d 2 -1 d 1 -1 d 2 -1 d 2 -2 d 2 -1 d 2 -1 d 2 -2 d 2 -1 d 2 -1 d 2 -1 d 1 -2 d 2 -1 d 2 -1 d 2 -1 d 2 -2 d 2 -1 d 2 -1 d 2 -2 d 2 -1 d 2 -1 d 1 -1 d 2 -2 d 2 -1 d 2 -1 d 2 -2 d 2 -1 d
 2 -1 d 2 -1 d s 1027 1075 m 2 -2 d 1 -1 d 2 -1 d 2 -2 d 2 -1 d 2 -1 d 2 -2 d 2 -1 d 2 -1 d 2 -1 d 2 -2 d 1 -1 d 2 -1 d 2 -2 d 2 -1 d 2 -1 d 2 -2 d 2 -1 d 2 -1 d 2 -1 d 1 -2 d 2 -1 d 2 -1 d 2 -2 d 2 -1 d 2 -1 d 2 -2 d 2 -1 d 2 -1 d 1 -2 d 2 -1 d 2 -1
 d 2 -1 d 2 -2 d 2 -1 d 2 -1 d 2 -2 d 2 -1 d 2 -1 d 1 -2 d 2 -1 d 2 -1 d 2 -2 d 2 -1 d 2 -1 d 2 -2 d 2 -1 d 2 -1 d 1 -2 d s 1119 1010 m 2 -1 d 2 -1 d 2 -2 d 2 -1 d 2 -1 d 2 -2 d 2 -1 d 2 -1 d 2 -2 d 1 -1 d 2 -1 d 2 -2 d 2 -1 d 2 -1 d 2 -2 d 2 -1 d 2
 -1 d 2 -2 d 1 -1 d 2 -1 d 2 -2 d 2 -1 d 2 -1 d 2 -2 d 2 -1 d 2 -1 d 2 -2 d 1 -1 d 2 -1 d 2 -2 d 2 -1 d 2 -1 d 2 -2 d 2 -1 d 2 -1 d 2 -2 d 2 -1 d 1 -1 d 2 -2 d 2 -1 d 2 -1 d 2 -2 d 2 -1 d 2 -1 d 2 -2 d 2 -1 d 1 -2 d 2 -1 d 2 -1 d s 1212 945 m 2 -2 d
 2 -1 d 2 -1 d 2 -2 d 2 -1 d 2 -1 d 2 -2 d 1 -1 d 2 -1 d 2 -2 d 2 -1 d 2 -2 d 2 -1 d 2 -1 d 2 -2 d 2 -1 d 1 -1 d 2 -2 d 2 -1 d 2 -1 d 2 -2 d 2 -1 d 2 -2 d 2 -1 d 2 -1 d 1 -2 d 2 -1 d 2 -1 d 2 -2 d 2 -1 d 2 -1 d 2 -2 d 2 -1 d 2 -2 d 2 -1 d 1 -1 d 2 -2
 d 2 -1 d 2 -1 d 2 -2 d 2 -1 d 2 -2 d 2 -1 d 2 -1 d 1 -2 d 2 -1 d 2 -1 d 2 -2 d 2 -1 d s 1305 878 m 2 -2 d 2 -1 d 2 -1 d 2 -2 d 1 -1 d 2 -1 d 2 -2 d 2 -1 d 2 -2 d 2 -1 d 2 -1 d 2 -2 d 2 -1 d 2 -2 d 1 -1 d 2 -1 d 2 -2 d 2 -1 d 2 -1 d 2 -2 d 2 -1 d 2
 -2 d 2 -1 d 1 -1 d 2 -2 d 2 -1 d 2 -2 d 2 -1 d 2 -1 d 2 -2 d 2 -1 d 2 -2 d 2 -1 d 1 -1 d 2 -2 d 2 -1 d 2 -2 d 2 -1 d 2 -1 d 2 -2 d 2 -1 d 2 -1 d 1 -2 d 2 -1 d 2 -2 d 2 -1 d 2 -1 d 2 -2 d 2 -1 d s 1398 810 m 2 -2 d 2 -1 d 1 -1 d 2 -2 d 2 -1 d 2 -2 d
 2 -1 d 2 -1 d 2 -2 d 2 -1 d 2 -2 d 2 -1 d 1 -1 d 2 -2 d 2 -1 d 2 -2 d 2 -1 d 2 -2 d 2 -1 d 2 -1 d 2 -2 d 1 -1 d 2 -2 d 2 -1 d 2 -1 d 2 -2 d 2 -1 d 2 -2 d 2 -1 d 2 -1 d 2 -2 d 1 -1 d 2 -2 d 2 -1 d 2 -1 d 2 -2 d 2 -1 d 2 -2 d 2 -1 d 2 -2 d 1 -1 d 2 -1
 d 2 -2 d 2 -1 d 2 -2 d 2 -1 d 2 -1 d 2 -2 d 2 -1 d s 1491 741 m 1 -2 d 2 -1 d 2 -1 d 2 -2 d 2 -1 d 2 -2 d 2 -1 d 2 -2 d 2 -1 d 2 -1 d 1 -2 d 2 -1 d 2 -2 d 2 -1 d 2 -2 d 2 -1 d 2 -1 d 2 -2 d 2 -1 d 1 -2 d 2 -1 d 2 -1 d 2 -2 d 2 -1 d 2 -2 d 2 -1 d 2
 -2 d 2 -1 d 2 -1 d 1 -2 d 2 -1 d 2 -2 d 2 -1 d 2 -2 d 2 -1 d 2 -1 d 2 -2 d 2 -1 d 1 -2 d 2 -1 d 2 -2 d 2 -1 d 2 -1 d 2 -2 d 2 -1 d 2 -2 d 2 -1 d 1 -2 d 2 -1 d s 1583 671 m 2 -1 d 2 -2 d 2 -1 d 2 -2 d 2 -1 d 2 -2 d 2 -1 d 2 -1 d 1 -2 d 2 -1 d 2 -2 d
 2 -1 d 2 -2 d 2 -1 d 2 -1 d 2 -2 d 2 -1 d 1 -2 d 2 -1 d 2 -2 d 2 -1 d 2 -1 d 2 -2 d 2 -1 d 2 -2 d 2 -1 d 2 -2 d 1 -1 d 2 -1 d 2 -2 d 2 -1 d 2 -2 d 2 -1 d 2 -2 d 2 -1 d 2 -2 d 1 -1 d 2 -1 d 2 -2 d 2 -1 d 2 -2 d 2 -1 d 2 -2 d 2 -1 d 2 -1 d 1 -2 d 2 -1
 d 2 -2 d 2 -1 d s 1676 601 m 2 -2 d 2 -1 d 2 -2 d 2 -1 d 2 -1 d 2 -2 d 1 -1 d 2 -2 d 2 -1 d 2 -2 d 2 -1 d 2 -2 d 2 -1 d 2 -1 d 2 -2 d 1 -1 d 2 -2 d 2 -1 d 2 -2 d 2 -1 d 2 -2 d 2 -1 d 2 -1 d 2 -2 d 2 -1 d 1 -2 d 2 -1 d 2 -2 d 2 -1 d 2 -2 d 2 -1 d 2
 -1 d 2 -2 d 2 -1 d 1 -2 d 2 -1 d 2 -2 d 2 -1 d 2 -2 d 2 -1 d 2 -1 d 2 -2 d 2 -1 d 1 -2 d 2 -1 d 2 -2 d 2 -1 d 2 -2 d 2 -1 d s 1769 530 m 2 -1 d 2 -2 d 2 -1 d 2 -2 d 1 -1 d 2 -2 d 2 -1 d 2 -2 d 2 -1 d 2 -1 d 2 -2 d 2 -1 d 2 -2 d 1 -1 d 2 -2 d 2 -1 d
 2 -2 d 2 -1 d 2 -2 d 2 -1 d 2 -1 d 2 -2 d 2 -1 d 1 -2 d 2 -1 d 2 -2 d 2 -1 d 2 -2 d 2 -1 d 2 -2 d 2 -1 d 2 -1 d 1 -2 d 2 -1 d 2 -2 d 2 -1 d 2 -2 d 2 -1 d 2 -2 d 2 -1 d 2 -2 d 1 -1 d 2 -1 d 2 -2 d 2 -1 d 2 -2 d 2 -1 d 2 -2 d 2 -1 d s 1862 459 m 2 -2
 d 2 -1 d 1 -2 d 2 -1 d 2 -1 d 2 -2 d 2 -1 d 2 -2 d 2 -1 d 2 -2 d 2 -1 d 1 -2 d 2 -1 d 2 -2 d 2 -1 d 2 -1 d 2 -2 d 2 -1 d 2 -2 d 2 -1 d 1 -2 d 2 -1 d 2 -2 d 2 -1 d 2 -2 d 2 -1 d 2 -2 d 2 -1 d 2 -1 d 2 -2 d 1 -1 d 2 -2 d 2 -1 d 2 -2 d 2 -1 d 2 -2 d 2
 -1 d 2 -2 d 2 -1 d 1 -1 d 2 -2 d 2 -1 d 2 -2 d 2 -1 d 2 -2 d 2 -1 d 2 -2 d 2 -1 d 2 -2 d s 1955 387 m 1 -1 d 2 -2 d 2 -1 d 2 -1 d 2 -2 d 2 -1 d 2 -2 d 2 -1 d 2 -2 d 1 -1 d 2 -2 d 2 -1 d 2 -2 d 2 -1 d 2 -2 d 2 -1 d 2 -1 d 2 -2 d 1 -1 d 2 -2 d 2 -1 d
 2 -2 d 2 -1 d 2 -2 d 2 -1 d 2 -2 d 2 -1 d 2 -2 d 1 -1 d 2 -2 d 2 -1 d 2 -1 d 2 -2 d 2 -1 d 2 -2 d 2 -1 d 2 -2 d 1 -1 d 2 -2 d 2 -1 d 2 -2 d 2 -1 d 2 -2 d 2 -1 d 2 -2 d 2 -1 d 2 -1 d 1 -2 d 2 -1 d s 2047 316 m 2 -2 d 2 -1 d 2 -2 d 2 -1 d 2 -2 d 2 -1
 d 2 -2 d 1 -1 d 2 -2 d 2 -1 d 2 -1 d 2 -2 d 2 -1 d 2 -2 d 2 -1 d 2 -2 d 1 -1 d 2 -2 d 2 -1 d 2 -2 d 2 -1 d 2 -2 d 2 -1 d 2 -2 d 2 -1 d 2 -2 d 1 -1 d 2 -1 d 2 -2 d 2 -1 d 2 -2 d 2 -1 d 2 -2 d 2 -1 d 2 -2 d 1 -1 d 2 -2 d 2 -1 d 2 -2 d 2 -1 d 2 -2 d 2
 -1 d 2 -1 d 2 -2 d 2 -1 d 1 -2 d 2 -1 d 2 -2 d 2 -1 d s 2140 244 m 2 -2 d 2 -1 d 2 -2 d 2 -1 d 2 -2 d 1 -1 d 2 -2 d 2 -1 d 2 -2 d 2 -1 d 2 -1 d 2 -2 d 2 -1 d 2 -2 d 1 -1 d 2 -2 d 2 -1 d 2 -2 d 2 -1 d s 283 216 m 1894 X s
 gsave  2268 1769 0 0 C 2129.38 16.2755 t 0 r /Helvetica findfont 78.6648 sf 0 0 m (Z) show NC gr  283 260 m -44 Y s
 gsave  2268 1769 0 0 C 283.466 119.893 t 0 r  -19 0 t /Helvetica findfont 67.8145 sf 0 0 m (1) show NC gr  568 238 m -22 Y s 735 238 m -22 Y s 853 238 m -22 Y s 945 238 m -22 Y s 1020 238 m -22 Y s 1084 238 m -22 Y s 1138 238 m -22 Y s 1187 238 m
 -22 Y s 1230 260 m -44 Y s
 gsave  2268 1769 0 0 C 1230.24 119.893 t 0 r  -38 0 t /Helvetica findfont 67.8145 sf 0 0 m (10) show NC gr  1515 238 m -22 Y s 1682 238 m -22 Y s 1800 238 m -22 Y s 1892 238 m -22 Y s 1967 238 m -22 Y s 2030 238 m -22 Y s 2085 238 m -22 Y s 2134 238
 m -22 Y s 2177 260 m -44 Y s
 gsave  2268 1769 0 0 C 2199.9 154.617 t 0 r /Helvetica findfont 46.1139 sf 0 0 m (2) show NC gr 
 gsave  2268 1769 0 0 C 2123.95 122.066 t 0 r /Helvetica findfont 70.5271 sf 0 0 m (10) show NC gr  283 1698 m 1894 X s 283 1654 m 44 Y s 568 1676 m 22 Y s 735 1676 m 22 Y s 853 1676 m 22 Y s 945 1676 m 22 Y s 1020 1676 m 22 Y s 1084 1676 m 22 Y s
 1138 1676 m 22 Y s 1187 1676 m 22 Y s 1230 1654 m 44 Y s 1515 1676 m 22 Y s 1682 1676 m 22 Y s 1800 1676 m 22 Y s 1892 1676 m 22 Y s 1967 1676 m 22 Y s 2030 1676 m 22 Y s 2085 1676 m 22 Y s 2134 1676 m 22 Y s 2177 1654 m 44 Y s 283 216 m 1482 Y s
 gsave  2268 1769 0 0 C 84.09 1475.64 t 90 r /Helvetica findfont 78.6648 sf 0 0 m ( [MeV]) show NC gr 
 gsave  2268 1769 0 0 C 100.365 1451.23 t 90 r /Helvetica findfont 51.539 sf 0 0 m (c) show NC gr 
 gsave  2268 1769 0 0 C 84.09 1402.4 t 90 r /Helvetica findfont 78.6648 sf 0 0 m (E) show NC gr  312 256 m -29 X s 312 294 m -29 X s 340 328 m -57 X s
 gsave  2268 1769 0 0 C 264.363 299.096 t 0 r  -76 0 t /Helvetica findfont 67.8145 sf 0 0 m (10) show NC gr  312 552 m -29 X s 312 683 m -29 X s 312 775 m -29 X s 312 847 m -29 X s 312 906 m -29 X s 312 956 m -29 X s 312 999 m -29 X s 312 1037 m -29
 X s 340 1071 m -57 X s
 gsave  2268 1769 0 0 C 238.707 1068.76 t 0 r /Helvetica findfont 46.1139 sf 0 0 m (2) show NC gr 
 gsave  2268 1769 0 0 C 162.755 1038.92 t 0 r /Helvetica findfont 70.5271 sf 0 0 m (10) show NC gr  312 1294 m -29 X s 312 1425 m -29 X s 312 1518 m -29 X s 312 1589 m -29 X s 312 1648 m -29 X s 2177 216 m 1482 Y s 2149 256 m 28 X s 2149 294 m 28 X s
 2120 328 m 57 X s 2149 552 m 28 X s 2149 683 m 28 X s 2149 775 m 28 X s 2149 847 m 28 X s 2149 906 m 28 X s 2149 956 m 28 X s 2149 999 m 28 X s 2149 1037 m 28 X s 2120 1071 m 57 X s 2149 1294 m 28 X s 2149 1425 m 28 X s 2149 1518 m 28 X s 2149 1589
 m 28 X s 2149 1648 m 28 X s[ 20 20] 0 sd 0.95 0.95 0.95 c black 284 1393 m 2 X 2 -1 d 2 -1 d 2 X 2 -1 d 2 -1 d 2 X 2 -1 d 1 -1 d 2 X 2 -1 d 2 -1 d 2 X 2 -1 d 2 -1 d 2 -1 d 2 X 1 -1 d 2 -1 d 2 X 2 -1 d 2 -1 d 2 X 2 -1 d 2 -1 d 2 -1 d 2 X 1 -1 d 2 -1
 d 2 X 2 -1 d 2 -1 d 2 -1 d 2 X 2 -1 d 2 -1 d 1 X 2 -1 d 2 -1 d 2 -1 d 2 X 2 -1 d 2 -1 d 2 -1 d 2 X 2 -1 d 1 -1 d 2 -1 d 2 X s 377 1359 m 2 -1 d 2 -1 d 2 -1 d 2 X 2 -1 d 2 -1 d 1 -1 d 2 X 2 -1 d 2 -1 d 2 -1 d 2 X 2 -1 d 2 -1 d 2 -1 d 1 X 2 -1 d 2 -1
 d 2 -1 d 2 -1 d 2 X 2 -1 d 2 -1 d 2 -1 d 2 X 1 -1 d 2 -1 d 2 -1 d 2 -1 d 2 X 2 -1 d 2 -1 d 2 -1 d 2 -1 d 1 X 2 -1 d 2 -1 d 2 -1 d 2 -1 d 2 -1 d 2 X 2 -1 d 2 -1 d 2 -1 d 1 -1 d 2 X 2 -1 d 2 -1 d 2 -1 d s 470 1320 m 2 -1 d 2 -1 d 2 X 2 -1 d 1 -1 d 2
 -1 d 2 -1 d 2 -1 d 2 X 2 -1 d 2 -1 d 2 -1 d 2 -1 d 1 -1 d 2 -1 d 2 X 2 -1 d 2 -1 d 2 -1 d 2 -1 d 2 -1 d 2 -1 d 2 X 1 -1 d 2 -1 d 2 -1 d 2 -1 d 2 -1 d 2 -1 d 2 -1 d 2 X 2 -1 d 1 -1 d 2 -1 d 2 -1 d 2 -1 d 2 -1 d 2 -1 d 2 -1 d 2 X 2 -1 d 2 -1 d 1 -1 d
 2 -1 d 2 -1 d 2 -1 d 2 -1 d 2 -1 d 2 -1 d s 563 1277 m 2 -1 d 2 X 1 -1 d 2 -1 d 2 -1 d 2 -1 d 2 -1 d 2 -1 d 2 -1 d 2 -1 d 2 -1 d 1 -1 d 2 -1 d 2 -1 d 2 X 2 -1 d 2 -1 d 2 -1 d 2 -1 d 2 -1 d 2 -1 d 1 -1 d 2 -1 d 2 -1 d 2 -1 d 2 -1 d 2 -1 d 2 -1 d 2 -1
 d 2 -1 d 1 -1 d 2 -1 d 2 -1 d 2 -1 d 2 -1 d 2 X 2 -1 d 2 -1 d 2 -1 d 2 -1 d 1 -1 d 2 -1 d 2 -1 d 2 -1 d 2 -1 d 2 -1 d 2 -1 d 2 -1 d 2 -1 d s 656 1231 m 1 -1 d 2 -1 d 2 -1 d 2 -1 d 2 -1 d 2 -1 d 2 -1 d 2 -1 d 2 -1 d 1 -1 d 2 -1 d 2 -1 d 2 -1 d 2 -1 d
 2 -1 d 2 -1 d 2 -1 d 2 -1 d 2 -1 d 1 -1 d 2 -1 d 2 -1 d 2 -1 d 2 -1 d 2 -1 d 2 -1 d 2 -1 d 2 -1 d 1 -1 d 2 -2 d 2 -1 d 2 -1 d 2 -1 d 2 -1 d 2 -1 d 2 -1 d 2 -1 d 2 -1 d 1 -1 d 2 -1 d 2 -1 d 2 -1 d 2 -1 d 2 -1 d 2 -1 d 2 -1 d 2 -1 d 1 -1 d 2 -1 d s
 748 1181 m 2 -1 d 2 -2 d 2 -1 d 2 -1 d 2 -1 d 2 -1 d 2 -1 d 1 -1 d 2 -1 d 2 -1 d 2 -1 d 2 -1 d 2 -1 d 2 -1 d 2 -1 d 2 -2 d 2 -1 d 1 -1 d 2 -1 d 2 -1 d 2 -1 d 2 -1 d 2 -1 d 2 -1 d 2 -1 d 2 -1 d 1 -2 d 2 -1 d 2 -1 d 2 -1 d 2 -1 d 2 -1 d 2 -1 d 2 -1 d
 2 -1 d 1 -1 d 2 -2 d 2 -1 d 2 -1 d 2 -1 d 2 -1 d 2 -1 d 2 -1 d 2 -1 d 2 -1 d 1 -2 d 2 -1 d 2 -1 d 2 -1 d s 841 1127 m 2 -1 d 2 -1 d 2 -1 d 2 -1 d 2 -2 d 1 -1 d 2 -1 d 2 -1 d 2 -1 d 2 -1 d 2 -1 d 2 -2 d 2 -1 d 2 -1 d 2 -1 d 1 -1 d 2 -1 d 2 -1 d 2 -2
 d 2 -1 d 2 -1 d 2 -1 d 2 -1 d 2 -1 d 1 -1 d 2 -2 d 2 -1 d 2 -1 d 2 -1 d 2 -1 d 2 -1 d 2 -2 d 2 -1 d 1 -1 d 2 -1 d 2 -1 d 2 -1 d 2 -2 d 2 -1 d 2 -1 d 2 -1 d 2 -1 d 2 -1 d 1 -2 d 2 -1 d 2 -1 d 2 -1 d 2 -1 d 2 -2 d s 934 1070 m 2 -1 d 2 -1 d 2 -1 d 1
 -1 d 2 -1 d 2 -2 d 2 -1 d 2 -1 d 2 -1 d 2 -1 d 2 -2 d 2 -1 d 2 -1 d 1 -1 d 2 -1 d 2 -2 d 2 -1 d 2 -1 d 2 -1 d 2 -1 d 2 -2 d 2 -1 d 1 -1 d 2 -1 d 2 -1 d 2 -2 d 2 -1 d 2 -1 d 2 -1 d 2 -2 d 2 -1 d 1 -1 d 2 -1 d 2 -1 d 2 -2 d 2 -1 d 2 -1 d 2 -1 d 2 -2 d
 2 -1 d 2 -1 d 1 -1 d 2 -1 d 2 -2 d 2 -1 d 2 -1 d 2 -1 d 2 -2 d 2 -1 d s 1027 1011 m 2 -1 d 1 -1 d 2 -1 d 2 -2 d 2 -1 d 2 -1 d 2 -1 d 2 -2 d 2 -1 d 2 -1 d 2 -1 d 1 -2 d 2 -1 d 2 -1 d 2 -1 d 2 -2 d 2 -1 d 2 -1 d 2 -1 d 2 -2 d 1 -1 d 2 -1 d 2 -1 d 2 -2
 d 2 -1 d 2 -1 d 2 -1 d 2 -2 d 2 -1 d 1 -1 d 2 -1 d 2 -2 d 2 -1 d 2 -1 d 2 -2 d 2 -1 d 2 -1 d 2 -1 d 2 -2 d 1 -1 d 2 -1 d 2 -1 d 2 -2 d 2 -1 d 2 -1 d 2 -2 d 2 -1 d 2 -1 d 1 -1 d s 1119 950 m 2 -2 d 2 -1 d 2 -1 d 2 -1 d 2 -2 d 2 -1 d 2 -1 d 2 -2 d 2
 -1 d 1 -1 d 2 -1 d 2 -2 d 2 -1 d 2 -1 d 2 -2 d 2 -1 d 2 -1 d 2 -1 d 1 -2 d 2 -1 d 2 -1 d 2 -2 d 2 -1 d 2 -1 d 2 -2 d 2 -1 d 2 -1 d 1 -1 d 2 -2 d 2 -1 d 2 -1 d 2 -2 d 2 -1 d 2 -1 d 2 -2 d 2 -1 d 2 -1 d 1 -1 d 2 -2 d 2 -1 d 2 -1 d 2 -2 d 2 -1 d 2 -1 d
 2 -2 d 2 -1 d 1 -1 d 2 -2 d 2 -1 d s 1212 886 m 2 -1 d 2 -1 d 2 -2 d 2 -1 d 2 -1 d 2 -2 d 2 -1 d 1 -1 d 2 -2 d 2 -1 d 2 -1 d 2 -2 d 2 -1 d 2 -1 d 2 -2 d 2 -1 d 1 -1 d 2 -2 d 2 -1 d 2 -1 d 2 -2 d 2 -1 d 2 -1 d 2 -2 d 2 -1 d 1 -1 d 2 -2 d 2 -1 d 2 -1
 d 2 -2 d 2 -1 d 2 -1 d 2 -2 d 2 -1 d 2 -1 d 1 -2 d 2 -1 d 2 -1 d 2 -2 d 2 -1 d 2 -1 d 2 -2 d 2 -1 d 2 -1 d 1 -2 d 2 -1 d 2 -1 d 2 -2 d 2 -1 d s 1305 821 m 2 -1 d 2 -2 d 2 -1 d 2 -1 d 1 -2 d 2 -1 d 2 -1 d 2 -2 d 2 -1 d 2 -2 d 2 -1 d 2 -1 d 2 -2 d 2
 -1 d 1 -1 d 2 -2 d 2 -1 d 2 -1 d 2 -2 d 2 -1 d 2 -1 d 2 -2 d 2 -1 d 1 -1 d 2 -2 d 2 -1 d 2 -2 d 2 -1 d 2 -1 d 2 -2 d 2 -1 d 2 -1 d 2 -2 d 1 -1 d 2 -1 d 2 -2 d 2 -1 d 2 -2 d 2 -1 d 2 -1 d 2 -2 d 2 -1 d 1 -1 d 2 -2 d 2 -1 d 2 -2 d 2 -1 d 2 -1 d 2 -2 d
 s 1398 754 m 2 -1 d 2 -1 d 1 -2 d 2 -1 d 2 -1 d 2 -2 d 2 -1 d 2 -2 d 2 -1 d 2 -1 d 2 -2 d 2 -1 d 1 -1 d 2 -2 d 2 -1 d 2 -2 d 2 -1 d 2 -1 d 2 -2 d 2 -1 d 2 -2 d 1 -1 d 2 -1 d 2 -2 d 2 -1 d 2 -1 d 2 -2 d 2 -1 d 2 -2 d 2 -1 d 2 -1 d 1 -2 d 2 -1 d 2 -2
 d 2 -1 d 2 -1 d 2 -2 d 2 -1 d 2 -1 d 2 -2 d 1 -1 d 2 -2 d 2 -1 d 2 -1 d 2 -2 d 2 -1 d 2 -2 d 2 -1 d 2 -1 d s 1491 687 m 1 -2 d 2 -1 d 2 -2 d 2 -1 d 2 -1 d 2 -2 d 2 -1 d 2 -2 d 2 -1 d 2 -1 d 1 -2 d 2 -1 d 2 -2 d 2 -1 d 2 -1 d 2 -2 d 2 -1 d 2 -1 d 2
 -2 d 1 -1 d 2 -2 d 2 -1 d 2 -1 d 2 -2 d 2 -1 d 2 -2 d 2 -1 d 2 -2 d 2 -1 d 1 -1 d 2 -2 d 2 -1 d 2 -2 d 2 -1 d 2 -1 d 2 -2 d 2 -1 d 2 -2 d 1 -1 d 2 -1 d 2 -2 d 2 -1 d 2 -2 d 2 -1 d 2 -1 d 2 -2 d 2 -1 d 1 -2 d 2 -1 d s 1583 618 m 2 -1 d 2 -2 d 2 -1 d
 2 -2 d 2 -1 d 2 -2 d 2 -1 d 2 -1 d 1 -2 d 2 -1 d 2 -2 d 2 -1 d 2 -1 d 2 -2 d 2 -1 d 2 -2 d 2 -1 d 1 -1 d 2 -2 d 2 -1 d 2 -2 d 2 -1 d 2 -2 d 2 -1 d 2 -1 d 2 -2 d 2 -1 d 1 -2 d 2 -1 d 2 -2 d 2 -1 d 2 -1 d 2 -2 d 2 -1 d 2 -2 d 2 -1 d 1 -1 d 2 -2 d 2 -1
 d 2 -2 d 2 -1 d 2 -2 d 2 -1 d 2 -1 d 2 -2 d 1 -1 d 2 -2 d 2 -1 d 2 -2 d s 1676 548 m 2 -1 d 2 -1 d 2 -2 d 2 -1 d 2 -2 d 2 -1 d 1 -2 d 2 -1 d 2 -1 d 2 -2 d 2 -1 d 2 -2 d 2 -1 d 2 -2 d 2 -1 d 1 -1 d 2 -2 d 2 -1 d 2 -2 d 2 -1 d 2 -2 d 2 -1 d 2 -1 d 2
 -2 d 2 -1 d 1 -2 d 2 -1 d 2 -2 d 2 -1 d 2 -1 d 2 -2 d 2 -1 d 2 -2 d 2 -1 d 1 -2 d 2 -1 d 2 -1 d 2 -2 d 2 -1 d 2 -2 d 2 -1 d 2 -2 d 2 -1 d 1 -1 d 2 -2 d 2 -1 d 2 -2 d 2 -1 d 2 -2 d s 1769 478 m 2 -1 d 2 -2 d 2 -1 d 2 -1 d 1 -2 d 2 -1 d 2 -2 d 2 -1 d
 2 -2 d 2 -1 d 2 -1 d 2 -2 d 2 -1 d 1 -2 d 2 -1 d 2 -2 d 2 -1 d 2 -2 d 2 -1 d 2 -1 d 2 -2 d 2 -1 d 2 -2 d 1 -1 d 2 -2 d 2 -1 d 2 -2 d 2 -1 d 2 -1 d 2 -2 d 2 -1 d 2 -2 d 1 -1 d 2 -2 d 2 -1 d 2 -1 d 2 -2 d 2 -1 d 2 -2 d 2 -1 d 2 -2 d 1 -1 d 2 -2 d 2 -1
 d 2 -1 d 2 -2 d 2 -1 d 2 -2 d 2 -1 d s 1862 408 m 2 -2 d 2 -1 d 1 -2 d 2 -1 d 2 -2 d 2 -1 d 2 -1 d 2 -2 d 2 -1 d 2 -2 d 2 -1 d 1 -2 d 2 -1 d 2 -2 d 2 -1 d 2 -1 d 2 -2 d 2 -1 d 2 -2 d 2 -1 d 1 -2 d 2 -1 d 2 -2 d 2 -1 d 2 -1 d 2 -2 d 2 -1 d 2 -2 d 2
 -1 d 2 -2 d 1 -1 d 2 -2 d 2 -1 d 2 -2 d 2 -1 d 2 -1 d 2 -2 d 2 -1 d 2 -2 d 1 -1 d 2 -2 d 2 -1 d 2 -2 d 2 -1 d 2 -1 d 2 -2 d 2 -1 d 2 -2 d 2 -1 d s 1955 337 m 1 -2 d 2 -1 d 2 -2 d 2 -1 d 2 -2 d 2 -1 d 2 -1 d 2 -2 d 2 -1 d 1 -2 d 2 -1 d 2 -2 d 2 -1 d
 2 -2 d 2 -1 d 2 -2 d 2 -1 d 2 -1 d 1 -2 d 2 -1 d 2 -2 d 2 -1 d 2 -2 d 2 -1 d 2 -2 d 2 -1 d 2 -2 d 2 -1 d 1 -2 d 2 -1 d 2 -1 d 2 -2 d 2 -1 d 2 -2 d 2 -1 d 2 -2 d 2 -1 d 1 -2 d 2 -1 d 2 -2 d 2 -1 d 2 -1 d 2 -2 d 2 -1 d 2 -2 d 2 -1 d 2 -2 d 1 -1 d 2 -2
 d s 2047 265 m 2 -1 d 2 -2 d 2 -1 d 2 -2 d 2 -1 d 2 -1 d 2 -2 d 1 -1 d 2 -2 d 2 -1 d 2 -2 d 2 -1 d 2 -2 d 2 -1 d 2 -2 d 2 -1 d 1 -2 d 2 -1 d 2 -1 d 2 -2 d 2 -1 d 2 -2 d 2 -1 d 2 -2 d 2 -1 d 2 -2 d 1 -1 d 2 -2 d 2 -1 d 2 -2 d 2 -1 d 2 -1 d 2 -2 d 2
 -1 d s
 gsave  2268 1769 0 0 C 1727.91 1521.76 t 0 r /Helvetica findfont 70.5271 sf 0 0 m (Solids) show NC gr  0.95 0.95 0.95 c[  ] 0 sd 3 lw 1609 1509 m 99 X 68 Y -99 X cl s[ 20 20] 0 sd 6 lw black[  ] 0 sd 1609 1543 m 99 X s 3 lw /w 2 def /w2 {w 2 div}
 def /w3 {w 3 div} def 1658 1543 m20 6 lw
 gsave  2268 1769 0 0 C 1727.91 1424.1 t 0 r /Helvetica findfont 70.5271 sf 0 0 m (Gases) show NC gr  0.95 0.95 0.95 c 3 lw 1609 1412 m 99 X 68 Y -99 X cl s 6 lw black[ 20 20] 0 sd 1609 1446 m 99 X s[  ] 0 sd 3 lw 1658 1446 m20[ 20 20] 0 sd 6 lw[  ]
 0 sd 2095 502 m -224 Y s 2114 310 m -19 -32 d -18 32 d s
 gsave  2268 1769 0 0 C 2050.71 501.827 t 0 r /Helvetica findfont 70.5271 sf 0 0 m (Pb) show NC gr  1924 635 m -224 Y s 1942 443 m -18 -32 d -19 32 d s
 gsave  2268 1769 0 0 C 1871.68 634.744 t 0 r /Helvetica findfont 70.5271 sf 0 0 m (CsI) show NC gr  1369 1055 m -224 Y s 1387 863 m -18 -32 d -19 32 d s
 gsave  2268 1769 0 0 C 1337.3 1055.19 t 0 r /Helvetica findfont 70.5271 sf 0 0 m (Si) show NC gr  1020 1302 m -223 Y s 1039 1111 m -19 -32 d -18 32 d s
 gsave  2268 1769 0 0 C 995.517 1304.75 t 0 r /Helvetica findfont 70.5271 sf 0 0 m (C) show NC gr  2053 665 m -354 Y s 2072 343 m -19 -32 d -18 32 d s
 gsave  2268 1769 0 0 C 2015.45 667.295 t 0 r /Helvetica findfont 70.5271 sf 0 0 m (W) show NC gr 
 gr  gr showpage
end
%%EOF
