%!PS-Adobe-2.0 EPSF-2.0
%%BoundingBox:  0 0 567 442
%%Title: dedxcharge.eps: dedxcharge
%%Creator: ROOT Version 5.34/14
%%CreationDate: Sat May 31 14:39:29 2014
%%EndComments
%%BeginProlog
80 dict begin
/s {stroke} def /l {lineto} def /m {moveto} def /t {translate} def
/r {rotate} def /rl {roll}  def /R {repeat} def
/d {rlineto} def /rm {rmoveto} def /gr {grestore} def /f {eofill} def
/c {setrgbcolor} def /black {0 setgray} def /sd {setdash} def
/cl {closepath} def /sf {scalefont setfont} def /lw {setlinewidth} def
/box {m dup 0 exch d exch 0 d 0 exch neg d cl} def
/NC{systemdict begin initclip end}def/C{NC box clip newpath}def
/bl {box s} def /bf {box f} def /Y { 0 exch d} def /X { 0 d} def 
/K {{pop pop 0 moveto} exch kshow} bind def
/ita {/ang 15 def gsave [1 0 ang dup sin exch cos div 1 0 0] concat} def 
/mp {newpath /y exch def /x exch def} def
/side {[w .77 mul w .23 mul] .385 w mul sd w 0 l currentpoint t -144 r} def
/mr {mp x y w2 0 360 arc} def /m24 {mr s} def /m20 {mr f} def
/mb {mp x y w2 add m w2 neg 0 d 0 w neg d w 0 d 0 w d cl} def
/mt {mp x y w2 add m w2 neg w neg d w 0 d cl} def
/m21 {mb f} def /m25 {mb s} def /m22 {mt f} def /m26{mt s} def
/m23 {mp x y w2 sub m w2 w d w neg 0 d cl f} def
/m27 {mp x y w2 add m w3 neg w2 neg d w3 w2 neg d w3 w2 d cl s} def
/m28 {mp x w2 sub y w2 sub w3 add m w3 0 d  0 w3 neg d w3 0 d 0 w3 d w3 0 d  0 w3 d w3 neg 0 d 0 w3 d w3 neg 0 d 0 w3 neg d w3 neg 0 d cl s } def
/m29 {mp gsave x w2 sub y w2 add w3 sub m currentpoint t 4 {side} repeat cl fill gr} def
/m30 {mp gsave x w2 sub y w2 add w3 sub m currentpoint t 4 {side} repeat cl s gr} def
/m31 {mp x y w2 sub m 0 w d x w2 sub y m w 0 d x w2 sub y w2 add m w w neg d x w2 sub y w2 sub m w w d s} def
/m32 {mp x y w2 sub m w2 w d w neg 0 d cl s} def
/m33 {mp x y w2 add m w3 neg w2 neg d w3 w2 neg d w3 w2 d cl f} def
/m34 {mp x w2 sub y w2 sub w3 add m w3 0 d  0 w3 neg d w3 0 d 0 w3 d w3 0 d  0 w3 d w3 neg 0 d 0 w3 d w3 neg 0 d 0 w3 neg d w3 neg 0 d cl f } def
/m2 {mp x y w2 sub m 0 w d x w2 sub y m w 0 d s} def
/m5 {mp x w2 sub y w2 sub m w w d x w2 sub y w2 add m w w neg d s} def
/reEncode {exch findfont dup length dict begin {1 index /FID eq  {pop pop} {def} ifelse } forall /Encoding exch def currentdict end dup /FontName get exch definefont pop } def [/Times-Bold /Times-Italic /Times-BoldItalic /Helvetica /Helvetica-Oblique
 /Helvetica-Bold /Helvetica-BoldOblique /Courier /Courier-Oblique /Courier-Bold /Courier-BoldOblique /Times-Roman /AvantGarde-Book /AvantGarde-BookOblique /AvantGarde-Demi /AvantGarde-DemiOblique /Bookman-Demi /Bookman-DemiItalic /Bookman-Light
 /Bookman-LightItalic /Helvetica-Narrow /Helvetica-Narrow-Bold /Helvetica-Narrow-BoldOblique /Helvetica-Narrow-Oblique /NewCenturySchlbk-Roman /NewCenturySchlbk-Bold /NewCenturySchlbk-BoldItalic /NewCenturySchlbk-Italic /Palatino-Bold
 /Palatino-BoldItalic /Palatino-Italic /Palatino-Roman ] {ISOLatin1Encoding reEncode } forall
%%EndProlog
%%BeginSetup
%%EndSetup
newpath  gsave  .25 .25 scale  gsave  0 0 t black[  ] 0 sd 6 lw 1 1 1 c 2268 1769 0 0 bf black 3 lw 1 1 1 c 1894 1482 283 216 bf black 1894 1482 283 216 bl 1 1 1 c 1894 1482 283 216 bf black 1894 1482 283 216 bl 6 lw 283 216 m 1894 X s 0.6 0.6 0.6 c[
 12 12] 0 sd 3 lw 283 1698 m -1482 Y s 757 1698 m -1482 Y s 1230 1698 m -1482 Y s 1704 1698 m -1482 Y s 2177 1698 m -1482 Y s black[  ] 0 sd 6 lw 283 1698 m 1894 X s 283 216 m 1482 Y s 0.6 0.6 0.6 c[ 12 12] 0 sd 3 lw 2177 216 m -1894 X s 2177 463 m
 -1894 X s 2177 710 m -1894 X s 2177 957 m -1894 X s 2177 1204 m -1894 X s 2177 1451 m -1894 X s 2177 1698 m -1894 X s black[  ] 0 sd 6 lw 2177 216 m 1482 Y s 1 1 1 c black 283 216 m 1894 X s 283 216 m 1894 X s
 gsave  2268 1769 0 0 C 1942.21 27.1258 t 0 r /Helvetica findfont 78.6648 sf 0 0 m (R [GV]) show NC gr  283 260 m -44 Y s
 gsave  2268 1769 0 0 C 303.809 154.617 t 0 r /Helvetica findfont 46.1139 sf 0 0 m (\2551) show NC gr 
 gsave  2268 1769 0 0 C 227.857 122.066 t 0 r /Helvetica findfont 70.5271 sf 0 0 m (10) show NC gr  426 238 m -22 Y s 509 238 m -22 Y s 568 238 m -22 Y s 614 238 m -22 Y s 652 238 m -22 Y s 684 238 m -22 Y s 711 238 m -22 Y s 735 238 m -22 Y s 757
 260 m -44 Y s
 gsave  2268 1769 0 0 C 756.851 119.893 t 0 r  -18 0 t /Helvetica findfont 67.8145 sf 0 0 m (1) show NC gr  899 238 m -22 Y s 983 238 m -22 Y s 1042 238 m -22 Y s 1088 238 m -22 Y s 1125 238 m -22 Y s 1157 238 m -22 Y s 1184 238 m -22 Y s 1209 238 m
 -22 Y s 1230 260 m -44 Y s
 gsave  2268 1769 0 0 C 1230.24 119.893 t 0 r  -37 0 t /Helvetica findfont 67.8145 sf 0 0 m (10) show NC gr  1373 238 m -22 Y s 1456 238 m -22 Y s 1515 238 m -22 Y s 1561 238 m -22 Y s 1599 238 m -22 Y s 1630 238 m -22 Y s 1658 238 m -22 Y s 1682 238
 m -22 Y s 1704 260 m -44 Y s
 gsave  2268 1769 0 0 C 1727.91 154.617 t 0 r /Helvetica findfont 46.1139 sf 0 0 m (2) show NC gr 
 gsave  2268 1769 0 0 C 1651.96 122.066 t 0 r /Helvetica findfont 70.5271 sf 0 0 m (10) show NC gr  1846 238 m -22 Y s 1929 238 m -22 Y s 1989 238 m -22 Y s 2035 238 m -22 Y s 2072 238 m -22 Y s 2104 238 m -22 Y s 2131 238 m -22 Y s 2155 238 m -22 Y
 s 2177 260 m -44 Y s
 gsave  2268 1769 0 0 C 2199.9 157.33 t 0 r /Helvetica findfont 46.1139 sf 0 0 m (3) show NC gr 
 gsave  2268 1769 0 0 C 2123.95 122.066 t 0 r /Helvetica findfont 70.5271 sf 0 0 m (10) show NC gr  283 1698 m 1894 X s 283 1654 m 44 Y s 426 1676 m 22 Y s 509 1676 m 22 Y s 568 1676 m 22 Y s 614 1676 m 22 Y s 652 1676 m 22 Y s 684 1676 m 22 Y s 711
 1676 m 22 Y s 735 1676 m 22 Y s 757 1654 m 44 Y s 899 1676 m 22 Y s 983 1676 m 22 Y s 1042 1676 m 22 Y s 1088 1676 m 22 Y s 1125 1676 m 22 Y s 1157 1676 m 22 Y s 1184 1676 m 22 Y s 1209 1676 m 22 Y s 1230 1654 m 44 Y s 1373 1676 m 22 Y s 1456 1676 m
 22 Y s 1515 1676 m 22 Y s 1561 1676 m 22 Y s 1599 1676 m 22 Y s 1630 1676 m 22 Y s 1658 1676 m 22 Y s 1682 1676 m 22 Y s 1704 1654 m 44 Y s 1846 1676 m 22 Y s 1929 1676 m 22 Y s 1989 1676 m 22 Y s 2035 1676 m 22 Y s 2072 1676 m 22 Y s 2104 1676 m 22
 Y s 2131 1676 m 22 Y s 2155 1676 m 22 Y s 2177 1654 m 44 Y s 283 216 m 1482 Y s
 gsave  2268 1769 0 0 C 92.2277 1679.09 t 90 r /Helvetica findfont 78.6648 sf 0 0 m (]) show NC gr 
 gsave  2268 1769 0 0 C 65.1019 1651.96 t 90 r /Helvetica findfont 51.539 sf 0 0 m (2) show NC gr 
 gsave  2268 1769 0 0 C 92.2277 1529.89 t 90 r /Helvetica findfont 78.6648 sf 0 0 m ( cm) show NC gr 
 gsave  2268 1769 0 0 C 54.2516 1494.63 t 90 r /Helvetica findfont 51.539 sf 0 0 m (\2551) show NC gr 
 gsave  2268 1769 0 0 C 92.2277 1000.94 t 90 r /Helvetica findfont 78.6648 sf 0 0 m (\255dE/dx [MeV g) show NC gr  340 216 m -57 X s 312 265 m -29 X s 312 315 m -29 X s 312 364 m -29 X s 312 413 m -29 X s 340 463 m -57 X s 312 512 m -29 X s 312 562 m
 -29 X s 312 611 m -29 X s 312 660 m -29 X s 340 710 m -57 X s 312 759 m -29 X s 312 809 m -29 X s 312 858 m -29 X s 312 907 m -29 X s 340 957 m -57 X s 312 1006 m -29 X s 312 1056 m -29 X s 312 1105 m -29 X s 312 1154 m -29 X s 340 1204 m -57 X s
 312 1253 m -29 X s 312 1303 m -29 X s 312 1352 m -29 X s 312 1401 m -29 X s 340 1451 m -57 X s 312 1500 m -29 X s 312 1550 m -29 X s 312 1599 m -29 X s 312 1648 m -29 X s 340 1698 m -57 X s
 gsave  2268 1769 0 0 C 233.282 189.881 t 0 r /Helvetica findfont 70.5271 sf 0 0 m (0) show NC gr 
 gsave  2268 1769 0 0 C 233.282 436.725 t 0 r /Helvetica findfont 70.5271 sf 0 0 m (5) show NC gr 
 gsave  2268 1769 0 0 C 195.306 683.57 t 0 r /Helvetica findfont 70.5271 sf 0 0 m (10) show NC gr 
 gsave  2268 1769 0 0 C 195.306 930.415 t 0 r /Helvetica findfont 70.5271 sf 0 0 m (15) show NC gr 
 gsave  2268 1769 0 0 C 195.306 1177.26 t 0 r /Helvetica findfont 70.5271 sf 0 0 m (20) show NC gr 
 gsave  2268 1769 0 0 C 195.306 1424.1 t 0 r /Helvetica findfont 70.5271 sf 0 0 m (25) show NC gr 
 gsave  2268 1769 0 0 C 195.306 1670.95 t 0 r /Helvetica findfont 70.5271 sf 0 0 m (30) show NC gr  2177 216 m 1482 Y s 2120 216 m 57 X s 2149 265 m 28 X s 2149 315 m 28 X s 2149 364 m 28 X s 2149 413 m 28 X s 2120 463 m 57 X s 2149 512 m 28 X s 2149
 562 m 28 X s 2149 611 m 28 X s 2149 660 m 28 X s 2120 710 m 57 X s 2149 759 m 28 X s 2149 809 m 28 X s 2149 858 m 28 X s 2149 907 m 28 X s 2120 957 m 57 X s 2149 1006 m 28 X s 2149 1056 m 28 X s 2149 1105 m 28 X s 2149 1154 m 28 X s 2120 1204 m 57 X
 s 2149 1253 m 28 X s 2149 1303 m 28 X s 2149 1352 m 28 X s 2149 1401 m 28 X s 2120 1451 m 57 X s 2149 1500 m 28 X s 2149 1550 m 28 X s 2149 1599 m 28 X s 2149 1648 m 28 X s 2120 1698 m 57 X s 1 1 1 c black 379 1698 m -6 Y s 379 1692 m 19 -218 d 19
 -185 d 19 -157 d 20 -133 d 19 -114 d 19 -96 d 19 -81 d 19 -69 d 19 -58 d 19 -50 d 19 -41 d 20 -35 d 19 -30 d 19 -25 d 19 -20 d 19 -18 d 19 -15 d 19 -12 d 20 -10 d 19 -8 d 19 -7 d 19 -6 d 19 -5 d 19 -4 d 19 -3 d 19 -2 d 20 -2 d 19 -2 d 19 -1 d 19 -1
 d 38 X 19 -1 d 19 1 d 58 X 19 1 d 19 1 d 19 X 19 1 d 19 1 d 20 X 19 1 d 19 1 d 19 1 d 19 X 19 1 d 19 1 d 19 1 d 20 1 d 19 1 d 19 1 d 19 1 d 19 1 d 19 X 19 1 d 19 1 d 20 1 d 19 1 d 19 1 d 19 1 d 19 1 d 19 1 d 19 1 d 19 1 d 20 1 d 19 1 d 19 X 19 1 d
 19 1 d 19 1 d 19 1 d 19 1 d 20 1 d 19 1 d 19 1 d 19 1 d 19 1 d 19 1 d 19 1 d 19 X 20 1 d 19 1 d 19 1 d 19 1 d 19 1 d 19 1 d 19 1 d 20 1 d 19 1 d 19 1 d 19 1 d 19 1 d s 1 1 1 c black 692 1698 m 12 -135 d s 704 1563 m 19 -179 d 20 -152 d 19 -127 d 19
 -108 d 19 -90 d 19 -76 d 19 -63 d 19 -54 d 19 -44 d 20 -37 d 19 -30 d 19 -26 d 19 -20 d 19 -17 d 19 -14 d 19 -11 d 19 -8 d 20 -7 d 19 -5 d 19 -4 d 19 -2 d 19 -2 d 19 X 19 -1 d 19 1 d 20 1 d 19 2 d 19 2 d 19 2 d 19 2 d 19 3 d 19 2 d 19 3 d 20 3 d 19
 4 d 19 3 d 19 3 d 19 4 d 19 3 d 19 3 d 19 4 d 20 3 d 19 4 d 19 4 d 19 3 d 19 4 d 19 4 d 19 3 d 19 4 d 20 4 d 19 3 d 19 4 d 19 4 d 19 3 d 19 4 d 19 4 d 19 3 d 20 4 d 19 4 d 19 3 d 19 4 d 19 4 d 19 4 d 19 3 d 19 4 d 20 4 d 19 3 d 19 4 d 19 4 d 19 4 d
 19 3 d 19 4 d 20 4 d 19 3 d 19 4 d 19 4 d 19 3 d s
 gsave  2268 1769 0 0 C 1684.51 336.36 t 0 r /Helvetica findfont 70.5271 sf 0 0 m (p) show NC gr 
 gsave  2268 1769 0 0 C 1670.95 596.768 t 0 r /Helvetica findfont 70.5271 sf 0 0 m (He) show NC gr 
 gsave  2268 1769 0 0 C 1646.54 629.318 t 0 r /Helvetica findfont 46.1139 sf 0 0 m (4) show NC gr 
 gr  gr showpage
end
%%EOF
