%!PS-Adobe-2.0 EPSF-2.0
%%BoundingBox:  0 0 567 442
%%Title: dipole_field.eps: dipole_field
%%Creator: ROOT Version 5.34/14
%%CreationDate: Fri Jan 31 22:18:50 2014
%%EndComments
%%BeginProlog
80 dict begin
/s {stroke} def /l {lineto} def /m {moveto} def /t {translate} def
/r {rotate} def /rl {roll}  def /R {repeat} def
/d {rlineto} def /rm {rmoveto} def /gr {grestore} def /f {eofill} def
/c {setrgbcolor} def /black {0 setgray} def /sd {setdash} def
/cl {closepath} def /sf {scalefont setfont} def /lw {setlinewidth} def
/box {m dup 0 exch d exch 0 d 0 exch neg d cl} def
/NC{systemdict begin initclip end}def/C{NC box clip newpath}def
/bl {box s} def /bf {box f} def /Y { 0 exch d} def /X { 0 d} def 
/K {{pop pop 0 moveto} exch kshow} bind def
/ita {/ang 15 def gsave [1 0 ang dup sin exch cos div 1 0 0] concat} def 
/mp {newpath /y exch def /x exch def} def
/side {[w .77 mul w .23 mul] .385 w mul sd w 0 l currentpoint t -144 r} def
/mr {mp x y w2 0 360 arc} def /m24 {mr s} def /m20 {mr f} def
/mb {mp x y w2 add m w2 neg 0 d 0 w neg d w 0 d 0 w d cl} def
/mt {mp x y w2 add m w2 neg w neg d w 0 d cl} def
/m21 {mb f} def /m25 {mb s} def /m22 {mt f} def /m26{mt s} def
/m23 {mp x y w2 sub m w2 w d w neg 0 d cl f} def
/m27 {mp x y w2 add m w3 neg w2 neg d w3 w2 neg d w3 w2 d cl s} def
/m28 {mp x w2 sub y w2 sub w3 add m w3 0 d  0 w3 neg d w3 0 d 0 w3 d w3 0 d  0 w3 d w3 neg 0 d 0 w3 d w3 neg 0 d 0 w3 neg d w3 neg 0 d cl s } def
/m29 {mp gsave x w2 sub y w2 add w3 sub m currentpoint t 4 {side} repeat cl fill gr} def
/m30 {mp gsave x w2 sub y w2 add w3 sub m currentpoint t 4 {side} repeat cl s gr} def
/m31 {mp x y w2 sub m 0 w d x w2 sub y m w 0 d x w2 sub y w2 add m w w neg d x w2 sub y w2 sub m w w d s} def
/m32 {mp x y w2 sub m w2 w d w neg 0 d cl s} def
/m33 {mp x y w2 add m w3 neg w2 neg d w3 w2 neg d w3 w2 d cl f} def
/m34 {mp x w2 sub y w2 sub w3 add m w3 0 d  0 w3 neg d w3 0 d 0 w3 d w3 0 d  0 w3 d w3 neg 0 d 0 w3 d w3 neg 0 d 0 w3 neg d w3 neg 0 d cl f } def
/m2 {mp x y w2 sub m 0 w d x w2 sub y m w 0 d s} def
/m5 {mp x w2 sub y w2 sub m w w d x w2 sub y w2 add m w w neg d s} def
/reEncode {exch findfont dup length dict begin {1 index /FID eq  {pop pop} {def} ifelse } forall /Encoding exch def currentdict end dup /FontName get exch definefont pop } def [/Times-Bold /Times-Italic /Times-BoldItalic /Helvetica /Helvetica-Oblique
 /Helvetica-Bold /Helvetica-BoldOblique /Courier /Courier-Oblique /Courier-Bold /Courier-BoldOblique /Times-Roman /AvantGarde-Book /AvantGarde-BookOblique /AvantGarde-Demi /AvantGarde-DemiOblique /Bookman-Demi /Bookman-DemiItalic /Bookman-Light
 /Bookman-LightItalic /Helvetica-Narrow /Helvetica-Narrow-Bold /Helvetica-Narrow-BoldOblique /Helvetica-Narrow-Oblique /NewCenturySchlbk-Roman /NewCenturySchlbk-Bold /NewCenturySchlbk-BoldItalic /NewCenturySchlbk-Italic /Palatino-Bold
 /Palatino-BoldItalic /Palatino-Italic /Palatino-Roman ] {ISOLatin1Encoding reEncode } forall
%%EndProlog
%%BeginSetup
%%EndSetup
newpath  gsave  .25 .25 scale  gsave  0 0 t black[  ] 0 sd 6 lw 1 1 1 c 2268 1769 0 0 bf black 1231 1221 m -6 -5 d s 1225 1216 m -15 -4 d s 1210 1212 m -22 -3 d s 1188 1209 m -27 -2 d s 1161 1207 m -29 X s 1132 1207 m -29 X s 1103 1207 m -27 2 d s
 1076 1209 m -22 3 d s 1054 1212 m -15 4 d s 1039 1216 m -6 5 d s 1033 1221 m 4 4 d s 1037 1225 m 13 5 d s 1050 1230 m 22 3 d s 1072 1233 m 28 2 d s 1100 1235 m 32 1 d s 1132 1236 m 32 -1 d s 1164 1235 m 28 -2 d s 1192 1233 m 22 -3 d s 1214 1230 m 13
 -5 d s 1227 1225 m 4 -4 d s 1322 1179 m -14 -7 d s 1308 1172 m -30 -7 d s 1278 1165 m -41 -4 d s 1237 1161 m -51 -3 d s 1186 1158 m -54 -2 d s 1132 1156 m -54 2 d s 1078 1158 m -50 3 d s 1028 1161 m -42 4 d s 986 1165 m -30 7 d s 956 1172 m -13 7 d
 s 943 1179 m 4 8 d s 947 1187 m 24 7 d s 971 1194 m 41 7 d s 1012 1201 m 56 4 d s 1068 1205 m 64 1 d s 1132 1206 m 64 -1 d s 1196 1205 m 55 -4 d s 1251 1201 m 42 -7 d s 1293 1194 m 24 -7 d s 1317 1187 m 5 -8 d s 1397 1114 m -22 -8 d s 1375 1106 m
 -42 -7 d s 1333 1099 m -58 -5 d s 1275 1094 m -69 -3 d s 1206 1091 m -74 -1 d s 1132 1090 m -73 1 d s 1059 1091 m -69 3 d s 990 1094 m -58 5 d s 932 1099 m -43 7 d s 889 1106 m -22 8 d s 867 1114 m 4 8 d s 871 1122 m 31 9 d s 902 1131 m 58 7 d s 960
 1138 m 80 5 d s 1040 1143 m 92 1 d s 1132 1144 m 92 -1 d s 1224 1143 m 80 -5 d s 1304 1138 m 58 -7 d s 1362 1131 m 31 -9 d s 1393 1122 m 4 -8 d s 1451 1030 m -28 -6 d s 1423 1024 m -52 -5 d s 1371 1019 m -70 -4 d s 1301 1015 m -82 -2 d s 1219 1013 m
 -87 -1 d s 1132 1012 m -87 1 d s 1045 1013 m -81 2 d s 964 1015 m -70 4 d s 894 1019 m -53 5 d s 841 1024 m -28 6 d s 813 1030 m 2 7 d s 815 1037 m 36 6 d s 851 1043 m 69 6 d s 920 1049 m 98 3 d s 1018 1052 m 114 2 d s 1132 1054 m 114 -2 d s 1246
 1052 m 97 -3 d s 1343 1049 m 70 -6 d s 1413 1043 m 36 -6 d s 1449 1037 m 2 -7 d s 1479 934 m -32 -2 d s 1447 932 m -57 -2 d s 1390 930 m -76 -1 d s 1314 929 m -88 -1 d s 1226 928 m -94 X s 1132 928 m -93 X s 1039 928 m -88 1 d s 951 929 m -76 1 d s
 875 930 m -58 2 d s 817 932 m -32 2 d s 785 934 m 1 3 d s 786 937 m 37 2 d s 823 939 m 76 2 d s 899 941 m 107 2 d s 1006 943 m 126 X s 1132 943 m 125 X s 1257 943 m 108 -2 d s 1365 941 m 75 -2 d s 1440 939 m 38 -2 d s 1478 937 m 1 -3 d s 1479 834 m
 -32 3 d s 1447 837 m -57 2 d s 1390 839 m -76 1 d s 1314 840 m -88 1 d s 1226 841 m -94 X s 1132 841 m -93 X s 1039 841 m -88 -1 d s 951 840 m -76 -1 d s 875 839 m -58 -2 d s 817 837 m -32 -3 d s 785 834 m 1 -2 d s 786 832 m 37 -3 d s 823 829 m 76
 -2 d s 899 827 m 107 -1 d s 1006 826 m 126 -1 d s 1132 825 m 125 1 d s 1257 826 m 108 1 d s 1365 827 m 75 2 d s 1440 829 m 38 3 d s 1478 832 m 1 2 d s 1451 739 m -28 6 d s 1423 745 m -52 5 d s 1371 750 m -70 4 d s 1301 754 m -82 2 d s 1219 756 m -87
 1 d s 1132 757 m -87 -1 d s 1045 756 m -81 -2 d s 964 754 m -70 -4 d s 894 750 m -53 -5 d s 841 745 m -28 -6 d s 813 739 m 2 -7 d s 815 732 m 36 -6 d s 851 726 m 69 -6 d s 920 720 m 98 -4 d s 1018 716 m 114 -1 d s 1132 715 m 114 1 d s 1246 716 m 97
 4 d s 1343 720 m 70 6 d s 1413 726 m 36 6 d s 1449 732 m 2 7 d s 1397 655 m -22 8 d s 1375 663 m -42 6 d s 1333 669 m -58 6 d s 1275 675 m -69 3 d s 1206 678 m -74 1 d s 1132 679 m -73 -1 d s 1059 678 m -69 -3 d s 990 675 m -58 -6 d s 932 669 m -43
 -6 d s 889 663 m -22 -8 d s 867 655 m 4 -9 d s 871 646 m 31 -8 d s 902 638 m 58 -7 d s 960 631 m 80 -5 d s 1040 626 m 92 -2 d s 1132 624 m 92 2 d s 1224 626 m 80 5 d s 1304 631 m 58 7 d s 1362 638 m 31 8 d s 1393 646 m 4 9 d s 1322 589 m -14 8 d s
 1308 597 m -30 6 d s 1278 603 m -41 5 d s 1237 608 m -51 3 d s 1186 611 m -54 1 d s 1132 612 m -54 -1 d s 1078 611 m -50 -3 d s 1028 608 m -42 -5 d s 986 603 m -30 -6 d s 956 597 m -13 -8 d s 943 589 m 4 -7 d s 947 582 m 24 -8 d s 971 574 m 41 -6 d
 s 1012 568 m 56 -4 d s 1068 564 m 64 -2 d s 1132 562 m 64 2 d s 1196 564 m 55 4 d s 1251 568 m 42 6 d s 1293 574 m 24 8 d s 1317 582 m 5 7 d s 1231 548 m -6 4 d s 1225 552 m -15 4 d s 1210 556 m -22 3 d s 1188 559 m -27 2 d s 1161 561 m -29 1 d s
 1132 562 m -29 -1 d s 1103 561 m -27 -2 d s 1076 559 m -22 -3 d s 1054 556 m -15 -4 d s 1039 552 m -6 -4 d s 1033 548 m 4 -5 d s 1037 543 m 13 -4 d s 1050 539 m 22 -3 d s 1072 536 m 28 -3 d s 1100 533 m 32 X s 1132 533 m 32 X s 1164 533 m 28 3 d s
 1192 536 m 22 3 d s 1214 539 m 13 4 d s 1227 543 m 4 5 d s 1231 1221 m 91 -42 d s 1225 1216 m 83 -44 d s 1210 1212 m 68 -47 d s 1188 1209 m 49 -48 d s 1161 1207 m 25 -49 d s 1132 1207 m -51 Y s 1103 1207 m -25 -49 d s 1076 1209 m -48 -48 d s 1054
 1212 m -68 -47 d s 1039 1216 m -83 -44 d s 1033 1221 m -90 -42 d s 1037 1225 m -90 -38 d s 1050 1230 m -79 -36 d s 1072 1233 m -60 -32 d s 1100 1235 m -32 -30 d s 1132 1236 m -30 Y s 1164 1235 m 32 -30 d s 1192 1233 m 59 -32 d s 1214 1230 m 79 -36 d
 s 1227 1225 m 90 -38 d s 1322 1179 m 75 -65 d s 1308 1172 m 67 -66 d s 1278 1165 m 55 -66 d s 1237 1161 m 38 -67 d s 1186 1158 m 20 -67 d s 1132 1156 m -66 Y s 1078 1158 m -19 -67 d s 1028 1161 m -38 -67 d s 986 1165 m -54 -66 d s 956 1172 m -67 -66
 d s 943 1179 m -76 -65 d s 947 1187 m -76 -65 d s 971 1194 m -69 -63 d s 1012 1201 m -52 -63 d s 1068 1205 m -28 -62 d s 1132 1206 m -62 Y s 1196 1205 m 28 -62 d s 1251 1201 m 53 -63 d s 1293 1194 m 69 -63 d s 1317 1187 m 76 -65 d s 1397 1114 m 54
 -84 d s 1375 1106 m 48 -82 d s 1333 1099 m 38 -80 d s 1275 1094 m 26 -79 d s 1206 1091 m 13 -78 d s 1132 1090 m -78 Y s 1059 1091 m -14 -78 d s 990 1094 m -26 -79 d s 932 1099 m -38 -80 d s 889 1106 m -48 -82 d s 867 1114 m -54 -84 d s 871 1122 m
 -56 -85 d s 902 1131 m -51 -88 d s 960 1138 m -40 -89 d s 1040 1143 m -22 -91 d s 1132 1144 m -90 Y s 1224 1143 m 22 -91 d s 1304 1138 m 39 -89 d s 1362 1131 m 51 -88 d s 1393 1122 m 56 -85 d s 1451 1030 m 28 -96 d s 1423 1024 m 24 -92 d s 1371 1019
 m 19 -89 d s 1301 1015 m 13 -86 d s 1219 1013 m 7 -85 d s 1132 1012 m -84 Y s 1045 1013 m -6 -85 d s 964 1015 m -13 -86 d s 894 1019 m -19 -89 d s 841 1024 m -24 -92 d s 813 1030 m -28 -96 d s 815 1037 m -29 -100 d s 851 1043 m -28 -104 d s 920 1049
 m -21 -108 d s 1018 1052 m -12 -109 d s 1132 1054 m -111 Y s 1246 1052 m 11 -109 d s 1343 1049 m 22 -108 d s 1413 1043 m 27 -104 d s 1449 1037 m 29 -100 d s 1479 934 m -100 Y s 1447 932 m -95 Y s 1390 930 m -91 Y s 1314 929 m -89 Y s 1226 928 m -87
 Y s 1132 928 m -87 Y s 1039 928 m -87 Y s 951 929 m -89 Y s 875 930 m -91 Y s 817 932 m -95 Y s 785 934 m -100 Y s 786 937 m -105 Y s 823 939 m -110 Y s 899 941 m -114 Y s 1006 943 m -117 Y s 1132 943 m -118 Y s 1257 943 m -117 Y s 1365 941 m -114 Y
 s 1440 939 m -110 Y s 1478 937 m -105 Y s 1479 834 m -28 -95 d s 1447 837 m -24 -92 d s 1390 839 m -19 -89 d s 1314 840 m -13 -86 d s 1226 841 m -7 -85 d s 1132 841 m -84 Y s 1039 841 m 6 -85 d s 951 840 m 13 -86 d s 875 839 m 19 -89 d s 817 837 m
 24 -92 d s 785 834 m 28 -95 d s 786 832 m 29 -100 d s 823 829 m 28 -103 d s 899 827 m 21 -107 d s 1006 826 m 12 -110 d s 1132 825 m -110 Y s 1257 826 m -11 -110 d s 1365 827 m -22 -107 d s 1440 829 m -27 -103 d s 1478 832 m -29 -100 d s 1451 739 m
 -54 -84 d s 1423 745 m -48 -82 d s 1371 750 m -38 -81 d s 1301 754 m -26 -79 d s 1219 756 m -13 -78 d s 1132 757 m -78 Y s 1045 756 m 14 -78 d s 964 754 m 26 -79 d s 894 750 m 38 -81 d s 841 745 m 48 -82 d s 813 739 m 54 -84 d s 815 732 m 56 -86 d s
 851 726 m 51 -88 d s 920 720 m 40 -89 d s 1018 716 m 22 -90 d s 1132 715 m -91 Y s 1246 716 m -22 -90 d s 1343 720 m -39 -89 d s 1413 726 m -51 -88 d s 1449 732 m -56 -86 d s 1397 655 m -75 -66 d s 1375 663 m -67 -66 d s 1333 669 m -55 -66 d s 1275
 675 m -38 -67 d s 1206 678 m -20 -67 d s 1132 679 m -67 Y s 1059 678 m 19 -67 d s 990 675 m 38 -67 d s 932 669 m 54 -66 d s 889 663 m 67 -66 d s 867 655 m 76 -66 d s 871 646 m 76 -64 d s 902 638 m 69 -64 d s 960 631 m 52 -63 d s 1040 626 m 28 -62 d
 s 1132 624 m -62 Y s 1224 626 m -28 -62 d s 1304 631 m -53 -63 d s 1362 638 m -69 -64 d s 1393 646 m -76 -64 d s 1322 589 m -91 -41 d s 1308 597 m -83 -45 d s 1278 603 m -68 -47 d s 1237 608 m -49 -49 d s 1186 611 m -25 -50 d s 1132 612 m -50 Y s
 1078 611 m 25 -50 d s 1028 608 m 48 -49 d s 986 603 m 68 -47 d s 956 597 m 83 -45 d s 943 589 m 90 -41 d s 947 582 m 90 -39 d s 971 574 m 79 -35 d s 1012 568 m 60 -32 d s 1068 564 m 32 -31 d s 1132 562 m -29 Y s 1196 564 m -32 -31 d s 1251 568 m -59
 -32 d s 1293 574 m -79 -35 d s 1317 582 m -90 -39 d s 1231 1221 m -99 14 d s 1225 1216 m -93 19 d s 1210 1212 m -78 23 d s 1188 1209 m -56 26 d s 1161 1207 m -29 28 d s 1132 1207 m 28 Y s 1103 1207 m 29 28 d s 1076 1209 m 56 26 d s 1054 1212 m 78 23
 d s 1039 1216 m 93 19 d s 1033 1221 m 99 14 d s 1037 1225 m 95 10 d s 1050 1230 m 82 5 d s 1072 1233 m 60 2 d s 1100 1235 m 32 X s 1132 1236 m -1 Y s 1164 1235 m -32 X s 1192 1233 m -60 2 d s 1214 1230 m -82 5 d s 1227 1225 m -95 10 d s 1231 548 m
 -99 -14 d s 1225 552 m -93 -18 d s 1210 556 m -78 -22 d s 1188 559 m -56 -25 d s 1161 561 m -29 -27 d s 1132 562 m -28 Y s 1103 561 m 29 -27 d s 1076 559 m 56 -25 d s 1054 556 m 78 -22 d s 1039 552 m 93 -18 d s 1033 548 m 99 -14 d s 1037 543 m 95 -9
 d s 1050 539 m 82 -5 d s 1072 536 m 60 -2 d s 1100 533 m 32 1 d s 1132 533 m 1 Y s 1164 533 m -32 1 d s 1192 536 m -60 -2 d s 1214 539 m -82 -5 d s 1227 543 m -95 -9 d s 1132 253 m 1262 Y s
 gsave  2268 1769 0 0 C 1106.73 1516.33 t 0 r /Helvetica findfont 70.5271 sf 0 0 m (N) show NC gr 
 gsave  2268 1769 0 0 C 1106.73 200.731 t 0 r /Helvetica findfont 70.5271 sf 0 0 m (S) show NC gr  1457 1025 m 7 -3 d s 1464 1022 m 6 -4 d s 1470 1018 m 6 -4 d s 1476 1014 m 7 -4 d s 1483 1010 m 5 -4 d s 1488 1006 m 6 -4 d s 1494 1002 m 5 -5 d s 1499
 997 m 6 -4 d s 1505 993 m 5 -5 d s 1510 988 m 4 -6 d s 1514 982 m 5 -5 d s 1519 977 m 4 -5 d s 1523 972 m 4 -6 d s 1527 966 m 4 -6 d s 1531 960 m 3 -6 d s 1534 954 m 3 -5 d s 1537 949 m 3 -7 d s 1540 942 m 3 -6 d s 1543 936 m 2 -6 d s 1545 930 m 2
 -6 d s 1547 924 m 2 -7 d s 1549 917 m 1 -6 d s 1550 911 m 1 -7 d s 1551 904 m 1 -6 d s 1552 898 m 1 -7 d s 1553 891 m -7 Y s 1553 884 m -6 Y s 1553 878 m -1 -7 d s 1552 871 m -1 -6 d s 1551 865 m -1 -7 d s 1550 858 m -1 -7 d s 1549 851 m -2 -6 d s
 1547 845 m -2 -6 d s 1545 839 m -2 -7 d s 1543 832 m -3 -6 d s 1540 826 m -3 -6 d s 1537 820 m -3 -6 d s 1534 814 m -3 -6 d s 1531 808 m -4 -6 d s 1527 802 m -4 -5 d s 1523 797 m -4 -6 d s 1519 791 m -5 -5 d s 1514 786 m -4 -5 d s 1510 781 m -5 -5 d
 s 1505 776 m -6 -5 d s 1499 771 m -5 -4 d s 1494 767 m -6 -5 d s 1488 762 m -5 -4 d s 1483 758 m -7 -4 d s 1476 754 m -6 -4 d s 1470 750 m -6 -3 d s 1464 747 m -7 -3 d s 807 1025 m -7 -3 d s 800 1022 m -6 -4 d s 794 1018 m -6 -4 d s 788 1014 m -6 -4
 d s 782 1010 m -6 -4 d s 776 1006 m -6 -4 d s 770 1002 m -5 -5 d s 765 997 m -5 -4 d s 760 993 m -5 -5 d s 755 988 m -5 -6 d s 750 982 m -5 -5 d s 745 977 m -4 -5 d s 741 972 m -4 -6 d s 737 966 m -4 -6 d s 733 960 m -3 -6 d s 730 954 m -3 -5 d s
 727 949 m -3 -7 d s 724 942 m -3 -6 d s 721 936 m -2 -6 d s 719 930 m -2 -6 d s 717 924 m -2 -7 d s 715 917 m -1 -6 d s 714 911 m -1 -7 d s 713 904 m -1 -6 d s 712 898 m -7 Y s 712 891 m -1 -7 d s 711 884 m 1 -6 d s 712 878 m -7 Y s 712 871 m 1 -6 d
 s 713 865 m 1 -7 d s 714 858 m 1 -7 d s 715 851 m 2 -6 d s 717 845 m 2 -6 d s 719 839 m 2 -7 d s 721 832 m 3 -6 d s 724 826 m 3 -6 d s 727 820 m 3 -6 d s 730 814 m 3 -6 d s 733 808 m 4 -6 d s 737 802 m 4 -5 d s 741 797 m 4 -6 d s 745 791 m 5 -5 d s
 750 786 m 5 -5 d s 755 781 m 5 -5 d s 760 776 m 5 -5 d s 765 771 m 5 -4 d s 770 767 m 6 -5 d s 776 762 m 6 -4 d s 782 758 m 6 -4 d s 788 754 m 6 -4 d s 794 750 m 6 -3 d s 800 747 m 7 -3 d s 1420 1087 m 10 X s 1430 1087 m 9 -1 d s 1439 1086 m 10 -1 d
 s 1449 1085 m 9 -1 d s 1458 1084 m 9 -1 d s 1467 1083 m 10 -2 d s 1477 1081 m 9 -2 d s 1486 1079 m 9 -2 d s 1495 1077 m 9 -3 d s 1504 1074 m 9 -3 d s 1513 1071 m 9 -3 d s 1522 1068 m 8 -4 d s 1530 1064 m 9 -4 d s 1539 1060 m 8 -4 d s 1547 1056 m 8
 -4 d s 1555 1052 m 8 -5 d s 1563 1047 m 7 -5 d s 1570 1042 m 7 -5 d s 1577 1037 m 7 -6 d s 1584 1031 m 7 -5 d s 1591 1026 m 7 -6 d s 1598 1020 m 6 -7 d s 1604 1013 m 6 -6 d s 1610 1007 m 6 -7 d s 1616 1000 m 5 -6 d s 1621 994 m 5 -7 d s 1626 987 m 5
 -8 d s 1631 979 m 4 -7 d s 1635 972 m 4 -7 d s 1639 965 m 3 -8 d s 1642 957 m 4 -8 d s 1646 949 m 3 -8 d s 1649 941 m 2 -8 d s 1651 933 m 2 -8 d s 1653 925 m 2 -8 d s 1655 917 m 1 -8 d s 1656 909 m 1 -8 d s 1657 901 m 1 -8 d s 1658 893 m -9 Y s 1658
 884 m -8 Y s 1658 876 m -1 -8 d s 1657 868 m -1 -8 d s 1656 860 m -1 -9 d s 1655 851 m -2 -8 d s 1653 843 m -2 -8 d s 1651 835 m -2 -8 d s 1649 827 m -3 -8 d s 1646 819 m -4 -7 d s 1642 812 m -3 -8 d s 1639 804 m -4 -7 d s 1635 797 m -4 -8 d s 1631
 789 m -5 -7 d s 1626 782 m -5 -7 d s 1621 775 m -5 -7 d s 1616 768 m -6 -6 d s 1610 762 m -6 -7 d s 1604 755 m -6 -6 d s 1598 749 m -7 -6 d s 1591 743 m -7 -6 d s 1584 737 m -7 -5 d s 1577 732 m -7 -5 d s 1570 727 m -7 -5 d s 1563 722 m -8 -5 d s
 1555 717 m -8 -4 d s 1547 713 m -8 -5 d s 1539 708 m -9 -3 d s 1530 705 m -8 -4 d s 1522 701 m -9 -3 d s 1513 698 m -9 -3 d s 1504 695 m -9 -3 d s 1495 692 m -9 -2 d s 1486 690 m -9 -2 d s 1477 688 m -10 -2 d s 1467 686 m -9 -1 d s 1458 685 m -9 -2
 d s 1449 683 m -10 X s 1439 683 m -9 -1 d s 1430 682 m -10 X s 844 1087 m -9 X s 835 1087 m -10 -1 d s 825 1086 m -9 -1 d s 816 1085 m -10 -1 d s 806 1084 m -9 -1 d s 797 1083 m -10 -2 d s 787 1081 m -9 -2 d s 778 1079 m -9 -2 d s 769 1077 m -9 -3 d
 s 760 1074 m -9 -3 d s 751 1071 m -9 -3 d s 742 1068 m -8 -4 d s 734 1064 m -8 -4 d s 726 1060 m -9 -4 d s 717 1056 m -8 -4 d s 709 1052 m -7 -5 d s 702 1047 m -8 -5 d s 694 1042 m -7 -5 d s 687 1037 m -7 -6 d s 680 1031 m -7 -5 d s 673 1026 m -7 -6
 d s 666 1020 m -6 -7 d s 660 1013 m -6 -6 d s 654 1007 m -5 -7 d s 649 1000 m -6 -6 d s 643 994 m -5 -7 d s 638 987 m -4 -8 d s 634 979 m -5 -7 d s 629 972 m -4 -7 d s 625 965 m -3 -8 d s 622 957 m -3 -8 d s 619 949 m -3 -8 d s 616 941 m -3 -8 d s
 613 933 m -2 -8 d s 611 925 m -2 -8 d s 609 917 m -1 -8 d s 608 909 m -1 -8 d s 607 901 m -1 -8 d s 606 893 m -9 Y s 606 884 m -8 Y s 606 876 m 1 -8 d s 607 868 m 1 -8 d s 608 860 m 1 -9 d s 609 851 m 2 -8 d s 611 843 m 2 -8 d s 613 835 m 3 -8 d s
 616 827 m 3 -8 d s 619 819 m 3 -7 d s 622 812 m 3 -8 d s 625 804 m 4 -7 d s 629 797 m 5 -8 d s 634 789 m 4 -7 d s 638 782 m 5 -7 d s 643 775 m 6 -7 d s 649 768 m 5 -6 d s 654 762 m 6 -7 d s 660 755 m 6 -6 d s 666 749 m 7 -6 d s 673 743 m 7 -6 d s
 680 737 m 7 -5 d s 687 732 m 7 -5 d s 694 727 m 8 -5 d s 702 722 m 7 -5 d s 709 717 m 8 -4 d s 717 713 m 9 -5 d s 726 708 m 8 -3 d s 734 705 m 8 -4 d s 742 701 m 9 -3 d s 751 698 m 9 -3 d s 760 695 m 9 -3 d s 769 692 m 9 -2 d s 778 690 m 9 -2 d s
 787 688 m 10 -2 d s 797 686 m 9 -1 d s 806 685 m 10 -2 d s 816 683 m 9 X s 825 683 m 10 -1 d s 835 682 m 9 X s 1392 1136 m 12 3 d s 1404 1139 m 12 3 d s 1416 1142 m 12 3 d s 1428 1145 m 12 3 d s 1440 1148 m 13 2 d s 1453 1150 m 12 1 d s 1465 1151 m
 13 2 d s 1478 1153 m 13 1 d s 1491 1154 m 12 X s 1503 1154 m 13 X s 1516 1154 m 13 X s 1529 1154 m 12 -1 d s 1541 1153 m 13 -1 d s 1554 1152 m 13 -1 d s 1567 1151 m 12 -2 d s 1579 1149 m 13 -3 d s 1592 1146 m 12 -2 d s 1604 1144 m 12 -3 d s 1616
 1141 m 12 -4 d s 1628 1137 m 12 -4 d s 1640 1133 m 12 -4 d s 1652 1129 m 11 -5 d s 1663 1124 m 11 -5 d s 1674 1119 m 11 -6 d s 1685 1113 m 11 -6 d s 1696 1107 m 10 -6 d s 1706 1101 m 10 -6 d s 1716 1095 m 10 -7 d s 1726 1088 m 9 -8 d s 1735 1080 m 9
 -7 d s 1744 1073 m 9 -8 d s 1753 1065 m 8 -9 d s 1761 1056 m 8 -8 d s 1769 1048 m 8 -9 d s 1777 1039 m 7 -9 d s 1784 1030 m 6 -9 d s 1790 1021 m 7 -10 d s 1797 1011 m 5 -10 d s 1802 1001 m 6 -10 d s 1808 991 m 4 -10 d s 1812 981 m 5 -10 d s 1817 971
 m 4 -11 d s 1821 960 m 3 -10 d s 1824 950 m 3 -11 d s 1827 939 m 2 -11 d s 1829 928 m 2 -11 d s 1831 917 m 1 -11 d s 1832 906 m 1 -11 d s 1833 895 m -11 Y s 1833 884 m -11 Y s 1833 873 m -1 -11 d s 1832 862 m -1 -11 d s 1831 851 m -2 -11 d s 1829
 840 m -2 -10 d s 1827 830 m -3 -11 d s 1824 819 m -3 -11 d s 1821 808 m -4 -10 d s 1817 798 m -5 -11 d s 1812 787 m -4 -10 d s 1808 777 m -6 -10 d s 1802 767 m -5 -9 d s 1797 758 m -7 -10 d s 1790 748 m -6 -9 d s 1784 739 m -7 -9 d s 1777 730 m -8
 -9 d s 1769 721 m -8 -9 d s 1761 712 m -8 -8 d s 1753 704 m -9 -8 d s 1744 696 m -9 -8 d s 1735 688 m -9 -7 d s 1726 681 m -10 -7 d s 1716 674 m -10 -7 d s 1706 667 m -10 -6 d s 1696 661 m -11 -6 d s 1685 655 m -11 -5 d s 1674 650 m -11 -5 d s 1663
 645 m -11 -5 d s 1652 640 m -12 -4 d s 1640 636 m -12 -4 d s 1628 632 m -12 -4 d s 1616 628 m -12 -3 d s 1604 625 m -12 -3 d s 1592 622 m -13 -2 d s 1579 620 m -12 -2 d s 1567 618 m -13 -2 d s 1554 616 m -13 -1 d s 1541 615 m -12 X s 1529 615 m -13
 -1 d s 1516 614 m -13 1 d s 1503 615 m -12 X s 1491 615 m -13 1 d s 1478 616 m -13 1 d s 1465 617 m -12 2 d s 1453 619 m -13 2 d s 1440 621 m -12 2 d s 1428 623 m -12 3 d s 1416 626 m -12 3 d s 1404 629 m -12 4 d s 1392 633 m -12 3 d s 872 1136 m
 -12 3 d s 860 1139 m -12 3 d s 848 1142 m -12 3 d s 836 1145 m -12 3 d s 824 1148 m -13 2 d s 811 1150 m -12 1 d s 799 1151 m -13 2 d s 786 1153 m -13 1 d s 773 1154 m -12 X s 761 1154 m -13 X s 748 1154 m -13 X s 735 1154 m -12 -1 d s 723 1153 m
 -13 -1 d s 710 1152 m -13 -1 d s 697 1151 m -12 -2 d s 685 1149 m -12 -3 d s 673 1146 m -13 -2 d s 660 1144 m -12 -3 d s 648 1141 m -12 -4 d s 636 1137 m -12 -4 d s 624 1133 m -11 -4 d s 613 1129 m -12 -5 d s 601 1124 m -11 -5 d s 590 1119 m -11 -6
 d s 579 1113 m -11 -6 d s 568 1107 m -10 -6 d s 558 1101 m -10 -6 d s 548 1095 m -10 -7 d s 538 1088 m -9 -8 d s 529 1080 m -9 -7 d s 520 1073 m -9 -8 d s 511 1065 m -8 -9 d s 503 1056 m -8 -8 d s 495 1048 m -8 -9 d s 487 1039 m -7 -9 d s 480 1030 m
 -6 -9 d s 474 1021 m -7 -10 d s 467 1011 m -5 -10 d s 462 1001 m -6 -10 d s 456 991 m -4 -10 d s 452 981 m -5 -10 d s 447 971 m -4 -11 d s 443 960 m -3 -10 d s 440 950 m -3 -11 d s 437 939 m -2 -11 d s 435 928 m -2 -11 d s 433 917 m -1 -11 d s 432
 906 m -1 -11 d s 431 895 m -11 Y s 431 884 m -11 Y s 431 873 m 1 -11 d s 432 862 m 1 -11 d s 433 851 m 2 -11 d s 435 840 m 2 -10 d s 437 830 m 3 -11 d s 440 819 m 3 -11 d s 443 808 m 4 -10 d s 447 798 m 5 -11 d s 452 787 m 4 -10 d s 456 777 m 6 -10
 d s 462 767 m 5 -9 d s 467 758 m 7 -10 d s 474 748 m 6 -9 d s 480 739 m 7 -9 d s 487 730 m 8 -9 d s 495 721 m 8 -9 d s 503 712 m 8 -8 d s 511 704 m 9 -8 d s 520 696 m 9 -8 d s 529 688 m 9 -7 d s 538 681 m 10 -7 d s 548 674 m 10 -7 d s 558 667 m 10
 -6 d s 568 661 m 11 -6 d s 579 655 m 11 -5 d s 590 650 m 11 -5 d s 601 645 m 12 -5 d s 613 640 m 11 -4 d s 624 636 m 12 -4 d s 636 632 m 12 -4 d s 648 628 m 12 -3 d s 660 625 m 13 -3 d s 673 622 m 12 -2 d s 685 620 m 12 -2 d s 697 618 m 13 -2 d s
 710 616 m 13 -1 d s 723 615 m 12 X s 735 615 m 13 -1 d s 748 614 m 13 1 d s 761 615 m 12 X s 773 615 m 13 1 d s 786 616 m 13 1 d s 799 617 m 12 2 d s 811 619 m 13 2 d s 824 621 m 12 2 d s 836 623 m 12 3 d s 848 626 m 12 3 d s 860 629 m 12 4 d s 872
 633 m 12 3 d s 1346 1178 m 14 10 d s 1360 1188 m 14 9 d s 1374 1197 m 15 8 d s 1389 1205 m 15 9 d s 1404 1214 m 16 8 d s 1420 1222 m 16 7 d s 1436 1229 m 17 8 d s 1453 1237 m 16 7 d s 1469 1244 m 18 6 d s 1487 1250 m 17 6 d s 1504 1256 m 18 6 d s
 1522 1262 m 18 5 d s 1540 1267 m 18 5 d s 1558 1272 m 18 4 d s 1576 1276 m 19 3 d s 1595 1279 m 18 3 d s 1613 1282 m 19 3 d s 1632 1285 m 19 2 d s 1651 1287 m 19 1 d s 1670 1288 m 19 1 d s 1689 1289 m 19 X s 1708 1289 m 19 X s 1727 1289 m 19 -1 d s
 1746 1288 m 19 -2 d s 1765 1286 m 19 -2 d s 1784 1284 m 19 -3 d s 1803 1281 m 18 -3 d s 1821 1278 m 19 -5 d s 1840 1273 m 18 -4 d s 1858 1269 m 18 -6 d s 1876 1263 m 18 -6 d s 1894 1257 m 17 -6 d s 1911 1251 m 17 -7 d s 1928 1244 m 17 -8 d s 1945
 1236 m 17 -8 d s 1962 1228 m 15 -9 d s 1977 1219 m 16 -9 d s 1993 1210 m 15 -10 d s 2008 1200 m 15 -11 d s 2023 1189 m 14 -11 d s 2037 1178 m 13 -11 d s 2050 1167 m 13 -12 d s 2063 1155 m 13 -12 d s 2076 1143 m 12 -13 d s 2088 1130 m 11 -14 d s 2099
 1116 m 11 -13 d s 2110 1103 m 10 -14 d s 2120 1089 m 9 -15 d s 2129 1074 m 9 -14 d s 2138 1060 m 8 -15 d s 2146 1045 m 7 -15 d s 2153 1030 m 6 -16 d s 2159 1014 m 6 -16 d s 2165 998 m 5 -16 d s 2170 982 m 4 -16 d s 2174 966 m 4 -16 d s 2178 950 m 2
 -16 d s 2180 934 m 2 -17 d s 2182 917 m 1 -16 d s 2183 901 m 1 -17 d s 2184 884 m -1 -16 d s 2183 868 m -1 -17 d s 2182 851 m -2 -16 d s 2180 835 m -2 -16 d s 2178 819 m -4 -17 d s 2174 802 m -4 -16 d s 2170 786 m -5 -16 d s 2165 770 m -6 -15 d s
 2159 755 m -6 -16 d s 2153 739 m -7 -15 d s 2146 724 m -8 -15 d s 2138 709 m -9 -15 d s 2129 694 m -9 -14 d s 2120 680 m -10 -14 d s 2110 666 m -11 -14 d s 2099 652 m -11 -13 d s 2088 639 m -12 -13 d s 2076 626 m -13 -12 d s 2063 614 m -13 -12 d s
 2050 602 m -13 -12 d s 2037 590 m -14 -11 d s 2023 579 m -15 -10 d s 2008 569 m -15 -10 d s 1993 559 m -16 -9 d s 1977 550 m -15 -9 d s 1962 541 m -17 -9 d s 1945 532 m -17 -7 d s 1928 525 m -17 -7 d s 1911 518 m -17 -7 d s 1894 511 m -18 -6 d s
 1876 505 m -18 -5 d s 1858 500 m -18 -5 d s 1840 495 m -19 -4 d s 1821 491 m -18 -3 d s 1803 488 m -19 -3 d s 1784 485 m -19 -2 d s 1765 483 m -19 -2 d s 1746 481 m -19 -1 d s 1727 480 m -19 -1 d s 1708 479 m -19 1 d s 1689 480 m -19 X s 1670 480 m
 -19 2 d s 1651 482 m -19 2 d s 1632 484 m -19 2 d s 1613 486 m -18 3 d s 1595 489 m -19 4 d s 1576 493 m -18 4 d s 1558 497 m -18 5 d s 1540 502 m -18 5 d s 1522 507 m -18 5 d s 1504 512 m -17 6 d s 1487 518 m -18 7 d s 1469 525 m -16 7 d s 1453 532
 m -17 7 d s 1436 539 m -16 8 d s 1420 547 m -16 8 d s 1404 555 m -15 8 d s 1389 563 m -15 9 d s 1374 572 m -14 9 d s 1360 581 m -14 9 d s 918 1178 m -14 10 d s 904 1188 m -14 9 d s 890 1197 m -15 8 d s 875 1205 m -15 9 d s 860 1214 m -16 8 d s 844
 1222 m -16 7 d s 828 1229 m -17 8 d s 811 1237 m -16 7 d s 795 1244 m -17 6 d s 778 1250 m -18 6 d s 760 1256 m -17 6 d s 743 1262 m -18 5 d s 725 1267 m -19 5 d s 706 1272 m -18 4 d s 688 1276 m -18 3 d s 670 1279 m -19 3 d s 651 1282 m -19 3 d s
 632 1285 m -19 2 d s 613 1287 m -19 1 d s 594 1288 m -19 1 d s 575 1289 m -19 X s 556 1289 m -19 X s 537 1289 m -19 -1 d s 518 1288 m -19 -2 d s 499 1286 m -19 -2 d s 480 1284 m -19 -3 d s 461 1281 m -18 -3 d s 443 1278 m -19 -5 d s 424 1273 m -18
 -4 d s 406 1269 m -18 -6 d s 388 1263 m -18 -6 d s 370 1257 m -17 -6 d s 353 1251 m -17 -7 d s 336 1244 m -17 -8 d s 319 1236 m -16 -8 d s 303 1228 m -16 -9 d s 287 1219 m -16 -9 d s 271 1210 m -15 -10 d s 256 1200 m -15 -11 d s 241 1189 m -14 -11 d
 s 227 1178 m -13 -11 d s 214 1167 m -13 -12 d s 201 1155 m -13 -12 d s 188 1143 m -12 -13 d s 176 1130 m -11 -14 d s 165 1116 m -11 -13 d s 154 1103 m -10 -14 d s 144 1089 m -9 -15 d s 135 1074 m -8 -14 d s 127 1060 m -8 -15 d s 119 1045 m -8 -15 d
 s 111 1030 m -6 -16 d s 105 1014 m -6 -16 d s 99 998 m -5 -16 d s 94 982 m -4 -16 d s 90 966 m -4 -16 d s 86 950 m -2 -16 d s 84 934 m -2 -17 d s 82 917 m -1 -16 d s 81 901 m -1 -17 d s 80 884 m 1 -16 d s 81 868 m 1 -17 d s 82 851 m 2 -16 d s 84 835
 m 2 -16 d s 86 819 m 4 -17 d s 90 802 m 4 -16 d s 94 786 m 5 -16 d s 99 770 m 6 -15 d s 105 755 m 6 -16 d s 111 739 m 8 -15 d s 119 724 m 8 -15 d s 127 709 m 8 -15 d s 135 694 m 9 -14 d s 144 680 m 10 -14 d s 154 666 m 11 -14 d s 165 652 m 11 -13 d
 s 176 639 m 12 -13 d s 188 626 m 13 -12 d s 201 614 m 13 -12 d s 214 602 m 13 -12 d s 227 590 m 14 -11 d s 241 579 m 15 -10 d s 256 569 m 15 -10 d s 271 559 m 16 -9 d s 287 550 m 16 -9 d s 303 541 m 16 -9 d s 319 532 m 17 -7 d s 336 525 m 17 -7 d s
 353 518 m 17 -7 d s 370 511 m 18 -6 d s 388 505 m 18 -5 d s 406 500 m 18 -5 d s 424 495 m 19 -4 d s 443 491 m 18 -3 d s 461 488 m 19 -3 d s 480 485 m 19 -2 d s 499 483 m 19 -2 d s 518 481 m 19 -1 d s 537 480 m 19 -1 d s 556 479 m 19 1 d s 575 480 m
 19 X s 594 480 m 19 2 d s 613 482 m 19 2 d s 632 484 m 19 2 d s 651 486 m 19 3 d s 670 489 m 18 4 d s 688 493 m 18 4 d s 706 497 m 19 5 d s 725 502 m 18 5 d s 743 507 m 17 5 d s 760 512 m 18 6 d s 778 518 m 17 7 d s 795 525 m 16 7 d s 811 532 m 17 7
 d s 828 539 m 16 8 d s 844 547 m 16 8 d s 860 555 m 15 8 d s 875 563 m 15 9 d s 890 572 m 14 9 d s 904 581 m 14 9 d s 1483 884 m 785 X s 781 884 m -781 X s 1 1 1 c 113 71 1496 849 bf black
 gsave  2268 1769 0 0 C 1513.62 862.6 t 0 r /Helvetica findfont 54.2516 sf 0 0 m (1.2) show NC gr  1 1 1 c 114 71 1600 849 bf black
 gsave  2268 1769 0 0 C 1616.7 862.6 t 0 r /Helvetica findfont 54.2516 sf 0 0 m (1.5) show NC gr  1 1 1 c 113 71 1775 849 bf black
 gsave  2268 1769 0 0 C 1793.02 862.6 t 0 r /Helvetica findfont 54.2516 sf 0 0 m (2.0) show NC gr  1 1 1 c 113 71 2124 849 bf black
 gsave  2268 1769 0 0 C 2140.23 862.6 t 0 r /Helvetica findfont 54.2516 sf 0 0 m (3.0) show NC gr 
 gr  gr showpage
end
%%EOF
