%!PS-Adobe-2.0 EPSF-2.0
%%BoundingBox:  0 0 567 442
%%Title: discr_variable.eps: discr_variable
%%Creator: ROOT Version 5.34/14
%%CreationDate: Sun Feb  2 23:14:39 2014
%%EndComments
%%BeginProlog
80 dict begin
/s {stroke} def /l {lineto} def /m {moveto} def /t {translate} def
/r {rotate} def /rl {roll}  def /R {repeat} def
/d {rlineto} def /rm {rmoveto} def /gr {grestore} def /f {eofill} def
/c {setrgbcolor} def /black {0 setgray} def /sd {setdash} def
/cl {closepath} def /sf {scalefont setfont} def /lw {setlinewidth} def
/box {m dup 0 exch d exch 0 d 0 exch neg d cl} def
/NC{systemdict begin initclip end}def/C{NC box clip newpath}def
/bl {box s} def /bf {box f} def /Y { 0 exch d} def /X { 0 d} def 
/K {{pop pop 0 moveto} exch kshow} bind def
/ita {/ang 15 def gsave [1 0 ang dup sin exch cos div 1 0 0] concat} def 
/mp {newpath /y exch def /x exch def} def
/side {[w .77 mul w .23 mul] .385 w mul sd w 0 l currentpoint t -144 r} def
/mr {mp x y w2 0 360 arc} def /m24 {mr s} def /m20 {mr f} def
/mb {mp x y w2 add m w2 neg 0 d 0 w neg d w 0 d 0 w d cl} def
/mt {mp x y w2 add m w2 neg w neg d w 0 d cl} def
/m21 {mb f} def /m25 {mb s} def /m22 {mt f} def /m26{mt s} def
/m23 {mp x y w2 sub m w2 w d w neg 0 d cl f} def
/m27 {mp x y w2 add m w3 neg w2 neg d w3 w2 neg d w3 w2 d cl s} def
/m28 {mp x w2 sub y w2 sub w3 add m w3 0 d  0 w3 neg d w3 0 d 0 w3 d w3 0 d  0 w3 d w3 neg 0 d 0 w3 d w3 neg 0 d 0 w3 neg d w3 neg 0 d cl s } def
/m29 {mp gsave x w2 sub y w2 add w3 sub m currentpoint t 4 {side} repeat cl fill gr} def
/m30 {mp gsave x w2 sub y w2 add w3 sub m currentpoint t 4 {side} repeat cl s gr} def
/m31 {mp x y w2 sub m 0 w d x w2 sub y m w 0 d x w2 sub y w2 add m w w neg d x w2 sub y w2 sub m w w d s} def
/m32 {mp x y w2 sub m w2 w d w neg 0 d cl s} def
/m33 {mp x y w2 add m w3 neg w2 neg d w3 w2 neg d w3 w2 d cl f} def
/m34 {mp x w2 sub y w2 sub w3 add m w3 0 d  0 w3 neg d w3 0 d 0 w3 d w3 0 d  0 w3 d w3 neg 0 d 0 w3 d w3 neg 0 d 0 w3 neg d w3 neg 0 d cl f } def
/m2 {mp x y w2 sub m 0 w d x w2 sub y m w 0 d s} def
/m5 {mp x w2 sub y w2 sub m w w d x w2 sub y w2 add m w w neg d s} def
/reEncode {exch findfont dup length dict begin {1 index /FID eq  {pop pop} {def} ifelse } forall /Encoding exch def currentdict end dup /FontName get exch definefont pop } def [/Times-Bold /Times-Italic /Times-BoldItalic /Helvetica /Helvetica-Oblique
 /Helvetica-Bold /Helvetica-BoldOblique /Courier /Courier-Oblique /Courier-Bold /Courier-BoldOblique /Times-Roman /AvantGarde-Book /AvantGarde-BookOblique /AvantGarde-Demi /AvantGarde-DemiOblique /Bookman-Demi /Bookman-DemiItalic /Bookman-Light
 /Bookman-LightItalic /Helvetica-Narrow /Helvetica-Narrow-Bold /Helvetica-Narrow-BoldOblique /Helvetica-Narrow-Oblique /NewCenturySchlbk-Roman /NewCenturySchlbk-Bold /NewCenturySchlbk-BoldItalic /NewCenturySchlbk-Italic /Palatino-Bold
 /Palatino-BoldItalic /Palatino-Italic /Palatino-Roman ] {ISOLatin1Encoding reEncode } forall
%%EndProlog
%%BeginSetup
%%EndSetup
newpath  gsave  .25 .25 scale  gsave  0 0 t black[  ] 0 sd 6 lw 1 1 1 c 2268 1769 0 0 bf black 3 lw 1 1 1 c 1894 1486 283 212 bf black 1894 1486 283 212 bl 1 1 1 c 1894 1486 283 212 bf black 1894 1486 283 212 bl 6 lw 283 212 m 1894 X s 0.6 0.6 0.6 c[
 12 12] 0 sd 3 lw 283 1698 m -1486 Y s 473 1698 m -1486 Y s 662 1698 m -1486 Y s 852 1698 m -1486 Y s 1041 1698 m -1486 Y s 1230 1698 m -1486 Y s 1420 1698 m -1486 Y s 1609 1698 m -1486 Y s 1798 1698 m -1486 Y s 1988 1698 m -1486 Y s 2177 1698 m
 -1486 Y s black[  ] 0 sd 6 lw 283 1698 m 1894 X s 283 212 m 1486 Y s 0.6 0.6 0.6 c[ 12 12] 0 sd 3 lw 2177 212 m -1894 X s 2177 389 m -1894 X s 2177 566 m -1894 X s 2177 744 m -1894 X s 2177 921 m -1894 X s 2177 1098 m -1894 X s 2177 1275 m -1894 X s
 2177 1452 m -1894 X s 2177 1629 m -1894 X s 2177 1629 m -1894 X s black[  ] 0 sd 6 lw 2177 212 m 1486 Y s 0.95 0.95 0.95 c black 284 212 m 93 X s 377 212 m 13 X 2 1 d 72 X 2 1 d 4 X s 470 214 m 34 X 2 1 d 26 X 2 1 d 21 X 2 1 d 6 X s 563 217 m 13 X 2
 1 d 15 X 2 1 d 13 X 2 1 d 13 X 2 1 d 12 X 2 1 d 11 X 2 1 d 4 X s 656 223 m 5 X 2 1 d 8 X 2 1 d 9 X 2 1 d 8 X 1 1 d 8 X 2 1 d 7 X 2 1 d 6 X 2 1 d 6 X 2 1 d 7 X 2 1 d 6 X 2 1 d 3 X s 748 233 m 2 X 2 1 d 4 X 2 1 d 5 X 2 1 d 6 X 2 1 d 4 X 2 1 d 5 X 2 1
 d 4 X 2 1 d 4 X 2 1 d 3 X 2 1 d 4 X 2 1 d 4 X 2 1 d 3 X 2 1 d 4 X 2 1 d 4 X 2 1 d 3 X 2 1 d 4 X s 841 248 m 2 1 d 2 X 2 1 d 4 X 1 1 d 4 X 2 1 d 2 X 2 1 d 4 X 2 1 d 2 X 1 1 d 4 X 2 1 d 2 X 2 1 d 2 X 2 1 d 3 X 2 1 d 2 X 2 1 d 2 X 2 1 d 2 X 2 1 d 3 X 2
 1 d 2 X 2 1 d 2 X 2 1 d 2 X 2 1 d 2 X 2 1 d 1 X 2 1 d 2 X 2 1 d 2 X 2 1 d s 934 270 m 2 X 2 1 d 2 X 1 1 d 2 X 2 1 d 2 X 2 1 d 2 X 2 1 d 2 X 2 1 d 2 X 1 1 d 2 1 d 2 X 2 1 d 2 X 2 1 d 2 X 2 1 d 2 X 1 1 d 2 1 d 2 X 2 1 d 2 X 2 1 d 2 X 2 1 d 2 1 d 1 X 2
 1 d 2 X 2 1 d 2 1 d 2 X 2 1 d 2 1 d 2 X 2 1 d 1 X 2 1 d 2 1 d 2 X 2 1 d 2 1 d 2 X 2 1 d s 1027 298 m 2 1 d 1 X 2 1 d 2 1 d 2 X 2 1 d 2 1 d 2 X 2 1 d 2 1 d 2 X 1 1 d 2 1 d 2 X 2 1 d 2 1 d 2 1 d 2 X 2 1 d 2 1 d 1 X 2 1 d 2 1 d 2 1 d 2 X 2 1 d 2 1 d 2
 1 d 2 X 1 1 d 2 1 d 2 1 d 2 X 2 1 d 2 1 d 2 1 d 2 1 d 2 X 2 1 d 1 1 d 2 1 d 2 X 2 1 d 2 1 d 2 1 d 2 1 d 2 1 d 2 X 1 1 d s 1119 334 m 2 1 d 2 1 d 2 1 d 2 1 d 2 X 2 1 d 2 1 d 2 1 d 2 1 d 1 1 d 2 1 d 2 X 2 1 d 2 1 d 2 1 d 2 1 d 2 1 d 2 1 d 1 1 d 2 1 d
 2 X 2 1 d 2 1 d 2 1 d 2 1 d 2 1 d 2 1 d 1 1 d 2 1 d 2 1 d 2 1 d 2 1 d 2 1 d 2 1 d 2 1 d 2 1 d 2 X 1 1 d 2 1 d 2 1 d 2 1 d 2 1 d 2 1 d 2 1 d 2 1 d 2 1 d 1 1 d 2 1 d 2 1 d s 1212 379 m 2 1 d 2 2 d 2 1 d 2 1 d 2 1 d 2 1 d 2 1 d 1 1 d 2 1 d 2 1 d 2 1 d
 2 1 d 2 1 d 2 1 d 2 1 d 2 1 d 1 1 d 2 2 d 2 1 d 2 1 d 2 1 d 2 1 d 2 1 d 2 1 d 2 1 d 1 1 d 2 2 d 2 1 d 2 1 d 2 1 d 2 1 d 2 1 d 2 2 d 2 1 d 2 1 d 1 1 d 2 1 d 2 1 d 2 2 d 2 1 d 2 1 d 2 1 d 2 1 d 2 2 d 1 1 d 2 1 d 2 1 d 2 2 d 2 1 d s 1305 435 m 2 1 d 2
 1 d 2 1 d 2 2 d 1 1 d 2 1 d 2 2 d 2 1 d 2 1 d 2 1 d 2 2 d 2 1 d 2 1 d 2 2 d 1 1 d 2 1 d 2 1 d 2 2 d 2 1 d 2 1 d 2 2 d 2 1 d 2 1 d 1 2 d 2 1 d 2 1 d 2 2 d 2 1 d 2 2 d 2 1 d 2 1 d 2 2 d 2 1 d 1 2 d 2 1 d 2 1 d 2 2 d 2 1 d 2 2 d 2 1 d 2 1 d 2 2 d 1 1 d
 2 2 d 2 1 d 2 2 d 2 1 d 2 2 d 2 1 d s 1398 501 m 2 2 d 2 1 d 1 1 d 2 2 d 2 1 d 2 2 d 2 1 d 2 2 d 2 1 d 2 2 d 2 2 d 2 1 d 1 2 d 2 1 d 2 2 d 2 1 d 2 2 d 2 1 d 2 2 d 2 1 d 2 2 d 1 2 d 2 1 d 2 2 d 2 1 d 2 2 d 2 2 d 2 1 d 2 2 d 2 1 d 2 2 d 1 2 d 2 1 d 2
 2 d 2 2 d 2 1 d 2 2 d 2 2 d 2 1 d 2 2 d 1 2 d 2 1 d 2 2 d 2 2 d 2 1 d 2 2 d 2 2 d 2 2 d 2 1 d s 1491 579 m 1 2 d 2 2 d 2 2 d 2 1 d 2 2 d 2 2 d 2 2 d 2 1 d 2 2 d 2 2 d 1 2 d 2 1 d 2 2 d 2 2 d 2 2 d 2 2 d 2 2 d 2 1 d 2 2 d 1 2 d 2 2 d 2 2 d 2 2 d 2 1
 d 2 2 d 2 2 d 2 2 d 2 2 d 2 2 d 1 2 d 2 2 d 2 1 d 2 2 d 2 2 d 2 2 d 2 2 d 2 2 d 2 2 d 1 2 d 2 2 d 2 2 d 2 2 d 2 2 d 2 2 d 2 2 d 2 2 d 2 2 d 1 2 d 2 2 d s 1583 671 m 2 2 d 2 2 d 2 2 d 2 2 d 2 2 d 2 2 d 2 2 d 2 2 d 1 2 d 2 2 d 2 2 d 2 2 d 2 2 d 2 2 d
 2 2 d 2 2 d 2 3 d 1 2 d 2 2 d 2 2 d 2 2 d 2 2 d 2 2 d 2 2 d 2 3 d 2 2 d 2 2 d 1 2 d 2 2 d 2 2 d 2 3 d 2 2 d 2 2 d 2 2 d 2 2 d 2 3 d 1 2 d 2 2 d 2 2 d 2 3 d 2 2 d 2 2 d 2 2 d 2 3 d 2 2 d 1 2 d 2 2 d 2 3 d 2 2 d s 1676 776 m 2 2 d 2 3 d 2 2 d 2 2 d 2
 3 d 2 2 d 1 2 d 2 3 d 2 2 d 2 2 d 2 3 d 2 2 d 2 2 d 2 3 d 2 2 d 1 3 d 2 2 d 2 2 d 2 3 d 2 2 d 2 3 d 2 2 d 2 3 d 2 2 d 2 2 d 1 3 d 2 2 d 2 3 d 2 2 d 2 3 d 2 2 d 2 3 d 2 2 d 2 3 d 1 2 d 2 3 d 2 2 d 2 3 d 2 3 d 2 2 d 2 3 d 2 2 d 2 3 d 1 2 d 2 3 d 2 3 d
 2 2 d 2 3 d 2 2 d s 1769 896 m 2 3 d 2 3 d 2 2 d 2 3 d 1 3 d 2 2 d 2 3 d 2 3 d 2 2 d 2 3 d 2 3 d 2 2 d 2 3 d 1 3 d 2 2 d 2 3 d 2 3 d 2 3 d 2 2 d 2 3 d 2 3 d 2 3 d 2 2 d 1 3 d 2 3 d 2 3 d 2 2 d 2 3 d 2 3 d 2 3 d 2 3 d 2 3 d 1 2 d 2 3 d 2 3 d 2 3 d 2
 3 d 2 3 d 2 3 d 2 2 d 2 3 d 1 3 d 2 3 d 2 3 d 2 3 d 2 3 d 2 3 d 2 3 d 2 3 d s 1862 1033 m 2 3 d 2 3 d 1 3 d 2 3 d 2 3 d 2 3 d 2 3 d 2 3 d 2 3 d 2 3 d 2 3 d 1 3 d 2 3 d 2 3 d 2 3 d 2 3 d 2 3 d 2 3 d 2 3 d 2 3 d 1 3 d 2 3 d 2 4 d 2 3 d 2 3 d 2 3 d 2 3
 d 2 3 d 2 3 d 2 4 d 1 3 d 2 3 d 2 3 d 2 3 d 2 4 d 2 3 d 2 3 d 2 3 d 2 3 d 1 4 d 2 3 d 2 3 d 2 3 d 2 4 d 2 3 d 2 3 d 2 4 d 2 3 d 2 3 d s 1955 1186 m 1 3 d 2 4 d 2 3 d 2 3 d 2 4 d 2 3 d 2 3 d 2 4 d 2 3 d 1 4 d 2 3 d 2 3 d 2 4 d 2 3 d 2 4 d 2 3 d 2 4 d
 2 3 d 1 3 d 2 4 d 2 3 d 2 4 d 2 3 d 2 4 d 2 3 d 2 4 d 2 3 d 2 4 d 1 3 d 2 4 d 2 3 d 2 4 d 2 4 d 2 3 d 2 4 d 2 3 d 2 4 d 1 3 d 2 4 d 2 4 d 2 3 d 2 4 d 2 4 d 2 3 d 2 4 d 2 4 d 2 3 d 1 4 d 2 4 d s 2047 1358 m 2 3 d 2 4 d 2 4 d 2 3 d 2 4 d 2 4 d 2 4 d 1
 3 d 2 4 d 2 4 d 2 4 d 2 3 d 2 4 d 2 4 d 2 4 d 2 4 d 1 3 d 2 4 d 2 4 d 2 4 d 2 4 d 2 4 d 2 3 d 2 4 d 2 4 d 2 4 d 1 4 d 2 4 d 2 4 d 2 4 d 2 4 d 2 4 d 2 4 d 2 4 d 2 4 d 1 4 d 2 4 d 2 3 d 2 4 d 2 5 d 2 4 d 2 4 d 2 4 d 2 4 d 2 4 d 1 4 d 2 4 d 2 4 d 2 4 d
 s 2140 1548 m 2 4 d 2 4 d 2 4 d 2 4 d 2 4 d 1 5 d 2 4 d 2 4 d 2 4 d 2 4 d 2 4 d 2 5 d 2 4 d 2 4 d 1 4 d 2 4 d 2 5 d 2 4 d 2 4 d s 283 212 m 1894 X s
 gsave  2268 1769 0 0 C 1169.12 24.4132 t 0 r /Helvetica findfont 78.6648 sf 0 0 m (Discriminating variable [a. u.]) show NC gr  283 257 m -45 Y s 321 234 m -22 Y s 359 234 m -22 Y s 397 234 m -22 Y s 435 234 m -22 Y s 473 257 m -45 Y s 511 234 m -22
 Y s 549 234 m -22 Y s 586 234 m -22 Y s 624 234 m -22 Y s 662 257 m -45 Y s 700 234 m -22 Y s 738 234 m -22 Y s 776 234 m -22 Y s 814 234 m -22 Y s 852 257 m -45 Y s 889 234 m -22 Y s 927 234 m -22 Y s 965 234 m -22 Y s 1003 234 m -22 Y s 1041 257 m
 -45 Y s 1079 234 m -22 Y s 1117 234 m -22 Y s 1154 234 m -22 Y s 1192 234 m -22 Y s 1230 257 m -45 Y s 1268 234 m -22 Y s 1306 234 m -22 Y s 1344 234 m -22 Y s 1382 234 m -22 Y s 1420 257 m -45 Y s 1457 234 m -22 Y s 1495 234 m -22 Y s 1533 234 m
 -22 Y s 1571 234 m -22 Y s 1609 257 m -45 Y s 1647 234 m -22 Y s 1685 234 m -22 Y s 1723 234 m -22 Y s 1760 234 m -22 Y s 1798 257 m -45 Y s 1836 234 m -22 Y s 1874 234 m -22 Y s 1912 234 m -22 Y s 1950 234 m -22 Y s 1988 257 m -45 Y s 2026 234 m
 -22 Y s 2063 234 m -22 Y s 2101 234 m -22 Y s 2139 234 m -22 Y s 2177 257 m -45 Y s
 gsave  2268 1769 0 0 C 263.12 143.767 t 0 r /Helvetica findfont 70.5271 sf 0 0 m (0) show NC gr 
 gsave  2268 1769 0 0 C 428.588 143.767 t 0 r /Helvetica findfont 70.5271 sf 0 0 m (0.1) show NC gr 
 gsave  2268 1769 0 0 C 613.043 143.767 t 0 r /Helvetica findfont 70.5271 sf 0 0 m (0.2) show NC gr 
 gsave  2268 1769 0 0 C 800.211 143.767 t 0 r /Helvetica findfont 70.5271 sf 0 0 m (0.3) show NC gr 
 gsave  2268 1769 0 0 C 990.092 143.767 t 0 r /Helvetica findfont 70.5271 sf 0 0 m (0.4) show NC gr 
 gsave  2268 1769 0 0 C 1179.97 143.767 t 0 r /Helvetica findfont 70.5271 sf 0 0 m (0.5) show NC gr 
 gsave  2268 1769 0 0 C 1369.85 143.767 t 0 r /Helvetica findfont 70.5271 sf 0 0 m (0.6) show NC gr 
 gsave  2268 1769 0 0 C 1559.73 143.767 t 0 r /Helvetica findfont 70.5271 sf 0 0 m (0.7) show NC gr 
 gsave  2268 1769 0 0 C 1746.9 143.767 t 0 r /Helvetica findfont 70.5271 sf 0 0 m (0.8) show NC gr 
 gsave  2268 1769 0 0 C 1936.78 143.767 t 0 r /Helvetica findfont 70.5271 sf 0 0 m (0.9) show NC gr 
 gsave  2268 1769 0 0 C 2161.93 143.767 t 0 r /Helvetica findfont 70.5271 sf 0 0 m (1) show NC gr  283 1698 m 1894 X s 283 1654 m 44 Y s 321 1676 m 22 Y s 359 1676 m 22 Y s 397 1676 m 22 Y s 435 1676 m 22 Y s 473 1654 m 44 Y s 511 1676 m 22 Y s 549
 1676 m 22 Y s 586 1676 m 22 Y s 624 1676 m 22 Y s 662 1654 m 44 Y s 700 1676 m 22 Y s 738 1676 m 22 Y s 776 1676 m 22 Y s 814 1676 m 22 Y s 852 1654 m 44 Y s 889 1676 m 22 Y s 927 1676 m 22 Y s 965 1676 m 22 Y s 1003 1676 m 22 Y s 1041 1654 m 44 Y s
 1079 1676 m 22 Y s 1117 1676 m 22 Y s 1154 1676 m 22 Y s 1192 1676 m 22 Y s 1230 1654 m 44 Y s 1268 1676 m 22 Y s 1306 1676 m 22 Y s 1344 1676 m 22 Y s 1382 1676 m 22 Y s 1420 1654 m 44 Y s 1457 1676 m 22 Y s 1495 1676 m 22 Y s 1533 1676 m 22 Y s
 1571 1676 m 22 Y s 1609 1654 m 44 Y s 1647 1676 m 22 Y s 1685 1676 m 22 Y s 1723 1676 m 22 Y s 1760 1676 m 22 Y s 1798 1654 m 44 Y s 1836 1676 m 22 Y s 1874 1676 m 22 Y s 1912 1676 m 22 Y s 1950 1676 m 22 Y s 1988 1654 m 44 Y s 2026 1676 m 22 Y s
 2063 1676 m 22 Y s 2101 1676 m 22 Y s 2139 1676 m 22 Y s 2177 1654 m 44 Y s 283 212 m 1486 Y s
 gsave  2268 1769 0 0 C 92.2277 1679.09 t 90 r /Helvetica findfont 78.6648 sf 0 0 m (]) show NC gr 
 gsave  2268 1769 0 0 C 54.2516 1643.82 t 90 r /Helvetica findfont 51.539 sf 0 0 m (\2551) show NC gr 
 gsave  2268 1769 0 0 C 92.2277 515.39 t 90 r /Helvetica findfont 78.6648 sf 0 0 m (Probability density function [a. u.) show NC gr  341 212 m -58 X s 312 248 m -29 X s 312 283 m -29 X s 312 319 m -29 X s 312 354 m -29 X s 341 389 m -58 X s 312 425 m
 -29 X s 312 460 m -29 X s 312 496 m -29 X s 312 531 m -29 X s 341 566 m -58 X s 312 602 m -29 X s 312 637 m -29 X s 312 673 m -29 X s 312 708 m -29 X s 341 744 m -58 X s 312 779 m -29 X s 312 814 m -29 X s 312 850 m -29 X s 312 885 m -29 X s 341 921
 m -58 X s 312 956 m -29 X s 312 992 m -29 X s 312 1027 m -29 X s 312 1062 m -29 X s 341 1098 m -58 X s 312 1133 m -29 X s 312 1169 m -29 X s 312 1204 m -29 X s 312 1240 m -29 X s 341 1275 m -58 X s 312 1310 m -29 X s 312 1346 m -29 X s 312 1381 m
 -29 X s 312 1417 m -29 X s 341 1452 m -58 X s 312 1488 m -29 X s 312 1523 m -29 X s 312 1558 m -29 X s 312 1594 m -29 X s 341 1629 m -58 X s 341 1629 m -58 X s 312 1665 m -29 X s
 gsave  2268 1769 0 0 C 233.282 187.168 t 0 r /Helvetica findfont 70.5271 sf 0 0 m (0) show NC gr 
 gsave  2268 1769 0 0 C 173.605 363.486 t 0 r /Helvetica findfont 70.5271 sf 0 0 m (0.5) show NC gr 
 gsave  2268 1769 0 0 C 244.132 539.803 t 0 r /Helvetica findfont 70.5271 sf 0 0 m (1) show NC gr 
 gsave  2268 1769 0 0 C 173.605 718.834 t 0 r /Helvetica findfont 70.5271 sf 0 0 m (1.5) show NC gr 
 gsave  2268 1769 0 0 C 233.282 895.151 t 0 r /Helvetica findfont 70.5271 sf 0 0 m (2) show NC gr 
 gsave  2268 1769 0 0 C 173.605 1071.47 t 0 r /Helvetica findfont 70.5271 sf 0 0 m (2.5) show NC gr 
 gsave  2268 1769 0 0 C 233.282 1250.5 t 0 r /Helvetica findfont 70.5271 sf 0 0 m (3) show NC gr 
 gsave  2268 1769 0 0 C 173.605 1426.82 t 0 r /Helvetica findfont 70.5271 sf 0 0 m (3.5) show NC gr 
 gsave  2268 1769 0 0 C 233.282 1603.13 t 0 r /Helvetica findfont 70.5271 sf 0 0 m (4) show NC gr  2177 212 m 1486 Y s 2120 212 m 57 X s 2148 248 m 29 X s 2148 283 m 29 X s 2148 319 m 29 X s 2148 354 m 29 X s 2120 389 m 57 X s 2148 425 m 29 X s 2148
 460 m 29 X s 2148 496 m 29 X s 2148 531 m 29 X s 2120 566 m 57 X s 2148 602 m 29 X s 2148 637 m 29 X s 2148 673 m 29 X s 2148 708 m 29 X s 2120 744 m 57 X s 2148 779 m 29 X s 2148 814 m 29 X s 2148 850 m 29 X s 2148 885 m 29 X s 2120 921 m 57 X s
 2148 956 m 29 X s 2148 992 m 29 X s 2148 1027 m 29 X s 2148 1062 m 29 X s 2120 1098 m 57 X s 2148 1133 m 29 X s 2148 1169 m 29 X s 2148 1204 m 29 X s 2148 1240 m 29 X s 2120 1275 m 57 X s 2148 1310 m 29 X s 2148 1346 m 29 X s 2148 1381 m 29 X s 2148
 1417 m 29 X s 2120 1452 m 57 X s 2148 1488 m 29 X s 2148 1523 m 29 X s 2148 1558 m 29 X s 2148 1594 m 29 X s 2120 1629 m 57 X s 2120 1629 m 57 X s 2148 1665 m 29 X s 0.95 0.95 0.95 c black 353 1698 m 1 -7 d 2 -8 d 2 -7 d 2 -7 d 2 -8 d 2 -7 d 2 -7 d
 2 -7 d 2 -7 d 2 -7 d 1 -7 d 2 -7 d 2 -7 d 2 -7 d 2 -7 d 2 -7 d 2 -7 d 2 -7 d 2 -7 d 1 -6 d 2 -7 d 2 -7 d 2 -6 d 2 -7 d 2 -7 d 2 -6 d 2 -7 d 2 -6 d 1 -7 d 2 -6 d 2 -6 d 2 -7 d 2 -6 d 2 -6 d 2 -7 d 2 -6 d 2 -6 d 2 -6 d 1 -6 d 2 -6 d 2 -6 d 2 -6 d 2 -6
 d 2 -6 d 2 -6 d 2 -6 d 2 -6 d 1 -6 d 2 -6 d s 445 1375 m 2 -6 d 2 -5 d 2 -6 d 2 -6 d 2 -6 d 2 -5 d 2 -6 d 2 -5 d 1 -6 d 2 -6 d 2 -5 d 2 -6 d 2 -5 d 2 -5 d 2 -6 d 2 -5 d 2 -6 d 1 -5 d 2 -5 d 2 -5 d 2 -6 d 2 -5 d 2 -5 d 2 -5 d 2 -5 d 2 -6 d 1 -5 d 2
 -5 d 2 -5 d 2 -5 d 2 -5 d 2 -5 d 2 -5 d 2 -5 d 2 -5 d 2 -4 d 1 -5 d 2 -5 d 2 -5 d 2 -5 d 2 -4 d 2 -5 d 2 -5 d 2 -4 d 2 -5 d 1 -5 d 2 -4 d 2 -5 d 2 -5 d s 538 1122 m 2 -4 d 2 -5 d 2 -4 d 2 -5 d 2 -4 d 2 -4 d 1 -5 d 2 -4 d 2 -5 d 2 -4 d 2 -4 d 2 -5 d
 2 -4 d 2 -4 d 2 -4 d 1 -5 d 2 -4 d 2 -4 d 2 -4 d 2 -4 d 2 -4 d 2 -4 d 2 -4 d 2 -4 d 1 -4 d 2 -4 d 2 -4 d 2 -4 d 2 -4 d 2 -4 d 2 -4 d 2 -4 d 2 -4 d 2 -4 d 1 -4 d 2 -3 d 2 -4 d 2 -4 d 2 -4 d 2 -4 d 2 -3 d 2 -4 d 2 -4 d 1 -3 d 2 -4 d 2 -4 d 2 -3 d 2 -4
 d 2 -3 d s 631 925 m 2 -4 d 2 -3 d 2 -4 d 2 -3 d 1 -4 d 2 -3 d 2 -4 d 2 -3 d 2 -4 d 2 -3 d 2 -3 d 2 -4 d 2 -3 d 1 -3 d 2 -4 d 2 -3 d 2 -3 d 2 -4 d 2 -3 d 2 -3 d 2 -3 d 2 -4 d 1 -3 d 2 -3 d 2 -3 d 2 -3 d 2 -3 d 2 -3 d 2 -3 d 2 -4 d 2 -3 d 2 -3 d 1 -3
 d 2 -3 d 2 -3 d 2 -3 d 2 -3 d 2 -3 d 2 -3 d 2 -2 d 2 -3 d 1 -3 d 2 -3 d 2 -3 d 2 -3 d 2 -3 d 2 -3 d 2 -2 d 2 -3 d s 724 770 m 2 -3 d 2 -3 d 1 -2 d 2 -3 d 2 -3 d 2 -3 d 2 -2 d 2 -3 d 2 -3 d 2 -2 d 2 -3 d 1 -3 d 2 -2 d 2 -3 d 2 -2 d 2 -3 d 2 -3 d 2 -2
 d 2 -3 d 2 -2 d 1 -3 d 2 -2 d 2 -3 d 2 -2 d 2 -3 d 2 -2 d 2 -3 d 2 -2 d 2 -2 d 2 -3 d 1 -2 d 2 -3 d 2 -2 d 2 -2 d 2 -3 d 2 -2 d 2 -2 d 2 -3 d 2 -2 d 1 -2 d 2 -2 d 2 -3 d 2 -2 d 2 -2 d 2 -2 d 2 -3 d 2 -2 d 2 -2 d 1 -2 d s 816 649 m 2 -2 d 2 -3 d 2 -2
 d 2 -2 d 2 -2 d 2 -2 d 2 -2 d 2 -2 d 2 -3 d 1 -2 d 2 -2 d 2 -2 d 2 -2 d 2 -2 d 2 -2 d 2 -2 d 2 -2 d 2 -2 d 1 -2 d 2 -2 d 2 -2 d 2 -2 d 2 -2 d 2 -2 d 2 -2 d 2 -2 d 2 -1 d 2 -2 d 1 -2 d 2 -2 d 2 -2 d 2 -2 d 2 -2 d 2 -2 d 2 -1 d 2 -2 d 2 -2 d 1 -2 d 2
 -2 d 2 -1 d 2 -2 d 2 -2 d 2 -2 d 2 -1 d 2 -2 d 2 -2 d 1 -2 d 2 -1 d 2 -2 d s 909 554 m 2 -2 d 2 -2 d 2 -1 d 2 -2 d 2 -2 d 2 -1 d 2 -2 d 1 -2 d 2 -1 d 2 -2 d 2 -1 d 2 -2 d 2 -2 d 2 -1 d 2 -2 d 2 -1 d 1 -2 d 2 -2 d 2 -1 d 2 -2 d 2 -1 d 2 -2 d 2 -1 d 2
 -2 d 2 -1 d 2 -2 d 1 -1 d 2 -2 d 2 -1 d 2 -2 d 2 -1 d 2 -2 d 2 -1 d 2 -2 d 2 -1 d 1 -1 d 2 -2 d 2 -1 d 2 -2 d 2 -1 d 2 -1 d 2 -2 d 2 -1 d 2 -2 d 1 -1 d 2 -1 d 2 -2 d 2 -1 d 2 -1 d s 1002 480 m 2 -2 d 2 -1 d 2 -1 d 2 -2 d 2 -1 d 1 -1 d 2 -2 d 2 -1 d
 2 -1 d 2 -1 d 2 -2 d 2 -1 d 2 -1 d 2 -1 d 1 -2 d 2 -1 d 2 -1 d 2 -1 d 2 -2 d 2 -1 d 2 -1 d 2 -1 d 2 -1 d 2 -2 d 1 -1 d 2 -1 d 2 -1 d 2 -1 d 2 -1 d 2 -2 d 2 -1 d 2 -1 d 2 -1 d 1 -1 d 2 -1 d 2 -1 d 2 -2 d 2 -1 d 2 -1 d 2 -1 d 2 -1 d 2 -1 d 1 -1 d 2 -1
 d 2 -1 d 2 -1 d 2 -1 d 2 -1 d 2 -1 d s 1095 422 m 2 -2 d 2 -1 d 2 -1 d 1 -1 d 2 -1 d 2 -1 d 2 -1 d 2 -1 d 2 -1 d 2 -1 d 2 -1 d 2 -1 d 1 -1 d 2 -1 d 2 -1 d 2 -1 d 2 -1 d 2 X 2 -1 d 2 -1 d 2 -1 d 2 -1 d 1 -1 d 2 -1 d 2 -1 d 2 -1 d 2 -1 d 2 -1 d 2 -1 d
 2 -1 d 2 -1 d 1 X 2 -1 d 2 -1 d 2 -1 d 2 -1 d 2 -1 d 2 -1 d 2 -1 d 2 X 1 -1 d 2 -1 d 2 -1 d 2 -1 d 2 -1 d 2 X 2 -1 d 2 -1 d 2 -1 d s 1188 376 m 2 -1 d 1 -1 d 2 X 2 -1 d 2 -1 d 2 -1 d 2 -1 d 2 X 2 -1 d 2 -1 d 1 -1 d 2 X 2 -1 d 2 -1 d 2 -1 d 2 -1 d 2
 X 2 -1 d 2 -1 d 2 -1 d 1 X 2 -1 d 2 -1 d 2 X 2 -1 d 2 -1 d 2 -1 d 2 X 2 -1 d 1 -1 d 2 X 2 -1 d 2 -1 d 2 -1 d 2 X 2 -1 d 2 -1 d 2 X 1 -1 d 2 -1 d 2 X 2 -1 d 2 -1 d 2 X 2 -1 d 2 -1 d 2 X 2 -1 d 1 -1 d s 1280 340 m 2 X 2 -1 d 2 X 2 -1 d 2 -1 d 2 X 2 -1
 d 2 -1 d 1 X 2 -1 d 2 X 2 -1 d 2 -1 d 2 X 2 -1 d 2 X 2 -1 d 1 -1 d 2 X 2 -1 d 2 X 2 -1 d 2 X 2 -1 d 2 -1 d 2 X 2 -1 d 1 X 2 -1 d 2 X 2 -1 d 2 -1 d 2 X 2 -1 d 2 X 2 -1 d 1 X 2 -1 d 2 X 2 -1 d 2 X 2 -1 d 2 X 2 -1 d 2 X 2 -1 d 1 X 2 -1 d 2 X s 1373 313
 m 2 -1 d 2 X 2 -1 d 2 X 2 -1 d 2 X 1 -1 d 2 X 2 -1 d 2 X 2 -1 d 2 X 2 -1 d 2 X 2 -1 d 1 X 2 -1 d 2 X 2 -1 d 4 X 2 -1 d 2 X 2 -1 d 2 X 1 -1 d 2 X 2 -1 d 4 X 2 -1 d 2 X 2 -1 d 2 X 1 -1 d 4 X 2 -1 d 2 X 2 -1 d 4 X 2 -1 d 2 X 1 -1 d 4 X 2 -1 d 2 X s
 1466 291 m 2 -1 d 4 X 2 -1 d 1 X 2 -1 d 4 X 2 -1 d 4 X 2 -1 d 2 X 1 -1 d 4 X 2 -1 d 4 X 2 -1 d 4 X 2 -1 d 3 X 2 -1 d 4 X 2 -1 d 4 X 2 -1 d 3 X 2 -1 d 4 X 2 -1 d 4 X 2 -1 d 3 X 2 -1 d 4 X 2 -1 d 4 X s 1559 274 m 2 -1 d 3 X 2 -1 d 6 X 2 -1 d 4 X 2 -1
 d 5 X 2 -1 d 4 X 2 -1 d 6 X 1 -1 d 4 X 2 -1 d 6 X 2 -1 d 5 X 2 -1 d 6 X 2 -1 d 6 X 1 -1 d 6 X 2 -1 d 6 X 2 -1 d s 1652 260 m 5 X 2 -1 d 6 X 2 -1 d 7 X 2 -1 d 6 X 2 -1 d 7 X 2 -1 d 6 X 2 -1 d 7 X 2 -1 d 8 X 2 -1 d 7 X 2 -1 d 8 X 2 -1 d 5 X s 1744 250
 m 4 X 2 -1 d 8 X 1 -1 d 10 X 2 -1 d 7 X 2 -1 d 10 X 2 -1 d 9 X 2 -1 d 11 X 2 -1 d 10 X 2 -1 d 9 X s 1837 242 m 2 X 2 -1 d 11 X 2 -1 d 12 X 1 -1 d 14 X 2 -1 d 11 X 2 -1 d 13 X 2 -1 d 15 X 2 -1 d 2 X s 1930 235 m 13 X 2 -1 d 15 X 2 -1 d 15 X 2 -1 d 19
 X 2 -1 d 17 X 2 -1 d 4 X s 2023 230 m 15 X 2 -1 d 21 X 1 -1 d 23 X 2 -1 d 25 X 2 -1 d 1 X s 2115 226 m 23 X 2 -1 d 28 X 2 -1 d 6 X s 3 lw 1 lw << /PatternType 1 /PaintType 2 /TilingType 1 /BBox [ 0 0 100 100 ] /XStep 100 /YStep 100 /PaintProc {
 begin gsave 0 0 m 100 100 l s gr end } >> [ 0.24 0 0 0.24 0 0 ] makepattern /P04 exch def /cs {[/Pattern /DeviceRGB] setcolorspace} def /FA {f [/DeviceRGB] setcolorspace} def cs 0 0 0 P04 setcolor 1609 212 m 487 Y 1 X 1 Y 1 X 1 Y 1 X 1 Y 1 X 2 Y 2 X
 1 Y 1 X 2 Y 1 X 1 Y 1 X 1 Y 1 X 1 Y 1 X 1 Y 1 X 1 Y 1 X 1 Y 1 X 1 Y 1 X 2 Y 1 X 1 Y 1 X 1 Y 1 X 1 Y 1 X 1 Y 1 X 1 Y 1 X 1 Y 1 X 1 Y 1 X 2 Y 1 X 1 Y 1 X 1 Y 1 X 1 Y 1 X 1 Y 1 X 2 Y 1 X 1 Y 2 X 2 Y 1 X 1 Y 1 X 1 Y 1 X 1 Y 1 X 1 Y 1 X 2 Y 1 X 1 Y 1 X 1
 Y 1 X 1 Y 1 X 1 Y 1 X 2 Y 2 X 2 Y 1 X 1 Y 1 X 1 Y 1 X 1 Y 1 X 1 Y 1 X 2 Y 1 X 1 Y 1 X 1 Y 1 X 1 Y 1 X 1 Y 1 X 2 Y 1 X 1 Y 1 X 1 Y 1 X 1 Y 1 X 1 Y 1 X 2 Y 1 X 1 Y 1 X 1 Y 1 X 1 Y 1 X 2 Y 2 X 2 Y 1 X 1 Y 1 X 1 Y 1 X 1 Y 1 X 2 Y 1 X 1 Y 1 X 1 Y 1 X 1 Y
 1 X 1 Y 1 X 2 Y 1 X 1 Y 1 X 2 Y 2 X 2 Y 1 X 1 Y 1 X 1 Y 1 X 1 Y 1 X 2 Y 1 X 1 Y 1 X 1 Y 1 X 1 Y 1 X 2 Y 1 X 1 Y 1 X 1 Y 1 X 1 Y 1 X 1 Y 1 X 2 Y 1 X 1 Y 1 X 1 Y 1 X 1 Y 1 X 2 Y 1 X 1 Y 1 X 1 Y 1 X 2 Y 1 X 1 Y 1 X 1 Y 1 X 2 Y 1 X 1 Y 1 X 1 Y 1 X 1 Y 1
 X 2 Y 1 X 1 Y 1 X 1 Y 1 X 2 Y 1 X 1 Y 1 X 1 Y 1 X 1 Y 1 X 2 Y 1 X 1 Y 1 X 1 Y 1 X 1 Y 1 X 2 Y 1 X 1 Y 1 X 1 Y 1 X 2 Y 1 X 1 Y 1 X 2 Y 2 X 2 Y 1 X 1 Y 1 X 2 Y 1 X 1 Y 1 X 1 Y 1 X 1 Y 1 X 2 Y 1 X 1 Y 1 X 1 Y 1 X 2 Y 1 X 1 Y 1 X 2 Y 1 X 1 Y 1 X 1 Y 1 X
 2 Y 1 X 1 Y 1 X 1 Y 1 X 1 Y 1 X 2 Y 1 X 1 Y 1 X 1 Y 1 X 2 Y 1 X 1 Y 1 X 2 Y 1 X 1 Y 1 X 1 Y 1 X 2 Y 1 X 1 Y 1 X 2 Y 1 X 1 Y 1 X 1 Y 1 X 2 Y 1 X 1 Y 1 X 1 Y 1 X 2 Y 1 X 1 Y 1 X 2 Y 2 X 2 Y 1 X 2 Y 1 X 1 Y 1 X 1 Y 1 X 2 Y 1 X 1 Y 1 X 2 Y 1 X 1 Y 1 X 1
 Y 1 X 2 Y 1 X 1 Y 1 X 2 Y 1 X 1 Y 1 X 1 Y 1 X 2 Y 1 X 1 Y 1 X 1 Y 1 X 2 Y 1 X 1 Y 1 X 2 Y 1 X 1 Y 1 X 2 Y 1 X 1 Y 1 X 2 Y 1 X 1 Y 1 X 1 Y 1 X 2 Y 1 X 1 Y 1 X 1 Y 1 X 2 Y 1 X 2 Y 1 X 1 Y 1 X 1 Y 1 X 2 Y 1 X 1 Y 1 X 2 Y 1 X 2 Y 2 X 2 Y 1 X 2 Y 1 X 1 Y
 1 X 1 Y 1 X 2 Y 1 X 1 Y 1 X 2 Y 1 X 1 Y 1 X 2 Y 1 X 1 Y 1 X 2 Y 1 X 1 Y 1 X 1 Y 1 X 2 Y 1 X 2 Y 1 X 1 Y 1 X 1 Y 1 X 2 Y 1 X 2 Y 1 X 1 Y 1 X 1 Y 1 X 2 Y 1 X 2 Y 1 X 1 Y 1 X 1 Y 1 X 2 Y 1 X 2 Y 1 X 1 Y 1 X 1 Y 1 X 2 Y 1 X 2 Y 1 X 1 Y 1 X 1 Y 1 X 2 Y 1
 X 2 Y 1 X 1 Y 1 X 1 Y 1 X 2 Y 1 X 2 Y 1 X 1 Y 1 X 1 Y 1 X 2 Y 1 X 2 Y 1 X 2 Y 2 X 2 Y 1 X 2 Y 1 X 2 Y 1 X 1 Y 1 X 1 Y 1 X 2 Y 1 X 2 Y 1 X 2 Y 1 X 1 Y 1 X 1 Y 1 X 2 Y 1 X 2 Y 1 X 1 Y 1 X 2 Y 1 X 1 Y 1 X 2 Y 1 X 1 Y 1 X 2 Y 1 X 2 Y 1 X 1 Y 1 X 1 Y 1 X
 2 Y 1 X 2 Y 1 X 2 Y 1 X 1 Y 1 X 1 Y 1 X 2 Y 1 X 2 Y 1 X 2 Y 1 X 1 Y 1 X 2 Y 1 X 1 Y 1 X 2 Y 1 X 1 Y 1 X 2 Y 1 X 2 Y 1 X 2 Y 2 X 2 Y 1 X 2 Y 1 X 2 Y 1 X 1 Y 1 X 2 Y 1 X 2 Y 1 X 1 Y 1 X 1 Y 1 X 2 Y 1 X 2 Y 1 X 2 Y 1 X 2 Y 1 X 1 Y 1 X 2 Y 1 X 1 Y 1 X 2
 Y 1 X 1 Y 1 X 2 Y 1 X 2 Y 1 X 2 Y 1 X 1 Y 1 X 2 Y 1 X 2 Y 1 X 2 Y 2 X 2 Y 1 X 2 Y 1 X 2 Y 1 X 1 Y 1 X 2 Y 1 X 2 Y 1 X 2 Y 1 X 1 Y 1 X 2 Y 1 X 2 Y 1 X 2 Y 1 X 1 Y 1 X 1 Y 1 X 2 Y 1 X 2 Y 1 X 2 Y 1 X 1 Y 1 X 2 Y 1 X 2 Y 1 X 2 Y 1 X 1 Y 1 X 2 Y 1 X 2 Y
 1 X 2 Y 1 X 1 Y 1 X 2 Y 1 X 2 Y 1 X 2 Y 1 X 1 Y 1 X 2 Y 1 X 1 Y 1 X 2 Y 1 X 1 Y 1 X 2 Y 1 X 2 Y 1 X 2 Y 1 X 2 Y 1 X 1 Y 1 X 2 Y 1 X 2 Y 1 X 2 Y 1 X 1 Y 1 X 2 Y 1 X 2 Y 1 X 2 Y 1 X 1 Y 1 X 2 Y 1 X 2 Y 1 X 2 Y 1 X 1 Y 1 X 2 Y 1 X 2 Y 1 X 2 Y 1 X 1 Y 1
 X 2 Y 1 X 2 Y 1 X 2 Y 1 X 1 Y 1 X 2 Y 1 X 2 Y 1 X 3 Y 1 X 2 Y 1 X 1 Y 1 X 2 Y 1 X 2 Y 1 X 2 Y 1 X 1 Y 1 X 2 Y 1 X 2 Y 1 X 2 Y 1 X 1 Y 1 X 2 Y 1 X 2 Y 1 X 2 Y 1 X 1 Y 1 X 2 Y 1 X 2 Y 1 X 2 Y 1 X 1 Y 1 X 3 Y 1 X 2 Y 1 X 2 Y 1 X 2 Y 1 X 1 Y 1 X 2 Y 1 X
 2 Y 1 X 2 Y 1 X 1 Y 1 X 2 Y 1 X 2 Y 1 X 2 Y 1 X 2 Y 1 X 2 Y 1 X 2 Y 1 X 2 Y 1 X 1 Y 1 X 2 Y 1 X 2 Y 1 X 2 Y 1 X 1 Y 1 X 2 Y 1 X 3 Y 1 X 2 Y 1 X 1 Y 1 X 2 Y 1 X 2 Y 1 X 2 Y 1 X 2 Y 1 X 2 Y 1 X 2 Y 1 X 2 Y 1 X 2 Y 1 X 1 Y 1 X 2 Y 1 X 2 Y 1 X 3 Y 1 X 1
 Y 1 X 2 Y 1 X 2 Y 1 X 2 Y 1 X 1 Y 1 X 2 Y 1 X 3 Y 1 X 2 Y 1 X 1 Y 1 X 2 Y 1 X 2 Y 1 X 3 Y 1 X 1 Y 1 X 2 Y 1 X 2 Y 1 X 2 Y 1 X 2 Y 1 X 2 Y 1 X 2 Y 1 X 2 Y 1 X 2 Y 1 X 1 Y 1 X 3 Y 1 X 2 Y 1 X 2 Y 1 X 1 Y 1 X 2 Y 1 X 3 Y 1 X 2 Y 1 X 1 Y 1 X 2 Y 1 X 2 Y
 1 X 3 Y 1 X 1 Y 1 X 2 Y 1 X 2 Y 1 X 3 Y 1 X 1 Y 1 X 2 Y 1 X 2 Y 1 X 3 Y 1 X 2 Y 1 X 1 Y 1 X 2 Y 1 X 3 Y 1 X 2 Y 1 X 1 Y 1 X 2 Y 1 X 3 Y 1 X 2 Y 1 X 1 Y 1 X 2 Y 1 X 3 Y 1 X 2 Y 1 X 1 Y 1 X 2 Y 1 X 3 Y 1 X 2 Y 1 X 1 Y 1 X 3 Y 1 X 2 Y 1 X 2 Y 1 X 1 Y 1
 X 3 Y 1 X 2 Y 1 X 2 Y 1 X 3 Y 1 X 1 Y 1 X 2 Y 1 X 3 Y 1 X 2 Y 1 X 1 Y 1 X 2 Y 1 X 3 Y 1 X 2 Y 1 X 1 Y 1 X 3 Y 1 X 2 Y 1 X 2 Y 1 X 2 Y 1 X 2 Y 1 X 2 Y 1 X 3 Y 1 X 1 Y 1 X 2 Y 1 X 3 Y 1 X 2 Y 1 X 2 Y 1 X 2 Y 1 X 2 Y 1 X 2 Y 1 X 3 Y 1 X 1 Y 1 X 3 Y 1 X
 2 Y 1 X 2 Y 1 X 2 Y 1 X 2 Y 1 X 2 Y 1 X 3 Y 1 X 1 Y 1 X 2 Y 1 X 3 Y 1 X 2 Y 1 X 2 Y 1 X 2 Y 1 X 2 Y 1 X 3 Y 1 X 1 Y 1 X 3 Y 1 X 2 Y 1 X 2 Y 1 X 3 Y 1 X 1 Y 1 X 3 Y 1 X 2 Y 1 X 3 Y 1 X 1 Y 1 X 2 Y 1 X 3 Y 1 X 2 Y 1 X 1 Y 1 X 3 Y 1 X 2 Y 1 X 3 Y 1 X 1
 Y 1 X 3 Y 1 X 2 Y 1 X 3 Y 1 X 1 Y 1 X 2 Y 1 X 3 Y 1 X 2 Y 1 X 2 Y 1 X 2 Y 1 X 3 Y 1 X 2 Y 1 X 3 Y 1 X 1 Y 1 X 3 Y 1 X 2 Y 1 X 3 Y 1 X 1 Y 1 X 3 Y 1 X 2 Y 1 X 3 Y 1 X -1417 Y FA 6 lw black 1609 699 m 1 X 1 Y 1 X 1 1 d 1 Y 1 X 1 Y 1 1 d 1 1 d 1 1 d 1
 1 d 1 1 d 1 Y 1 X 1 Y 1 1 d 1 X 1 Y 1 X 1 Y 1 1 d 1 1 d 1 1 d 1 1 d 1 Y 1 X 1 Y 1 1 d 1 X 1 Y 1 X 1 Y 1 1 d 1 1 d 1 1 d 1 1 d 1 Y 1 X 1 Y 1 1 d 1 1 d s 1637 730 m 1 1 d 1 1 d 1 1 d 1 Y 1 X 1 1 d 1 Y 1 X 1 Y 1 1 d 1 1 d 1 1 d 1 1 d 1 Y 1 X 1 Y 1 1 d
 1 X 1 Y 1 1 d 1 1 d 1 Y 1 X 1 1 d 1 Y 1 X 1 Y 1 1 d 1 1 d 1 1 d 1 1 d 1 Y 1 X 1 Y 1 1 d 1 1 d 1 1 d 1 1 d 1 Y 1 X s 1665 762 m 1 Y 1 1 d 1 X 1 Y 1 1 d 1 Y 1 X 1 Y 1 1 d 1 X 1 Y 1 1 d 1 1 d 1 Y 1 X 1 1 d 1 Y 1 X 1 Y 1 1 d 1 Y 1 X 1 1 d 1 Y 1 X 1 Y 1
 1 d 1 1 d 1 1 d 1 1 d 1 Y 1 1 d 1 1 d 1 Y 1 X 1 1 d 1 Y 1 X 1 Y 1 1 d 1 Y 1 X 1 1 d 1 Y 1 X s 1693 796 m 1 Y 1 1 d 1 Y 1 X 1 1 d 1 Y 1 X 1 Y 1 1 d 1 1 d 1 1 d 1 Y 1 X 1 Y 1 1 d 1 1 d 1 1 d 1 Y 1 X 1 Y 1 1 d 1 Y 1 X 1 1 d 1 Y 1 X 1 Y 1 1 d 1 Y 1 X 1
 Y 1 1 d 1 X 1 Y 1 1 d 1 Y 1 X 1 Y 1 1 d 1 1 d 1 1 d 1 Y 1 X 1 Y 1 1 d 1 1 d s 1721 832 m 1 1 d 1 Y 1 1 d 1 1 d 1 1 d 1 Y 1 X 1 Y 1 1 d 1 Y 1 X 1 1 d 1 Y 1 1 d 1 1 d 1 Y 1 X 1 Y 1 1 d 1 1 d 1 1 d 1 Y 1 1 d 1 1 d 1 1 d 1 Y 1 X 1 Y 1 1 d 1 Y 1 1 d 1 X
 1 Y 1 1 d 1 Y 1 X 1 Y 1 1 d 1 1 d 1 1 d 1 Y 1 1 d s 1748 868 m 1 1 d 1 1 d 1 Y 1 X 1 Y 1 1 d 1 Y 1 1 d 1 X 1 Y 1 1 d 1 Y 1 X 1 Y 1 1 d 1 Y 1 X 1 1 d 1 Y 1 1 d 1 Y 1 X 1 Y 1 1 d 1 1 d 1 1 d 1 Y 1 1 d 1 Y 1 X 1 1 d 1 Y 1 1 d 1 1 d 1 Y 1 1 d 1 1 d 1 1
 d 1 Y 1 1 d 1 Y 1 X 1 1 d 1 Y 1 1 d 1 Y s 1776 907 m 1 X 1 Y 1 1 d 1 1 d 1 1 d 1 Y 1 1 d 1 Y 1 X 1 Y 1 1 d 1 1 d 1 Y 1 X 1 Y 1 1 d 1 Y 1 1 d 1 X 1 Y 1 1 d 1 Y 1 1 d 1 Y 1 X 1 1 d 1 Y 1 1 d 1 Y 1 X 1 Y 1 1 d 1 1 d 1 Y 1 X 1 Y 1 1 d 1 Y 1 1 d 1 1 d 1
 1 d 1 Y 1 1 d 1 Y 1 X 1 1 d 1 Y s 1804 946 m 1 1 d 1 Y 1 1 d 1 1 d 1 Y 1 1 d 1 1 d 1 1 d 1 Y 1 1 d 1 Y 1 1 d 1 X 1 Y 1 1 d 1 Y 1 1 d 1 Y 1 X 1 1 d 1 Y 1 1 d 1 Y 1 1 d 1 1 d 1 1 d 1 Y 1 1 d 1 Y 1 1 d 1 1 d 1 1 d 1 Y 1 1 d 1 Y 1 X 1 Y 1 1 d 1 1 d 1 Y
 1 1 d 1 Y 1 X 1 Y 1 1 d s 1832 987 m 1 Y 1 1 d 1 1 d 1 Y 1 X 1 Y 1 1 d 1 Y 1 1 d 1 1 d 1 Y 1 X 1 Y 1 1 d 1 Y 1 1 d 1 1 d 1 Y 1 X 1 Y 1 1 d 1 Y 1 1 d 1 1 d 1 Y 1 X 1 Y 1 1 d 1 Y 1 1 d 1 1 d 1 Y 1 1 d 1 1 d 1 Y 1 1 d 1 Y 1 1 d 1 1 d 1 Y 1 X 1 Y 1 1 d
 1 Y 1 1 d 1 1 d 1 Y 1 1 d s 1860 1030 m 1 Y 1 X 1 Y 1 1 d 1 1 d 1 Y 1 1 d 1 Y 1 1 d 1 Y 1 X 1 1 d 1 Y 1 1 d 1 Y 1 1 d 1 Y 1 1 d 1 1 d 1 1 d 1 Y 1 1 d 1 Y 1 1 d 1 1 d 1 Y 1 1 d 1 Y 1 X 1 Y 1 1 d 1 Y 1 1 d 1 1 d 1 Y 1 1 d 1 Y 1 1 d 1 Y 1 X 1 1 d 1 Y 1
 1 d 1 Y 1 1 d 1 Y 1 1 d 1 1 d s 1888 1074 m 1 Y 1 1 d 1 1 d 1 Y 1 1 d 1 1 d 1 Y 1 1 d 1 Y 1 1 d 1 Y 1 1 d 1 1 d 1 Y 1 X 1 Y 1 1 d 1 Y 1 1 d 1 1 d 1 Y 1 1 d 1 Y 1 1 d 1 Y 1 1 d 1 Y 1 1 d 1 X 1 Y 1 1 d 1 Y 1 1 d 1 Y 1 1 d 1 1 d 1 Y 1 1 d 1 Y 1 1 d 1 Y
 1 1 d 1 1 d 1 Y 1 1 d 1 1 d 1 Y s 1915 1119 m 1 1 d 1 1 d 1 Y 1 1 d 1 Y 1 1 d 1 Y 1 1 d 1 1 d 1 Y 1 1 d 1 Y 1 1 d 1 Y 1 1 d 1 1 d 1 Y 1 1 d 1 1 d 1 Y 1 1 d 1 Y 1 1 d 1 1 d 1 Y 1 1 d 1 Y 1 1 d 1 Y 1 1 d 1 1 d 1 Y 1 1 d 1 Y 1 1 d 1 Y 1 1 d 1 1 d 1 Y 1
 1 d 1 Y 1 1 d 1 Y 1 1 d 1 1 d 1 Y 1 1 d 1 Y s 1943 1167 m 1 1 d 1 Y 1 1 d 1 X 1 Y 1 1 d 1 Y 1 1 d 1 Y 1 1 d 1 Y 1 1 d 1 1 d 1 Y 1 1 d 1 Y 1 1 d 1 Y 1 1 d 1 1 d 1 Y 1 1 d 1 Y 1 1 d 1 Y 1 1 d 1 1 d 1 Y 1 1 d 1 Y 1 1 d 1 Y 1 1 d 1 1 d 1 Y 1 1 d 1 Y 1 1
 d 1 Y 1 1 d 1 1 d 1 Y 1 1 d 1 Y 1 1 d 1 Y 1 1 d 1 1 d 1 Y s 1971 1215 m 1 1 d 1 Y 1 1 d 1 Y 1 1 d 1 Y 1 2 d 1 1 d 1 Y 1 1 d 1 Y 1 1 d 1 Y 1 1 d 1 1 d 1 Y 1 1 d 1 Y 1 1 d 1 Y 1 1 d 1 1 d 1 Y 1 1 d 1 Y 1 1 d 1 Y 1 1 d 1 1 d 1 Y 1 1 d 1 Y 1 1 d 1 Y 1 1
 d 1 1 d 1 Y 1 1 d 1 Y 1 1 d 2 Y 1 1 d 1 1 d 1 Y 1 1 d 1 Y 1 1 d 1 Y 1 1 d s 1999 1266 m 1 Y 1 1 d 1 1 d 1 Y 1 1 d 1 Y 1 1 d 1 Y 1 1 d 1 1 d 1 Y 1 1 d 2 Y 1 1 d 1 Y 1 1 d 1 1 d 1 Y 1 1 d 1 Y 1 1 d 1 Y 1 1 d 1 1 d 1 Y 1 1 d 1 Y 1 1 d 1 Y 1 2 d 1 1 d 1
 Y 1 1 d 1 Y 1 1 d 1 Y 1 1 d 1 1 d 1 Y 1 1 d 1 Y 1 1 d 2 Y 1 1 d 1 Y 1 1 d 1 1 d 1 Y 1 1 d s 2027 1318 m 1 Y 1 1 d 1 Y 1 1 d 1 1 d 1 Y 1 2 d 1 Y 1 1 d 1 Y 1 1 d 1 1 d 1 Y 1 1 d 1 Y 1 1 d 1 Y 1 2 d 1 1 d 1 Y 1 1 d 1 Y 1 1 d 1 Y 1 1 d 1 1 d 1 Y 1 2 d 1
 Y 1 1 d 1 Y 1 1 d 1 1 d 1 Y 1 1 d 1 Y 1 1 d 2 Y 1 1 d 1 Y 1 1 d 1 1 d 1 Y 1 1 d 1 Y 1 1 d 2 Y 1 1 d 1 1 d s 2055 1372 m 1 Y 1 1 d 1 Y 1 1 d 1 Y 1 2 d 1 1 d 1 Y 1 1 d 1 Y 1 1 d 1 Y 1 1 d 1 1 d 2 Y 1 1 d 1 Y 1 1 d 1 Y 1 1 d 1 1 d 2 Y 1 1 d 1 Y 1 1 d 1
 Y 1 1 d 1 Y 1 1 d 1 2 d 1 Y 1 1 d 1 Y 1 1 d 1 Y 1 1 d 1 2 d 1 Y 1 1 d 1 Y 1 1 d 1 Y 1 1 d 1 2 d 1 Y 1 1 d 1 Y 1 1 d 1 Y s 2082 1427 m 1 1 d 1 2 d 1 Y 1 1 d 1 Y 1 1 d 1 Y 1 2 d 1 1 d 1 Y 1 1 d 1 Y 1 1 d 2 Y 1 1 d 1 1 d 1 Y 1 1 d 1 Y 1 1 d 2 Y 1 1 d 1
 Y 1 1 d 1 1 d 2 Y 1 1 d 1 Y 1 1 d 1 Y 1 1 d 1 2 d 1 Y 1 1 d 1 Y 1 1 d 1 Y 1 2 d 1 1 d 1 Y 1 1 d 1 Y 1 2 d 1 Y 1 1 d 1 1 d 1 Y 1 1 d 2 Y s 2110 1485 m 1 1 d 1 Y 1 1 d 1 1 d 2 Y 1 1 d 1 Y 1 1 d 1 Y 1 2 d 1 1 d 1 Y 1 1 d 1 Y 1 1 d 2 Y 1 1 d 1 Y 1 1 d 1
 1 d 2 Y 1 1 d 1 Y 1 1 d 2 Y 1 1 d 1 1 d 1 Y 1 1 d 2 Y 1 1 d 1 Y 1 1 d 1 1 d 2 Y 1 1 d 1 Y 1 1 d 1 Y 1 2 d 1 1 d 1 Y 1 1 d 2 Y 1 1 d 1 Y 1 1 d 1 1 d 2 Y s 2138 1544 m 1 1 d 1 Y 1 1 d 2 Y 1 1 d 1 1 d 1 Y 1 1 d 2 Y 1 1 d 1 Y 1 1 d 2 Y 1 1 d 1 1 d 1 Y 1
 2 d 1 Y 1 1 d 1 Y 1 2 d 1 1 d 1 Y 1 1 d 1 Y 1 2 d 1 Y 1 1 d 1 1 d 2 Y 1 1 d 1 Y 1 1 d 2 Y 1 1 d 1 1 d 1 Y 1 2 d 1 Y 1 1 d 1 Y 1 2 d 1 1 d 1 Y 1 1 d 2 Y 1 1 d 1 Y 1 2 d s 2166 1605 m 1 Y 1 1 d 1 1 d 2 Y 1 1 d 1 Y 1 1 d 2 Y 1 1 d 1 1 d 1 Y 1 2 d 1 Y 1
 1 d 2 Y 1 1 d 1 1 d 1 Y 1 2 d s 3 lw 1 lw << /PatternType 1 /PaintType 2 /TilingType 1 /BBox [ 0 0 100 100 ] /XStep 96 /YStep 16 /PaintProc { begin gsave [1 3] 0 sd 2 13 m 98 13 l s 0 9 m 96 9 l s 2 5 m 98 5 l s 0 1 m 96 1 l s gr end } >> [ 2.0 0 0
 2.0 0 0 ] makepattern /P03 exch def cs 0 0 0 P03 setcolor 1609 212 m 54 Y 4 X -1 Y 7 X -1 Y 8 X -1 Y 7 X -1 Y 7 X -1 Y 8 X -1 Y 8 X -1 Y 8 X -1 Y 9 X -1 Y 8 X -1 Y 9 X -1 Y 8 X -1 Y 9 X -1 Y 10 X -1 Y 10 X -1 Y 9 X -1 Y 10 X -1 Y 11 X -1 Y 10 X -1 Y
 11 X -1 Y 11 X -1 Y 12 X -1 Y 12 X -1 Y 12 X -1 Y 13 X -1 Y 13 X -1 Y 14 X -1 Y 14 X -1 Y 14 X -1 Y 16 X -1 Y 15 X -1 Y 18 X -1 Y 17 X -1 Y 18 X -1 Y 19 X -1 Y 21 X -1 Y 21 X -1 Y 22 X -1 Y 24 X -1 Y 26 X -1 Y 28 X -1 Y 29 X -1 Y 8 X -12 Y FA 6 lw
 black 1609 266 m 4 X -1 Y 7 X 1 -1 d 6 X 1 -1 d 7 X -1 Y 2 X s 1637 262 m 5 X 1 -1 d 7 X 1 -1 d 7 X 1 -1 d 6 X s 1665 259 m 1 X 1 -1 d 8 X -1 Y 8 X 1 -1 d 8 X -1 Y 1 X s 1693 255 m 7 X 1 -1 d 8 X 1 -1 d 9 X -1 Y 2 X s 1721 252 m 8 X -1 Y 9 X 1 -1 d
 9 X -1 Y s 1748 249 m 11 X -1 Y 10 X -1 Y 7 X s 1776 247 m 4 X -1 Y 11 X 1 -1 d 10 X 1 -1 d 1 X s 1804 244 m 10 X 1 -1 d 12 X -1 Y 5 X s 1832 242 m 7 X 1 -1 d 13 X -1 Y 7 X s 1860 240 m 7 X -1 Y 14 X -1 Y 7 X s 1888 238 m 7 X 1 -1 d 14 X 1 -1 d 4 X
 s 1915 236 m 11 X 1 -1 d 16 X s 1943 235 m 1 -1 d 16 X 1 -1 d 10 X s 1971 233 m 7 X 1 -1 d 19 X -1 Y 1 X s 1999 231 m 19 X 1 -1 d 8 X s 2027 230 m 12 X 1 -1 d 15 X s 2055 229 m 7 X 1 -1 d 19 X s 2082 228 m 4 X -1 Y 24 X s 2110 227 m 1 X 1 -1 d 26 X
 s 2138 226 m 1 X 1 -1 d 26 X s 2166 225 m 3 X -1 Y 8 X s[ 20 20] 0 sd 1609 212 m 486 Y s
 gsave  2268 1769 0 0 C 520.815 1326.45 t 0 r /Helvetica findfont 70.5271 sf 0 0 m (Background) show NC gr 
 gsave  2268 1769 0 0 C 1768.6 1326.45 t 0 r /Helvetica findfont 70.5271 sf 0 0 m (Signal) show NC gr 
 gsave  2268 1769 0 0 C 1437.67 884.301 t 0 r /Helvetica findfont 70.5271 sf 0 0 m (Cut value) show NC gr 
 gr  gr showpage
end
%%EOF
