%!PS-Adobe-2.0 EPSF-2.0
%%BoundingBox:  0 0 794 416
%%Title: earth_limb.eps: earth_limb
%%Creator: ROOT Version 5.34/14
%%CreationDate: Mon Jul  7 09:52:33 2014
%%EndComments
%%BeginProlog
80 dict begin
/s {stroke} def /l {lineto} def /m {moveto} def /t {translate} def
/r {rotate} def /rl {roll}  def /R {repeat} def
/d {rlineto} def /rm {rmoveto} def /gr {grestore} def /f {eofill} def
/c {setrgbcolor} def /black {0 setgray} def /sd {setdash} def
/cl {closepath} def /sf {scalefont setfont} def /lw {setlinewidth} def
/box {m dup 0 exch d exch 0 d 0 exch neg d cl} def
/NC{systemdict begin initclip end}def/C{NC box clip newpath}def
/bl {box s} def /bf {box f} def /Y { 0 exch d} def /X { 0 d} def 
/K {{pop pop 0 moveto} exch kshow} bind def
/ita {/ang 15 def gsave [1 0 ang dup sin exch cos div 1 0 0] concat} def 
/mp {newpath /y exch def /x exch def} def
/side {[w .77 mul w .23 mul] .385 w mul sd w 0 l currentpoint t -144 r} def
/mr {mp x y w2 0 360 arc} def /m24 {mr s} def /m20 {mr f} def
/mb {mp x y w2 add m w2 neg 0 d 0 w neg d w 0 d 0 w d cl} def
/mt {mp x y w2 add m w2 neg w neg d w 0 d cl} def
/m21 {mb f} def /m25 {mb s} def /m22 {mt f} def /m26{mt s} def
/m23 {mp x y w2 sub m w2 w d w neg 0 d cl f} def
/m27 {mp x y w2 add m w3 neg w2 neg d w3 w2 neg d w3 w2 d cl s} def
/m28 {mp x w2 sub y w2 sub w3 add m w3 0 d  0 w3 neg d w3 0 d 0 w3 d w3 0 d  0 w3 d w3 neg 0 d 0 w3 d w3 neg 0 d 0 w3 neg d w3 neg 0 d cl s } def
/m29 {mp gsave x w2 sub y w2 add w3 sub m currentpoint t 4 {side} repeat cl fill gr} def
/m30 {mp gsave x w2 sub y w2 add w3 sub m currentpoint t 4 {side} repeat cl s gr} def
/m31 {mp x y w2 sub m 0 w d x w2 sub y m w 0 d x w2 sub y w2 add m w w neg d x w2 sub y w2 sub m w w d s} def
/m32 {mp x y w2 sub m w2 w d w neg 0 d cl s} def
/m33 {mp x y w2 add m w3 neg w2 neg d w3 w2 neg d w3 w2 d cl f} def
/m34 {mp x w2 sub y w2 sub w3 add m w3 0 d  0 w3 neg d w3 0 d 0 w3 d w3 0 d  0 w3 d w3 neg 0 d 0 w3 d w3 neg 0 d 0 w3 neg d w3 neg 0 d cl f } def
/m2 {mp x y w2 sub m 0 w d x w2 sub y m w 0 d s} def
/m5 {mp x w2 sub y w2 sub m w w d x w2 sub y w2 add m w w neg d s} def
/reEncode {exch findfont dup length dict begin {1 index /FID eq  {pop pop} {def} ifelse } forall /Encoding exch def currentdict end dup /FontName get exch definefont pop } def [/Times-Bold /Times-Italic /Times-BoldItalic /Helvetica /Helvetica-Oblique
 /Helvetica-Bold /Helvetica-BoldOblique /Courier /Courier-Oblique /Courier-Bold /Courier-BoldOblique /Times-Roman /AvantGarde-Book /AvantGarde-BookOblique /AvantGarde-Demi /AvantGarde-DemiOblique /Bookman-Demi /Bookman-DemiItalic /Bookman-Light
 /Bookman-LightItalic /Helvetica-Narrow /Helvetica-Narrow-Bold /Helvetica-Narrow-BoldOblique /Helvetica-Narrow-Oblique /NewCenturySchlbk-Roman /NewCenturySchlbk-Bold /NewCenturySchlbk-BoldItalic /NewCenturySchlbk-Italic /Palatino-Bold
 /Palatino-BoldItalic /Palatino-Italic /Palatino-Roman ] {ISOLatin1Encoding reEncode } forall
%%EndProlog
%%BeginSetup
%%EndSetup
newpath  gsave  .25 .25 scale  gsave  0 0 t black[  ] 0 sd 6 lw 1 1 1 c 3175 1663 0 0 bf black 1 1 1 c black 3175 174 m -103 31 d s 3072 205 m -161 44 d -162 39 d -164 34 d -165 29 d -165 23 d -167 18 d -166 13 d -167 8 d -168 3 d -167 -3 d -167 -8 d
 -167 -13 d -166 -18 d -165 -23 d -165 -29 d -164 -34 d -162 -39 d -162 -44 d -102 -31 d s[ 20 20] 0 sd 1 1 1 c black 3175 218 m -91 27 d s 3084 245 m -162 45 d -164 39 d -165 34 d -166 29 d -167 23 d -168 19 d -168 13 d -168 8 d -169 2 d -168 -2 d
 -168 -8 d -168 -13 d -168 -19 d -167 -23 d -166 -29 d -165 -34 d -164 -39 d -162 -45 d -91 -27 d s[  ] 0 sd 530 310 m -188 921 d s 3 lw /w 30 def /w2 {w 2 div} def /w3 {w 3 div} def 436 771 m20 6 lw 0.95 0.95 0.95 c black 436 771 m 8 -2 d 16 -3 d -2
 Y 1 -3 d -4 Y 1 -2 d -2 Y 1 -2 d -1 Y 1 X 1 -1 d 1 X 1 Y 1 X 1 2 d 1 1 d 2 2 d 1 2 d 1 2 d 1 2 d 1 2 d 2 3 d 1 2 d 1 2 d 1 2 d 1 2 d 2 1 d 1 1 d 1 Y 3 X 1 -1 d -1 Y 1 -1 d -2 Y 1 -2 d -4 Y 1 -3 d -5 Y 1 -3 d -4 Y 1 -2 d -2 Y 1 -2 d -1 Y 1 X 1 -1 d 1
 X 1 1 d 1 1 d 1 1 d 1 1 d 1 2 d 1 2 d 1 2 d 1 2 d 2 2 d 1 3 d 1 2 d 1 2 d 1 2 d 2 2 d 1 1 d 1 1 d 1 1 d 1 1 d 1 -1 d 1 X -2 Y 1 -1 d -2 Y 1 -2 d -2 Y 1 -2 d -5 Y 1 -3 d -5 Y 1 -2 d -2 Y 1 -2 d -1 Y 1 -2 d 1 -1 d 1 X 1 1 d 1 1 d 1 1 d 1 1 d 1 2 d 1 2
 d 1 2 d 2 2 d 1 3 d 1 2 d 1 2 d 2 2 d 1 2 d 1 2 d 1 1 d 1 1 d 1 1 d 1 1 d 1 X -1 Y 1 X 1 -1 d -2 Y 1 -2 d -4 Y 1 -2 d -5 Y 1 -3 d -5 Y 1 -2 d -2 Y 1 -2 d -1 Y 1 -1 d 1 -1 d 2 X 1 1 d 1 1 d 1 1 d 1 2 d 1 2 d 2 2 d 1 2 d 1 3 d 1 2 d 2 2 d 1 2 d 1 2 d
 1 2 d 1 1 d 1 2 d 1 X 1 1 d 1 X 1 -1 d 1 -1 d -2 Y 1 -2 d -2 Y 1 -2 d -5 Y 1 -2 d -5 Y 1 -3 d -4 Y 1 -2 d -1 Y 1 -1 d 1 -1 d 2 X 1 1 d 1 1 d 1 1 d 1 2 d 2 2 d 1 2 d 1 2 d 1 3 d 1 2 d 2 2 d 1 2 d 1 2 d 1 2 d 1 2 d 1 1 d 1 X 1 1 d 2 X -1 Y 1 -1 d 1 -2
 d -3 Y 1 -3 d -2 Y 1 -3 d -7 Y 1 -3 d -2 Y 1 -2 d -2 Y 1 -1 d -1 Y 1 -1 d 2 X 1 1 d 1 1 d 1 2 d 2 1 d 1 2 d 1 2 d 1 3 d 1 2 d 2 2 d 1 2 d 1 3 d 1 1 d 1 2 d 2 2 d 1 1 d 1 Y 3 X 1 -1 d -1 Y 1 -2 d -1 Y 1 -2 d -5 Y 1 -2 d -6 Y 1 -2 d -5 Y 1 -2 d -2 Y 1
 -1 d -1 Y 1 -1 d 3 X 1 1 d 1 1 d 1 2 d 1 1 d 1 2 d 1 2 d 1 3 d 2 2 d 1 2 d 1 3 d 1 2 d 1 2 d 2 1 d 1 2 d 1 1 d 1 1 d 2 X 1 -1 d -1 Y 1 -1 d -2 Y 1 -2 d -2 Y 1 -3 d -5 Y 1 -3 d -4 Y 1 -3 d -2 Y 1 -1 d -2 Y 1 -1 d -1 Y 3 X 1 1 d 1 1 d 1 2 d 1 2 d 1 1
 d 1 3 d 2 2 d 1 2 d 1 2 d 1 3 d 2 2 d 1 2 d 1 1 d 1 2 d 1 1 d 1 1 d 2 X 1 -1 d 1 -1 d -1 Y 1 -2 d -4 Y 1 -3 d -5 Y 1 -2 d -5 Y 1 -3 d -2 Y 1 -1 d -2 Y 1 -1 d 1 -1 d 1 X 1 1 d 1 X 1 1 d 1 2 d 1 2 d 1 2 d 2 2 d 1 2 d 1 2 d 1 3 d 2 2 d 1 2 d 1 2 d 1 2
 d 1 1 d 1 1 d 1 1 d 3 X -1 Y 1 -1 d -1 Y 1 -2 d -2 Y 1 -2 d -5 Y 1 -3 d -5 Y 1 -2 d -4 Y 1 -2 d -2 Y 1 -1 d 1 X -1 Y 1 X 1 1 d 1 X 1 2 d 1 1 d 1 2 d 2 2 d 1 2 d 1 2 d 1 2 d 1 3 d 2 2 d 1 2 d 1 2 d 1 2 d 1 1 d 1 1 d 1 1 d 3 X -1 Y 1 -1 d 1 -1 d -4 Y
 1 -2 d -2 Y 1 -3 d -8 Y 1 -2 d -2 Y 1 -2 d -2 Y 1 -2 d -1 Y 1 X 1 -1 d 1 1 d 1 1 d 1 1 d 1 1 d 2 2 d 1 2 d 1 2 d 1 2 d 1 2 d 2 3 d 1 2 d 1 2 d 1 2 d 1 2 d 1 1 d 2 1 d 1 Y 1 1 d 1 X 1 -1 d 1 X -2 Y 1 -1 d -2 Y 1 -2 d -4 Y 1 -3 d -5 Y 1 -3 d -4 Y 1 -2
 d -2 Y 1 -1 d -1 Y 1 -1 d 1 -1 d 1 X 1 1 d 1 1 d 1 1 d 1 1 d 1 2 d 1 2 d 1 2 d 1 2 d 2 3 d 1 2 d 1 2 d 1 2 d 1 2 d 2 2 d 1 1 d 1 1 d 1 1 d 1 1 d 1 -1 d 1 X -1 Y 1 -2 d -2 Y 1 -2 d -2 Y 1 -2 d -5 Y 1 -3 d -5 Y 1 -2 d -2 Y 1 -2 d -1 Y 1 -1 d -1 Y 3 X
 1 1 d 1 1 d 1 1 d 1 2 d 1 2 d 1 2 d 2 2 d 1 3 d 1 2 d 1 2 d 1 2 d 2 2 d 1 2 d 1 1 d 1 2 d 1 X 1 1 d 1 X -1 Y 1 X 1 -1 d -2 Y 1 -1 d -5 Y 1 -2 d -5 Y 1 -3 d -5 Y 1 -2 d -2 Y 1 -2 d -1 Y 1 -1 d 1 -1 d 2 X 1 1 d 1 1 d 1 2 d 1 1 d 1 2 d 2 2 d 1 3 d 1 2
 d 1 2 d 1 2 d 2 2 d 1 2 d 1 2 d 1 2 d 1 1 d 1 X 1 1 d 2 X -1 Y 1 -1 d -2 Y 1 -1 d -2 Y 1 -3 d -5 Y 1 -2 d -5 Y 1 -3 d -4 Y 1 -2 d -1 Y 1 -1 d 1 -1 d 2 X 1 1 d 1 1 d 1 2 d 1 1 d 2 2 d 1 2 d 1 3 d 1 2 d 1 2 d 2 2 d 1 3 d 1 1 d 1 2 d 1 2 d 1 1 d 1 1 d
 3 X -1 Y 1 -1 d 1 -2 d -3 Y 1 -3 d -4 Y 1 -3 d -5 Y 1 -3 d -2 Y 1 -2 d -2 Y 1 -1 d -1 Y 1 -1 d 2 X 1 1 d 1 1 d 1 2 d 2 1 d 1 2 d 1 2 d 1 3 d 1 2 d 2 2 d 1 3 d 1 2 d 1 2 d 1 1 d 1 2 d 1 1 d 1 1 d 3 X 1 -1 d -1 Y 1 -1 d -2 Y 1 -2 d -5 Y 1 -2 d -6 Y 1
 -2 d -5 Y 1 -2 d -1 Y 1 -2 d -1 Y 1 -1 d 3 X 1 1 d 1 1 d 1 2 d 1 2 d 1 1 d 1 3 d 1 2 d 2 2 d 1 2 d 1 3 d 1 2 d 1 2 d 2 1 d 1 2 d 1 1 d 1 1 d 2 X 1 -1 d -1 Y 1 -1 d -2 Y 1 -2 d -2 Y 1 -3 d -5 Y 1 -2 d -5 Y 1 -3 d -2 Y 1 -1 d -2 Y 1 -1 d -1 Y 2 X 1 1
 d 1 X 1 2 d 1 1 d 1 2 d 1 2 d 1 2 d 2 2 d 1 2 d 1 3 d 1 2 d 1 2 d 2 2 d 1 2 d 1 1 d 1 1 d 1 1 d 2 X 1 -1 d 1 -1 d -1 Y 1 -2 d -4 Y 1 -3 d -5 Y 1 -2 d -5 Y 1 -2 d -2 Y 1 -2 d -2 Y 1 -1 d 1 X -1 Y 1 X 1 1 d 1 X 1 2 d 1 1 d 1 2 d 1 2 d 2 2 d 1 2 d 1 2
 d 1 3 d 1 2 d 2 2 d 1 2 d 1 2 d 1 1 d 1 1 d 1 1 d 2 X 1 -1 d 1 -1 d -1 Y 1 -2 d -2 Y 1 -2 d -5 Y 1 -3 d -5 Y 1 -2 d -4 Y 1 -2 d -2 Y 1 -1 d 1 X -1 Y 1 X 1 1 d 1 1 d 1 1 d 1 1 d 1 2 d 2 2 d 1 2 d 1 2 d 1 2 d 1 3 d 2 2 d 1 2 d 1 2 d 1 2 d 1 1 d 1 1 d
 1 1 d 1 1 d 1 X 1 -1 d 1 -2 d 1 -1 d -4 Y 1 -2 d -5 Y 1 -2 d -6 Y 1 -2 d -2 Y 1 -2 d -2 Y 1 -1 d -1 Y 1 -1 d 1 -1 d 1 Y 1 X 1 1 d 1 1 d 1 1 d 2 2 d 1 2 d 1 2 d 1 2 d 1 3 d 2 2 d 1 2 d 1 2 d 1 2 d 1 2 d 1 1 d 1 1 d 1 1 d 1 1 d 1 X 1 -1 d 1 X -1 Y 1
 -2 d -2 Y 1 -2 d -4 Y 1 -3 d -5 Y 1 -2 d -5 Y 1 -2 d -2 Y 1 -1 d -1 Y 1 -1 d 3 X 1 1 d 1 1 d 1 1 d 1 2 d 1 2 d 1 2 d 1 2 d 2 3 d 1 2 d 1 2 d 1 2 d 1 2 d 2 2 d 1 1 d 1 2 d 1 X 1 1 d 1 -1 d 1 X -1 Y 1 -2 d -1 Y 1 -2 d -3 Y 1 -2 d -5 Y 1 -3 d -5 Y 1 -2
 d -4 Y 1 -1 d 1 -1 d -1 Y 3 X 1 1 d 1 1 d 1 2 d 1 1 d 1 2 d 1 2 d 2 3 d 1 2 d 1 2 d 1 2 d 1 2 d 2 2 d 1 2 d 1 2 d 1 1 d 1 X 1 1 d 1 X 1 -1 d 1 -1 d -2 Y 1 -1 d -5 Y 1 -2 d -5 Y 1 -3 d -5 Y 1 -2 d -2 Y 1 -2 d -1 Y 1 -1 d 1 -1 d 2 X 1 1 d 1 1 d 1 2 d
 1 1 d 1 2 d 2 2 d 1 3 d 1 2 d 1 2 d 1 2 d 2 3 d 1 2 d 1 1 d 1 2 d 1 1 d 1 1 d 2 X 1 -1 d 1 -1 d -2 Y 1 -1 d -2 Y 1 -2 d -5 Y 1 -3 d -5 Y 1 -3 d -4 Y 1 -2 d -1 Y 1 -1 d 1 -1 d 2 X 1 1 d 1 1 d 1 2 d 1 1 d 2 2 d 1 3 d 1 2 d 1 2 d 1 2 d 2 3 d 1 2 d 1 2
 d 1 1 d 1 2 d 1 1 d 1 1 d 3 X -1 Y 1 -1 d -1 Y 1 -2 d -2 Y 1 -2 d -5 Y 1 -3 d -5 Y 1 -2 d -3 Y 1 -2 d -1 Y 1 -2 d -1 Y 1 -1 d 2 X 1 1 d 1 1 d 1 2 d 2 2 d 1 2 d 1 2 d 1 2 d 1 2 d 2 2 d 1 3 d 1 2 d 1 2 d 1 1 d 1 2 d 1 1 d 1 1 d 3 X 1 -1 d -1 Y 1 -1 d
 -2 Y 1 -2 d -5 Y 1 -2 d -5 Y 1 -3 d -5 Y 1 -2 d -1 Y 1 -2 d -1 Y 1 -1 d 2 X 1 1 d 1 X 1 2 d 1 1 d 1 2 d 1 2 d 1 2 d 1 2 d 2 2 d 1 3 d 1 2 d 1 2 d 1 2 d 2 2 d 1 1 d 1 1 d 1 1 d 2 X 1 -1 d -1 Y 1 -1 d -2 Y 1 -2 d -2 Y 1 -3 d -5 Y 1 -2 d -5 Y 1 -2 d -4
 Y 1 -2 d 1 -1 d 1 -1 d 1 X 1 1 d 1 1 d 1 1 d 1 1 d 1 2 d 1 2 d 1 2 d 2 2 d 1 2 d 1 3 d 1 2 d 1 2 d 2 2 d 1 2 d 1 1 d 1 1 d 1 1 d 1 X 1 1 d -1 Y 1 -1 d 1 -1 d -1 Y 1 -2 d -4 Y 1 -2 d -6 Y 1 -2 d -5 Y 1 -2 d -2 Y 1 -2 d -1 Y 1 -2 d 1 -1 d 1 X 1 1 d 1
 1 d 1 1 d 1 1 d 1 2 d 1 2 d 2 2 d 1 2 d 1 2 d 1 3 d 1 2 d 2 2 d 1 2 d 1 2 d 1 1 d 1 1 d 1 1 d 1 1 d 1 X -1 Y 1 X 1 -2 d -1 Y 1 -2 d -2 Y 1 -2 d -5 Y 1 -2 d -6 Y 1 -2 d -4 Y 1 -2 d -1 Y 1 -1 d 1 -1 d -1 Y 1 1 d 1 X 1 1 d 1 1 d 1 1 d 1 2 d 2 2 d 1 2 d
 1 2 d 1 3 d 1 2 d 2 2 d 1 2 d 1 2 d 1 2 d 1 1 d 1 1 d 1 1 d 1 1 d 1 X 1 -1 d 1 -1 d -2 Y 1 -2 d -2 Y 1 -2 d -5 Y 1 -2 d -5 Y 1 -3 d -2 Y 1 -2 d -2 Y 1 -1 d -1 Y 1 -1 d 2 X 1 1 d 1 1 d 1 1 d 2 2 d 1 2 d 1 2 d 1 2 d 1 3 d 2 2 d 1 2 d 1 2 d 1 2 d 1 2 d
 1 1 d 1 2 d 1 X 1 1 d 1 X 1 -1 d 1 X -1 Y 1 -2 d -1 Y 1 -2 d -5 Y 1 -3 d -5 Y 1 -2 d -5 Y 1 -2 d -2 Y 1 -1 d -1 Y 1 -1 d 3 X 1 Y 2 1 d 1 2 d 1 1 d 1 2 d 1 2 d 1 3 d 2 2 d 1 2 d 1 2 d 1 2 d 1 2 d 2 2 d 1 2 d 1 1 d 1 X 1 Y 2 X 1 -1 d -1 Y 1 -2 d -1 Y
 1 -2 d -3 Y 1 -2 d -8 Y 1 -2 d -3 Y 1 -2 d -4 Y 1 -1 d 1 -1 d -1 Y 3 X 1 1 d 1 1 d 1 2 d 1 1 d 1 2 d 1 2 d 2 3 d 1 2 d 1 2 d 1 2 d 1 3 d 2 2 d 1 1 d 1 2 d 1 1 d 1 1 d 2 X 1 -1 d 1 -1 d -2 Y 1 -1 d -4 Y 1 -3 d -5 Y 1 -3 d -5 Y 1 -2 d -2 Y 1 -2 d -1 Y
 1 -1 d -1 Y 3 X 1 1 d 1 1 d 1 2 d 1 1 d 1 2 d 1 3 d 2 2 d 1 2 d 1 2 d 1 3 d 2 2 d 1 2 d 1 1 d 1 2 d 1 1 d 1 1 d 2 X 1 -1 d 1 -1 d -1 Y 1 -2 d -2 Y 1 -2 d -5 Y 1 -3 d -5 Y 1 -2 d -5 Y 1 -1 d -2 Y 1 -1 d 1 -1 d 1 X 1 1 d 1 X 1 1 d 1 2 d 1 2 d 1 2 d 2
 2 d 1 2 d 1 2 d 1 2 d 2 3 d 1 2 d 1 2 d 1 1 d 1 2 d 1 1 d 1 1 d 3 X -1 Y 1 -1 d -1 Y 1 -2 d -2 Y 1 -2 d -5 Y 1 -3 d -5 Y 1 -2 d -3 Y 1 -2 d -1 Y 1 -2 d -1 Y 1 -1 d 1 X 1 1 d 1 X 1 2 d 1 1 d 2 2 d 1 2 d 1 2 d 1 2 d 1 2 d 2 3 d 1 2 d 1 2 d 1 2 d 1 2 d
 1 1 d 1 1 d 1 1 d 3 X 1 -1 d -1 Y 1 -1 d -2 Y 1 -2 d -5 Y 1 -2 d -5 Y 1 -3 d -4 Y 1 -2 d -2 Y 1 -2 d -1 Y 1 X 1 -1 d 1 X 1 1 d 1 Y 1 1 d 2 1 d 1 2 d 1 2 d 1 2 d 1 2 d 2 2 d 1 3 d 1 2 d 1 2 d 1 2 d 2 2 d 1 1 d 1 1 d 1 1 d 1 1 d 1 -1 d 1 -1 d -1 Y 1
 -1 d -2 Y 1 -2 d -2 Y 1 -2 d -8 Y 1 -3 d -2 Y 1 -2 d -4 Y 1 -1 d 1 -2 d 1 -1 d 1 X 1 1 d 1 1 d 1 1 d 1 1 d 1 2 d 1 2 d 1 2 d 2 2 d 1 2 d 1 3 d 1 2 d 1 2 d 2 2 d 1 2 d 1 1 d 1 1 d 1 1 d 1 1 d 1 -1 d 1 X 1 -2 d -1 Y 1 -2 d -4 Y 1 -2 d -5 Y 1 -3 d -5 Y
 1 -2 d -2 Y 1 -2 d -1 Y 1 -1 d -1 Y 1 -1 d 1 1 d 1 X 1 1 d 1 1 d 1 1 d 1 2 d 1 2 d 1 2 d 2 2 d 1 3 d 1 2 d 1 2 d 2 2 d 1 2 d 1 2 d 1 1 d 1 1 d 1 1 d 1 1 d 1 X -1 Y 1 X 1 -1 d -2 Y 1 -2 d -2 Y 1 -2 d -5 Y 1 -2 d -5 Y 1 -3 d -4 Y 1 -2 d -1 Y 1 -1 d 1
 -1 d 2 X 1 1 d 1 1 d 1 1 d 1 2 d 1 2 d 2 2 d 1 2 d 1 3 d 1 2 d 2 2 d 1 2 d 1 2 d 1 2 d 1 1 d 1 2 d 1 X 1 1 d 2 X -1 Y 1 -1 d -2 Y 1 -1 d -2 Y 1 -3 d -5 Y 1 -2 d -5 Y 1 -3 d -2 Y 1 -2 d -2 Y 1 -1 d -1 Y 1 -1 d 2 X 1 1 d 1 1 d 1 2 d 1 1 d 2 2 d 1 2 d
 1 3 d 1 2 d 2 2 d 1 2 d 1 2 d 1 2 d 1 2 d 1 2 d 1 1 d 1 X 1 1 d 2 X 1 -1 d -1 Y 1 -2 d -1 Y 1 -2 d -5 Y 1 -3 d -5 Y 1 -2 d -5 Y 1 -2 d -2 Y 1 -1 d -1 Y 1 -1 d 3 X 1 Y 1 1 d 2 2 d 1 1 d 1 2 d 1 2 d 1 3 d 2 2 d 1 2 d 1 2 d 1 3 d 1 2 d 2 1 d 1 2 d 1 1
 d 1 1 d 2 X 1 -1 d -1 Y 1 -1 d -2 Y 1 -2 d -5 Y 1 -2 d -6 Y 1 -2 d -3 Y 1 -2 d -3 Y 1 -2 d 1 -1 d -1 Y 3 X 1 1 d 1 1 d 1 2 d 1 1 d 1 2 d 1 3 d 2 2 d 1 2 d 1 2 d 1 3 d 1 2 d 2 2 d 1 1 d 1 2 d 1 1 d 1 1 d 2 X 1 -1 d 1 -1 d -1 Y 1 -2 d -4 Y 1 -3 d -5 Y
 1 -2 d -5 Y 1 -3 d -2 Y 1 -1 d -2 Y 1 -1 d -1 Y 2 X 1 1 d 1 X 1 1 d 1 2 d 1 2 d 1 2 d 1 2 d 2 2 d 1 2 d 1 2 d 1 3 d 2 2 d 1 2 d 1 1 d 1 2 d 1 1 d 1 1 d 2 X 1 -1 d 1 -1 d -1 Y 1 -2 d -2 Y 1 -2 d -5 Y 1 -3 d -5 Y 1 -2 d -5 Y 1 -1 d -2 Y 1 -1 d 1 X -1
 Y 1 X 1 1 d 1 X 1 2 d 1 1 d 1 2 d 1 2 d 2 2 d 1 2 d 1 2 d 1 3 d 2 2 d 1 2 d 1 2 d 1 2 d 1 1 d 1 1 d 1 1 d 3 X -1 Y 1 -1 d -1 Y 1 -2 d -2 Y 1 -2 d -5 Y 1 -3 d -5 Y 1 -2 d -2 Y 1 -2 d -2 Y 1 -2 d -1 Y 1 X 1 -1 d 1 1 d 1 1 d 1 1 d 1 1 d 1 2 d 2 2 d 1 2
 d 1 2 d 1 2 d 2 3 d 1 2 d 1 2 d 1 2 d 1 2 d 1 1 d 1 1 d 1 1 d 1 X 1 1 d 1 -1 d -1 Y 1 -1 d 1 -1 d -2 Y 1 -2 d -4 Y 1 -3 d -5 Y 1 -3 d -4 Y 1 -2 d -2 Y 1 -1 d -2 Y 1 X 1 -1 d 1 X 1 Y 1 1 d 1 1 d 2 1 d 1 2 d 1 2 d 1 2 d 1 2 d 2 3 d 1 2 d 1 2 d 1 2 d 1
 2 d 2 2 d 1 1 d 1 1 d 1 1 d 1 Y 1 X 1 -1 d 1 X -2 Y 1 -1 d -2 Y 1 -2 d -4 Y 1 -3 d -5 Y 1 -3 d -2 Y 1 -2 d -4 Y 1 -1 d 1 -1 d -1 Y 1 -1 d 1 1 d 1 X 1 1 d 1 1 d 1 1 d 1 2 d 1 2 d 1 2 d 1 2 d 2 3 d 1 2 d 1 2 d 1 2 d 2 2 d 1 2 d 1 1 d 1 1 d 1 1 d 1 1 d
 1 -1 d 1 X -1 Y 1 -2 d 1 -2 d -4 Y 1 -2 d -5 Y 1 -3 d -5 Y 1 -2 d -2 Y 1 -2 d -1 Y 1 -1 d -1 Y 3 X 1 1 d 1 1 d 1 1 d 1 2 d 1 2 d 1 2 d 2 2 d 1 3 d 1 2 d 1 2 d 2 2 d 1 2 d 1 2 d 1 1 d 1 2 d 1 X 1 1 d 1 X 1 -1 d 1 -1 d -2 Y 1 -1 d -2 Y 1 -3 d -5 Y 1
 -2 d -5 Y 1 -3 d -4 Y 1 -2 d -1 Y 1 -1 d 1 -1 d 2 X 1 1 d 1 1 d 1 2 d 1 1 d 1 2 d 2 2 d 1 3 d 1 2 d 1 2 d 2 2 d 1 2 d 1 2 d 1 2 d 1 2 d 1 1 d 1 1 d 3 X -1 Y 1 -1 d -2 Y 1 -1 d -2 Y 1 -3 d -5 Y 1 -2 d -5 Y 1 -3 d -2 Y 1 -2 d -2 Y 1 -1 d -1 Y 1 -1 d 2
 X 1 1 d 1 1 d 1 2 d 1 1 d 2 2 d 1 2 d 1 3 d 1 2 d 2 2 d 1 2 d 1 3 d 1 2 d 1 1 d 1 2 d 1 1 d 1 1 d 3 X -1 Y 1 -1 d 1 -1 d -2 Y 1 -2 d -5 Y 1 -2 d -6 Y 1 -2 d -5 Y 1 -2 d -1 Y 1 -2 d -1 Y 1 -1 d 2 X 1 1 d 1 1 d 2 2 d 1 1 d 1 2 d 1 3 d 1 2 d 2 2 d 1 2
 d 1 3 d 1 2 d 1 2 d 1 1 d 2 2 d 1 1 d 1 1 d 2 X 1 -1 d -1 Y 1 -1 d -2 Y 1 -2 d -5 Y 1 -2 d -5 Y 1 -3 d -2 Y 1 -3 d -3 Y 1 -2 d 1 -1 d -1 Y 2 X 1 1 d 1 X 1 1 d 1 2 d 1 2 d 1 2 d 1 2 d 1 2 d 2 2 d 1 2 d 1 3 d 1 2 d 2 2 d 1 1 d 1 2 d 1 1 d 1 1 d 2 X 1
 -1 d -1 Y 1 -1 d -2 Y 1 -2 d -2 Y 1 -3 d -5 Y 1 -2 d -5 Y 1 -3 d -2 Y 1 -1 d -2 Y 1 -1 d 1 -1 d 1 X 1 1 d 1 X 1 2 d 1 1 d 1 2 d 1 2 d 1 2 d 2 2 d 1 2 d 1 3 d 1 2 d 2 2 d 1 2 d 1 2 d 1 1 d 1 1 d 1 1 d 2 X 1 -1 d 1 -1 d -1 Y 1 -2 d -2 Y 1 -2 d -5 Y 1
 -3 d -5 Y 1 -2 d -4 Y 1 -2 d -2 Y 1 -1 d 1 X -1 Y 1 X 1 1 d 1 1 d 1 1 d 1 1 d 1 2 d 1 2 d 2 2 d 1 2 d 1 2 d 1 3 d 2 2 d 1 2 d 1 2 d 1 2 d 1 1 d 1 1 d 1 1 d 1 X 1 1 d 1 -1 d -1 Y 1 -1 d -1 Y 1 -2 d -2 Y 1 -2 d -5 Y 1 -3 d -5 Y 1 -2 d -2 Y 1 -2 d -2 Y
 1 -1 d -2 Y 1 X 1 -1 d 1 1 d 1 1 d 1 1 d 1 1 d 1 2 d 2 2 d 1 2 d 1 2 d 1 3 d 2 2 d 1 2 d 1 2 d 1 2 d 1 2 d 1 1 d 1 1 d 1 1 d 1 1 d 1 X 1 -1 d 1 -1 d 1 -2 d -2 Y 1 -2 d -4 Y 1 -3 d -5 Y 1 -3 d -4 Y 1 -2 d -2 Y 1 -1 d -1 Y 1 -1 d 2 X 1 1 d 1 1 d 2 1 d
 1 2 d 1 2 d 1 2 d 1 2 d 2 3 d 1 2 d 1 2 d 1 2 d 1 2 d 1 2 d 2 1 d 1 2 d 1 X 1 Y 1 X 1 -1 d 1 X -1 Y 1 -2 d -2 Y 1 -2 d -4 Y 1 -3 d -5 Y 1 -2 d -5 Y 1 -2 d -2 Y 1 -1 d 1 -1 d -1 Y 3 X 1 1 d 1 1 d 1 1 d 1 2 d 1 2 d 1 2 d 1 2 d 2 3 d 1 2 d 1 2 d 1 2 d
 2 2 d 1 2 d 1 1 d 1 2 d 1 X 1 1 d 1 X 1 -1 d -1 Y 1 -2 d -1 Y 1 -2 d -3 Y 1 -2 d -5 Y 1 -3 d -5 Y 1 -2 d -2 Y 1 -2 d -1 Y 1 -1 d -1 Y 3 X 1 1 d 1 1 d 1 2 d 1 1 d 1 2 d 1 2 d 2 3 d 1 2 d 1 2 d 1 2 d 2 3 d 1 1 d 1 2 d 1 2 d 1 1 d 1 1 d 2 X 1 -1 d 1 -1
 d -2 Y 1 -1 d -5 Y 1 -2 d -5 Y 1 -3 d -2 Y 1 -3 d -4 Y 1 -2 d -1 Y 1 -1 d 1 -1 d 2 X 1 1 d 1 1 d 1 2 d 1 1 d 1 2 d 2 2 d 1 3 d 1 2 d 1 2 d 2 3 d 1 2 d 1 2 d 1 1 d 1 2 d 1 1 d 1 1 d 3 X -1 Y 1 -1 d -1 Y 1 -2 d -2 Y 1 -2 d -5 Y 1 -3 d -5 Y 1 -2 d -3 Y
 1 -2 d -1 Y 1 -2 d -1 Y 1 -1 d 2 X 1 1 d 1 1 d 1 2 d 1 2 d 2 1 d 1 3 d 1 2 d 1 2 d 2 2 d 1 3 d 1 2 d 1 2 d 1 1 d 1 2 d 1 1 d 1 1 d 3 X -1 Y 1 -1 d 1 -1 d -2 Y 1 -2 d -5 Y 1 -2 d -5 Y 1 -3 d -5 Y 1 -2 d -1 Y 1 -2 d -1 Y 1 -1 d 2 X 1 Y 1 X 1 1 d 2 2 d
 1 2 d 1 2 d 1 2 d 1 2 d 1 2 d 2 2 d 1 3 d 1 2 d 1 2 d 1 1 d 2 2 d 1 1 d 1 1 d 2 X 1 -1 d -1 Y 1 -1 d -2 Y 1 -2 d -5 Y 1 -2 d -5 Y 1 -3 d -4 Y 1 -3 d -1 Y 1 -2 d 1 -1 d 1 -1 d 1 X 1 1 d 1 X 1 2 d 1 1 d 1 2 d 1 2 d 1 2 d 1 2 d 2 2 d 1 3 d 1 2 d 1 2 d
 2 2 d 1 2 d 1 1 d 1 1 d 1 1 d 2 X 1 -1 d -1 Y 1 -1 d -2 Y 1 -2 d -2 Y 1 -3 d -5 Y 1 -2 d -5 Y 1 -2 d -2 Y 1 -2 d -2 Y 1 -1 d 1 -1 d 1 X 1 1 d 1 1 d 1 1 d 1 1 d 1 2 d 1 2 d 1 2 d 2 2 d 1 2 d 1 3 d 1 2 d 2 2 d 1 2 d 1 2 d 1 1 d 1 1 d 1 1 d 1 1 d 1 X
 -1 Y 1 -1 d 1 -1 d -1 Y 1 -2 d -4 Y 1 -2 d -6 Y 1 -2 d -5 Y 1 -2 d -2 Y 1 -2 d -1 Y 1 -2 d 1 X -1 Y 1 X 1 1 d 1 1 d 1 1 d 1 1 d 1 2 d 1 2 d 2 2 d 1 2 d 1 3 d 1 2 d 2 2 d 1 2 d 1 2 d 1 2 d 1 1 d 1 1 d 1 1 d 1 1 d 1 X 1 -1 d 1 -1 d -2 Y 1 -2 d -2 Y 1
 -2 d -5 Y 1 -2 d -6 Y 1 -2 d -2 Y 1 -2 d -2 Y 1 -1 d -1 Y 1 -1 d 2 X 1 1 d 1 1 d 1 1 d 1 2 d 2 2 d 1 2 d 1 2 d 1 3 d 2 2 d 1 2 d 1 2 d 1 2 d 1 2 d 1 1 d 1 2 d 1 X 1 1 d 1 X 1 -1 d 1 -1 d 1 -2 d -4 Y 1 -2 d -2 Y 1 -3 d -5 Y 1 -2 d -5 Y 1 -2 d -2 Y 1
 -1 d -1 Y 1 -1 d 2 X 1 1 d 1 1 d 1 1 d 2 2 d 1 2 d 1 2 d 1 2 d 1 3 d 2 2 d 1 2 d 1 2 d 1 2 d 1 2 d 2 2 d 1 1 d 1 X 1 Y 2 X 1 -1 d -1 Y 1 -2 d -1 Y 1 -2 d -5 Y 1 -3 d -5 Y 1 -2 d -5 Y 1 -2 d -2 Y 1 -1 d 1 -1 d -1 Y 3 X 1 1 d 1 1 d 1 2 d 1 1 d 1 2 d 1
 2 d 1 3 d 2 2 d 23 -5 d s 3 lw 2589 364 m20 6 lw 2589 364 m 586 -119 d s
 gsave  3175 1663 0 0 C 68.357 1249.41 t 0 r /Helvetica findfont 102.536 sf 0 0 m (Local zenith) show NC gr 
 gsave  3175 1663 0 0 C 3.79761 732.939 t 0 r /Helvetica findfont 102.536 sf 0 0 m (Detector) show NC gr 
 gsave  3175 1663 0 0 C 2460.85 448.118 t 0 r /Helvetica findfont 102.536 sf 0 0 m (p\255air interaction) show NC gr  1 1 1 c black 518 756 m 2 20 d -4 20 d -8 18 d -13 16 d -16 12 d -18 8 d -19 4 d -20 -1 d s 1 1 1 c black 539 753 m 1 25 d -4 24 d
 -11 23 d -15 19 d -20 16 d -22 10 d -25 4 d -25 -1 d s
 gsave  3175 1663 0 0 C 748.129 884.843 t 0 r /Helvetica findfont 68.357 sf 0 0 m (limb) show NC gr 
 gsave  3175 1663 0 0 C 694.963 919.022 t 0 r /Symbol findfont 102.536 sf 0 0 m (q) show NC gr 
 gsave  3175 1663 0 0 C 577.237 919.022 t 0 r /Helvetica findfont 102.536 sf 0 0 m ( = ) show NC gr 
 gsave  3175 1663 0 0 C 543.058 892.439 t 0 r /Helvetica findfont 68.357 sf 0 0 m (z) show NC gr 
 gsave  3175 1663 0 0 C 489.892 919.022 t 0 r /Symbol findfont 102.536 sf 0 0 m (q) show NC gr 
 gr  gr showpage
end
%%EOF
