%!PS-Adobe-2.0 EPSF-2.0
%%BoundingBox:  0 0 567 442
%%Title: edisp_pl_offset.eps: edisp_pl_offset
%%Creator: ROOT Version 5.34/14
%%CreationDate: Sun May 25 15:22:05 2014
%%EndComments
%%BeginProlog
80 dict begin
/s {stroke} def /l {lineto} def /m {moveto} def /t {translate} def
/r {rotate} def /rl {roll}  def /R {repeat} def
/d {rlineto} def /rm {rmoveto} def /gr {grestore} def /f {eofill} def
/c {setrgbcolor} def /black {0 setgray} def /sd {setdash} def
/cl {closepath} def /sf {scalefont setfont} def /lw {setlinewidth} def
/box {m dup 0 exch d exch 0 d 0 exch neg d cl} def
/NC{systemdict begin initclip end}def/C{NC box clip newpath}def
/bl {box s} def /bf {box f} def /Y { 0 exch d} def /X { 0 d} def 
/K {{pop pop 0 moveto} exch kshow} bind def
/ita {/ang 15 def gsave [1 0 ang dup sin exch cos div 1 0 0] concat} def 
/mp {newpath /y exch def /x exch def} def
/side {[w .77 mul w .23 mul] .385 w mul sd w 0 l currentpoint t -144 r} def
/mr {mp x y w2 0 360 arc} def /m24 {mr s} def /m20 {mr f} def
/mb {mp x y w2 add m w2 neg 0 d 0 w neg d w 0 d 0 w d cl} def
/mt {mp x y w2 add m w2 neg w neg d w 0 d cl} def
/m21 {mb f} def /m25 {mb s} def /m22 {mt f} def /m26{mt s} def
/m23 {mp x y w2 sub m w2 w d w neg 0 d cl f} def
/m27 {mp x y w2 add m w3 neg w2 neg d w3 w2 neg d w3 w2 d cl s} def
/m28 {mp x w2 sub y w2 sub w3 add m w3 0 d  0 w3 neg d w3 0 d 0 w3 d w3 0 d  0 w3 d w3 neg 0 d 0 w3 d w3 neg 0 d 0 w3 neg d w3 neg 0 d cl s } def
/m29 {mp gsave x w2 sub y w2 add w3 sub m currentpoint t 4 {side} repeat cl fill gr} def
/m30 {mp gsave x w2 sub y w2 add w3 sub m currentpoint t 4 {side} repeat cl s gr} def
/m31 {mp x y w2 sub m 0 w d x w2 sub y m w 0 d x w2 sub y w2 add m w w neg d x w2 sub y w2 sub m w w d s} def
/m32 {mp x y w2 sub m w2 w d w neg 0 d cl s} def
/m33 {mp x y w2 add m w3 neg w2 neg d w3 w2 neg d w3 w2 d cl f} def
/m34 {mp x w2 sub y w2 sub w3 add m w3 0 d  0 w3 neg d w3 0 d 0 w3 d w3 0 d  0 w3 d w3 neg 0 d 0 w3 d w3 neg 0 d 0 w3 neg d w3 neg 0 d cl f } def
/m2 {mp x y w2 sub m 0 w d x w2 sub y m w 0 d s} def
/m5 {mp x w2 sub y w2 sub m w w d x w2 sub y w2 add m w w neg d s} def
/reEncode {exch findfont dup length dict begin {1 index /FID eq  {pop pop} {def} ifelse } forall /Encoding exch def currentdict end dup /FontName get exch definefont pop } def [/Times-Bold /Times-Italic /Times-BoldItalic /Helvetica /Helvetica-Oblique
 /Helvetica-Bold /Helvetica-BoldOblique /Courier /Courier-Oblique /Courier-Bold /Courier-BoldOblique /Times-Roman /AvantGarde-Book /AvantGarde-BookOblique /AvantGarde-Demi /AvantGarde-DemiOblique /Bookman-Demi /Bookman-DemiItalic /Bookman-Light
 /Bookman-LightItalic /Helvetica-Narrow /Helvetica-Narrow-Bold /Helvetica-Narrow-BoldOblique /Helvetica-Narrow-Oblique /NewCenturySchlbk-Roman /NewCenturySchlbk-Bold /NewCenturySchlbk-BoldItalic /NewCenturySchlbk-Italic /Palatino-Bold
 /Palatino-BoldItalic /Palatino-Italic /Palatino-Roman ] {ISOLatin1Encoding reEncode } forall
%%EndProlog
%%BeginSetup
%%EndSetup
newpath  gsave  .25 .25 scale  gsave  0 0 t black[  ] 0 sd 6 lw 1 1 1 c 2268 1769 0 0 bf black 3 lw 1 1 1 c 1894 1482 283 216 bf black 1894 1482 283 216 bl 1 1 1 c 1894 1482 283 216 bf black 1894 1482 283 216 bl 6 lw 283 216 m 1894 X s 0.6 0.6 0.6 c[
 12 12] 0 sd 3 lw 283 1698 m -1482 Y s 599 1698 m -1482 Y s 915 1698 m -1482 Y s 1230 1698 m -1482 Y s 1546 1698 m -1482 Y s 1861 1698 m -1482 Y s 2177 1698 m -1482 Y s 2177 1698 m -1482 Y s black[  ] 0 sd 6 lw 283 1698 m 1894 X s 283 216 m 1482 Y s
 0.6 0.6 0.6 c[ 12 12] 0 sd 3 lw 2177 216 m -1894 X s 2177 427 m -1894 X s 2177 639 m -1894 X s 2177 851 m -1894 X s 2177 1063 m -1894 X s 2177 1274 m -1894 X s 2177 1486 m -1894 X s 2177 1698 m -1894 X s black[  ] 0 sd 6 lw 2177 216 m 1482 Y s 1 1 1
 c black 283 216 m 1894 X s 283 216 m 1894 X s
 gsave  2268 1769 0 0 C 2099.54 29.8384 t 0 r /Helvetica findfont 78.6648 sf 0 0 m (/E) show NC gr 
 gsave  2268 1769 0 0 C 2066.99 5.42516 t 0 r /Helvetica findfont 51.539 sf 0 0 m (E) show NC gr 
 gsave  2268 1769 0 0 C 2018.16 29.8384 t 0 r /Symbol findfont 78.6648 sf 0 0 m (s) show NC gr  283 260 m -44 Y s 347 238 m -22 Y s 410 238 m -22 Y s 473 238 m -22 Y s 536 238 m -22 Y s 599 260 m -44 Y s 662 238 m -22 Y s 725 238 m -22 Y s 788 238 m
 -22 Y s 852 238 m -22 Y s 915 260 m -44 Y s 978 238 m -22 Y s 1041 238 m -22 Y s 1104 238 m -22 Y s 1167 238 m -22 Y s 1230 260 m -44 Y s 1293 238 m -22 Y s 1356 238 m -22 Y s 1420 238 m -22 Y s 1483 238 m -22 Y s 1546 260 m -44 Y s 1609 238 m -22 Y
 s 1672 238 m -22 Y s 1735 238 m -22 Y s 1798 238 m -22 Y s 1861 260 m -44 Y s 1925 238 m -22 Y s 1988 238 m -22 Y s 2051 238 m -22 Y s 2114 238 m -22 Y s 2177 260 m -44 Y s 2177 260 m -44 Y s
 gsave  2268 1769 0 0 C 263.12 146.479 t 0 r /Helvetica findfont 70.5271 sf 0 0 m (0) show NC gr 
 gsave  2268 1769 0 0 C 553.366 146.479 t 0 r /Helvetica findfont 70.5271 sf 0 0 m (0.1) show NC gr 
 gsave  2268 1769 0 0 C 865.313 146.479 t 0 r /Helvetica findfont 70.5271 sf 0 0 m (0.2) show NC gr 
 gsave  2268 1769 0 0 C 1179.97 146.479 t 0 r /Helvetica findfont 70.5271 sf 0 0 m (0.3) show NC gr 
 gsave  2268 1769 0 0 C 1494.63 146.479 t 0 r /Helvetica findfont 70.5271 sf 0 0 m (0.4) show NC gr 
 gsave  2268 1769 0 0 C 1812 146.479 t 0 r /Helvetica findfont 70.5271 sf 0 0 m (0.5) show NC gr 
 gsave  2268 1769 0 0 C 2126.66 146.479 t 0 r /Helvetica findfont 70.5271 sf 0 0 m (0.6) show NC gr  283 1698 m 1894 X s 283 1654 m 44 Y s 347 1676 m 22 Y s 410 1676 m 22 Y s 473 1676 m 22 Y s 536 1676 m 22 Y s 599 1654 m 44 Y s 662 1676 m 22 Y s 725
 1676 m 22 Y s 788 1676 m 22 Y s 852 1676 m 22 Y s 915 1654 m 44 Y s 978 1676 m 22 Y s 1041 1676 m 22 Y s 1104 1676 m 22 Y s 1167 1676 m 22 Y s 1230 1654 m 44 Y s 1293 1676 m 22 Y s 1356 1676 m 22 Y s 1420 1676 m 22 Y s 1483 1676 m 22 Y s 1546 1654 m
 44 Y s 1609 1676 m 22 Y s 1672 1676 m 22 Y s 1735 1676 m 22 Y s 1798 1676 m 22 Y s 1861 1654 m 44 Y s 1925 1676 m 22 Y s 1988 1676 m 22 Y s 2051 1676 m 22 Y s 2114 1676 m 22 Y s 2177 1654 m 44 Y s 2177 1654 m 44 Y s 283 216 m 1482 Y s
 gsave  2268 1769 0 0 C 92.2277 1489.21 t 90 r /Helvetica findfont 78.6648 sf 0 0 m (Offset) show NC gr  340 216 m -57 X s 312 258 m -29 X s 312 300 m -29 X s 312 343 m -29 X s 312 385 m -29 X s 340 427 m -57 X s 312 470 m -29 X s 312 512 m -29 X s
 312 555 m -29 X s 312 597 m -29 X s 340 639 m -57 X s 312 682 m -29 X s 312 724 m -29 X s 312 766 m -29 X s 312 809 m -29 X s 340 851 m -57 X s 312 893 m -29 X s 312 936 m -29 X s 312 978 m -29 X s 312 1020 m -29 X s 340 1063 m -57 X s 312 1105 m
 -29 X s 312 1147 m -29 X s 312 1190 m -29 X s 312 1232 m -29 X s 340 1274 m -57 X s 312 1317 m -29 X s 312 1359 m -29 X s 312 1401 m -29 X s 312 1444 m -29 X s 340 1486 m -57 X s 312 1528 m -29 X s 312 1571 m -29 X s 312 1613 m -29 X s 312 1656 m
 -29 X s 340 1698 m -57 X s
 gsave  2268 1769 0 0 C 233.282 189.881 t 0 r /Helvetica findfont 70.5271 sf 0 0 m (0) show NC gr 
 gsave  2268 1769 0 0 C 135.629 401.462 t 0 r /Helvetica findfont 70.5271 sf 0 0 m (0.05) show NC gr 
 gsave  2268 1769 0 0 C 187.168 613.043 t 0 r /Helvetica findfont 70.5271 sf 0 0 m (0.1) show NC gr 
 gsave  2268 1769 0 0 C 135.629 824.624 t 0 r /Helvetica findfont 70.5271 sf 0 0 m (0.15) show NC gr 
 gsave  2268 1769 0 0 C 176.318 1036.21 t 0 r /Helvetica findfont 70.5271 sf 0 0 m (0.2) show NC gr 
 gsave  2268 1769 0 0 C 135.629 1247.79 t 0 r /Helvetica findfont 70.5271 sf 0 0 m (0.25) show NC gr 
 gsave  2268 1769 0 0 C 176.318 1459.37 t 0 r /Helvetica findfont 70.5271 sf 0 0 m (0.3) show NC gr 
 gsave  2268 1769 0 0 C 135.629 1670.95 t 0 r /Helvetica findfont 70.5271 sf 0 0 m (0.35) show NC gr  2177 216 m 1482 Y s 2120 216 m 57 X s 2149 258 m 28 X s 2149 300 m 28 X s 2149 343 m 28 X s 2149 385 m 28 X s 2120 427 m 57 X s 2149 470 m 28 X s
 2149 512 m 28 X s 2149 555 m 28 X s 2149 597 m 28 X s 2120 639 m 57 X s 2149 682 m 28 X s 2149 724 m 28 X s 2149 766 m 28 X s 2149 809 m 28 X s 2120 851 m 57 X s 2149 893 m 28 X s 2149 936 m 28 X s 2149 978 m 28 X s 2149 1020 m 28 X s 2120 1063 m 57
 X s 2149 1105 m 28 X s 2149 1147 m 28 X s 2149 1190 m 28 X s 2149 1232 m 28 X s 2120 1274 m 57 X s 2149 1317 m 28 X s 2149 1359 m 28 X s 2149 1401 m 28 X s 2149 1444 m 28 X s 2120 1486 m 57 X s 2149 1528 m 28 X s 2149 1571 m 28 X s 2149 1613 m 28 X
 s 2149 1656 m 28 X s 2120 1698 m 57 X s 0.95 0.95 0.95 c black 284 216 m 93 X s 377 216 m 10 X 2 1 d 54 X 2 1 d 25 X s 470 218 m 15 X 2 1 d 32 X 2 1 d 29 X 1 1 d 12 X s 563 221 m 13 X 2 1 d 23 X 2 1 d 20 X 2 1 d 19 X 2 1 d 10 X s 656 225 m 9 X 2 1 d
 17 X 2 1 d 17 X 2 1 d 15 X 2 1 d 15 X 2 1 d 9 X s 748 230 m 6 X 2 1 d 13 X 2 1 d 13 X 2 1 d 13 X 2 1 d 12 X 2 1 d 13 X 2 1 d 11 X s 841 236 m 2 1 d 11 X 2 1 d 12 X 2 1 d 11 X 2 1 d 9 X 2 1 d 11 X 2 1 d 10 X 2 1 d 9 X 2 1 d 4 X s 934 244 m 6 X 1 1 d
 10 X 2 1 d 9 X 2 1 d 10 X 2 1 d 9 X 2 1 d 7 X 2 1 d 10 X 2 1 d 7 X 2 1 d 10 X s 1027 252 m 2 1 d 7 X 2 1 d 8 X 2 1 d 7 X 2 1 d 9 X 2 1 d 8 X 2 1 d 7 X 2 1 d 6 X 2 1 d 7 X 2 1 d 8 X 2 1 d 5 X s 1119 262 m 2 X 2 1 d 8 X 2 1 d 5 X 2 1 d 8 X 2 1 d 5 X 2
 1 d 8 X 2 1 d 7 X 2 1 d 6 X 2 1 d 6 X 1 1 d 8 X 2 1 d 6 X 1 1 d 4 X s 1212 273 m 2 X 2 1 d 8 X 2 1 d 5 X 2 1 d 6 X 2 1 d 5 X 2 1 d 6 X 2 1 d 5 X 2 1 d 6 X 2 1 d 6 X 2 1 d 5 X 2 1 d 6 X 2 1 d 5 X 2 1 d 4 X s 1305 285 m 2 X 2 1 d 5 X 2 1 d 6 X 2 1 d 6
 X 2 1 d 3 X 2 1 d 6 X 2 1 d 5 X 2 1 d 6 X 2 1 d 4 X 2 1 d 5 X 2 1 d 6 X 2 1 d 4 X 1 1 d 6 X 2 1 d 4 X s 1398 298 m 2 1 d 5 X 2 1 d 4 X 2 1 d 6 X 2 1 d 3 X 2 1 d 6 X 2 1 d 4 X 1 1 d 6 X 2 1 d 4 X 2 1 d 5 X 2 1 d 4 X 2 1 d 4 X 2 1 d 5 X 2 1 d 4 X 2 1
 d 4 X 2 1 d s 1491 313 m 5 X 2 1 d 4 X 2 1 d 4 X 2 1 d 3 X 2 1 d 6 X 2 1 d 4 X 1 1 d 4 X 2 1 d 4 X 2 1 d 4 X 2 1 d 3 X 2 1 d 6 X 2 1 d 4 X 1 1 d 4 X 2 1 d 4 X 2 1 d 4 X 1 1 d 2 X s 1583 328 m 2 X 2 1 d 4 X 2 1 d 4 X 2 1 d 3 X 2 1 d 4 X 2 1 d 4 X 2 1
 d 3 X 2 1 d 4 X 2 1 d 4 X 2 1 d 3 X 2 1 d 4 X 2 1 d 4 X 2 1 d 3 X 2 1 d 4 X 2 1 d 2 X 2 1 d 4 X 1 1 d 4 X 2 1 d s 1676 345 m 4 X 2 1 d 4 X 2 1 d 3 X 2 1 d 2 X 2 1 d 4 X 2 1 d 3 X 2 1 d 4 X 2 1 d 4 X 2 1 d 2 X 2 1 d 3 X 2 1 d 4 X 2 1 d 4 X 2 1 d 1 X
 2 1 d 4 X 2 1 d 4 X 2 1 d 2 X 1 1 d 4 X 2 1 d 4 X s 1769 362 m 2 1 d 4 X 2 1 d 1 X 2 1 d 4 X 2 1 d 2 X 2 1 d 4 X 1 1 d 4 X 2 1 d 2 X 2 1 d 4 X 2 1 d 3 X 2 1 d 2 X 2 1 d 4 X 2 1 d 2 X 2 1 d 3 X 2 1 d 2 X 2 1 d 4 X 2 1 d 3 X 2 1 d 2 X 2 1 d 4 X 2 1 d
 2 X s 1862 381 m 2 1 d 3 X 2 1 d 2 X 2 1 d 4 X 2 1 d 2 X 2 1 d 3 X 2 1 d 2 X 2 1 d 4 X 2 1 d 2 X 1 1 d 2 X 2 1 d 4 X 2 1 d 2 X 2 1 d 4 X 1 1 d 2 X 2 1 d 4 X 2 1 d 2 X 2 1 d 2 X 1 1 d 4 X 2 1 d 2 X 2 1 d 4 X 2 1 d 2 X s 1955 401 m 1 1 d 2 X 2 1 d 4 X
 2 1 d 2 X 2 1 d 2 X 1 1 d 4 X 2 1 d 2 X 2 1 d 4 X 2 1 d 1 X 2 1 d 2 X 2 1 d 2 X 2 1 d 4 X 2 1 d 2 X 1 1 d 2 X 2 1 d 4 X 2 1 d 2 X 2 1 d 2 X 1 1 d 4 X 2 1 d 2 X 2 1 d 2 X 2 1 d 2 X 2 1 d 3 X s 2047 422 m 2 1 d 2 X 2 1 d 2 X 2 1 d 2 X 2 1 d 3 X 2 1 d
 2 X 2 1 d 2 X 2 1 d 2 X 2 1 d 1 X 2 1 d 4 X 2 1 d 2 X 2 1 d 2 X 2 1 d 2 X 1 1 d 2 X 2 1 d 4 X 2 1 d 2 X 2 1 d 2 X 1 1 d 2 X 2 1 d 2 X 2 1 d 2 X 2 1 d 4 X 2 1 d 1 X 2 1 d 2 X 2 1 d s 2140 445 m 2 X 2 1 d 2 X 2 1 d 2 X 1 1 d 2 X 2 1 d 4 X 2 1 d 2 X 2
 1 d 2 X 1 1 d 2 X 2 1 d 2 X 2 1 d s
 gsave  2268 1769 0 0 C 1456.66 336.36 t 7 r /Helvetica findfont 62.3893 sf 0 0 m ( = 2.25 ) show NC gr 
 gsave  2268 1769 0 0 C 1418.68 330.935 t 7 r /Symbol findfont 62.3893 sf 0 0 m (G) show NC gr  0.95 0.95 0.95 c black 284 216 m 67 X 2 1 d 24 X s 377 217 m 10 X 2 1 d 24 X 2 1 d 21 X 2 1 d 17 X 2 1 d 13 X s 470 221 m 2 X 2 1 d 15 X 2 1 d 11 X 2 1 d
 13 X 2 1 d 10 X 2 1 d 11 X 2 1 d 9 X 2 1 d 8 X s 563 228 m 2 X 2 1 d 9 X 2 1 d 9 X 2 1 d 8 X 2 1 d 7 X 2 1 d 8 X 2 1 d 7 X 2 1 d 8 X 2 1 d 5 X 2 1 d 8 X 2 1 d 2 X s 656 238 m 3 X 2 1 d 8 X 2 1 d 5 X 2 1 d 6 X 2 1 d 6 X 1 1 d 6 X 2 1 d 6 X 2 1 d 5 X
 2 1 d 6 X 2 1 d 5 X 2 1 d 4 X 2 1 d 6 X 2 1 d 3 X s 748 250 m 2 1 d 6 X 2 1 d 4 X 1 1 d 6 X 2 1 d 4 X 2 1 d 5 X 2 1 d 4 X 2 1 d 4 X 2 1 d 3 X 2 1 d 6 X 2 1 d 4 X 2 1 d 3 X 2 1 d 4 X 2 1 d 4 X 2 1 d 3 X 2 1 d 4 X s 841 265 m 2 1 d 4 X 2 1 d 3 X 2 1 d
 4 X 2 1 d 4 X 2 1 d 2 X 2 1 d 3 X 2 1 d 4 X 2 1 d 4 X 2 1 d 3 X 2 1 d 2 X 2 1 d 4 X 2 1 d 3 X 2 1 d 2 X 2 1 d 4 X 2 1 d 2 X 2 1 d 3 X 2 1 d 4 X 2 1 d 2 X s 934 283 m 2 1 d 4 X 1 1 d 2 X 2 1 d 4 X 2 1 d 2 X 2 1 d 4 X 1 1 d 2 X 2 1 d 4 X 2 1 d 2 X 2 1
 d 2 X 1 1 d 4 X 2 1 d 2 X 2 1 d 2 X 2 1 d 3 X 2 1 d 2 X 2 1 d 2 X 2 1 d 4 X 2 1 d 2 X 1 1 d 2 X 2 1 d 4 X 2 1 d 2 X 2 1 d s 1027 304 m 2 X 1 1 d 2 X 2 1 d 2 X 2 1 d 4 X 2 1 d 2 X 2 1 d 1 X 2 1 d 2 X 2 1 d 2 X 2 1 d 2 X 2 1 d 2 X 1 1 d 4 X 2 1 d 2 X
 2 1 d 2 X 2 1 d 2 X 1 1 d 2 X 2 1 d 2 X 2 1 d 2 X 2 1 d 2 X 2 1 d 2 X 1 1 d 2 X 2 1 d 2 X 2 1 d 2 X 2 1 d 2 X 2 1 d 1 X s 1119 327 m 2 1 d 2 X 2 1 d 2 X 2 1 d 2 X 2 1 d 2 X 2 1 d 1 X 2 1 d 2 X 2 1 d 2 X 2 1 d 2 X 2 1 d 2 X 1 1 d 2 1 d 2 X 2 1 d 2 X
 2 1 d 2 X 2 1 d 2 X 1 1 d 2 X 2 1 d 2 X 2 1 d 2 X 2 1 d 2 1 d 2 X 2 1 d 1 X 2 1 d 2 X 2 1 d 2 X 2 1 d 2 1 d 2 X 2 1 d 1 X 2 1 d 2 X s 1212 353 m 2 1 d 2 X 2 1 d 2 1 d 2 X 2 1 d 2 X 1 1 d 2 X 2 1 d 2 1 d 2 X 2 1 d 2 X 2 1 d 2 X 1 1 d 2 1 d 2 X 2 1 d
 2 X 2 1 d 2 1 d 2 X 2 1 d 1 X 2 1 d 2 X 2 1 d 2 1 d 2 X 2 1 d 2 X 2 1 d 2 1 d 1 X 2 1 d 2 X 2 1 d 2 1 d 2 X 2 1 d 2 X 2 1 d 1 1 d 2 X 2 1 d 2 1 d 2 X s 1305 382 m 2 1 d 2 X 2 1 d 2 1 d 1 X 2 1 d 2 1 d 2 X 2 1 d 2 X 2 1 d 2 1 d 2 X 2 1 d 1 1 d 2 X 2
 1 d 2 X 2 1 d 2 1 d 2 X 2 1 d 2 1 d 1 X 2 1 d 2 1 d 2 X 2 1 d 2 1 d 2 X 2 1 d 2 X 2 1 d 1 1 d 2 X 2 1 d 2 1 d 2 X 2 1 d 2 1 d 2 X 2 1 d 1 1 d 2 X 2 1 d 2 1 d 2 X 2 1 d 2 1 d s 1398 414 m 2 X 2 1 d 1 1 d 2 X 2 1 d 2 1 d 2 X 2 1 d 2 1 d 2 1 d 2 X 2 1
 d 1 1 d 2 X 2 1 d 2 1 d 2 X 2 1 d 2 1 d 2 X 2 1 d 1 1 d 2 1 d 2 X 2 1 d 2 1 d 2 X 2 1 d 2 1 d 2 X 2 1 d 1 1 d 2 1 d 2 X 2 1 d 2 1 d 2 X 2 1 d 2 1 d 2 1 d 1 X 2 1 d 2 1 d 2 X 2 1 d 2 1 d 2 1 d 2 X 2 1 d s 1491 448 m 1 1 d 2 1 d 2 X 2 1 d 2 1 d 2 X 2
 1 d 2 1 d 2 1 d 2 X 1 1 d 2 1 d 2 1 d 2 X 2 1 d 2 1 d 2 1 d 2 X 2 1 d 1 1 d 2 1 d 2 X 2 1 d 2 1 d 2 1 d 2 X 2 1 d 2 1 d 2 1 d 1 X 2 1 d 2 1 d 2 1 d 2 1 d 2 X 2 1 d 2 1 d 2 1 d 1 X 2 1 d 2 1 d 2 1 d 2 X 2 1 d 2 1 d 2 1 d 2 1 d 1 X 2 1 d s 1583 485 m
 2 1 d 2 1 d 2 1 d 2 X 2 1 d 2 1 d 2 1 d 2 X 1 1 d 2 1 d 2 1 d 2 1 d 2 X 2 1 d 2 1 d 2 1 d 2 1 d 1 X 2 1 d 2 1 d 2 1 d 2 1 d 2 1 d 2 X 2 1 d 2 1 d 2 1 d 1 1 d 2 X 2 1 d 2 1 d 2 1 d 2 1 d 2 1 d 2 X 2 1 d 1 1 d 2 1 d 2 1 d 2 X 2 1 d 2 1 d 2 1 d 2 1 d 2
 1 d 1 X 2 1 d 2 1 d 2 1 d s 1676 525 m 2 1 d 2 1 d 2 1 d 2 X 2 1 d 2 1 d 1 1 d 2 1 d 2 1 d 2 X 2 1 d 2 1 d 2 1 d 2 1 d 2 1 d 1 1 d 2 X 2 1 d 2 1 d 2 1 d 2 1 d 2 1 d 2 1 d 2 1 d 2 X 1 1 d 2 1 d 2 1 d 2 1 d 2 1 d 2 1 d 2 1 d 2 X 2 1 d 1 1 d 2 1 d 2 1
 d 2 1 d 2 1 d 2 1 d 2 X 2 1 d 2 1 d 1 1 d 2 1 d 2 1 d 2 1 d 2 1 d 2 1 d s 1769 568 m 2 X 2 1 d 2 1 d 2 1 d 1 1 d 2 1 d 2 1 d 2 1 d 2 1 d 2 1 d 2 1 d 2 X 2 1 d 1 1 d 2 1 d 2 1 d 2 1 d 2 1 d 2 1 d 2 1 d 2 1 d 2 1 d 2 1 d 1 X 2 1 d 2 1 d 2 1 d 2 1 d 2
 1 d 2 1 d 2 1 d 2 1 d 1 1 d 2 1 d 2 1 d 2 1 d 2 1 d 2 1 d 2 X 2 1 d 2 1 d 1 1 d 2 1 d 2 1 d 2 1 d 2 1 d 2 1 d 2 1 d 2 1 d s 1862 613 m 2 1 d 2 1 d 1 1 d 2 1 d 2 1 d 2 1 d 2 1 d 2 1 d 2 1 d 2 1 d 2 X 1 1 d 2 1 d 2 1 d 2 1 d 2 1 d 2 1 d 2 1 d 2 1 d 2
 1 d 1 1 d 2 1 d 2 1 d 2 1 d 2 1 d 2 1 d 2 1 d 2 1 d 2 1 d 2 1 d 1 1 d 2 1 d 2 1 d 2 1 d 2 1 d 2 1 d 2 1 d 2 1 d 2 1 d 1 1 d 2 1 d 2 1 d 2 1 d 2 1 d 2 1 d 2 1 d 2 1 d 2 1 d 2 1 d s 1955 661 m 1 1 d 2 1 d 2 1 d 2 1 d 2 1 d 2 1 d 2 1 d 2 1 d 2 1 d 1 1
 d 2 1 d 2 1 d 2 1 d 2 1 d 2 1 d 2 1 d 2 1 d 2 1 d 1 1 d 2 1 d 2 1 d 2 1 d 2 1 d 2 2 d 2 1 d 2 1 d 2 1 d 2 1 d 1 1 d 2 1 d 2 1 d 2 1 d 2 1 d 2 1 d 2 1 d 2 1 d 2 1 d 1 1 d 2 1 d 2 1 d 2 1 d 2 1 d 2 1 d 2 1 d 2 2 d 2 1 d 2 1 d 1 1 d 2 1 d s 2047 712 m
 2 1 d 2 1 d 2 1 d 2 1 d 2 1 d 2 1 d 2 1 d 1 1 d 2 1 d 2 2 d 2 1 d 2 1 d 2 1 d 2 1 d 2 1 d 2 1 d 1 1 d 2 1 d 2 1 d 2 1 d 2 1 d 2 2 d 2 1 d 2 1 d 2 1 d 2 1 d 1 1 d 2 1 d 2 1 d 2 1 d 2 1 d 2 1 d 2 2 d 2 1 d 2 1 d 1 1 d 2 1 d 2 1 d 2 1 d 2 1 d 2 1 d 2 2
 d 2 1 d 2 1 d 2 1 d 1 1 d 2 1 d 2 1 d 2 1 d s 2140 765 m 2 1 d 2 2 d 2 1 d 2 1 d 2 1 d 1 1 d 2 1 d 2 1 d 2 1 d 2 2 d 2 1 d 2 1 d 2 1 d 2 1 d 1 1 d 2 1 d 2 2 d 2 1 d 2 1 d s
 gsave  2268 1769 0 0 C 1459.37 469.276 t 17 r /Helvetica findfont 62.3893 sf 0 0 m ( = 2.50 ) show NC gr 
 gsave  2268 1769 0 0 C 1424.1 458.426 t 17 r /Symbol findfont 62.3893 sf 0 0 m (G) show NC gr  0.95 0.95 0.95 c black 284 216 m 50 X 2 1 d 26 X 2 1 d 13 X s 377 218 m 4 X 2 1 d 15 X 2 1 d 13 X 2 1 d 11 X 2 1 d 10 X 2 1 d 9 X 2 1 d 8 X 2 1 d 9 X s
 470 225 m 2 1 d 7 X 2 1 d 6 X 2 1 d 7 X 2 1 d 6 X 2 1 d 6 X 2 1 d 5 X 2 1 d 6 X 2 1 d 5 X 2 1 d 6 X 2 1 d 4 X 2 1 d 5 X 2 1 d 4 X 2 1 d s 563 238 m 5 X 2 1 d 4 X 2 1 d 4 X 2 1 d 3 X 2 1 d 4 X 2 1 d 4 X 2 1 d 4 X 1 1 d 4 X 2 1 d 4 X 2 1 d 4 X 1 1 d 4
 X 2 1 d 4 X 2 1 d 2 X 2 1 d 3 X 2 1 d 4 X 2 1 d 2 X 2 1 d 4 X s 656 254 m 1 1 d 2 X 2 1 d 4 X 2 1 d 2 X 2 1 d 3 X 2 1 d 2 X 2 1 d 2 X 2 1 d 4 X 2 1 d 2 X 1 1 d 2 X 2 1 d 4 X 2 1 d 2 X 2 1 d 2 X 1 1 d 2 X 2 1 d 4 X 2 1 d 2 X 2 1 d 2 X 2 1 d 1 X 2 1 d
 2 X 2 1 d 2 X 2 1 d 2 X 2 1 d 2 X 1 1 d 2 X s 748 276 m 2 1 d 2 X 2 1 d 2 X 2 1 d 2 X 2 1 d 1 X 2 1 d 2 X 2 1 d 2 X 2 1 d 2 X 2 1 d 2 X 2 1 d 1 X 2 1 d 2 X 2 1 d 2 X 2 1 d 2 X 2 1 d 2 1 d 1 X 2 1 d 2 X 2 1 d 2 X 2 1 d 2 X 2 1 d 2 X 1 1 d 2 1 d 2 X 2
 1 d 2 X 2 1 d 2 X 2 1 d 2 1 d 2 X 1 1 d 2 X 2 1 d 2 1 d s 841 303 m 2 X 2 1 d 2 X 2 1 d 2 1 d 1 X 2 1 d 2 X 2 1 d 2 1 d 2 X 2 1 d 2 X 2 1 d 2 1 d 1 X 2 1 d 2 X 2 1 d 2 1 d 2 X 2 1 d 2 1 d 2 X 1 1 d 2 1 d 2 X 2 1 d 2 X 2 1 d 2 1 d 2 X 2 1 d 1 1 d 2 X
 2 1 d 2 1 d 2 X 2 1 d 2 1 d 2 X 2 1 d 2 1 d 1 X 2 1 d 2 1 d 2 X 2 1 d 2 1 d s 934 334 m 2 X 2 1 d 2 1 d 1 1 d 2 X 2 1 d 2 1 d 2 X 2 1 d 2 1 d 2 X 2 1 d 2 1 d 1 1 d 2 X 2 1 d 2 1 d 2 1 d 2 X 2 1 d 2 1 d 2 X 1 1 d 2 1 d 2 1 d 2 X 2 1 d 2 1 d 2 1 d 2 X
 2 1 d 1 1 d 2 1 d 2 X 2 1 d 2 1 d 2 1 d 2 X 2 1 d 2 1 d 2 1 d 1 X 2 1 d 2 1 d 2 1 d 2 1 d 2 X 2 1 d 2 1 d s 1027 370 m 2 1 d 1 X 2 1 d 2 1 d 2 1 d 2 1 d 2 X 2 1 d 2 1 d 2 1 d 2 1 d 1 X 2 1 d 2 1 d 2 1 d 2 1 d 2 1 d 2 X 2 1 d 2 1 d 1 1 d 2 1 d 2 X 2
 1 d 2 1 d 2 1 d 2 1 d 2 1 d 2 1 d 1 X 2 1 d 2 1 d 2 1 d 2 1 d 2 1 d 2 X 2 1 d 2 1 d 2 1 d 1 1 d 2 1 d 2 1 d 2 1 d 2 X 2 1 d 2 1 d 2 1 d 2 1 d 1 1 d s 1119 411 m 2 1 d 2 1 d 2 X 2 1 d 2 1 d 2 1 d 2 1 d 2 1 d 2 1 d 1 1 d 2 1 d 2 1 d 2 X 2 1 d 2 1 d 2
 1 d 2 1 d 2 1 d 1 1 d 2 1 d 2 1 d 2 1 d 2 1 d 2 1 d 2 X 2 1 d 2 1 d 1 1 d 2 1 d 2 1 d 2 1 d 2 1 d 2 1 d 2 1 d 2 1 d 2 1 d 2 1 d 1 1 d 2 1 d 2 1 d 2 1 d 2 1 d 2 1 d 2 1 d 2 1 d 2 1 d 1 X 2 1 d 2 1 d s 1212 456 m 2 1 d 2 1 d 2 1 d 2 1 d 2 1 d 2 1 d 2
 1 d 1 1 d 2 1 d 2 1 d 2 1 d 2 1 d 2 1 d 2 1 d 2 1 d 2 1 d 1 1 d 2 1 d 2 1 d 2 1 d 2 2 d 2 1 d 2 1 d 2 1 d 2 1 d 1 1 d 2 1 d 2 1 d 2 1 d 2 1 d 2 1 d 2 1 d 2 1 d 2 1 d 2 1 d 1 1 d 2 1 d 2 1 d 2 1 d 2 1 d 2 1 d 2 1 d 2 2 d 2 1 d 1 1 d 2 1 d 2 1 d 2 1 d
 2 1 d s 1305 507 m 2 1 d 2 1 d 2 1 d 2 1 d 1 1 d 2 1 d 2 2 d 2 1 d 2 1 d 2 1 d 2 1 d 2 1 d 2 1 d 2 1 d 1 1 d 2 1 d 2 2 d 2 1 d 2 1 d 2 1 d 2 1 d 2 1 d 2 1 d 1 1 d 2 2 d 2 1 d 2 1 d 2 1 d 2 1 d 2 1 d 2 1 d 2 2 d 2 1 d 1 1 d 2 1 d 2 1 d 2 1 d 2 1 d 2
 2 d 2 1 d 2 1 d 2 1 d 1 1 d 2 1 d 2 2 d 2 1 d 2 1 d 2 1 d 2 1 d s 1398 562 m 2 1 d 2 2 d 1 1 d 2 1 d 2 1 d 2 1 d 2 2 d 2 1 d 2 1 d 2 1 d 2 1 d 2 2 d 1 1 d 2 1 d 2 1 d 2 1 d 2 2 d 2 1 d 2 1 d 2 1 d 2 1 d 1 2 d 2 1 d 2 1 d 2 1 d 2 2 d 2 1 d 2 1 d 2 1
 d 2 1 d 2 2 d 1 1 d 2 1 d 2 1 d 2 2 d 2 1 d 2 1 d 2 1 d 2 2 d 2 1 d 1 1 d 2 1 d 2 2 d 2 1 d 2 1 d 2 2 d 2 1 d 2 1 d 2 1 d s 1491 622 m 1 2 d 2 1 d 2 1 d 2 1 d 2 2 d 2 1 d 2 1 d 2 2 d 2 1 d 2 1 d 1 1 d 2 2 d 2 1 d 2 1 d 2 2 d 2 1 d 2 1 d 2 2 d 2 1 d
 1 1 d 2 2 d 2 1 d 2 1 d 2 2 d 2 1 d 2 1 d 2 2 d 2 1 d 2 1 d 1 2 d 2 1 d 2 1 d 2 2 d 2 1 d 2 1 d 2 2 d 2 1 d 2 1 d 1 2 d 2 1 d 2 1 d 2 2 d 2 1 d 2 1 d 2 2 d 2 1 d 2 2 d 1 1 d 2 1 d s 1583 687 m 2 2 d 2 1 d 2 1 d 2 2 d 2 1 d 2 2 d 2 1 d 2 1 d 1 2 d 2
 1 d 2 1 d 2 2 d 2 1 d 2 2 d 2 1 d 2 1 d 2 2 d 1 1 d 2 2 d 2 1 d 2 2 d 2 1 d 2 1 d 2 2 d 2 1 d 2 2 d 2 1 d 1 1 d 2 2 d 2 1 d 2 2 d 2 1 d 2 2 d 2 1 d 2 2 d 2 1 d 1 1 d 2 2 d 2 1 d 2 2 d 2 1 d 2 2 d 2 1 d 2 2 d 2 1 d 1 2 d 2 1 d 2 1 d 2 2 d s 1676 757
 m 2 1 d 2 2 d 2 1 d 2 2 d 2 1 d 2 2 d 1 1 d 2 2 d 2 1 d 2 2 d 2 1 d 2 2 d 2 1 d 2 2 d 2 1 d 1 2 d 2 1 d 2 2 d 2 1 d 2 2 d 2 1 d 2 2 d 2 1 d 2 2 d 2 1 d 1 2 d 2 1 d 2 2 d 2 1 d 2 2 d 2 2 d 2 1 d 2 2 d 2 1 d 1 2 d 2 1 d 2 2 d 2 1 d 2 2 d 2 1 d 2 2 d 2
 2 d 2 1 d 1 2 d 2 1 d 2 2 d 2 1 d 2 2 d 2 1 d s 1769 831 m 2 2 d 2 2 d 2 1 d 2 2 d 1 1 d 2 2 d 2 1 d 2 2 d 2 2 d 2 1 d 2 2 d 2 1 d 2 2 d 1 2 d 2 1 d 2 2 d 2 1 d 2 2 d 2 2 d 2 1 d 2 2 d 2 1 d 2 2 d 1 2 d 2 1 d 2 2 d 2 2 d 2 1 d 2 2 d 2 1 d 2 2 d 2 2
 d 1 1 d 2 2 d 2 2 d 2 1 d 2 2 d 2 2 d 2 1 d 2 2 d 2 1 d 1 2 d 2 2 d 2 1 d 2 2 d 2 2 d 2 1 d 2 2 d 2 2 d s 1862 911 m 2 1 d 2 2 d 1 2 d 2 1 d 2 2 d 2 2 d 2 1 d 2 2 d 2 2 d 2 2 d 2 1 d 1 2 d 2 2 d 2 1 d 2 2 d 2 2 d 2 1 d 2 2 d 2 2 d 2 2 d 1 1 d 2 2 d
 2 2 d 2 1 d 2 2 d 2 2 d 2 2 d 2 1 d 2 2 d 2 2 d 1 1 d 2 2 d 2 2 d 2 2 d 2 1 d 2 2 d 2 2 d 2 2 d 2 1 d 1 2 d 2 2 d 2 2 d 2 1 d 2 2 d 2 2 d 2 2 d 2 1 d 2 2 d 2 2 d s 1955 995 m 1 2 d 2 1 d 2 2 d 2 2 d 2 2 d 2 2 d 2 1 d 2 2 d 2 2 d 1 2 d 2 1 d 2 2 d 2
 2 d 2 2 d 2 2 d 2 1 d 2 2 d 2 2 d 1 2 d 2 2 d 2 1 d 2 2 d 2 2 d 2 2 d 2 2 d 2 1 d 2 2 d 2 2 d 1 2 d 2 2 d 2 2 d 2 1 d 2 2 d 2 2 d 2 2 d 2 2 d 2 2 d 1 1 d 2 2 d 2 2 d 2 2 d 2 2 d 2 2 d 2 2 d 2 1 d 2 2 d 2 2 d 1 2 d 2 2 d s 2047 1084 m 2 2 d 2 2 d 2 1
 d 2 2 d 2 2 d 2 2 d 2 2 d 1 2 d 2 2 d 2 2 d 2 1 d 2 2 d 2 2 d 2 2 d 2 2 d 2 2 d 1 2 d 2 2 d 2 2 d 2 1 d 2 2 d 2 2 d 2 2 d 2 2 d 2 2 d 2 2 d 1 2 d 2 2 d 2 2 d 2 2 d 2 2 d 2 1 d 2 2 d 2 2 d 2 2 d 1 2 d 2 2 d 2 2 d 2 2 d 2 2 d 2 2 d 2 2 d 2 2 d 2 2 d 2
 2 d 1 2 d 2 2 d 2 2 d 2 2 d s 2140 1178 m 2 2 d 2 1 d 2 2 d 2 2 d 2 2 d 1 2 d 2 2 d 2 2 d 2 2 d 2 2 d 2 2 d 2 2 d 2 2 d 2 2 d 1 2 d 2 2 d 2 2 d 2 2 d 2 2 d s
 gsave  2268 1769 0 0 C 1467.51 640.169 t 30 r /Helvetica findfont 62.3893 sf 0 0 m ( = 2.75 ) show NC gr 
 gsave  2268 1769 0 0 C 1434.95 621.181 t 30 r /Symbol findfont 62.3893 sf 0 0 m (G) show NC gr  0.95 0.95 0.95 c black 284 216 m 40 X 2 1 d 21 X 2 1 d 13 X 2 1 d 11 X 2 1 d s 377 220 m 12 X 1 1 d 8 X 2 1 d 7 X 2 1 d 8 X 2 1 d 7 X 2 1 d 6 X 2 1 d 6 X
 1 1 d 6 X 2 1 d 4 X 2 1 d 5 X 2 1 d 4 X 2 1 d s 470 231 m 6 X 2 1 d 3 X 2 1 d 4 X 2 1 d 4 X 2 1 d 3 X 2 1 d 4 X 2 1 d 2 X 2 1 d 4 X 1 1 d 4 X 2 1 d 2 X 2 1 d 4 X 2 1 d 1 X 2 1 d 4 X 2 1 d 2 X 2 1 d 4 X 2 1 d 1 X 2 1 d 2 X 2 1 d 4 X 2 1 d s 563 249 m
 2 X 2 1 d 1 X 2 1 d 2 X 2 1 d 2 X 2 1 d 2 X 2 1 d 2 X 1 1 d 2 X 2 1 d 2 X 2 1 d 2 X 2 1 d 2 X 2 1 d 2 X 1 1 d 2 X 2 1 d 2 X 2 1 d 2 X 2 1 d 2 X 2 1 d 1 X 2 1 d 2 X 2 1 d 2 1 d 2 X 2 1 d 2 X 2 1 d 2 X 1 1 d 2 1 d 2 X 2 1 d 2 X 2 1 d 2 X 2 1 d 2 1 d s
 656 275 m 1 X 2 1 d 2 X 2 1 d 2 1 d 2 X 2 1 d 2 1 d 2 X 1 1 d 2 X 2 1 d 2 1 d 2 X 2 1 d 2 1 d 2 X 2 1 d 2 1 d 1 X 2 1 d 2 1 d 2 X 2 1 d 2 1 d 2 X 2 1 d 2 1 d 1 X 2 1 d 2 1 d 2 X 2 1 d 2 1 d 2 X 2 1 d 2 1 d 2 1 d 1 X 2 1 d 2 1 d 2 X 2 1 d 2 1 d 2 1 d
 2 X 2 1 d 1 1 d 2 1 d s 748 308 m 2 X 2 1 d 2 1 d 2 1 d 2 X 2 1 d 2 1 d 1 1 d 2 1 d 2 X 2 1 d 2 1 d 2 1 d 2 X 2 1 d 2 1 d 2 1 d 1 1 d 2 X 2 1 d 2 1 d 2 1 d 2 1 d 2 X 2 1 d 2 1 d 1 1 d 2 1 d 2 1 d 2 X 2 1 d 2 1 d 2 1 d 2 1 d 2 1 d 1 1 d 2 X 2 1 d 2 1
 d 2 1 d 2 1 d 2 1 d 2 1 d 2 1 d 2 X 1 1 d 2 1 d 2 1 d 2 1 d s 841 348 m 2 1 d 2 1 d 2 1 d 2 1 d 2 1 d 1 X 2 1 d 2 1 d 2 1 d 2 1 d 2 1 d 2 1 d 2 1 d 2 1 d 2 1 d 1 1 d 2 1 d 2 1 d 2 1 d 2 1 d 2 1 d 2 X 2 1 d 2 1 d 1 1 d 2 1 d 2 1 d 2 1 d 2 1 d 2 1 d 2
 1 d 2 1 d 2 1 d 1 1 d 2 1 d 2 1 d 2 1 d 2 1 d 2 1 d 2 1 d 2 1 d 2 1 d 2 1 d 1 1 d 2 1 d 2 2 d 2 1 d 2 1 d 2 1 d s 934 396 m 2 1 d 2 1 d 2 1 d 1 1 d 2 1 d 2 1 d 2 1 d 2 1 d 2 1 d 2 1 d 2 1 d 2 1 d 2 2 d 1 1 d 2 1 d 2 1 d 2 1 d 2 1 d 2 1 d 2 1 d 2 1 d
 2 1 d 1 2 d 2 1 d 2 1 d 2 1 d 2 1 d 2 1 d 2 1 d 2 1 d 2 2 d 1 1 d 2 1 d 2 1 d 2 1 d 2 1 d 2 1 d 2 2 d 2 1 d 2 1 d 2 1 d 1 1 d 2 1 d 2 2 d 2 1 d 2 1 d 2 1 d 2 1 d 2 2 d s 1027 451 m 2 1 d 1 1 d 2 1 d 2 1 d 2 2 d 2 1 d 2 1 d 2 1 d 2 2 d 2 1 d 2 1 d 1
 1 d 2 1 d 2 2 d 2 1 d 2 1 d 2 1 d 2 2 d 2 1 d 2 1 d 1 1 d 2 2 d 2 1 d 2 1 d 2 1 d 2 2 d 2 1 d 2 1 d 2 2 d 1 1 d 2 1 d 2 1 d 2 2 d 2 1 d 2 1 d 2 2 d 2 1 d 2 1 d 2 2 d 1 1 d 2 1 d 2 2 d 2 1 d 2 1 d 2 2 d 2 1 d 2 1 d 2 2 d 1 1 d s 1119 513 m 2 1 d 2 2
 d 2 1 d 2 1 d 2 2 d 2 1 d 2 1 d 2 2 d 2 1 d 1 2 d 2 1 d 2 1 d 2 2 d 2 1 d 2 1 d 2 2 d 2 1 d 2 2 d 1 1 d 2 1 d 2 2 d 2 1 d 2 2 d 2 1 d 2 2 d 2 1 d 2 1 d 1 2 d 2 1 d 2 2 d 2 1 d 2 2 d 2 1 d 2 1 d 2 2 d 2 1 d 2 2 d 1 1 d 2 2 d 2 1 d 2 2 d 2 1 d 2 2 d 2
 1 d 2 2 d 2 1 d 1 2 d 2 1 d 2 2 d s 1212 583 m 2 1 d 2 2 d 2 1 d 2 2 d 2 1 d 2 2 d 2 1 d 1 2 d 2 1 d 2 2 d 2 1 d 2 2 d 2 1 d 2 2 d 2 1 d 2 2 d 1 1 d 2 2 d 2 1 d 2 2 d 2 2 d 2 1 d 2 2 d 2 1 d 2 2 d 1 1 d 2 2 d 2 2 d 2 1 d 2 2 d 2 1 d 2 2 d 2 2 d 2 1
 d 2 2 d 1 1 d 2 2 d 2 2 d 2 1 d 2 2 d 2 1 d 2 2 d 2 2 d 2 1 d 1 2 d 2 2 d 2 1 d 2 2 d 2 1 d s 1305 659 m 2 2 d 2 2 d 2 1 d 2 2 d 1 2 d 2 1 d 2 2 d 2 2 d 2 1 d 2 2 d 2 2 d 2 1 d 2 2 d 2 2 d 1 1 d 2 2 d 2 2 d 2 2 d 2 1 d 2 2 d 2 2 d 2 1 d 2 2 d 1 2 d
 2 2 d 2 1 d 2 2 d 2 2 d 2 1 d 2 2 d 2 2 d 2 2 d 2 1 d 1 2 d 2 2 d 2 2 d 2 1 d 2 2 d 2 2 d 2 2 d 2 1 d 2 2 d 1 2 d 2 2 d 2 2 d 2 1 d 2 2 d 2 2 d 2 2 d s 1398 744 m 2 2 d 2 1 d 1 2 d 2 2 d 2 2 d 2 2 d 2 1 d 2 2 d 2 2 d 2 2 d 2 2 d 2 1 d 1 2 d 2 2 d 2
 2 d 2 2 d 2 2 d 2 2 d 2 1 d 2 2 d 2 2 d 1 2 d 2 2 d 2 2 d 2 2 d 2 1 d 2 2 d 2 2 d 2 2 d 2 2 d 2 2 d 1 2 d 2 2 d 2 1 d 2 2 d 2 2 d 2 2 d 2 2 d 2 2 d 2 2 d 1 2 d 2 2 d 2 2 d 2 2 d 2 2 d 2 1 d 2 2 d 2 2 d 2 2 d s 1491 835 m 1 2 d 2 2 d 2 2 d 2 2 d 2 2
 d 2 2 d 2 2 d 2 2 d 2 2 d 2 2 d 1 2 d 2 2 d 2 2 d 2 2 d 2 2 d 2 2 d 2 2 d 2 2 d 2 2 d 1 2 d 2 2 d 2 2 d 2 2 d 2 2 d 2 2 d 2 2 d 2 2 d 2 2 d 2 2 d 1 2 d 2 2 d 2 2 d 2 2 d 2 2 d 2 2 d 2 2 d 2 2 d 2 2 d 1 2 d 2 2 d 2 3 d 2 2 d 2 2 d 2 2 d 2 2 d 2 2 d 2
 2 d 1 2 d 2 2 d s 1583 934 m 2 2 d 2 2 d 2 3 d 2 2 d 2 2 d 2 2 d 2 2 d 2 2 d 1 2 d 2 2 d 2 2 d 2 3 d 2 2 d 2 2 d 2 2 d 2 2 d 2 2 d 1 2 d 2 3 d 2 2 d 2 2 d 2 2 d 2 2 d 2 2 d 2 2 d 2 3 d 2 2 d 1 2 d 2 2 d 2 2 d 2 3 d 2 2 d 2 2 d 2 2 d 2 2 d 2 3 d 1 2
 d 2 2 d 2 2 d 2 2 d 2 3 d 2 2 d 2 2 d 2 2 d 2 2 d 1 3 d 2 2 d 2 2 d 2 2 d s 1676 1040 m 2 3 d 2 2 d 2 2 d 2 2 d 2 3 d 2 2 d 1 2 d 2 2 d 2 3 d 2 2 d 2 2 d 2 3 d 2 2 d 2 2 d 2 2 d 1 3 d 2 2 d 2 2 d 2 3 d 2 2 d 2 2 d 2 2 d 2 3 d 2 2 d 2 2 d 1 3 d 2 2 d
 2 2 d 2 3 d 2 2 d 2 2 d 2 3 d 2 2 d 2 2 d 1 3 d 2 2 d 2 2 d 2 3 d 2 2 d 2 3 d 2 2 d 2 2 d 2 3 d 1 2 d 2 2 d 2 3 d 2 2 d 2 3 d 2 2 d s 1769 1154 m 2 2 d 2 3 d 2 2 d 2 3 d 1 2 d 2 2 d 2 3 d 2 2 d 2 3 d 2 2 d 2 2 d 2 3 d 2 2 d 1 3 d 2 2 d 2 3 d 2 2 d 2
 3 d 2 2 d 2 2 d 2 3 d 2 2 d 2 3 d 1 2 d 2 3 d 2 2 d 2 3 d 2 2 d 2 3 d 2 2 d 2 3 d 2 2 d 1 3 d 2 2 d 2 3 d 2 2 d 2 3 d 2 2 d 2 3 d 2 2 d 2 3 d 1 2 d 2 3 d 2 2 d 2 3 d 2 2 d 2 3 d 2 2 d 2 3 d s 1862 1275 m 2 2 d 2 3 d 1 2 d 2 3 d 2 3 d 2 2 d 2 3 d 2 2
 d 2 3 d 2 2 d 2 3 d 1 3 d 2 2 d 2 3 d 2 2 d 2 3 d 2 2 d 2 3 d 2 3 d 2 2 d 1 3 d 2 2 d 2 3 d 2 3 d 2 2 d 2 3 d 2 3 d 2 2 d 2 3 d 2 2 d 1 3 d 2 3 d 2 2 d 2 3 d 2 3 d 2 2 d 2 3 d 2 3 d 2 2 d 1 3 d 2 3 d 2 2 d 2 3 d 2 3 d 2 2 d 2 3 d 2 3 d 2 2 d 2 3 d s
 1955 1403 m 1 3 d 2 2 d 2 3 d 2 3 d 2 2 d 2 3 d 2 3 d 2 3 d 2 2 d 1 3 d 2 3 d 2 3 d 2 2 d 2 3 d 2 3 d 2 2 d 2 3 d 2 3 d 1 3 d 2 2 d 2 3 d 2 3 d 2 3 d 2 2 d 2 3 d 2 3 d 2 3 d 2 3 d 1 2 d 2 3 d 2 3 d 2 3 d 2 2 d 2 3 d 2 3 d 2 3 d 2 3 d 1 2 d 2 3 d 2 3
 d 2 3 d 2 3 d 2 3 d 2 2 d 2 3 d 2 3 d 2 3 d 1 3 d 2 3 d s 2047 1539 m 2 2 d 2 3 d 2 3 d 2 3 d 2 3 d 2 3 d 2 2 d 1 3 d 2 3 d 2 3 d 2 3 d 2 3 d 2 3 d 2 3 d 2 2 d 2 3 d 1 3 d 2 3 d 2 3 d 2 3 d 2 3 d 2 3 d 2 3 d 2 3 d 2 2 d 2 3 d 1 3 d 2 3 d 2 3 d 2 3 d
 2 3 d 2 3 d 2 3 d 2 3 d 2 3 d 1 3 d 2 3 d 2 3 d 2 3 d 2 3 d 2 3 d 2 2 d 2 3 d 2 3 d 2 3 d 1 3 d 2 3 d 2 3 d 2 3 d s 2140 1681 m 2 3 d 2 3 d 2 3 d 2 3 d 2 3 d 1 2 d s
 gsave  2268 1769 0 0 C 1481.07 857.175 t 46 r /Helvetica findfont 62.3893 sf 0 0 m ( = 3.00 ) show NC gr 
 gsave  2268 1769 0 0 C 1453.94 830.049 t 46 r /Symbol findfont 62.3893 sf 0 0 m (G) show NC gr  0.95 0.95 0.95 c black 284 216 m 33 X 1 1 d 18 X 1 1 d 14 X 2 1 d 9 X 2 1 d 8 X 1 1 d 4 X s 377 221 m 4 X 2 1 d 6 X 1 1 d 6 X 2 1 d 6 X 2 1 d 3 X 2 1 d 6
 X 2 1 d 4 X 2 1 d 3 X 2 1 d 4 X 2 1 d 4 X 2 1 d 3 X 2 1 d 2 X 2 1 d 4 X 2 1 d 2 X 2 1 d 3 X 2 1 d 2 X 2 1 d s 470 237 m 4 X 2 1 d 2 X 1 1 d 2 X 2 1 d 2 X 2 1 d 4 X 2 1 d 2 X 1 1 d 2 X 2 1 d 2 X 2 1 d 2 X 2 1 d 2 X 2 1 d 2 X 1 1 d 2 X 2 1 d 2 1 d 2 X
 2 1 d 2 X 2 1 d 2 X 1 1 d 2 X 2 1 d 2 1 d 2 X 2 1 d 2 X 2 1 d 2 X 2 1 d 1 1 d 2 X 2 1 d 2 1 d 2 X 2 1 d 2 X s 563 262 m 2 1 d 2 1 d 1 X 2 1 d 2 1 d 2 X 2 1 d 2 1 d 2 X 2 1 d 2 1 d 1 X 2 1 d 2 1 d 2 X 2 1 d 2 1 d 2 X 2 1 d 2 1 d 2 1 d 1 X 2 1 d 2 1 d
 2 1 d 2 X 2 1 d 2 1 d 2 1 d 2 X 1 1 d 2 1 d 2 1 d 2 X 2 1 d 2 1 d 2 1 d 2 1 d 2 X 2 1 d 1 1 d 2 1 d 2 1 d 2 X 2 1 d 2 1 d 2 1 d 2 1 d 2 1 d s 656 299 m 1 X 2 1 d 2 1 d 2 1 d 2 1 d 2 1 d 2 1 d 2 X 2 1 d 1 1 d 2 1 d 2 1 d 2 1 d 2 1 d 2 1 d 2 1 d 2 X 2
 1 d 2 1 d 1 1 d 2 1 d 2 1 d 2 1 d 2 1 d 2 1 d 2 1 d 2 1 d 2 1 d 1 1 d 2 1 d 2 1 d 2 1 d 2 1 d 2 1 d 2 1 d 2 1 d 2 1 d 2 1 d 1 1 d 2 1 d 2 1 d 2 1 d 2 1 d 2 1 d 2 1 d 2 1 d 2 1 d 1 1 d 2 1 d s 748 345 m 2 1 d 2 1 d 2 1 d 2 1 d 2 1 d 2 1 d 2 1 d 1 2 d
 2 1 d 2 1 d 2 1 d 2 1 d 2 1 d 2 1 d 2 1 d 2 1 d 2 1 d 1 2 d 2 1 d 2 1 d 2 1 d 2 1 d 2 1 d 2 1 d 2 2 d 2 1 d 1 1 d 2 1 d 2 1 d 2 1 d 2 2 d 2 1 d 2 1 d 2 1 d 2 1 d 1 2 d 2 1 d 2 1 d 2 1 d 2 2 d 2 1 d 2 1 d 2 1 d 2 1 d 2 2 d 1 1 d 2 1 d 2 1 d 2 2 d s
 841 402 m 2 1 d 2 1 d 2 2 d 2 1 d 2 1 d 1 1 d 2 2 d 2 1 d 2 1 d 2 2 d 2 1 d 2 1 d 2 1 d 2 2 d 2 1 d 1 1 d 2 2 d 2 1 d 2 1 d 2 2 d 2 1 d 2 2 d 2 1 d 2 1 d 1 2 d 2 1 d 2 1 d 2 2 d 2 1 d 2 2 d 2 1 d 2 1 d 2 2 d 1 1 d 2 2 d 2 1 d 2 1 d 2 2 d 2 1 d 2 2 d
 2 1 d 2 2 d 2 1 d 1 1 d 2 2 d 2 1 d 2 2 d 2 1 d 2 2 d s 934 469 m 2 1 d 2 2 d 2 1 d 1 2 d 2 1 d 2 2 d 2 1 d 2 2 d 2 1 d 2 2 d 2 1 d 2 2 d 2 1 d 1 2 d 2 1 d 2 2 d 2 1 d 2 2 d 2 1 d 2 2 d 2 2 d 2 1 d 1 2 d 2 1 d 2 2 d 2 1 d 2 2 d 2 2 d 2 1 d 2 2 d 2 1
 d 1 2 d 2 2 d 2 1 d 2 2 d 2 2 d 2 1 d 2 2 d 2 1 d 2 2 d 2 2 d 1 1 d 2 2 d 2 2 d 2 1 d 2 2 d 2 2 d 2 1 d 2 2 d s 1027 546 m 2 2 d 1 1 d 2 2 d 2 2 d 2 1 d 2 2 d 2 2 d 2 2 d 2 1 d 2 2 d 2 2 d 1 2 d 2 1 d 2 2 d 2 2 d 2 1 d 2 2 d 2 2 d 2 2 d 2 2 d 1 1 d
 2 2 d 2 2 d 2 2 d 2 1 d 2 2 d 2 2 d 2 2 d 2 2 d 1 1 d 2 2 d 2 2 d 2 2 d 2 2 d 2 2 d 2 1 d 2 2 d 2 2 d 2 2 d 1 2 d 2 2 d 2 1 d 2 2 d 2 2 d 2 2 d 2 2 d 2 2 d 2 2 d 1 2 d s 1119 634 m 2 2 d 2 1 d 2 2 d 2 2 d 2 2 d 2 2 d 2 2 d 2 2 d 2 2 d 1 2 d 2 2 d 2
 2 d 2 2 d 2 2 d 2 2 d 2 1 d 2 2 d 2 2 d 1 2 d 2 2 d 2 2 d 2 2 d 2 2 d 2 2 d 2 2 d 2 2 d 2 2 d 1 2 d 2 2 d 2 2 d 2 2 d 2 2 d 2 2 d 2 2 d 2 3 d 2 2 d 2 2 d 1 2 d 2 2 d 2 2 d 2 2 d 2 2 d 2 2 d 2 2 d 2 2 d 2 2 d 1 2 d 2 2 d 2 3 d s 1212 732 m 2 2 d 2 2
 d 2 2 d 2 2 d 2 2 d 2 2 d 2 2 d 1 2 d 2 3 d 2 2 d 2 2 d 2 2 d 2 2 d 2 2 d 2 3 d 2 2 d 1 2 d 2 2 d 2 2 d 2 2 d 2 3 d 2 2 d 2 2 d 2 2 d 2 2 d 1 3 d 2 2 d 2 2 d 2 2 d 2 3 d 2 2 d 2 2 d 2 2 d 2 3 d 2 2 d 1 2 d 2 2 d 2 3 d 2 2 d 2 2 d 2 2 d 2 3 d 2 2 d 2
 2 d 1 3 d 2 2 d 2 2 d 2 2 d 2 3 d s 1305 840 m 2 2 d 2 2 d 2 3 d 2 2 d 1 2 d 2 3 d 2 2 d 2 2 d 2 3 d 2 2 d 2 2 d 2 3 d 2 2 d 2 3 d 1 2 d 2 2 d 2 3 d 2 2 d 2 2 d 2 3 d 2 2 d 2 3 d 2 2 d 1 2 d 2 3 d 2 2 d 2 3 d 2 2 d 2 3 d 2 2 d 2 2 d 2 3 d 2 2 d 1 3
 d 2 2 d 2 3 d 2 2 d 2 3 d 2 2 d 2 3 d 2 2 d 2 3 d 1 2 d 2 3 d 2 2 d 2 3 d 2 2 d 2 3 d 2 2 d s 1398 958 m 2 3 d 2 2 d 1 3 d 2 2 d 2 3 d 2 2 d 2 3 d 2 3 d 2 2 d 2 3 d 2 2 d 2 3 d 1 2 d 2 3 d 2 3 d 2 2 d 2 3 d 2 2 d 2 3 d 2 3 d 2 2 d 1 3 d 2 2 d 2 3 d
 2 3 d 2 2 d 2 3 d 2 3 d 2 2 d 2 3 d 2 2 d 1 3 d 2 3 d 2 2 d 2 3 d 2 3 d 2 3 d 2 2 d 2 3 d 2 3 d 1 2 d 2 3 d 2 3 d 2 2 d 2 3 d 2 3 d 2 3 d 2 2 d 2 3 d s 1491 1087 m 1 3 d 2 2 d 2 3 d 2 3 d 2 3 d 2 2 d 2 3 d 2 3 d 2 3 d 2 3 d 1 2 d 2 3 d 2 3 d 2 3 d 2
 2 d 2 3 d 2 3 d 2 3 d 2 3 d 1 3 d 2 2 d 2 3 d 2 3 d 2 3 d 2 3 d 2 3 d 2 2 d 2 3 d 2 3 d 1 3 d 2 3 d 2 3 d 2 3 d 2 2 d 2 3 d 2 3 d 2 3 d 2 3 d 1 3 d 2 3 d 2 3 d 2 3 d 2 2 d 2 3 d 2 3 d 2 3 d 2 3 d 1 3 d 2 3 d s 1583 1226 m 2 3 d 2 3 d 2 3 d 2 3 d 2 3
 d 2 3 d 2 3 d 2 3 d 1 3 d 2 3 d 2 3 d 2 3 d 2 3 d 2 3 d 2 3 d 2 3 d 2 3 d 1 3 d 2 3 d 2 3 d 2 3 d 2 3 d 2 3 d 2 3 d 2 3 d 2 3 d 2 3 d 1 3 d 2 3 d 2 3 d 2 3 d 2 3 d 2 4 d 2 3 d 2 3 d 2 3 d 1 3 d 2 3 d 2 3 d 2 3 d 2 3 d 2 3 d 2 4 d 2 3 d 2 3 d 1 3 d 2
 3 d 2 3 d 2 3 d s 1676 1375 m 2 4 d 2 3 d 2 3 d 2 3 d 2 3 d 2 3 d 1 4 d 2 3 d 2 3 d 2 3 d 2 3 d 2 4 d 2 3 d 2 3 d 2 3 d 1 3 d 2 4 d 2 3 d 2 3 d 2 3 d 2 4 d 2 3 d 2 3 d 2 3 d 2 4 d 1 3 d 2 3 d 2 3 d 2 4 d 2 3 d 2 3 d 2 4 d 2 3 d 2 3 d 1 3 d 2 4 d 2 3
 d 2 3 d 2 4 d 2 3 d 2 3 d 2 4 d 2 3 d 1 3 d 2 4 d 2 3 d 2 3 d 2 4 d 2 3 d s 1769 1535 m 2 3 d 2 4 d 2 3 d 2 4 d 1 3 d 2 3 d 2 4 d 2 3 d 2 4 d 2 3 d 2 3 d 2 4 d 2 3 d 1 4 d 2 3 d 2 3 d 2 4 d 2 3 d 2 4 d 2 3 d 2 4 d 2 3 d 2 4 d 1 3 d 2 4 d 2 3 d 2 3 d
 2 4 d 2 3 d 2 4 d 2 3 d 2 4 d 1 3 d 2 4 d 2 3 d 2 4 d 2 3 d 2 4 d 2 4 d 2 3 d 2 4 d 1 3 d 2 4 d 2 3 d 2 4 d 2 3 d 2 4 d s
 gsave  2268 1769 0 0 C 1505.48 1114.87 t 64 r /Helvetica findfont 62.3893 sf 0 0 m ( = 3.25 ) show NC gr 
 gsave  2268 1769 0 0 C 1489.21 1079.61 t 64 r /Symbol findfont 62.3893 sf 0 0 m (G) show NC gr 
 gr  gr showpage
end
%%EOF
