%!PS-Adobe-2.0 EPSF-2.0
%%BoundingBox:  0 0 567 442
%%Title: energy_redistribution.eps: energy_redistribution
%%Creator: ROOT Version 5.34/14
%%CreationDate: Sun May 25 15:22:05 2014
%%EndComments
%%BeginProlog
80 dict begin
/s {stroke} def /l {lineto} def /m {moveto} def /t {translate} def
/r {rotate} def /rl {roll}  def /R {repeat} def
/d {rlineto} def /rm {rmoveto} def /gr {grestore} def /f {eofill} def
/c {setrgbcolor} def /black {0 setgray} def /sd {setdash} def
/cl {closepath} def /sf {scalefont setfont} def /lw {setlinewidth} def
/box {m dup 0 exch d exch 0 d 0 exch neg d cl} def
/NC{systemdict begin initclip end}def/C{NC box clip newpath}def
/bl {box s} def /bf {box f} def /Y { 0 exch d} def /X { 0 d} def 
/K {{pop pop 0 moveto} exch kshow} bind def
/ita {/ang 15 def gsave [1 0 ang dup sin exch cos div 1 0 0] concat} def 
/mp {newpath /y exch def /x exch def} def
/side {[w .77 mul w .23 mul] .385 w mul sd w 0 l currentpoint t -144 r} def
/mr {mp x y w2 0 360 arc} def /m24 {mr s} def /m20 {mr f} def
/mb {mp x y w2 add m w2 neg 0 d 0 w neg d w 0 d 0 w d cl} def
/mt {mp x y w2 add m w2 neg w neg d w 0 d cl} def
/m21 {mb f} def /m25 {mb s} def /m22 {mt f} def /m26{mt s} def
/m23 {mp x y w2 sub m w2 w d w neg 0 d cl f} def
/m27 {mp x y w2 add m w3 neg w2 neg d w3 w2 neg d w3 w2 d cl s} def
/m28 {mp x w2 sub y w2 sub w3 add m w3 0 d  0 w3 neg d w3 0 d 0 w3 d w3 0 d  0 w3 d w3 neg 0 d 0 w3 d w3 neg 0 d 0 w3 neg d w3 neg 0 d cl s } def
/m29 {mp gsave x w2 sub y w2 add w3 sub m currentpoint t 4 {side} repeat cl fill gr} def
/m30 {mp gsave x w2 sub y w2 add w3 sub m currentpoint t 4 {side} repeat cl s gr} def
/m31 {mp x y w2 sub m 0 w d x w2 sub y m w 0 d x w2 sub y w2 add m w w neg d x w2 sub y w2 sub m w w d s} def
/m32 {mp x y w2 sub m w2 w d w neg 0 d cl s} def
/m33 {mp x y w2 add m w3 neg w2 neg d w3 w2 neg d w3 w2 d cl f} def
/m34 {mp x w2 sub y w2 sub w3 add m w3 0 d  0 w3 neg d w3 0 d 0 w3 d w3 0 d  0 w3 d w3 neg 0 d 0 w3 d w3 neg 0 d 0 w3 neg d w3 neg 0 d cl f } def
/m2 {mp x y w2 sub m 0 w d x w2 sub y m w 0 d s} def
/m5 {mp x w2 sub y w2 sub m w w d x w2 sub y w2 add m w w neg d s} def
/reEncode {exch findfont dup length dict begin {1 index /FID eq  {pop pop} {def} ifelse } forall /Encoding exch def currentdict end dup /FontName get exch definefont pop } def [/Times-Bold /Times-Italic /Times-BoldItalic /Helvetica /Helvetica-Oblique
 /Helvetica-Bold /Helvetica-BoldOblique /Courier /Courier-Oblique /Courier-Bold /Courier-BoldOblique /Times-Roman /AvantGarde-Book /AvantGarde-BookOblique /AvantGarde-Demi /AvantGarde-DemiOblique /Bookman-Demi /Bookman-DemiItalic /Bookman-Light
 /Bookman-LightItalic /Helvetica-Narrow /Helvetica-Narrow-Bold /Helvetica-Narrow-BoldOblique /Helvetica-Narrow-Oblique /NewCenturySchlbk-Roman /NewCenturySchlbk-Bold /NewCenturySchlbk-BoldItalic /NewCenturySchlbk-Italic /Palatino-Bold
 /Palatino-BoldItalic /Palatino-Italic /Palatino-Roman ] {ISOLatin1Encoding reEncode } forall
%%EndProlog
%%BeginSetup
%%EndSetup
newpath  gsave  .25 .25 scale  gsave  0 0 t black[  ] 0 sd 6 lw 1 1 1 c 2268 1769 0 0 bf black 3 lw 1 1 1 c 1894 1482 283 216 bf black 1894 1482 283 216 bl 1 1 1 c 1894 1482 283 216 bf black 1894 1482 283 216 bl 6 lw 283 216 m 1894 X s 0.6 0.6 0.6 c[
 12 12] 0 sd 3 lw 283 1698 m -1482 Y s 599 1698 m -1482 Y s 915 1698 m -1482 Y s 1230 1698 m -1482 Y s 1546 1698 m -1482 Y s 1861 1698 m -1482 Y s 2177 1698 m -1482 Y s black[  ] 0 sd 6 lw 283 1698 m 1894 X s 283 216 m 1482 Y s 0.6 0.6 0.6 c[ 12 12]
 0 sd 3 lw 2177 216 m -1894 X s 2177 512 m -1894 X s 2177 809 m -1894 X s 2177 1105 m -1894 X s 2177 1401 m -1894 X s 2177 1698 m -1894 X s black[  ] 0 sd 6 lw 2177 216 m 1482 Y s 1 1 1 c black 283 1401 m 632 X -592 Y 631 X -475 Y 631 X s 283 216 m
 1894 X s
 gsave  2268 1769 0 0 C 1711.64 27.1258 t 0 r /Helvetica findfont 78.6648 sf 0 0 m (Energy [a. u.]) show NC gr  283 260 m -44 Y s 347 238 m -22 Y s 410 238 m -22 Y s 473 238 m -22 Y s 536 238 m -22 Y s 599 260 m -44 Y s 662 238 m -22 Y s 725 238 m
 -22 Y s 788 238 m -22 Y s 852 238 m -22 Y s 915 260 m -44 Y s 978 238 m -22 Y s 1041 238 m -22 Y s 1104 238 m -22 Y s 1167 238 m -22 Y s 1230 260 m -44 Y s 1293 238 m -22 Y s 1356 238 m -22 Y s 1420 238 m -22 Y s 1483 238 m -22 Y s 1546 260 m -44 Y
 s 1609 238 m -22 Y s 1672 238 m -22 Y s 1735 238 m -22 Y s 1798 238 m -22 Y s 1861 260 m -44 Y s 1925 238 m -22 Y s 1988 238 m -22 Y s 2051 238 m -22 Y s 2114 238 m -22 Y s 2177 260 m -44 Y s 283 1698 m 1894 X s 283 1654 m 44 Y s 347 1676 m 22 Y s
 410 1676 m 22 Y s 473 1676 m 22 Y s 536 1676 m 22 Y s 599 1654 m 44 Y s 662 1676 m 22 Y s 725 1676 m 22 Y s 788 1676 m 22 Y s 852 1676 m 22 Y s 915 1654 m 44 Y s 978 1676 m 22 Y s 1041 1676 m 22 Y s 1104 1676 m 22 Y s 1167 1676 m 22 Y s 1230 1654 m
 44 Y s 1293 1676 m 22 Y s 1356 1676 m 22 Y s 1420 1676 m 22 Y s 1483 1676 m 22 Y s 1546 1654 m 44 Y s 1609 1676 m 22 Y s 1672 1676 m 22 Y s 1735 1676 m 22 Y s 1798 1676 m 22 Y s 1861 1654 m 44 Y s 1925 1676 m 22 Y s 1988 1676 m 22 Y s 2051 1676 m 22
 Y s 2114 1676 m 22 Y s 2177 1654 m 44 Y s 283 216 m 1482 Y s
 gsave  2268 1769 0 0 C 92.2277 1326.45 t 90 r /Helvetica findfont 78.6648 sf 0 0 m (Counts/bin) show NC gr  340 216 m -57 X s 312 275 m -29 X s 312 334 m -29 X s 312 394 m -29 X s 312 453 m -29 X s 340 512 m -57 X s 312 571 m -29 X s 312 631 m -29 X
 s 312 690 m -29 X s 312 749 m -29 X s 340 809 m -57 X s 312 868 m -29 X s 312 927 m -29 X s 312 986 m -29 X s 312 1046 m -29 X s 340 1105 m -57 X s 312 1164 m -29 X s 312 1224 m -29 X s 312 1283 m -29 X s 312 1342 m -29 X s 340 1401 m -57 X s 312
 1461 m -29 X s 312 1520 m -29 X s 312 1579 m -29 X s 312 1639 m -29 X s 340 1698 m -57 X s 2177 216 m 1482 Y s 2120 216 m 57 X s 2149 275 m 28 X s 2149 334 m 28 X s 2149 394 m 28 X s 2149 453 m 28 X s 2120 512 m 57 X s 2149 571 m 28 X s 2149 631 m
 28 X s 2149 690 m 28 X s 2149 749 m 28 X s 2120 809 m 57 X s 2149 868 m 28 X s 2149 927 m 28 X s 2149 986 m 28 X s 2149 1046 m 28 X s 2120 1105 m 57 X s 2149 1164 m 28 X s 2149 1224 m 28 X s 2149 1283 m 28 X s 2149 1342 m 28 X s 2120 1401 m 57 X s
 2149 1461 m 28 X s 2149 1520 m 28 X s 2149 1579 m 28 X s 2149 1639 m 28 X s 2120 1698 m 57 X s 0.8 0.8 0.8 c 0.95 0.95 0.95 c black 0.8 0.8 0.8 c 284 222 m 2 1 d 14 X 1 1 d 12 X 2 1 d 9 X 2 1 d 10 X 1 1 d 8 X 2 1 d 7 X 2 1 d 8 X 2 1 d 6 X 1 1 d 4 X
 s 377 231 m 2 X 2 1 d 6 X 2 1 d 3 X 2 1 d 6 X 2 1 d 4 X 1 1 d 4 X 2 1 d 4 X 2 1 d 4 X 2 1 d 3 X 2 1 d 4 X 2 1 d 4 X 2 1 d 1 X 2 1 d 4 X 2 1 d 2 X 2 1 d 2 X 2 1 d 3 X 2 1 d 2 X 2 1 d 2 X s 470 248 m 2 1 d 2 X 2 1 d 2 X 1 1 d 2 X 2 1 d 2 X 2 1 d 2 X 2
 1 d 2 X 2 1 d 1 X 2 1 d 2 1 d 2 X 2 1 d 2 X 2 1 d 2 1 d 2 X 2 1 d 1 X 2 1 d 2 1 d 2 X 2 1 d 2 1 d 2 X 2 1 d 2 1 d 1 X 2 1 d 2 1 d 2 X 2 1 d 2 1 d 2 X 2 1 d 2 1 d 2 1 d 1 X 2 1 d 2 1 d 2 1 d 2 1 d 2 X 2 1 d s 563 279 m 2 1 d 2 1 d 1 1 d 2 X 2 1 d 2 1
 d 2 1 d 2 1 d 2 1 d 2 1 d 2 X 1 1 d 2 1 d 2 1 d 2 1 d 2 1 d 2 1 d 2 1 d 2 1 d 2 1 d 2 1 d 1 1 d 2 1 d 2 1 d 2 1 d 2 1 d 2 1 d 2 1 d 2 1 d 2 1 d 1 1 d 2 1 d 2 1 d 2 1 d 2 1 d 2 1 d 2 2 d 2 1 d 2 1 d 2 1 d 1 1 d 2 1 d 2 1 d 2 2 d 2 1 d 2 1 d 2 1 d 2 1
 d 2 2 d s 656 329 m 1 1 d 2 1 d 2 1 d 2 2 d 2 1 d 2 1 d 2 2 d 2 1 d 2 1 d 1 2 d 2 1 d 2 1 d 2 2 d 2 1 d 2 1 d 2 2 d 2 1 d 2 1 d 2 2 d 1 1 d 2 2 d 2 1 d 2 2 d 2 1 d 2 2 d 2 1 d 2 1 d 2 2 d 1 1 d 2 2 d 2 2 d 2 1 d 2 2 d 2 1 d 2 2 d 2 1 d 2 2 d 2 1 d 1
 2 d 2 2 d 2 1 d 2 2 d 2 2 d 2 1 d 2 2 d 2 1 d 2 2 d 1 2 d 2 2 d s 748 401 m 2 1 d 2 2 d 2 2 d 2 1 d 2 2 d 2 2 d 2 2 d 1 1 d 2 2 d 2 2 d 2 2 d 2 1 d 2 2 d 2 2 d 2 2 d 2 2 d 2 2 d 1 1 d 2 2 d 2 2 d 2 2 d 2 2 d 2 2 d 2 2 d 2 1 d 2 2 d 1 2 d 2 2 d 2 2 d
 2 2 d 2 2 d 2 2 d 2 2 d 2 2 d 2 2 d 1 2 d 2 2 d 2 2 d 2 2 d 2 2 d 2 2 d 2 2 d 2 2 d 2 2 d 2 2 d 1 2 d 2 2 d 2 2 d 2 2 d s 841 493 m 2 2 d 2 2 d 2 2 d 2 2 d 2 2 d 1 2 d 2 2 d 2 3 d 2 2 d 2 2 d 2 2 d 2 2 d 2 2 d 2 2 d 2 2 d 1 2 d 2 2 d 2 3 d 2 2 d 2 2
 d 2 2 d 2 2 d 2 2 d 2 2 d 1 3 d 2 2 d 2 2 d 2 2 d 2 2 d 2 2 d 2 2 d 2 3 d 2 2 d 1 2 d 2 2 d 2 2 d 2 2 d 2 3 d 2 2 d 2 2 d 2 2 d 2 2 d 2 2 d 1 2 d 2 3 d 2 2 d 2 2 d 2 2 d 2 2 d s 934 597 m 2 2 d 2 3 d 2 2 d 1 2 d 2 2 d 2 2 d 2 2 d 2 2 d 2 3 d 2 2 d 2
 2 d 2 2 d 2 2 d 1 2 d 2 2 d 2 2 d 2 2 d 2 3 d 2 2 d 2 2 d 2 2 d 2 2 d 1 2 d 2 2 d 2 2 d 2 2 d 2 2 d 2 2 d 2 2 d 2 2 d 2 2 d 1 2 d 2 2 d 2 2 d 2 2 d 2 2 d 2 2 d 2 2 d 2 2 d 2 2 d 2 2 d 1 2 d 2 2 d 2 2 d 2 2 d 2 2 d 2 2 d 2 1 d 2 2 d s 1027 697 m 2 2
 d 1 2 d 2 2 d 2 2 d 2 1 d 2 2 d 2 2 d 2 2 d 2 2 d 2 1 d 2 2 d 1 2 d 2 2 d 2 1 d 2 2 d 2 2 d 2 1 d 2 2 d 2 2 d 2 1 d 1 2 d 2 2 d 2 1 d 2 2 d 2 1 d 2 2 d 2 1 d 2 2 d 2 1 d 1 2 d 2 1 d 2 2 d 2 1 d 2 2 d 2 1 d 2 1 d 2 2 d 2 1 d 2 2 d 1 1 d 2 1 d 2 2 d 2
 1 d 2 1 d 2 1 d 2 2 d 2 1 d 2 1 d 1 1 d s 1119 773 m 2 1 d 2 2 d 2 1 d 2 1 d 2 1 d 2 1 d 2 1 d 2 1 d 2 1 d 1 1 d 2 1 d 2 1 d 2 1 d 2 1 d 2 1 d 2 1 d 2 1 d 2 X 1 1 d 2 1 d 2 1 d 2 1 d 2 X 2 1 d 2 1 d 2 X 2 1 d 1 1 d 2 X 2 1 d 2 1 d 2 X 2 1 d 2 X 2 1
 d 2 X 2 1 d 1 X 2 1 d 4 X 2 1 d 4 X 2 1 d 5 X 2 1 d s 1212 808 m 12 X 2 1 d 9 X 2 -1 d 11 X 2 -1 d 6 X 2 -1 d 3 X 2 -1 d 4 X 2 -1 d 2 X 2 -1 d 2 X 2 -1 d 2 X 1 -1 d 2 X 2 -1 d 2 -1 d 2 X 2 -1 d 2 -1 d 2 X 2 -1 d 1 -1 d 2 X 2 -1 d 2 -1 d 2 -1 d s
 1305 792 m 2 -1 d 2 X 2 -1 d 2 -1 d 1 -1 d 2 -1 d 2 -1 d 2 -1 d 2 -1 d 2 -1 d 2 -1 d 2 -1 d 2 -1 d 2 -1 d 1 -1 d 2 -1 d 2 -1 d 2 -2 d 2 -1 d 2 -1 d 2 -1 d 2 -1 d 2 -2 d 1 -1 d 2 -1 d 2 -1 d 2 -2 d 2 -1 d 2 -1 d 2 -2 d 2 -1 d 2 -2 d 2 -1 d 1 -1 d 2
 -2 d 2 -1 d 2 -2 d 2 -1 d 2 -2 d 2 -1 d 2 -2 d 2 -1 d 1 -2 d 2 -1 d 2 -2 d 2 -1 d 2 -2 d 2 -2 d 2 -1 d s 1398 731 m 2 -2 d 2 -2 d 1 -1 d 2 -2 d 2 -2 d 2 -1 d 2 -2 d 2 -2 d 2 -2 d 2 -1 d 2 -2 d 2 -2 d 1 -2 d 2 -2 d 2 -1 d 2 -2 d 2 -2 d 2 -2 d 2 -2 d
 2 -2 d 2 -1 d 1 -2 d 2 -2 d 2 -2 d 2 -2 d 2 -2 d 2 -2 d 2 -2 d 2 -2 d 2 -2 d 2 -2 d 1 -2 d 2 -2 d 2 -2 d 2 -2 d 2 -2 d 2 -2 d 2 -2 d 2 -2 d 2 -2 d 1 -2 d 2 -2 d 2 -2 d 2 -2 d 2 -2 d 2 -2 d 2 -2 d 2 -2 d 2 -2 d s 1491 638 m 1 -2 d 2 -3 d 2 -2 d 2 -2
 d 2 -2 d 2 -2 d 2 -2 d 2 -2 d 2 -2 d 2 -2 d 1 -3 d 2 -2 d 2 -2 d 2 -2 d 2 -2 d 2 -2 d 2 -2 d 2 -3 d 2 -2 d 1 -2 d 2 -2 d 2 -2 d 2 -2 d 2 -3 d 2 -2 d 2 -2 d 2 -2 d 2 -2 d 2 -2 d 1 -2 d 2 -3 d 2 -2 d 2 -2 d 2 -2 d 2 -2 d 2 -2 d 2 -3 d 2 -2 d 1 -2 d 2
 -2 d 2 -2 d 2 -2 d 2 -2 d 2 -3 d 2 -2 d 2 -2 d 2 -2 d 1 -2 d 2 -2 d s 1583 533 m 2 -2 d 2 -3 d 2 -2 d 2 -2 d 2 -2 d 2 -2 d 2 -2 d 2 -2 d 1 -2 d 2 -2 d 2 -2 d 2 -3 d 2 -2 d 2 -2 d 2 -2 d 2 -2 d 2 -2 d 1 -2 d 2 -2 d 2 -2 d 2 -2 d 2 -2 d 2 -2 d 2 -2 d
 2 -2 d 2 -2 d 2 -2 d 1 -2 d 2 -2 d 2 -2 d 2 -2 d 2 -2 d 2 -2 d 2 -2 d 2 -2 d 2 -2 d 1 -2 d 2 -2 d 2 -2 d 2 -2 d 2 -2 d 2 -2 d 2 -2 d 2 -1 d 2 -2 d 1 -2 d 2 -2 d 2 -2 d 2 -2 d s 1676 434 m 2 -2 d 2 -1 d 2 -2 d 2 -2 d 2 -2 d 2 -2 d 1 -2 d 2 -1 d 2 -2
 d 2 -2 d 2 -2 d 2 -1 d 2 -2 d 2 -2 d 2 -2 d 1 -1 d 2 -2 d 2 -2 d 2 -1 d 2 -2 d 2 -2 d 2 -2 d 2 -1 d 2 -2 d 2 -1 d 1 -2 d 2 -2 d 2 -1 d 2 -2 d 2 -2 d 2 -1 d 2 -2 d 2 -1 d 2 -2 d 1 -1 d 2 -2 d 2 -1 d 2 -2 d 2 -2 d 2 -1 d 2 -2 d 2 -1 d 2 -1 d 1 -2 d 2
 -1 d 2 -2 d 2 -1 d 2 -2 d 2 -1 d s 1769 354 m 2 -2 d 2 -1 d 2 -1 d 2 -2 d 1 -1 d 2 -1 d 2 -2 d 2 -1 d 2 -1 d 2 -2 d 2 -1 d 2 -1 d 2 -2 d 1 -1 d 2 -1 d 2 -2 d 2 -1 d 2 -1 d 2 -1 d 2 -2 d 2 -1 d 2 -1 d 2 -1 d 1 -1 d 2 -2 d 2 -1 d 2 -1 d 2 -1 d 2 -1 d
 2 -1 d 2 -1 d 2 -2 d 1 -1 d 2 -1 d 2 -1 d 2 -1 d 2 -1 d 2 -1 d 2 -1 d 2 -1 d 2 -1 d 1 -1 d 2 -1 d 2 -1 d 2 -1 d 2 -1 d 2 -1 d 2 -1 d 2 -1 d s 1862 296 m 2 -1 d 2 -1 d 1 -1 d 2 -1 d 2 -1 d 2 -1 d 2 -1 d 2 -1 d 2 X 2 -1 d 2 -1 d 1 -1 d 2 -1 d 2 -1 d 2
 -1 d 2 X 2 -1 d 2 -1 d 2 -1 d 2 -1 d 1 X 2 -1 d 2 -1 d 2 -1 d 2 -1 d 2 X 2 -1 d 2 -1 d 2 -1 d 2 X 1 -1 d 2 -1 d 2 X 2 -1 d 2 -1 d 2 X 2 -1 d 2 -1 d 2 X 1 -1 d 2 -1 d 2 X 2 -1 d 2 -1 d 2 X 2 -1 d 2 X 2 -1 d 2 -1 d s 1955 258 m 1 X 2 -1 d 2 X 2 -1 d 2
 -1 d 2 X 2 -1 d 2 X 2 -1 d 1 X 2 -1 d 2 X 2 -1 d 2 X 2 -1 d 2 X 2 -1 d 2 X 1 -1 d 2 X 2 -1 d 2 X 2 -1 d 4 X 2 -1 d 2 X 2 -1 d 1 X 2 -1 d 4 X 2 -1 d 2 X 2 -1 d 4 X 1 -1 d 4 X 2 -1 d 4 X 2 -1 d 4 X 2 -1 d 3 X s 2047 237 m 2 -1 d 4 X 2 -1 d 4 X 2 -1 d
 5 X 2 -1 d 4 X 2 -1 d 5 X 2 -1 d 6 X 2 -1 d 6 X 2 -1 d 7 X 2 -1 d 8 X 1 -1 d 8 X 2 -1 d 9 X 2 -1 d 4 X s 2140 225 m 6 X 2 -1 d 11 X 2 -1 d 13 X 2 -1 d s black 1 1 1 c black 283 1401 m 632 X -592 Y 631 X -475 Y 631 X s[ 20 20] 0 sd 1 1 1 c black 283
 1496 m 632 X -877 Y 631 X -190 Y 631 X s
 gsave  2268 1769 0 0 C 545.229 111.216 t 0 r /Helvetica findfont 70.5271 sf 0 0 m (i \255 1) show NC gr 
 gsave  2268 1769 0 0 C 1223.37 111.216 t 0 r /Helvetica findfont 70.5271 sf 0 0 m (i) show NC gr 
 gsave  2268 1769 0 0 C 1798.44 111.216 t 0 r /Helvetica findfont 70.5271 sf 0 0 m (i + 1) show NC gr [  ] 0 sd 1230 1105 m -631 X s 631 1087 m -32 18 d 32 18 d s 1230 1105 m 631 X s 1830 1123 m 31 -18 d -31 -18 d s
 gsave  2268 1769 0 0 C 1331.88 973.816 t 0 r /Helvetica findfont 46.1139 sf 0 0 m (i) show NC gr 
 gsave  2268 1769 0 0 C 1114.87 995.517 t 0 r /Helvetica findfont 70.5271 sf 0 0 m (\2550.32 n) show NC gr 
 gsave  2268 1769 0 0 C 707.983 1144.71 t 0 r /Helvetica findfont 46.1139 sf 0 0 m (i) show NC gr 
 gsave  2268 1769 0 0 C 474.701 1166.41 t 0 r /Helvetica findfont 70.5271 sf 0 0 m (+0.16 n) show NC gr 
 gsave  2268 1769 0 0 C 1972.05 1144.71 t 0 r /Helvetica findfont 46.1139 sf 0 0 m (i) show NC gr 
 gsave  2268 1769 0 0 C 1738.76 1166.41 t 0 r /Helvetica findfont 70.5271 sf 0 0 m (+0.16 n) show NC gr 
 gr  gr showpage
end
%%EOF
