%!PS-Adobe-2.0 EPSF-2.0
%%BoundingBox:  0 0 567 442
%%Title: energy_spec.eps: energy_spec
%%Creator: ROOT Version 5.34/14
%%CreationDate: Sun May 25 15:22:05 2014
%%EndComments
%%BeginProlog
80 dict begin
/s {stroke} def /l {lineto} def /m {moveto} def /t {translate} def
/r {rotate} def /rl {roll}  def /R {repeat} def
/d {rlineto} def /rm {rmoveto} def /gr {grestore} def /f {eofill} def
/c {setrgbcolor} def /black {0 setgray} def /sd {setdash} def
/cl {closepath} def /sf {scalefont setfont} def /lw {setlinewidth} def
/box {m dup 0 exch d exch 0 d 0 exch neg d cl} def
/NC{systemdict begin initclip end}def/C{NC box clip newpath}def
/bl {box s} def /bf {box f} def /Y { 0 exch d} def /X { 0 d} def 
/K {{pop pop 0 moveto} exch kshow} bind def
/ita {/ang 15 def gsave [1 0 ang dup sin exch cos div 1 0 0] concat} def 
/mp {newpath /y exch def /x exch def} def
/side {[w .77 mul w .23 mul] .385 w mul sd w 0 l currentpoint t -144 r} def
/mr {mp x y w2 0 360 arc} def /m24 {mr s} def /m20 {mr f} def
/mb {mp x y w2 add m w2 neg 0 d 0 w neg d w 0 d 0 w d cl} def
/mt {mp x y w2 add m w2 neg w neg d w 0 d cl} def
/m21 {mb f} def /m25 {mb s} def /m22 {mt f} def /m26{mt s} def
/m23 {mp x y w2 sub m w2 w d w neg 0 d cl f} def
/m27 {mp x y w2 add m w3 neg w2 neg d w3 w2 neg d w3 w2 d cl s} def
/m28 {mp x w2 sub y w2 sub w3 add m w3 0 d  0 w3 neg d w3 0 d 0 w3 d w3 0 d  0 w3 d w3 neg 0 d 0 w3 d w3 neg 0 d 0 w3 neg d w3 neg 0 d cl s } def
/m29 {mp gsave x w2 sub y w2 add w3 sub m currentpoint t 4 {side} repeat cl fill gr} def
/m30 {mp gsave x w2 sub y w2 add w3 sub m currentpoint t 4 {side} repeat cl s gr} def
/m31 {mp x y w2 sub m 0 w d x w2 sub y m w 0 d x w2 sub y w2 add m w w neg d x w2 sub y w2 sub m w w d s} def
/m32 {mp x y w2 sub m w2 w d w neg 0 d cl s} def
/m33 {mp x y w2 add m w3 neg w2 neg d w3 w2 neg d w3 w2 d cl f} def
/m34 {mp x w2 sub y w2 sub w3 add m w3 0 d  0 w3 neg d w3 0 d 0 w3 d w3 0 d  0 w3 d w3 neg 0 d 0 w3 d w3 neg 0 d 0 w3 neg d w3 neg 0 d cl f } def
/m2 {mp x y w2 sub m 0 w d x w2 sub y m w 0 d s} def
/m5 {mp x w2 sub y w2 sub m w w d x w2 sub y w2 add m w w neg d s} def
/reEncode {exch findfont dup length dict begin {1 index /FID eq  {pop pop} {def} ifelse } forall /Encoding exch def currentdict end dup /FontName get exch definefont pop } def [/Times-Bold /Times-Italic /Times-BoldItalic /Helvetica /Helvetica-Oblique
 /Helvetica-Bold /Helvetica-BoldOblique /Courier /Courier-Oblique /Courier-Bold /Courier-BoldOblique /Times-Roman /AvantGarde-Book /AvantGarde-BookOblique /AvantGarde-Demi /AvantGarde-DemiOblique /Bookman-Demi /Bookman-DemiItalic /Bookman-Light
 /Bookman-LightItalic /Helvetica-Narrow /Helvetica-Narrow-Bold /Helvetica-Narrow-BoldOblique /Helvetica-Narrow-Oblique /NewCenturySchlbk-Roman /NewCenturySchlbk-Bold /NewCenturySchlbk-BoldItalic /NewCenturySchlbk-Italic /Palatino-Bold
 /Palatino-BoldItalic /Palatino-Italic /Palatino-Roman ] {ISOLatin1Encoding reEncode } forall
%%EndProlog
%%BeginSetup
%%EndSetup
newpath  gsave  .25 .25 scale  gsave  0 0 t black[  ] 0 sd 6 lw 1 1 1 c 2268 1769 0 0 bf black 1 1 1 c 2268 1062 0 707 bf black 3 lw 1 1 1 c 1894 957 283 741 bf black 1894 957 283 741 bl 1 1 1 c 1894 957 283 741 bf black 1894 957 283 741 bl 6 lw 283
 741 m 1894 X s 0.6 0.6 0.6 c[ 12 12] 0 sd 3 lw 358 1698 m -957 Y s 422 1698 m -957 Y s 477 1698 m -957 Y s 525 1698 m -957 Y s 568 1698 m -957 Y s 853 1698 m -957 Y s 1020 1698 m -957 Y s 1138 1698 m -957 Y s 1230 1698 m -957 Y s 1305 1698 m -957 Y
 s 1369 1698 m -957 Y s 1423 1698 m -957 Y s 1472 1698 m -957 Y s 1515 1698 m -957 Y s 1800 1698 m -957 Y s 1967 1698 m -957 Y s 2085 1698 m -957 Y s 2177 1698 m -957 Y s black[  ] 0 sd 6 lw 283 1698 m 1894 X s 283 741 m 957 Y s 0.6 0.6 0.6 c[ 12 12]
 0 sd 3 lw 2177 873 m -1894 X s 2177 1110 m -1894 X s 2177 1348 m -1894 X s 2177 1585 m -1894 X s black[  ] 0 sd 6 lw 2177 741 m 957 Y s 0.8 0.8 0.8 c 1 1 1 c black 0.8 0.8 0.8 c 283 741 m 891 Y 20 X -9 Y 19 X -8 Y 19 X -8 Y 19 X -9 Y 19 X -8 Y 19 X
 -8 Y 19 X -9 Y 19 X -8 Y 20 X -9 Y 19 X -8 Y 19 X -8 Y 19 X -9 Y 19 X -8 Y 19 X -8 Y 19 X -9 Y 19 X -9 Y 20 X -8 Y 19 X -8 Y 19 X -8 Y 19 X -9 Y 19 X -8 Y 19 X -8 Y 19 X -9 Y 20 X -9 Y 19 X -8 Y 19 X -8 Y 19 X -9 Y 19 X -8 Y 19 X -9 Y 19 X -8 Y 19 X
 -8 Y 20 X -8 Y 19 X -9 Y 19 X -8 Y 19 X -9 Y 19 X -7 Y 19 X -9 Y 19 X -9 Y 19 X -9 Y 20 X -9 Y 19 X -6 Y 19 X -9 Y 19 X -10 Y 19 X -8 Y 19 X -8 Y 19 X -8 Y 19 X -8 Y 20 X -8 Y 19 X -9 Y 19 X -9 Y 19 X -8 Y 19 X -9 Y 19 X -8 Y 19 X -9 Y 19 X -9 Y 20
 X -7 Y 19 X -9 Y 19 X -7 Y 19 X -10 Y 19 X -8 Y 19 X -9 Y 19 X -9 Y 19 X -8 Y 20 X -7 Y 19 X -9 Y 19 X -9 Y 19 X -8 Y 19 X -6 Y 19 X -11 Y 19 X -7 Y 19 X -8 Y 20 X -8 Y 19 X -10 Y 19 X -8 Y 19 X -8 Y 19 X -10 Y 19 X -5 Y 19 X -12 Y 19 X -12 Y 20 X
 -7 Y 19 X -8 Y 19 X 2 Y 19 X -18 Y 19 X -3 Y 19 X -14 Y 19 X -4 Y 19 X -10 Y 20 X -10 Y 19 X -6 Y 19 X -16 Y 19 X 2 Y 19 X -11 Y 19 X -9 Y 19 X -8 Y 20 X -11 Y 19 X -4 Y 19 X -13 Y 19 X -3 Y 19 X s black 283 741 m 1894 X s
 gsave  2268 1062 0 707 C 1706.21 621.181 t 0 r /Helvetica findfont 78.7051 sf 0 0 m (Energy [GeV]) show NC gr  358 755 m -14 Y s 422 755 m -14 Y s 477 755 m -14 Y s 525 755 m -14 Y s 568 768 m -27 Y s 853 755 m -14 Y s 1020 755 m -14 Y s 1138 755 m
 -14 Y s 1230 755 m -14 Y s 1305 755 m -14 Y s 1369 755 m -14 Y s 1423 755 m -14 Y s 1472 755 m -14 Y s 1515 768 m -27 Y s 1800 755 m -14 Y s 1967 755 m -14 Y s 2085 755 m -14 Y s 2177 755 m -14 Y s 283 1698 m 1894 X s 358 1685 m 13 Y s 422 1685 m 13
 Y s 477 1685 m 13 Y s 525 1685 m 13 Y s 568 1671 m 27 Y s 853 1685 m 13 Y s 1020 1685 m 13 Y s 1138 1685 m 13 Y s 1230 1685 m 13 Y s 1305 1685 m 13 Y s 1369 1685 m 13 Y s 1423 1685 m 13 Y s 1472 1685 m 13 Y s 1515 1671 m 27 Y s 1800 1685 m 13 Y s
 1967 1685 m 13 Y s 2085 1685 m 13 Y s 2177 1685 m 13 Y s 283 741 m 957 Y s
 gsave  2268 1062 0 707 C 92.2277 1481.07 t 90 r /Helvetica findfont 78.7051 sf 0 0 m (dN/dE) show NC gr  314 749 m -31 X s 314 779 m -31 X s 314 802 m -31 X s 314 820 m -31 X s 314 836 m -31 X s 314 850 m -31 X s 314 862 m -31 X s 345 873 m -62 X s
 gsave  2268 1062 0 707 C 233.282 873.451 t 0 r /Helvetica findfont 46.1374 sf 0 0 m (3) show NC gr 
 gsave  2268 1062 0 707 C 157.33 840.9 t 0 r /Helvetica findfont 70.5631 sf 0 0 m (10) show NC gr  314 944 m -31 X s 314 986 m -31 X s 314 1016 m -31 X s 314 1039 m -31 X s 314 1058 m -31 X s 314 1074 m -31 X s 314 1087 m -31 X s 314 1100 m -31 X s
 345 1110 m -62 X s
 gsave  2268 1062 0 707 C 233.282 1109.45 t 0 r /Helvetica findfont 46.1374 sf 0 0 m (4) show NC gr 
 gsave  2268 1062 0 707 C 157.33 1079.61 t 0 r /Helvetica findfont 70.5631 sf 0 0 m (10) show NC gr  314 1182 m -31 X s 314 1224 m -31 X s 314 1253 m -31 X s 314 1276 m -31 X s 314 1295 m -31 X s 314 1311 m -31 X s 314 1325 m -31 X s 314 1337 m -31 X
 s 345 1348 m -62 X s
 gsave  2268 1062 0 707 C 233.282 1348.15 t 0 r /Helvetica findfont 46.1374 sf 0 0 m (5) show NC gr 
 gsave  2268 1062 0 707 C 157.33 1315.6 t 0 r /Helvetica findfont 70.5631 sf 0 0 m (10) show NC gr  314 1419 m -31 X s 314 1461 m -31 X s 314 1491 m -31 X s 314 1514 m -31 X s 314 1533 m -31 X s 314 1548 m -31 X s 314 1562 m -31 X s 314 1574 m -31 X
 s 345 1585 m -62 X s
 gsave  2268 1062 0 707 C 233.282 1586.86 t 0 r /Helvetica findfont 46.1374 sf 0 0 m (6) show NC gr 
 gsave  2268 1062 0 707 C 157.33 1554.31 t 0 r /Helvetica findfont 70.5631 sf 0 0 m (10) show NC gr  314 1657 m -31 X s 2177 741 m 957 Y s 2146 749 m 31 X s 2146 779 m 31 X s 2146 802 m 31 X s 2146 820 m 31 X s 2146 836 m 31 X s 2146 850 m 31 X s
 2146 862 m 31 X s 2116 873 m 61 X s 2146 944 m 31 X s 2146 986 m 31 X s 2146 1016 m 31 X s 2146 1039 m 31 X s 2146 1058 m 31 X s 2146 1074 m 31 X s 2146 1087 m 31 X s 2146 1100 m 31 X s 2116 1110 m 61 X s 2146 1182 m 31 X s 2146 1224 m 31 X s 2146
 1253 m 31 X s 2146 1276 m 31 X s 2146 1295 m 31 X s 2146 1311 m 31 X s 2146 1325 m 31 X s 2146 1337 m 31 X s 2116 1348 m 61 X s 2146 1419 m 31 X s 2146 1461 m 31 X s 2146 1491 m 31 X s 2146 1514 m 31 X s 2146 1533 m 31 X s 2146 1548 m 31 X s 2146
 1562 m 31 X s 2146 1574 m 31 X s 2116 1585 m 61 X s 2146 1657 m 31 X s 1 1 1 c black 283 741 m 897 Y 20 X -8 Y 19 X -9 Y 19 X -8 Y 19 X -9 Y 19 X -8 Y 19 X -8 Y 19 X -9 Y 19 X -8 Y 20 X -9 Y 19 X -8 Y 19 X -8 Y 19 X -9 Y 19 X -8 Y 19 X -9 Y 19 X -8
 Y 19 X -8 Y 20 X -8 Y 19 X -9 Y 19 X -8 Y 19 X -9 Y 19 X -8 Y 19 X -9 Y 19 X -8 Y 20 X -8 Y 19 X -9 Y 19 X -8 Y 19 X -9 Y 19 X -9 Y 19 X -7 Y 19 X -9 Y 19 X -8 Y 20 X -9 Y 19 X -8 Y 19 X -8 Y 19 X -9 Y 19 X -8 Y 19 X -8 Y 19 X -9 Y 19 X -8 Y 20 X -9
 Y 19 X -8 Y 19 X -8 Y 19 X -8 Y 19 X -10 Y 19 X -8 Y 19 X -8 Y 19 X -9 Y 20 X -8 Y 19 X -7 Y 19 X -10 Y 19 X -8 Y 19 X -9 Y 19 X -8 Y 19 X -8 Y 19 X -9 Y 20 X -7 Y 19 X -9 Y 19 X -10 Y 19 X -9 Y 19 X -6 Y 19 X -9 Y 19 X -9 Y 19 X -9 Y 20 X -8 Y 19 X
 -8 Y 19 X -10 Y 19 X -7 Y 19 X -5 Y 19 X -11 Y 19 X -10 Y 19 X -9 Y 20 X -6 Y 19 X -9 Y 19 X -9 Y 19 X -8 Y 19 X -7 Y 19 X -8 Y 19 X -10 Y 19 X -11 Y 20 X -3 Y 19 X -14 Y 19 X -7 Y 19 X -6 Y 19 X -13 Y 19 X -4 Y 19 X -10 Y 19 X -6 Y 20 X -7 Y 19 X
 -14 Y 19 X -9 Y 19 X -3 Y 19 X -10 Y 19 X -9 Y 19 X -7 Y 20 X -7 Y 19 X -13 Y 19 X -3 Y 19 X -11 Y 19 X s
 gsave  2268 1062 0 707 C 594.055 1226.09 t 0 r /Helvetica findfont 70.5631 sf 0 0 m (True) show NC gr  1 1 1 c 3 lw 475 1212 m 99 X 65 Y -99 X f 6 lw 0.8 0.8 0.8 c 475 1244 m 99 X s black 3 lw /w 2 def /w2 {w 2 div} def /w3 {w 3 div} def 524 1244
 m20 6 lw
 gsave  2268 1062 0 707 C 594.055 1131.15 t 0 r /Helvetica findfont 70.5631 sf 0 0 m (Measured) show NC gr  1 1 1 c 3 lw 475 1118 m 99 X 66 Y -99 X f 6 lw black 475 1151 m 99 X s 3 lw 524 1151 m20 6 lw 1 1 1 c 2268 707 0 0 bf black 3 lw 1 1 1 c 1894
 484 283 216 bf black 1894 484 283 216 bl 1 1 1 c 1894 484 283 216 bf black 1894 484 283 216 bl 6 lw 283 216 m 1894 X s 0.6 0.6 0.6 c[ 12 12] 0 sd 3 lw 358 700 m -484 Y s 422 700 m -484 Y s 477 700 m -484 Y s 525 700 m -484 Y s 568 700 m -484 Y s 853
 700 m -484 Y s 1020 700 m -484 Y s 1138 700 m -484 Y s 1230 700 m -484 Y s 1305 700 m -484 Y s 1369 700 m -484 Y s 1423 700 m -484 Y s 1472 700 m -484 Y s 1515 700 m -484 Y s 1800 700 m -484 Y s 1967 700 m -484 Y s 2085 700 m -484 Y s 2177 700 m
 -484 Y s black[  ] 0 sd 6 lw 283 700 m 1894 X s 283 216 m 484 Y s 0.6 0.6 0.6 c[ 12 12] 0 sd 3 lw 2177 331 m -1894 X s 2177 458 m -1894 X s 2177 586 m -1894 X s 2177 331 m -1894 X s 2177 586 m -1894 X s black[  ] 0 sd 6 lw 2177 216 m 484 Y s 1 1 1 c
 black 283 216 m 318 Y 20 X 1 Y 38 X -2 Y 19 X 1 Y 19 X 1 Y 19 X -1 Y 19 X 3 Y 19 X -1 Y 20 X -1 Y 38 X 2 Y 19 X -5 Y 19 X 1 Y 19 X -3 Y 38 X 6 Y 20 X 1 Y 19 X 1 Y 19 X -9 Y 19 X 6 Y 19 X 5 Y 19 X -10 Y 19 X -6 Y 20 X 15 Y 19 X 1 Y 19 X -11 Y 19 X 5
 Y 19 X -7 Y 19 X 9 Y 19 X 2 Y 19 X 1 Y 20 X -8 Y 38 X 4 Y 38 X -17 Y 19 X 19 Y 58 X 7 Y 19 X -17 Y 19 X 2 Y 19 X 20 Y 19 X -12 Y 19 X -2 Y 19 X -6 Y 19 X -8 Y 39 X 19 Y 19 X -10 Y 19 X 6 Y 19 X -12 Y 19 X 4 Y 19 X 14 Y 19 X -1 Y 20 X 2 Y 19 X 8 Y 19
 X -32 Y 19 X 6 Y 19 X 17 Y 19 X 14 Y 19 X -2 Y 19 X -13 Y 20 X -17 Y 19 X 10 Y 19 X -20 Y 19 X 21 Y 19 X 7 Y 19 X 3 Y 19 X -37 Y 19 X -6 Y 20 X 15 Y 19 X 29 Y 19 X -24 Y 19 X 6 Y 19 X 39 Y 19 X -47 Y 19 X 22 Y 19 X 11 Y 20 X 60 Y 19 X -82 Y 19 X
 -113 Y 19 X 157 Y 19 X -128 Y 19 X 134 Y 19 X -83 Y 19 X 54 Y 20 X 48 Y 19 X -123 Y 19 X 101 Y 19 X -68 Y 19 X 10 Y 19 X 10 Y 19 X 6 Y 20 X 44 Y 19 X -106 Y 19 X 123 Y 19 X -102 Y 19 X s 283 216 m 1894 X s
 gsave  2268 707 0 0 C 1706.21 51.539 t 0 r /Helvetica findfont 78.9069 sf 0 0 m (Energy [GeV]) show NC gr  358 225 m -9 Y s 422 225 m -9 Y s 477 225 m -9 Y s 525 225 m -9 Y s 568 233 m -17 Y s
 gsave  2268 707 0 0 C 591.342 160.042 t 0 r /Helvetica findfont 46.2557 sf 0 0 m (2) show NC gr 
 gsave  2268 707 0 0 C 515.39 127.491 t 0 r /Helvetica findfont 70.7441 sf 0 0 m (10) show NC gr  853 225 m -9 Y s 1020 225 m -9 Y s 1138 225 m -9 Y s 1230 225 m -9 Y s 1305 225 m -9 Y s 1369 225 m -9 Y s 1423 225 m -9 Y s 1472 225 m -9 Y s 1515 233
 m -17 Y s
 gsave  2268 707 0 0 C 1538.03 162.755 t 0 r /Helvetica findfont 46.2557 sf 0 0 m (3) show NC gr 
 gsave  2268 707 0 0 C 1462.08 127.491 t 0 r /Helvetica findfont 70.7441 sf 0 0 m (10) show NC gr  1800 225 m -9 Y s 1967 225 m -9 Y s 2085 225 m -9 Y s 2177 225 m -9 Y s 283 700 m 1894 X s 358 692 m 8 Y s 422 692 m 8 Y s 477 692 m 8 Y s 525 692 m 8
 Y s 568 683 m 17 Y s 853 692 m 8 Y s 1020 692 m 8 Y s 1138 692 m 8 Y s 1230 692 m 8 Y s 1305 692 m 8 Y s 1369 692 m 8 Y s 1423 692 m 8 Y s 1472 692 m 8 Y s 1515 683 m 17 Y s 1800 692 m 8 Y s 1967 692 m 8 Y s 2085 692 m 8 Y s 2177 692 m 8 Y s 283 216
 m 484 Y s
 gsave  2268 707 0 0 C 92.2277 124.779 t 90 r /Helvetica findfont 78.9069 sf 0 0 m (Measured/True     ) show NC gr  330 331 m -47 X s 307 356 m -24 X s 307 382 m -24 X s 307 407 m -24 X s 307 433 m -24 X s 330 458 m -47 X s 307 484 m -24 X s 307 509
 m -24 X s 307 535 m -24 X s 307 560 m -24 X s 330 586 m -47 X s 330 331 m -47 X s 307 305 m -24 X s 307 280 m -24 X s 307 254 m -24 X s 307 229 m -24 X s 330 586 m -47 X s 307 611 m -24 X s 307 637 m -24 X s 307 662 m -24 X s 307 688 m -24 X s
 gsave  2268 707 0 0 C 176.318 303.809 t 0 r /Helvetica findfont 70.7441 sf 0 0 m (0.9) show NC gr 
 gsave  2268 707 0 0 C 244.132 431.3 t 0 r /Helvetica findfont 70.7441 sf 0 0 m (1) show NC gr 
 gsave  2268 707 0 0 C 187.168 558.791 t 0 r /Helvetica findfont 70.7441 sf 0 0 m (1.1) show NC gr  2177 216 m 484 Y s 2130 331 m 47 X s 2154 356 m 23 X s 2154 382 m 23 X s 2154 407 m 23 X s 2154 433 m 23 X s 2130 458 m 47 X s 2154 484 m 23 X s 2154
 509 m 23 X s 2154 535 m 23 X s 2154 560 m 23 X s 2130 586 m 47 X s 2130 331 m 47 X s 2154 305 m 23 X s 2154 280 m 23 X s 2154 254 m 23 X s 2154 229 m 23 X s 2130 586 m 47 X s 2154 611 m 23 X s 2154 637 m 23 X s 2154 662 m 23 X s 2154 688 m 23 X s
 gr  gr showpage
end
%%EOF
