%!PS-Adobe-2.0 EPSF-2.0
%%BoundingBox:  0 0 567 442
%%Title: gamma_exp_stat.eps: gamma_exp_stat
%%Creator: ROOT Version 5.34/14
%%CreationDate: Wed Jul 16 01:25:55 2014
%%EndComments
%%BeginProlog
80 dict begin
/s {stroke} def /l {lineto} def /m {moveto} def /t {translate} def
/r {rotate} def /rl {roll}  def /R {repeat} def
/d {rlineto} def /rm {rmoveto} def /gr {grestore} def /f {eofill} def
/c {setrgbcolor} def /black {0 setgray} def /sd {setdash} def
/cl {closepath} def /sf {scalefont setfont} def /lw {setlinewidth} def
/box {m dup 0 exch d exch 0 d 0 exch neg d cl} def
/NC{systemdict begin initclip end}def/C{NC box clip newpath}def
/bl {box s} def /bf {box f} def /Y { 0 exch d} def /X { 0 d} def 
/K {{pop pop 0 moveto} exch kshow} bind def
/ita {/ang 15 def gsave [1 0 ang dup sin exch cos div 1 0 0] concat} def 
/mp {newpath /y exch def /x exch def} def
/side {[w .77 mul w .23 mul] .385 w mul sd w 0 l currentpoint t -144 r} def
/mr {mp x y w2 0 360 arc} def /m24 {mr s} def /m20 {mr f} def
/mb {mp x y w2 add m w2 neg 0 d 0 w neg d w 0 d 0 w d cl} def
/mt {mp x y w2 add m w2 neg w neg d w 0 d cl} def
/m21 {mb f} def /m25 {mb s} def /m22 {mt f} def /m26{mt s} def
/m23 {mp x y w2 sub m w2 w d w neg 0 d cl f} def
/m27 {mp x y w2 add m w3 neg w2 neg d w3 w2 neg d w3 w2 d cl s} def
/m28 {mp x w2 sub y w2 sub w3 add m w3 0 d  0 w3 neg d w3 0 d 0 w3 d w3 0 d  0 w3 d w3 neg 0 d 0 w3 d w3 neg 0 d 0 w3 neg d w3 neg 0 d cl s } def
/m29 {mp gsave x w2 sub y w2 add w3 sub m currentpoint t 4 {side} repeat cl fill gr} def
/m30 {mp gsave x w2 sub y w2 add w3 sub m currentpoint t 4 {side} repeat cl s gr} def
/m31 {mp x y w2 sub m 0 w d x w2 sub y m w 0 d x w2 sub y w2 add m w w neg d x w2 sub y w2 sub m w w d s} def
/m32 {mp x y w2 sub m w2 w d w neg 0 d cl s} def
/m33 {mp x y w2 add m w3 neg w2 neg d w3 w2 neg d w3 w2 d cl f} def
/m34 {mp x w2 sub y w2 sub w3 add m w3 0 d  0 w3 neg d w3 0 d 0 w3 d w3 0 d  0 w3 d w3 neg 0 d 0 w3 d w3 neg 0 d 0 w3 neg d w3 neg 0 d cl f } def
/m2 {mp x y w2 sub m 0 w d x w2 sub y m w 0 d s} def
/m5 {mp x w2 sub y w2 sub m w w d x w2 sub y w2 add m w w neg d s} def
/reEncode {exch findfont dup length dict begin {1 index /FID eq  {pop pop} {def} ifelse } forall /Encoding exch def currentdict end dup /FontName get exch definefont pop } def [/Times-Bold /Times-Italic /Times-BoldItalic /Helvetica /Helvetica-Oblique
 /Helvetica-Bold /Helvetica-BoldOblique /Courier /Courier-Oblique /Courier-Bold /Courier-BoldOblique /Times-Roman /AvantGarde-Book /AvantGarde-BookOblique /AvantGarde-Demi /AvantGarde-DemiOblique /Bookman-Demi /Bookman-DemiItalic /Bookman-Light
 /Bookman-LightItalic /Helvetica-Narrow /Helvetica-Narrow-Bold /Helvetica-Narrow-BoldOblique /Helvetica-Narrow-Oblique /NewCenturySchlbk-Roman /NewCenturySchlbk-Bold /NewCenturySchlbk-BoldItalic /NewCenturySchlbk-Italic /Palatino-Bold
 /Palatino-BoldItalic /Palatino-Italic /Palatino-Roman ] {ISOLatin1Encoding reEncode } forall
%%EndProlog
%%BeginSetup
%%EndSetup
newpath  gsave  .25 .25 scale  gsave  0 0 t black[  ] 0 sd 6 lw 1 1 1 c 2268 1769 0 0 bf black 3 lw 1 1 1 c 1894 1482 283 216 bf black 1894 1482 283 216 bl 1 1 1 c 1894 1482 283 216 bf black 1894 1482 283 216 bl 6 lw 283 216 m 1894 X s 0.6 0.6 0.6 c[
 12 12] 0 sd 3 lw 429 1698 m -1482 Y s 720 1698 m -1482 Y s 1012 1698 m -1482 Y s 1303 1698 m -1482 Y s 1594 1698 m -1482 Y s 1886 1698 m -1482 Y s 2177 1698 m -1482 Y s 429 1698 m -1482 Y s black[  ] 0 sd 6 lw 283 1698 m 1894 X s 283 216 m 1482 Y s
 0.6 0.6 0.6 c[ 12 12] 0 sd 3 lw 2177 216 m -1894 X s 2177 364 m -1894 X s 2177 512 m -1894 X s 2177 660 m -1894 X s 2177 809 m -1894 X s 2177 957 m -1894 X s 2177 1105 m -1894 X s 2177 1253 m -1894 X s 2177 1401 m -1894 X s 2177 1550 m -1894 X s
 2177 1698 m -1894 X s black[  ] 0 sd 6 lw 2177 216 m 1482 Y s 1 1 1 c black 283 216 m 1894 X s 283 216 m 1894 X s
 gsave  2268 1769 0 0 C 2010.02 18.9881 t 0 r /Helvetica findfont 78.6648 sf 0 0 m (Year) show NC gr  429 260 m -44 Y s 487 238 m -22 Y s 546 238 m -22 Y s 604 238 m -22 Y s 662 238 m -22 Y s 720 260 m -44 Y s 779 238 m -22 Y s 837 238 m -22 Y s 895
 238 m -22 Y s 953 238 m -22 Y s 1012 260 m -44 Y s 1070 238 m -22 Y s 1128 238 m -22 Y s 1187 238 m -22 Y s 1245 238 m -22 Y s 1303 260 m -44 Y s 1361 238 m -22 Y s 1420 238 m -22 Y s 1478 238 m -22 Y s 1536 238 m -22 Y s 1594 260 m -44 Y s 1653 238
 m -22 Y s 1711 238 m -22 Y s 1769 238 m -22 Y s 1827 238 m -22 Y s 1886 260 m -44 Y s 1944 238 m -22 Y s 2002 238 m -22 Y s 2060 238 m -22 Y s 2119 238 m -22 Y s 2177 260 m -44 Y s 429 260 m -44 Y s 371 238 m -22 Y s 313 238 m -22 Y s
 gsave  2268 1769 0 0 C 349.923 146.479 t 0 r /Helvetica findfont 70.5271 sf 0 0 m (1960) show NC gr 
 gsave  2268 1769 0 0 C 640.169 146.479 t 0 r /Helvetica findfont 70.5271 sf 0 0 m (1970) show NC gr 
 gsave  2268 1769 0 0 C 930.415 146.479 t 0 r /Helvetica findfont 70.5271 sf 0 0 m (1980) show NC gr 
 gsave  2268 1769 0 0 C 1223.37 146.479 t 0 r /Helvetica findfont 70.5271 sf 0 0 m (1990) show NC gr 
 gsave  2268 1769 0 0 C 1513.62 146.479 t 0 r /Helvetica findfont 70.5271 sf 0 0 m (2000) show NC gr 
 gsave  2268 1769 0 0 C 1806.58 146.479 t 0 r /Helvetica findfont 70.5271 sf 0 0 m (2010) show NC gr 
 gsave  2268 1769 0 0 C 2096.82 146.479 t 0 r /Helvetica findfont 70.5271 sf 0 0 m (2020) show NC gr  283 1698 m 1894 X s 429 1654 m 44 Y s 487 1676 m 22 Y s 546 1676 m 22 Y s 604 1676 m 22 Y s 662 1676 m 22 Y s 720 1654 m 44 Y s 779 1676 m 22 Y s
 837 1676 m 22 Y s 895 1676 m 22 Y s 953 1676 m 22 Y s 1012 1654 m 44 Y s 1070 1676 m 22 Y s 1128 1676 m 22 Y s 1187 1676 m 22 Y s 1245 1676 m 22 Y s 1303 1654 m 44 Y s 1361 1676 m 22 Y s 1420 1676 m 22 Y s 1478 1676 m 22 Y s 1536 1676 m 22 Y s 1594
 1654 m 44 Y s 1653 1676 m 22 Y s 1711 1676 m 22 Y s 1769 1676 m 22 Y s 1827 1676 m 22 Y s 1886 1654 m 44 Y s 1944 1676 m 22 Y s 2002 1676 m 22 Y s 2060 1676 m 22 Y s 2119 1676 m 22 Y s 2177 1654 m 44 Y s 429 1654 m 44 Y s 371 1676 m 22 Y s 313 1676
 m 22 Y s 283 216 m 1482 Y s
 gsave  2268 1769 0 0 C 84.09 1160.98 t 90 r /Helvetica findfont 78.6648 sf 0 0 m (\255ray candidates) show NC gr 
 gsave  2268 1769 0 0 C 84.09 1120.3 t 90 r /Symbol findfont 78.6648 sf 0 0 m (g) show NC gr 
 gsave  2268 1769 0 0 C 84.09 726.971 t 90 r /Helvetica findfont 78.6648 sf 0 0 m (Number of ) show NC gr  340 216 m -57 X s
 gsave  2268 1769 0 0 C 264.363 186.474 t 0 r  -37 0 t /Helvetica findfont 67.8145 sf 0 0 m (1) show NC gr  312 260 m -29 X s 312 286 m -29 X s 312 305 m -29 X s 312 319 m -29 X s 312 331 m -29 X s 312 341 m -29 X s 312 350 m -29 X s 312 357 m -29 X
 s 340 364 m -57 X s
 gsave  2268 1769 0 0 C 264.363 334.683 t 0 r  -75 0 t /Helvetica findfont 67.8145 sf 0 0 m (10) show NC gr  312 409 m -29 X s 312 435 m -29 X s 312 453 m -29 X s 312 468 m -29 X s 312 479 m -29 X s 312 489 m -29 X s 312 498 m -29 X s 312 505 m -29 X
 s 340 512 m -57 X s
 gsave  2268 1769 0 0 C 238.707 509.965 t 0 r /Helvetica findfont 46.1139 sf 0 0 m (2) show NC gr 
 gsave  2268 1769 0 0 C 162.755 480.127 t 0 r /Helvetica findfont 70.5271 sf 0 0 m (10) show NC gr  312 557 m -29 X s 312 583 m -29 X s 312 601 m -29 X s 312 616 m -29 X s 312 628 m -29 X s 312 637 m -29 X s 312 646 m -29 X s 312 654 m -29 X s 340
 660 m -57 X s
 gsave  2268 1769 0 0 C 238.707 661.869 t 0 r /Helvetica findfont 46.1139 sf 0 0 m (3) show NC gr 
 gsave  2268 1769 0 0 C 162.755 629.318 t 0 r /Helvetica findfont 70.5271 sf 0 0 m (10) show NC gr  312 705 m -29 X s 312 731 m -29 X s 312 750 m -29 X s 312 764 m -29 X s 312 776 m -29 X s 312 786 m -29 X s 312 794 m -29 X s 312 802 m -29 X s 340
 809 m -57 X s
 gsave  2268 1769 0 0 C 238.707 808.349 t 0 r /Helvetica findfont 46.1139 sf 0 0 m (4) show NC gr 
 gsave  2268 1769 0 0 C 162.755 778.51 t 0 r /Helvetica findfont 70.5271 sf 0 0 m (10) show NC gr  312 853 m -29 X s 312 879 m -29 X s 312 898 m -29 X s 312 912 m -29 X s 312 924 m -29 X s 312 934 m -29 X s 312 942 m -29 X s 312 950 m -29 X s 340 957
 m -57 X s
 gsave  2268 1769 0 0 C 238.707 957.541 t 0 r /Helvetica findfont 46.1139 sf 0 0 m (5) show NC gr 
 gsave  2268 1769 0 0 C 162.755 924.99 t 0 r /Helvetica findfont 70.5271 sf 0 0 m (10) show NC gr  312 1001 m -29 X s 312 1028 m -29 X s 312 1046 m -29 X s 312 1060 m -29 X s 312 1072 m -29 X s 312 1082 m -29 X s 312 1091 m -29 X s 312 1098 m -29 X s
 340 1105 m -57 X s
 gsave  2268 1769 0 0 C 238.707 1106.73 t 0 r /Helvetica findfont 46.1139 sf 0 0 m (6) show NC gr 
 gsave  2268 1769 0 0 C 162.755 1074.18 t 0 r /Helvetica findfont 70.5271 sf 0 0 m (10) show NC gr  312 1150 m -29 X s 312 1176 m -29 X s 312 1194 m -29 X s 312 1209 m -29 X s 312 1220 m -29 X s 312 1230 m -29 X s 312 1239 m -29 X s 312 1246 m -29 X
 s 340 1253 m -57 X s
 gsave  2268 1769 0 0 C 238.707 1253.21 t 0 r /Helvetica findfont 46.1139 sf 0 0 m (7) show NC gr 
 gsave  2268 1769 0 0 C 162.755 1223.37 t 0 r /Helvetica findfont 70.5271 sf 0 0 m (10) show NC gr  312 1298 m -29 X s 312 1324 m -29 X s 312 1342 m -29 X s 312 1357 m -29 X s 312 1369 m -29 X s 312 1378 m -29 X s 312 1387 m -29 X s 312 1395 m -29 X
 s 340 1401 m -57 X s
 gsave  2268 1769 0 0 C 238.707 1402.4 t 0 r /Helvetica findfont 46.1139 sf 0 0 m (8) show NC gr 
 gsave  2268 1769 0 0 C 162.755 1369.85 t 0 r /Helvetica findfont 70.5271 sf 0 0 m (10) show NC gr  312 1446 m -29 X s 312 1472 m -29 X s 312 1491 m -29 X s 312 1505 m -29 X s 312 1517 m -29 X s 312 1527 m -29 X s 312 1535 m -29 X s 312 1543 m -29 X
 s 340 1550 m -57 X s
 gsave  2268 1769 0 0 C 238.707 1551.6 t 0 r /Helvetica findfont 46.1139 sf 0 0 m (9) show NC gr 
 gsave  2268 1769 0 0 C 162.755 1519.04 t 0 r /Helvetica findfont 70.5271 sf 0 0 m (10) show NC gr  312 1594 m -29 X s 312 1620 m -29 X s 312 1639 m -29 X s 312 1653 m -29 X s 312 1665 m -29 X s 312 1675 m -29 X s 312 1683 m -29 X s 312 1691 m -29 X
 s 340 1698 m -57 X s
 gsave  2268 1769 0 0 C 211.581 1698.07 t 0 r /Helvetica findfont 46.1139 sf 0 0 m (10) show NC gr 
 gsave  2268 1769 0 0 C 135.629 1665.52 t 0 r /Helvetica findfont 70.5271 sf 0 0 m (10) show NC gr  2177 216 m 1482 Y s 2120 216 m 57 X s 2149 260 m 28 X s 2149 286 m 28 X s 2149 305 m 28 X s 2149 319 m 28 X s 2149 331 m 28 X s 2149 341 m 28 X s 2149
 350 m 28 X s 2149 357 m 28 X s 2120 364 m 57 X s 2149 409 m 28 X s 2149 435 m 28 X s 2149 453 m 28 X s 2149 468 m 28 X s 2149 479 m 28 X s 2149 489 m 28 X s 2149 498 m 28 X s 2149 505 m 28 X s 2120 512 m 57 X s 2149 557 m 28 X s 2149 583 m 28 X s
 2149 601 m 28 X s 2149 616 m 28 X s 2149 628 m 28 X s 2149 637 m 28 X s 2149 646 m 28 X s 2149 654 m 28 X s 2120 660 m 57 X s 2149 705 m 28 X s 2149 731 m 28 X s 2149 750 m 28 X s 2149 764 m 28 X s 2149 776 m 28 X s 2149 786 m 28 X s 2149 794 m 28 X
 s 2149 802 m 28 X s 2120 809 m 57 X s 2149 853 m 28 X s 2149 879 m 28 X s 2149 898 m 28 X s 2149 912 m 28 X s 2149 924 m 28 X s 2149 934 m 28 X s 2149 942 m 28 X s 2149 950 m 28 X s 2120 957 m 57 X s 2149 1001 m 28 X s 2149 1028 m 28 X s 2149 1046 m
 28 X s 2149 1060 m 28 X s 2149 1072 m 28 X s 2149 1082 m 28 X s 2149 1091 m 28 X s 2149 1098 m 28 X s 2120 1105 m 57 X s 2149 1150 m 28 X s 2149 1176 m 28 X s 2149 1194 m 28 X s 2149 1209 m 28 X s 2149 1220 m 28 X s 2149 1230 m 28 X s 2149 1239 m 28
 X s 2149 1246 m 28 X s 2120 1253 m 57 X s 2149 1298 m 28 X s 2149 1324 m 28 X s 2149 1342 m 28 X s 2149 1357 m 28 X s 2149 1369 m 28 X s 2149 1378 m 28 X s 2149 1387 m 28 X s 2149 1395 m 28 X s 2120 1401 m 57 X s 2149 1446 m 28 X s 2149 1472 m 28 X
 s 2149 1491 m 28 X s 2149 1505 m 28 X s 2149 1517 m 28 X s 2149 1527 m 28 X s 2149 1535 m 28 X s 2149 1543 m 28 X s 2120 1550 m 57 X s 2149 1594 m 28 X s 2149 1620 m 28 X s 2149 1639 m 28 X s 2149 1653 m 28 X s 2149 1665 m 28 X s 2149 1675 m 28 X s
 2149 1683 m 28 X s 2149 1691 m 28 X s 2120 1698 m 57 X s
 gsave  2268 1769 0 0 C 322.797 461.139 t 0 r /Helvetica findfont 54.2516 sf 0 0 m (Explorer XI) show NC gr 
 gsave  2268 1769 0 0 C 561.504 675.432 t 0 r /Helvetica findfont 54.2516 sf 0 0 m (OSO\2558) show NC gr 
 gsave  2268 1769 0 0 C 713.408 870.738 t 0 r /Helvetica findfont 54.2516 sf 0 0 m (SAS\2552) show NC gr 
 gsave  2268 1769 0 0 C 895.151 1047.06 t 0 r /Helvetica findfont 54.2516 sf 0 0 m (COS\255B) show NC gr 
 gsave  2268 1769 0 0 C 1353.58 1177.26 t 0 r /Helvetica findfont 54.2516 sf 0 0 m (EGRET) show NC gr 
 gsave  2268 1769 0 0 C 1841.84 1551.6 t 0 r /Helvetica findfont 54.2516 sf 0 0 m (Fermi\255LAT) show NC gr  1 1 1 c black 3 lw /w 26 def /w2 {w 2 div} def /w3 {w 3 div} def 458 415 648 630 793 825 983 1001 1449 1131 1973 1505 6 { m20} R 6 lw[ 20 20]
 0 sd 0.95 0.95 0.95 c black 284 217 m 2 1 d 2 2 d 2 1 d 2 2 d 2 2 d 2 1 d 2 2 d 2 1 d 1 2 d 2 2 d 2 1 d 2 2 d 2 1 d 2 2 d 2 2 d 2 1 d 2 2 d 1 1 d 2 2 d 2 2 d 2 1 d 2 2 d 2 2 d 2 1 d 2 2 d 2 1 d 2 2 d 1 2 d 2 1 d 2 2 d 2 1 d 2 2 d 2 2 d 2 1 d 2 2 d 2
 1 d 1 2 d 2 2 d 2 1 d 2 2 d 2 1 d 2 2 d 2 2 d 2 1 d 2 2 d 2 1 d 1 2 d 2 2 d 2 1 d s 377 295 m 2 2 d 2 1 d 2 2 d 2 2 d 2 1 d 2 2 d 1 1 d 2 2 d 2 2 d 2 1 d 2 2 d 2 2 d 2 1 d 2 2 d 2 1 d 1 2 d 2 2 d 2 1 d 2 2 d 2 1 d 2 2 d 2 2 d 2 1 d 2 2 d 2 1 d 1 2 d
 2 2 d 2 1 d 2 2 d 2 1 d 2 2 d 2 2 d 2 1 d 2 2 d 1 1 d 2 2 d 2 2 d 2 1 d 2 2 d 2 1 d 2 2 d 2 2 d 2 1 d 2 2 d 1 1 d 2 2 d 2 2 d 2 1 d 2 2 d s 470 374 m 2 2 d 2 1 d 2 2 d 2 1 d 1 2 d 2 2 d 2 1 d 2 2 d 2 1 d 2 2 d 2 2 d 2 1 d 2 2 d 1 1 d 2 2 d 2 2 d 2 1
 d 2 2 d 2 1 d 2 2 d 2 2 d 2 1 d 2 2 d 1 1 d 2 2 d 2 2 d 2 1 d 2 2 d 2 1 d 2 2 d 2 2 d 2 1 d 1 2 d 2 2 d 2 1 d 2 2 d 2 1 d 2 2 d 2 2 d 2 1 d 2 2 d 2 1 d 1 2 d 2 2 d 2 1 d 2 2 d 2 1 d 2 2 d 2 2 d s 563 453 m 2 1 d 2 2 d 1 1 d 2 2 d 2 2 d 2 1 d 2 2 d 2
 1 d 2 2 d 2 2 d 2 1 d 1 2 d 2 1 d 2 2 d 2 2 d 2 1 d 2 2 d 2 1 d 2 2 d 2 2 d 2 1 d 1 2 d 2 2 d 2 1 d 2 2 d 2 1 d 2 2 d 2 2 d 2 1 d 2 2 d 1 1 d 2 2 d 2 2 d 2 1 d 2 2 d 2 1 d 2 2 d 2 2 d 2 1 d 2 2 d 1 1 d 2 2 d 2 2 d 2 1 d 2 2 d 2 1 d 2 2 d 2 2 d 2 1 d
 s 656 531 m 1 2 d 2 1 d 2 2 d 2 2 d 2 1 d 2 2 d 2 2 d 2 1 d 2 2 d 1 1 d 2 2 d 2 2 d 2 1 d 2 2 d 2 1 d 2 2 d 2 2 d 2 1 d 2 2 d 1 1 d 2 2 d 2 2 d 2 1 d 2 2 d 2 1 d 2 2 d 2 2 d 2 1 d 1 2 d 2 1 d 2 2 d 2 2 d 2 1 d 2 2 d 2 1 d 2 2 d 2 2 d 2 1 d 1 2 d 2 1
 d 2 2 d 2 2 d 2 1 d 2 2 d 2 2 d 2 1 d 2 2 d 1 1 d 2 2 d s 748 610 m 2 2 d 2 1 d 2 2 d 2 1 d 2 2 d 2 2 d 2 1 d 1 2 d 2 1 d 2 2 d 2 2 d 2 1 d 2 2 d 2 1 d 2 2 d 2 2 d 2 1 d 1 2 d 2 1 d 2 2 d 2 2 d 2 1 d 2 2 d 2 1 d 2 2 d 2 2 d 1 1 d 2 2 d 2 2 d 2 1 d 2
 2 d 2 1 d 2 2 d 2 2 d 2 1 d 1 2 d 2 1 d 2 2 d 2 2 d 2 1 d 2 2 d 2 1 d 2 2 d 2 2 d 2 1 d 1 2 d 2 1 d 2 2 d 2 2 d s 841 689 m 2 1 d 2 2 d 2 1 d 2 2 d 2 2 d 1 1 d 2 2 d 2 1 d 2 2 d 2 2 d 2 1 d 2 2 d 2 1 d 2 2 d 2 2 d 1 1 d 2 2 d 2 2 d 2 1 d 2 2 d 2 1 d
 2 2 d 2 2 d 2 1 d 1 2 d 2 1 d 2 2 d 2 2 d 2 1 d 2 2 d 2 1 d 2 2 d 2 2 d 1 1 d 2 2 d 2 1 d 2 2 d 2 2 d 2 1 d 2 2 d 2 1 d 2 2 d 2 2 d 1 1 d 2 2 d 2 1 d 2 2 d 2 2 d 2 1 d s 934 767 m 2 2 d 2 2 d 2 1 d 1 2 d 2 1 d 2 2 d 2 2 d 2 1 d 2 2 d 2 1 d 2 2 d 2 2
 d 2 1 d 1 2 d 2 1 d 2 2 d 2 2 d 2 1 d 2 2 d 2 1 d 2 2 d 2 2 d 1 1 d 2 2 d 2 1 d 2 2 d 2 2 d 2 1 d 2 2 d 2 1 d 2 2 d 1 2 d 2 1 d 2 2 d 2 1 d 2 2 d 2 2 d 2 1 d 2 2 d 2 2 d 2 1 d 1 2 d 2 1 d 2 2 d 2 2 d 2 1 d 2 2 d 2 1 d 2 2 d s 1027 846 m 2 2 d 1 1 d
 2 2 d 2 1 d 2 2 d 2 2 d 2 1 d 2 2 d 2 1 d 2 2 d 2 2 d 1 1 d 2 2 d 2 1 d 2 2 d 2 2 d 2 1 d 2 2 d 2 1 d 2 2 d 1 2 d 2 1 d 2 2 d 2 2 d 2 1 d 2 2 d 2 1 d 2 2 d 2 2 d 1 1 d 2 2 d 2 1 d 2 2 d 2 2 d 2 1 d 2 2 d 2 1 d 2 2 d 2 2 d 1 1 d 2 2 d 2 1 d 2 2 d 2 2
 d 2 1 d 2 2 d 2 1 d 2 2 d 1 2 d s 1119 925 m 2 1 d 2 2 d 2 1 d 2 2 d 2 2 d 2 1 d 2 2 d 2 1 d 2 2 d 1 2 d 2 1 d 2 2 d 2 2 d 2 1 d 2 2 d 2 1 d 2 2 d 2 2 d 1 1 d 2 2 d 2 1 d 2 2 d 2 2 d 2 1 d 2 2 d 2 1 d 2 2 d 1 2 d 2 1 d 2 2 d 2 1 d 2 2 d 2 2 d 2 1 d
 2 2 d 2 1 d 2 2 d 1 2 d 2 1 d 2 2 d 2 1 d 2 2 d 2 2 d 2 1 d 2 2 d 2 1 d 1 2 d 2 2 d 2 1 d s 1212 1003 m 2 2 d 2 2 d 2 1 d 2 2 d 2 1 d 2 2 d 2 2 d 1 1 d 2 2 d 2 1 d 2 2 d 2 2 d 2 1 d 2 2 d 2 1 d 2 2 d 1 2 d 2 1 d 2 2 d 2 1 d 2 2 d 2 2 d 2 1 d 2 2 d 2
 1 d 1 2 d 2 2 d 2 1 d 2 2 d 2 1 d 2 2 d 2 2 d 2 1 d 2 2 d 2 2 d 1 1 d 2 2 d 2 1 d 2 2 d 2 2 d 2 1 d 2 2 d 2 1 d 2 2 d 1 2 d 2 1 d 2 2 d 2 1 d 2 2 d s 1305 1082 m 2 2 d 2 1 d 2 2 d 2 1 d 1 2 d 2 2 d 2 1 d 2 2 d 2 1 d 2 2 d 2 2 d 2 1 d 2 2 d 2 1 d 1 2
 d 2 2 d 2 1 d 2 2 d 2 1 d 2 2 d 2 2 d 2 1 d 2 2 d 1 2 d 2 1 d 2 2 d 2 1 d 2 2 d 2 2 d 2 1 d 2 2 d 2 1 d 2 2 d 1 2 d 2 1 d 2 2 d 2 1 d 2 2 d 2 2 d 2 1 d 2 2 d 2 1 d 1 2 d 2 2 d 2 1 d 2 2 d 2 1 d 2 2 d 2 2 d s 1398 1161 m 2 1 d 2 2 d 1 1 d 2 2 d 2 2 d
 2 1 d 2 2 d 2 2 d 2 1 d 2 2 d 2 1 d 2 2 d 1 2 d 2 1 d 2 2 d 2 1 d 2 2 d 2 2 d 2 1 d 2 2 d 2 1 d 1 2 d 2 2 d 2 1 d 2 2 d 2 1 d 2 2 d 2 2 d 2 1 d 2 2 d 2 1 d 1 2 d 2 2 d 2 1 d 2 2 d 2 1 d 2 2 d 2 2 d 2 1 d 2 2 d 1 1 d 2 2 d 2 2 d 2 1 d 2 2 d 2 2 d 2 1
 d 2 2 d 2 1 d s 1491 1239 m 1 2 d 2 2 d 2 1 d 2 2 d 2 1 d 2 2 d 2 2 d 2 1 d 2 2 d 2 1 d 1 2 d 2 2 d 2 1 d 2 2 d 2 1 d 2 2 d 2 2 d 2 1 d 2 2 d 1 1 d 2 2 d 2 2 d 2 1 d 2 2 d 2 1 d 2 2 d 2 2 d 2 1 d 2 2 d 1 2 d 2 1 d 2 2 d 2 1 d 2 2 d 2 2 d 2 1 d 2 2 d
 2 1 d 1 2 d 2 2 d 2 1 d 2 2 d 2 1 d 2 2 d 2 2 d 2 1 d 2 2 d 1 1 d 2 2 d s 1583 1318 m 2 2 d 2 1 d 2 2 d 2 1 d 2 2 d 2 2 d 2 1 d 2 2 d 1 1 d 2 2 d 2 2 d 2 1 d 2 2 d 2 1 d 2 2 d 2 2 d 2 1 d 1 2 d 2 2 d 2 1 d 2 2 d 2 1 d 2 2 d 2 2 d 2 1 d 2 2 d 2 1 d 1
 2 d 2 2 d 2 1 d 2 2 d 2 1 d 2 2 d 2 2 d 2 1 d 2 2 d 1 1 d 2 2 d 2 2 d 2 1 d 2 2 d 2 1 d 2 2 d 2 2 d 2 1 d 1 2 d 2 1 d 2 2 d 2 2 d s 1676 1397 m 2 1 d 2 2 d 2 2 d 2 1 d 2 2 d 2 1 d 1 2 d 2 2 d 2 1 d 2 2 d 2 1 d 2 2 d 2 2 d 2 1 d 2 2 d 1 1 d 2 2 d 2 2
 d 2 1 d 2 2 d 2 1 d 2 2 d 2 2 d 2 1 d 2 2 d 1 1 d 2 2 d 2 2 d 2 1 d 2 2 d 2 1 d 2 2 d 2 2 d 2 1 d 1 2 d 2 1 d 2 2 d 2 2 d 2 1 d 2 2 d 2 2 d 2 1 d 2 2 d 1 1 d 2 2 d 2 2 d 2 1 d 2 2 d 2 1 d s 1769 1475 m 2 2 d 2 2 d 2 1 d 2 2 d 1 1 d 2 2 d 2 2 d 2 1 d
 2 2 d 2 1 d 2 2 d 2 2 d 2 1 d 1 2 d 2 1 d 2 2 d 2 2 d 2 1 d 2 2 d 2 1 d 2 2 d 2 2 d 2 1 d 1 2 d 2 1 d 2 2 d 2 2 d 2 1 d 2 2 d 2 2 d 2 1 d 2 2 d 1 1 d 2 2 d 2 2 d 2 1 d 2 2 d 2 1 d 2 2 d 2 2 d 2 1 d 1 2 d 2 1 d 2 2 d 2 2 d 2 1 d 2 2 d 2 1 d 2 2 d s
 1862 1554 m 2 2 d 2 1 d 1 2 d 2 1 d 2 2 d 2 2 d 2 1 d 2 2 d 2 1 d 2 2 d 2 2 d 1 1 d 2 2 d 2 2 d 2 1 d 2 2 d 2 1 d 2 2 d 2 2 d 2 1 d 1 2 d 2 1 d 2 2 d 2 2 d 2 1 d 2 2 d 2 1 d 2 2 d 2 2 d 2 1 d 1 2 d 2 1 d 2 2 d 2 2 d 2 1 d 2 2 d 2 1 d 2 2 d 2 2 d 1 1
 d 2 2 d 2 1 d 2 2 d 2 2 d 2 1 d 2 2 d 2 1 d 2 2 d 2 2 d s 1955 1633 m 1 1 d 2 2 d 2 2 d 2 1 d 2 2 d 2 1 d 2 2 d 2 2 d 2 1 d 1 2 d 2 1 d 2 2 d 2 2 d 2 1 d 2 2 d 2 1 d 2 2 d 2 2 d 1 1 d 2 2 d 2 1 d 2 2 d 2 2 d 2 1 d 2 2 d 2 1 d 2 2 d 2 2 d 1 1 d 2 2 d
 2 1 d 2 2 d 2 2 d 2 1 d 2 2 d 2 2 d 2 1 d 1 2 d 2 1 d 2 2 d 2 1 d s
 gr  gr showpage
end
%%EOF
