%!PS-Adobe-2.0 EPSF-2.0
%%BoundingBox:  0 0 567 442
%%Title: gde_spectrum.eps: gde_spectrum
%%Creator: ROOT Version 5.34/14
%%CreationDate: Mon Jul 14 15:14:49 2014
%%EndComments
%%BeginProlog
80 dict begin
/s {stroke} def /l {lineto} def /m {moveto} def /t {translate} def
/r {rotate} def /rl {roll}  def /R {repeat} def
/d {rlineto} def /rm {rmoveto} def /gr {grestore} def /f {eofill} def
/c {setrgbcolor} def /black {0 setgray} def /sd {setdash} def
/cl {closepath} def /sf {scalefont setfont} def /lw {setlinewidth} def
/box {m dup 0 exch d exch 0 d 0 exch neg d cl} def
/NC{systemdict begin initclip end}def/C{NC box clip newpath}def
/bl {box s} def /bf {box f} def /Y { 0 exch d} def /X { 0 d} def 
/K {{pop pop 0 moveto} exch kshow} bind def
/ita {/ang 15 def gsave [1 0 ang dup sin exch cos div 1 0 0] concat} def 
/mp {newpath /y exch def /x exch def} def
/side {[w .77 mul w .23 mul] .385 w mul sd w 0 l currentpoint t -144 r} def
/mr {mp x y w2 0 360 arc} def /m24 {mr s} def /m20 {mr f} def
/mb {mp x y w2 add m w2 neg 0 d 0 w neg d w 0 d 0 w d cl} def
/mt {mp x y w2 add m w2 neg w neg d w 0 d cl} def
/m21 {mb f} def /m25 {mb s} def /m22 {mt f} def /m26{mt s} def
/m23 {mp x y w2 sub m w2 w d w neg 0 d cl f} def
/m27 {mp x y w2 add m w3 neg w2 neg d w3 w2 neg d w3 w2 d cl s} def
/m28 {mp x w2 sub y w2 sub w3 add m w3 0 d  0 w3 neg d w3 0 d 0 w3 d w3 0 d  0 w3 d w3 neg 0 d 0 w3 d w3 neg 0 d 0 w3 neg d w3 neg 0 d cl s } def
/m29 {mp gsave x w2 sub y w2 add w3 sub m currentpoint t 4 {side} repeat cl fill gr} def
/m30 {mp gsave x w2 sub y w2 add w3 sub m currentpoint t 4 {side} repeat cl s gr} def
/m31 {mp x y w2 sub m 0 w d x w2 sub y m w 0 d x w2 sub y w2 add m w w neg d x w2 sub y w2 sub m w w d s} def
/m32 {mp x y w2 sub m w2 w d w neg 0 d cl s} def
/m33 {mp x y w2 add m w3 neg w2 neg d w3 w2 neg d w3 w2 d cl f} def
/m34 {mp x w2 sub y w2 sub w3 add m w3 0 d  0 w3 neg d w3 0 d 0 w3 d w3 0 d  0 w3 d w3 neg 0 d 0 w3 d w3 neg 0 d 0 w3 neg d w3 neg 0 d cl f } def
/m2 {mp x y w2 sub m 0 w d x w2 sub y m w 0 d s} def
/m5 {mp x w2 sub y w2 sub m w w d x w2 sub y w2 add m w w neg d s} def
/reEncode {exch findfont dup length dict begin {1 index /FID eq  {pop pop} {def} ifelse } forall /Encoding exch def currentdict end dup /FontName get exch definefont pop } def [/Times-Bold /Times-Italic /Times-BoldItalic /Helvetica /Helvetica-Oblique
 /Helvetica-Bold /Helvetica-BoldOblique /Courier /Courier-Oblique /Courier-Bold /Courier-BoldOblique /Times-Roman /AvantGarde-Book /AvantGarde-BookOblique /AvantGarde-Demi /AvantGarde-DemiOblique /Bookman-Demi /Bookman-DemiItalic /Bookman-Light
 /Bookman-LightItalic /Helvetica-Narrow /Helvetica-Narrow-Bold /Helvetica-Narrow-BoldOblique /Helvetica-Narrow-Oblique /NewCenturySchlbk-Roman /NewCenturySchlbk-Bold /NewCenturySchlbk-BoldItalic /NewCenturySchlbk-Italic /Palatino-Bold
 /Palatino-BoldItalic /Palatino-Italic /Palatino-Roman ] {ISOLatin1Encoding reEncode } forall
%%EndProlog
%%BeginSetup
%%EndSetup
newpath  gsave  .25 .25 scale  gsave  0 0 t black[  ] 0 sd 6 lw 1 1 1 c 2268 1769 0 0 bf black 3 lw 1 1 1 c 1894 1482 283 216 bf black 1894 1482 283 216 bl 1 1 1 c 1894 1482 283 216 bf black 1894 1482 283 216 bl 6 lw 283 216 m 1894 X s 0.6 0.6 0.6 c[
 12 12] 0 sd 3 lw 310 1698 m -1482 Y s 342 1698 m -1482 Y s 369 1698 m -1482 Y s 393 1698 m -1482 Y s 414 1698 m -1482 Y s 556 1698 m -1482 Y s 639 1698 m -1482 Y s 697 1698 m -1482 Y s 743 1698 m -1482 Y s 780 1698 m -1482 Y s 811 1698 m -1482 Y s
 839 1698 m -1482 Y s 863 1698 m -1482 Y s 884 1698 m -1482 Y s 1026 1698 m -1482 Y s 1108 1698 m -1482 Y s 1167 1698 m -1482 Y s 1213 1698 m -1482 Y s 1250 1698 m -1482 Y s 1281 1698 m -1482 Y s 1309 1698 m -1482 Y s 1333 1698 m -1482 Y s 1354 1698
 m -1482 Y s 1496 1698 m -1482 Y s 1578 1698 m -1482 Y s 1637 1698 m -1482 Y s 1682 1698 m -1482 Y s 1720 1698 m -1482 Y s 1751 1698 m -1482 Y s 1778 1698 m -1482 Y s 1802 1698 m -1482 Y s 1824 1698 m -1482 Y s 1965 1698 m -1482 Y s 2048 1698 m -1482
 Y s 2107 1698 m -1482 Y s 2152 1698 m -1482 Y s black[  ] 0 sd 6 lw 283 1698 m 1894 X s 283 216 m 1482 Y s 0.6 0.6 0.6 c[ 12 12] 0 sd 3 lw 2177 281 m -1894 X s 2177 461 m -1894 X s 2177 640 m -1894 X s 2177 819 m -1894 X s 2177 998 m -1894 X s 2177
 1177 m -1894 X s 2177 1356 m -1894 X s 2177 1535 m -1894 X s black[  ] 0 sd 6 lw 2177 216 m 1482 Y s 283 216 m 1894 X s
 gsave  2268 1769 0 0 C 1706.21 27.1258 t 0 r /Helvetica findfont 78.6648 sf 0 0 m (Energy [GeV]) show NC gr  310 238 m -22 Y s 342 238 m -22 Y s 369 238 m -22 Y s 393 238 m -22 Y s 414 260 m -44 Y s
 gsave  2268 1769 0 0 C 434.013 154.617 t 0 r /Helvetica findfont 46.1139 sf 0 0 m (\2551) show NC gr 
 gsave  2268 1769 0 0 C 358.061 122.066 t 0 r /Helvetica findfont 70.5271 sf 0 0 m (10) show NC gr  556 238 m -22 Y s 639 238 m -22 Y s 697 238 m -22 Y s 743 238 m -22 Y s 780 238 m -22 Y s 811 238 m -22 Y s 839 238 m -22 Y s 863 238 m -22 Y s 884
 260 m -44 Y s
 gsave  2268 1769 0 0 C 884.272 119.893 t 0 r  -19 0 t /Helvetica findfont 67.8145 sf 0 0 m (1) show NC gr  1026 238 m -22 Y s 1108 238 m -22 Y s 1167 238 m -22 Y s 1213 238 m -22 Y s 1250 238 m -22 Y s 1281 238 m -22 Y s 1309 238 m -22 Y s 1333 238
 m -22 Y s 1354 260 m -44 Y s
 gsave  2268 1769 0 0 C 1354.09 119.893 t 0 r  -38 0 t /Helvetica findfont 67.8145 sf 0 0 m (10) show NC gr  1496 238 m -22 Y s 1578 238 m -22 Y s 1637 238 m -22 Y s 1682 238 m -22 Y s 1720 238 m -22 Y s 1751 238 m -22 Y s 1778 238 m -22 Y s 1802 238
 m -22 Y s 1824 260 m -44 Y s
 gsave  2268 1769 0 0 C 1847.27 154.617 t 0 r /Helvetica findfont 46.1139 sf 0 0 m (2) show NC gr 
 gsave  2268 1769 0 0 C 1771.31 122.066 t 0 r /Helvetica findfont 70.5271 sf 0 0 m (10) show NC gr  1965 238 m -22 Y s 2048 238 m -22 Y s 2107 238 m -22 Y s 2152 238 m -22 Y s 283 1698 m 1894 X s 310 1676 m 22 Y s 342 1676 m 22 Y s 369 1676 m 22 Y s
 393 1676 m 22 Y s 414 1654 m 44 Y s 556 1676 m 22 Y s 639 1676 m 22 Y s 697 1676 m 22 Y s 743 1676 m 22 Y s 780 1676 m 22 Y s 811 1676 m 22 Y s 839 1676 m 22 Y s 863 1676 m 22 Y s 884 1654 m 44 Y s 1026 1676 m 22 Y s 1108 1676 m 22 Y s 1167 1676 m
 22 Y s 1213 1676 m 22 Y s 1250 1676 m 22 Y s 1281 1676 m 22 Y s 1309 1676 m 22 Y s 1333 1676 m 22 Y s 1354 1654 m 44 Y s 1496 1676 m 22 Y s 1578 1676 m 22 Y s 1637 1676 m 22 Y s 1682 1676 m 22 Y s 1720 1676 m 22 Y s 1751 1676 m 22 Y s 1778 1676 m 22
 Y s 1802 1676 m 22 Y s 1824 1654 m 44 Y s 1965 1676 m 22 Y s 2048 1676 m 22 Y s 2107 1676 m 22 Y s 2152 1676 m 22 Y s 283 216 m 1482 Y s
 gsave  2268 1769 0 0 C 92.2277 1679.09 t 90 r /Helvetica findfont 78.6648 sf 0 0 m (]) show NC gr 
 gsave  2268 1769 0 0 C 65.1019 1643.82 t 90 r /Helvetica findfont 51.539 sf 0 0 m (\2551) show NC gr 
 gsave  2268 1769 0 0 C 92.2277 1557.02 t 90 r /Helvetica findfont 78.6648 sf 0 0 m ( sr) show NC gr 
 gsave  2268 1769 0 0 C 54.2516 1521.76 t 90 r /Helvetica findfont 51.539 sf 0 0 m (\2551) show NC gr 
 gsave  2268 1769 0 0 C 92.2277 1342.73 t 90 r /Helvetica findfont 78.6648 sf 0 0 m ( GeV) show NC gr 
 gsave  2268 1769 0 0 C 65.1019 1307.46 t 90 r /Helvetica findfont 51.539 sf 0 0 m (\2551) show NC gr 
 gsave  2268 1769 0 0 C 92.2277 1247.79 t 90 r /Helvetica findfont 78.6648 sf 0 0 m ( s) show NC gr 
 gsave  2268 1769 0 0 C 54.2516 1201.67 t 90 r /Helvetica findfont 51.539 sf 0 0 m (\2552) show NC gr 
 gsave  2268 1769 0 0 C 92.2277 952.115 t 90 r /Helvetica findfont 78.6648 sf 0 0 m (J\(E\) [m) show NC gr  312 228 m -29 X s 312 242 m -29 X s 312 254 m -29 X s 312 264 m -29 X s 312 273 m -29 X s 340 281 m -57 X s
 gsave  2268 1769 0 0 C 222.432 282.108 t 0 r /Helvetica findfont 46.1139 sf 0 0 m (\2556) show NC gr 
 gsave  2268 1769 0 0 C 146.479 249.557 t 0 r /Helvetica findfont 70.5271 sf 0 0 m (10) show NC gr  312 335 m -29 X s 312 367 m -29 X s 312 389 m -29 X s 312 407 m -29 X s 312 421 m -29 X s 312 433 m -29 X s 312 443 m -29 X s 312 452 m -29 X s 340
 461 m -57 X s
 gsave  2268 1769 0 0 C 222.432 461.139 t 0 r /Helvetica findfont 46.1139 sf 0 0 m (\2555) show NC gr 
 gsave  2268 1769 0 0 C 146.479 428.588 t 0 r /Helvetica findfont 70.5271 sf 0 0 m (10) show NC gr  312 514 m -29 X s 312 546 m -29 X s 312 568 m -29 X s 312 586 m -29 X s 312 600 m -29 X s 312 612 m -29 X s 312 622 m -29 X s 312 631 m -29 X s 340
 640 m -57 X s
 gsave  2268 1769 0 0 C 222.432 637.456 t 0 r /Helvetica findfont 46.1139 sf 0 0 m (\2554) show NC gr 
 gsave  2268 1769 0 0 C 146.479 607.618 t 0 r /Helvetica findfont 70.5271 sf 0 0 m (10) show NC gr  312 693 m -29 X s 312 725 m -29 X s 312 747 m -29 X s 312 765 m -29 X s 312 779 m -29 X s 312 791 m -29 X s 312 801 m -29 X s 312 810 m -29 X s 340
 819 m -57 X s
 gsave  2268 1769 0 0 C 222.432 819.199 t 0 r /Helvetica findfont 46.1139 sf 0 0 m (\2553) show NC gr 
 gsave  2268 1769 0 0 C 146.479 786.648 t 0 r /Helvetica findfont 70.5271 sf 0 0 m (10) show NC gr  312 873 m -29 X s 312 904 m -29 X s 312 926 m -29 X s 312 944 m -29 X s 312 958 m -29 X s 312 970 m -29 X s 312 980 m -29 X s 312 989 m -29 X s 340
 998 m -57 X s
 gsave  2268 1769 0 0 C 222.432 995.517 t 0 r /Helvetica findfont 46.1139 sf 0 0 m (\2552) show NC gr 
 gsave  2268 1769 0 0 C 146.479 965.678 t 0 r /Helvetica findfont 70.5271 sf 0 0 m (10) show NC gr  312 1052 m -29 X s 312 1083 m -29 X s 312 1105 m -29 X s 312 1123 m -29 X s 312 1137 m -29 X s 312 1149 m -29 X s 312 1159 m -29 X s 312 1168 m -29 X
 s 340 1177 m -57 X s
 gsave  2268 1769 0 0 C 230.569 1174.55 t 0 r /Helvetica findfont 46.1139 sf 0 0 m (\2551) show NC gr 
 gsave  2268 1769 0 0 C 154.617 1144.71 t 0 r /Helvetica findfont 70.5271 sf 0 0 m (10) show NC gr  312 1231 m -29 X s 312 1262 m -29 X s 312 1284 m -29 X s 312 1302 m -29 X s 312 1316 m -29 X s 312 1328 m -29 X s 312 1338 m -29 X s 312 1348 m -29 X
 s 340 1356 m -57 X s
 gsave  2268 1769 0 0 C 264.363 1326.43 t 0 r  -38 0 t /Helvetica findfont 67.8145 sf 0 0 m (1) show NC gr  312 1410 m -29 X s 312 1441 m -29 X s 312 1464 m -29 X s 312 1481 m -29 X s 312 1495 m -29 X s 312 1507 m -29 X s 312 1517 m -29 X s 312 1527
 m -29 X s 340 1535 m -57 X s
 gsave  2268 1769 0 0 C 264.363 1505.47 t 0 r  -76 0 t /Helvetica findfont 67.8145 sf 0 0 m (10) show NC gr  312 1589 m -29 X s 312 1620 m -29 X s 312 1643 m -29 X s 312 1660 m -29 X s 312 1674 m -29 X s 312 1686 m -29 X s 312 1696 m -29 X s 2177 216
 m 1482 Y s 2149 228 m 28 X s 2149 242 m 28 X s 2149 254 m 28 X s 2149 264 m 28 X s 2149 273 m 28 X s 2120 281 m 57 X s 2149 335 m 28 X s 2149 367 m 28 X s 2149 389 m 28 X s 2149 407 m 28 X s 2149 421 m 28 X s 2149 433 m 28 X s 2149 443 m 28 X s 2149
 452 m 28 X s 2120 461 m 57 X s 2149 514 m 28 X s 2149 546 m 28 X s 2149 568 m 28 X s 2149 586 m 28 X s 2149 600 m 28 X s 2149 612 m 28 X s 2149 622 m 28 X s 2149 631 m 28 X s 2120 640 m 57 X s 2149 693 m 28 X s 2149 725 m 28 X s 2149 747 m 28 X s
 2149 765 m 28 X s 2149 779 m 28 X s 2149 791 m 28 X s 2149 801 m 28 X s 2149 810 m 28 X s 2120 819 m 57 X s 2149 873 m 28 X s 2149 904 m 28 X s 2149 926 m 28 X s 2149 944 m 28 X s 2149 958 m 28 X s 2149 970 m 28 X s 2149 980 m 28 X s 2149 989 m 28 X
 s 2120 998 m 57 X s 2149 1052 m 28 X s 2149 1083 m 28 X s 2149 1105 m 28 X s 2149 1123 m 28 X s 2149 1137 m 28 X s 2149 1149 m 28 X s 2149 1159 m 28 X s 2149 1168 m 28 X s 2120 1177 m 57 X s 2149 1231 m 28 X s 2149 1262 m 28 X s 2149 1284 m 28 X s
 2149 1302 m 28 X s 2149 1316 m 28 X s 2149 1328 m 28 X s 2149 1338 m 28 X s 2149 1348 m 28 X s 2120 1356 m 57 X s 2149 1410 m 28 X s 2149 1441 m 28 X s 2149 1464 m 28 X s 2149 1481 m 28 X s 2149 1495 m 28 X s 2149 1507 m 28 X s 2149 1517 m 28 X s
 2149 1527 m 28 X s 2120 1535 m 57 X s 2149 1589 m 28 X s 2149 1620 m 28 X s 2149 1643 m 28 X s 2149 1660 m 28 X s 2149 1674 m 28 X s 2149 1686 m 28 X s 2149 1696 m 28 X s[ 20 20] 0 sd 1 1 1 c black 305 1690 m 64 -24 d 64 -24 d 64 -26 d 63 -30 d 64
 -37 d 64 -41 d 64 -43 d 64 -47 d 64 -49 d 64 -53 d 64 -54 d 64 -57 d 63 -59 d 64 -63 d 64 -62 d 64 -62 d 64 -62 d 64 -63 d 64 -61 d 64 -61 d 64 -61 d 63 -57 d 64 -55 d 64 -54 d 64 -54 d 64 -53 d 64 -53 d 64 -50 d 64 -51 d s[  ] 0 sd 3 lw /w 26 def
 /w2 {w 2 div} def /w3 {w 3 div} def 305 1690 369 1666 433 1642 497 1616 560 1586 624 1549 688 1508 752 1465 816 1418 880 1369 944 1316 1008 1262 1072 1205 1135 1146 1199 1083 1263 1021 1327 959 1391 897 1455 834 1519 773 1583 712 1647 651 1710 594
 1774 539 1838 485 1902 431 1966 378 2030 325 2094 275 2158 224 30 { m20} R[ 20 20] 0 sd 6 lw
 gsave  2268 1769 0 0 C 1586.86 1540.75 t 0 r /Helvetica findfont 70.5271 sf 0 0 m (\(L, B\) = \(0, 0\)) show NC gr 
 gr  gr showpage
end
%%EOF
