%!PS-Adobe-2.0 EPSF-2.0
%%BoundingBox:  0 0 567 442
%%Title: hess_electroscope.eps: hess_electroscope
%%Creator: ROOT Version 5.34/14
%%CreationDate: Fri Jan 31 22:19:45 2014
%%EndComments
%%BeginProlog
80 dict begin
/s {stroke} def /l {lineto} def /m {moveto} def /t {translate} def
/r {rotate} def /rl {roll}  def /R {repeat} def
/d {rlineto} def /rm {rmoveto} def /gr {grestore} def /f {eofill} def
/c {setrgbcolor} def /black {0 setgray} def /sd {setdash} def
/cl {closepath} def /sf {scalefont setfont} def /lw {setlinewidth} def
/box {m dup 0 exch d exch 0 d 0 exch neg d cl} def
/NC{systemdict begin initclip end}def/C{NC box clip newpath}def
/bl {box s} def /bf {box f} def /Y { 0 exch d} def /X { 0 d} def 
/K {{pop pop 0 moveto} exch kshow} bind def
/ita {/ang 15 def gsave [1 0 ang dup sin exch cos div 1 0 0] concat} def 
/mp {newpath /y exch def /x exch def} def
/side {[w .77 mul w .23 mul] .385 w mul sd w 0 l currentpoint t -144 r} def
/mr {mp x y w2 0 360 arc} def /m24 {mr s} def /m20 {mr f} def
/mb {mp x y w2 add m w2 neg 0 d 0 w neg d w 0 d 0 w d cl} def
/mt {mp x y w2 add m w2 neg w neg d w 0 d cl} def
/m21 {mb f} def /m25 {mb s} def /m22 {mt f} def /m26{mt s} def
/m23 {mp x y w2 sub m w2 w d w neg 0 d cl f} def
/m27 {mp x y w2 add m w3 neg w2 neg d w3 w2 neg d w3 w2 d cl s} def
/m28 {mp x w2 sub y w2 sub w3 add m w3 0 d  0 w3 neg d w3 0 d 0 w3 d w3 0 d  0 w3 d w3 neg 0 d 0 w3 d w3 neg 0 d 0 w3 neg d w3 neg 0 d cl s } def
/m29 {mp gsave x w2 sub y w2 add w3 sub m currentpoint t 4 {side} repeat cl fill gr} def
/m30 {mp gsave x w2 sub y w2 add w3 sub m currentpoint t 4 {side} repeat cl s gr} def
/m31 {mp x y w2 sub m 0 w d x w2 sub y m w 0 d x w2 sub y w2 add m w w neg d x w2 sub y w2 sub m w w d s} def
/m32 {mp x y w2 sub m w2 w d w neg 0 d cl s} def
/m33 {mp x y w2 add m w3 neg w2 neg d w3 w2 neg d w3 w2 d cl f} def
/m34 {mp x w2 sub y w2 sub w3 add m w3 0 d  0 w3 neg d w3 0 d 0 w3 d w3 0 d  0 w3 d w3 neg 0 d 0 w3 d w3 neg 0 d 0 w3 neg d w3 neg 0 d cl f } def
/m2 {mp x y w2 sub m 0 w d x w2 sub y m w 0 d s} def
/m5 {mp x w2 sub y w2 sub m w w d x w2 sub y w2 add m w w neg d s} def
/reEncode {exch findfont dup length dict begin {1 index /FID eq  {pop pop} {def} ifelse } forall /Encoding exch def currentdict end dup /FontName get exch definefont pop } def [/Times-Bold /Times-Italic /Times-BoldItalic /Helvetica /Helvetica-Oblique
 /Helvetica-Bold /Helvetica-BoldOblique /Courier /Courier-Oblique /Courier-Bold /Courier-BoldOblique /Times-Roman /AvantGarde-Book /AvantGarde-BookOblique /AvantGarde-Demi /AvantGarde-DemiOblique /Bookman-Demi /Bookman-DemiItalic /Bookman-Light
 /Bookman-LightItalic /Helvetica-Narrow /Helvetica-Narrow-Bold /Helvetica-Narrow-BoldOblique /Helvetica-Narrow-Oblique /NewCenturySchlbk-Roman /NewCenturySchlbk-Bold /NewCenturySchlbk-BoldItalic /NewCenturySchlbk-Italic /Palatino-Bold
 /Palatino-BoldItalic /Palatino-Italic /Palatino-Roman ] {ISOLatin1Encoding reEncode } forall
%%EndProlog
%%BeginSetup
%%EndSetup
newpath  gsave  .25 .25 scale  gsave  0 0 t black[  ] 0 sd 6 lw 1 1 1 c 2268 1769 0 0 bf black 3 lw 1 1 1 c 1894 1486 283 212 bf black 1894 1486 283 212 bl 1 1 1 c 1894 1486 283 212 bf black 1894 1486 283 212 bl 6 lw 283 212 m 1894 X s 0.6 0.6 0.6 c[
 12 12] 0 sd 3 lw 283 1698 m -1486 Y s 648 1698 m -1486 Y s 1012 1698 m -1486 Y s 1376 1698 m -1486 Y s 1740 1698 m -1486 Y s 2104 1698 m -1486 Y s 2104 1698 m -1486 Y s black[  ] 0 sd 6 lw 283 1698 m 1894 X s 283 212 m 1486 Y s 0.6 0.6 0.6 c[ 12 12]
 0 sd 3 lw 2177 212 m -1894 X s 2177 398 m -1894 X s 2177 584 m -1894 X s 2177 769 m -1894 X s 2177 955 m -1894 X s 2177 1141 m -1894 X s 2177 1326 m -1894 X s 2177 1512 m -1894 X s 2177 1698 m -1894 X s black[  ] 0 sd 6 lw 2177 212 m 1486 Y s 1 1 1
 c black 283 784 m 26 X s 331 784 m 25 X s 3 lw /w 26 def /w2 {w 2 div} def /w3 {w 3 div} def 320 784 m24 6 lw 356 788 m 44 X s 422 788 m 44 X s 3 lw 411 788 m24 6 lw 466 792 m 80 X s 567 792 m 81 X s 3 lw 557 792 m24 6 lw 648 803 m 171 X s 841 803 m
 171 X s 3 lw 830 803 m24 6 lw 1012 855 m 171 X s 1205 855 m 171 X s 3 lw 1194 855 m24 6 lw 1376 948 m 171 X s 1569 948 m 171 X s 3 lw 1558 948 m24 6 lw 1740 1490 m 208 X s 1969 1490 m 208 X s 3 lw 1959 1490 m24 6 lw 283 212 m 1894 X s
 gsave  2268 1769 0 0 C 1746.9 24.4132 t 0 r /Helvetica findfont 78.6648 sf 0 0 m (Altitude [km]) show NC gr  283 257 m -45 Y s 356 234 m -22 Y s 429 234 m -22 Y s 502 234 m -22 Y s 575 234 m -22 Y s 648 257 m -45 Y s 720 234 m -22 Y s 793 234 m -22
 Y s 866 234 m -22 Y s 939 234 m -22 Y s 1012 257 m -45 Y s 1085 234 m -22 Y s 1157 234 m -22 Y s 1230 234 m -22 Y s 1303 234 m -22 Y s 1376 257 m -45 Y s 1449 234 m -22 Y s 1522 234 m -22 Y s 1594 234 m -22 Y s 1667 234 m -22 Y s 1740 257 m -45 Y s
 1813 234 m -22 Y s 1886 234 m -22 Y s 1959 234 m -22 Y s 2031 234 m -22 Y s 2104 257 m -45 Y s 2104 257 m -45 Y s
 gsave  2268 1769 0 0 C 263.12 143.767 t 0 r /Helvetica findfont 70.5271 sf 0 0 m (0) show NC gr 
 gsave  2268 1769 0 0 C 566.929 143.767 t 0 r /Helvetica findfont 70.5271 sf 0 0 m (1000) show NC gr 
 gsave  2268 1769 0 0 C 930.415 143.767 t 0 r /Helvetica findfont 70.5271 sf 0 0 m (2000) show NC gr 
 gsave  2268 1769 0 0 C 1296.61 143.767 t 0 r /Helvetica findfont 70.5271 sf 0 0 m (3000) show NC gr 
 gsave  2268 1769 0 0 C 1660.1 143.767 t 0 r /Helvetica findfont 70.5271 sf 0 0 m (4000) show NC gr 
 gsave  2268 1769 0 0 C 2023.58 143.767 t 0 r /Helvetica findfont 70.5271 sf 0 0 m (5000) show NC gr  283 1698 m 1894 X s 283 1654 m 44 Y s 356 1676 m 22 Y s 429 1676 m 22 Y s 502 1676 m 22 Y s 575 1676 m 22 Y s 648 1654 m 44 Y s 720 1676 m 22 Y s
 793 1676 m 22 Y s 866 1676 m 22 Y s 939 1676 m 22 Y s 1012 1654 m 44 Y s 1085 1676 m 22 Y s 1157 1676 m 22 Y s 1230 1676 m 22 Y s 1303 1676 m 22 Y s 1376 1654 m 44 Y s 1449 1676 m 22 Y s 1522 1676 m 22 Y s 1594 1676 m 22 Y s 1667 1676 m 22 Y s 1740
 1654 m 44 Y s 1813 1676 m 22 Y s 1886 1676 m 22 Y s 1959 1676 m 22 Y s 2031 1676 m 22 Y s 2104 1654 m 44 Y s 2104 1654 m 44 Y s 283 212 m 1486 Y s
 gsave  2268 1769 0 0 C 92.2277 1679.09 t 90 r /Helvetica findfont 78.6648 sf 0 0 m (]) show NC gr 
 gsave  2268 1769 0 0 C 65.1019 1643.82 t 90 r /Helvetica findfont 51.539 sf 0 0 m (\2551) show NC gr 
 gsave  2268 1769 0 0 C 92.2277 1584.15 t 90 r /Helvetica findfont 78.6648 sf 0 0 m ( s) show NC gr 
 gsave  2268 1769 0 0 C 51.539 1540.75 t 90 r /Helvetica findfont 51.539 sf 0 0 m (\2553) show NC gr 
 gsave  2268 1769 0 0 C 92.2277 884.301 t 90 r /Helvetica findfont 78.6648 sf 0 0 m (Discharge rate [cm) show NC gr  341 212 m -58 X s 312 249 m -29 X s 312 287 m -29 X s 312 324 m -29 X s 312 361 m -29 X s 341 398 m -58 X s 312 435 m -29 X s 312 472
 m -29 X s 312 509 m -29 X s 312 546 m -29 X s 341 584 m -58 X s 312 621 m -29 X s 312 658 m -29 X s 312 695 m -29 X s 312 732 m -29 X s 341 769 m -58 X s 312 806 m -29 X s 312 844 m -29 X s 312 881 m -29 X s 312 918 m -29 X s 341 955 m -58 X s 312
 992 m -29 X s 312 1029 m -29 X s 312 1066 m -29 X s 312 1104 m -29 X s 341 1141 m -58 X s 312 1178 m -29 X s 312 1215 m -29 X s 312 1252 m -29 X s 312 1289 m -29 X s 341 1326 m -58 X s 312 1364 m -29 X s 312 1401 m -29 X s 312 1438 m -29 X s 312
 1475 m -29 X s 341 1512 m -58 X s 312 1549 m -29 X s 312 1586 m -29 X s 312 1624 m -29 X s 312 1661 m -29 X s 341 1698 m -58 X s
 gsave  2268 1769 0 0 C 233.282 187.168 t 0 r /Helvetica findfont 70.5271 sf 0 0 m (0) show NC gr 
 gsave  2268 1769 0 0 C 233.282 371.623 t 0 r /Helvetica findfont 70.5271 sf 0 0 m (5) show NC gr 
 gsave  2268 1769 0 0 C 195.306 558.791 t 0 r /Helvetica findfont 70.5271 sf 0 0 m (10) show NC gr 
 gsave  2268 1769 0 0 C 195.306 743.247 t 0 r /Helvetica findfont 70.5271 sf 0 0 m (15) show NC gr 
 gsave  2268 1769 0 0 C 195.306 930.415 t 0 r /Helvetica findfont 70.5271 sf 0 0 m (20) show NC gr 
 gsave  2268 1769 0 0 C 195.306 1114.87 t 0 r /Helvetica findfont 70.5271 sf 0 0 m (25) show NC gr 
 gsave  2268 1769 0 0 C 195.306 1299.33 t 0 r /Helvetica findfont 70.5271 sf 0 0 m (30) show NC gr 
 gsave  2268 1769 0 0 C 195.306 1486.49 t 0 r /Helvetica findfont 70.5271 sf 0 0 m (35) show NC gr 
 gsave  2268 1769 0 0 C 195.306 1670.95 t 0 r /Helvetica findfont 70.5271 sf 0 0 m (40) show NC gr  2177 212 m 1486 Y s 2120 212 m 57 X s 2148 249 m 29 X s 2148 287 m 29 X s 2148 324 m 29 X s 2148 361 m 29 X s 2120 398 m 57 X s 2148 435 m 29 X s 2148
 472 m 29 X s 2148 509 m 29 X s 2148 546 m 29 X s 2120 584 m 57 X s 2148 621 m 29 X s 2148 658 m 29 X s 2148 695 m 29 X s 2148 732 m 29 X s 2120 769 m 57 X s 2148 806 m 29 X s 2148 844 m 29 X s 2148 881 m 29 X s 2148 918 m 29 X s 2120 955 m 57 X s
 2148 992 m 29 X s 2148 1029 m 29 X s 2148 1066 m 29 X s 2148 1104 m 29 X s 2120 1141 m 57 X s 2148 1178 m 29 X s 2148 1215 m 29 X s 2148 1252 m 29 X s 2148 1289 m 29 X s 2120 1326 m 57 X s 2148 1364 m 29 X s 2148 1401 m 29 X s 2148 1438 m 29 X s
 2148 1475 m 29 X s 2120 1512 m 57 X s 2148 1549 m 29 X s 2148 1586 m 29 X s 2148 1624 m 29 X s 2148 1661 m 29 X s 2120 1698 m 57 X s 1 1 1 c black 283 624 m 26 X s 331 624 m 25 X s 3 lw /w 22 def /w2 {w 2 div} def /w3 {w 3 div} def 320 624 m25 6 lw
 356 598 m 44 X s 422 598 m 44 X s 3 lw 411 598 m25 6 lw 466 595 m 80 X s 567 595 m 81 X s 3 lw 557 595 m25 6 lw 648 662 m 171 X s 841 662 m 171 X s 3 lw 830 662 m25 6 lw 1012 706 m 171 X s 1205 706 m 171 X s 3 lw 1194 706 m25 6 lw 1376 825 m 171 X s
 1569 825 m 171 X s 3 lw 1558 825 m25 6 lw 1740 1222 m 208 X s 1969 1222 m 208 X s 3 lw 1959 1222 m25 6 lw
 gsave  2268 1769 0 0 C 594.055 1345.44 t 0 r /Helvetica findfont 70.5271 sf 0 0 m (Apparatus 1) show NC gr  1 1 1 c 3 lw 475 1332 m 99 X 68 Y -99 X f 6 lw black 475 1366 m 99 X s 3 lw /w 26 def /w2 {w 2 div} def /w3 {w 3 div} def 524 1366 m24 6 lw
 gsave  2268 1769 0 0 C 594.055 1247.79 t 0 r /Helvetica findfont 70.5271 sf 0 0 m (Apparatus 2) show NC gr  1 1 1 c 3 lw 475 1235 m 99 X 68 Y -99 X f 6 lw black 475 1269 m 99 X s 3 lw /w 22 def /w2 {w 2 div} def /w3 {w 3 div} def 524 1269 m25 6 lw
 gr  gr showpage
end
%%EOF
