%!PS-Adobe-2.0 EPSF-2.0
%%BoundingBox:  0 0 567 442
%%Title: int_limits.eps: int_limits
%%Creator: ROOT Version 5.34/14
%%CreationDate: Sat Jul 19 10:11:11 2014
%%EndComments
%%BeginProlog
80 dict begin
/s {stroke} def /l {lineto} def /m {moveto} def /t {translate} def
/r {rotate} def /rl {roll}  def /R {repeat} def
/d {rlineto} def /rm {rmoveto} def /gr {grestore} def /f {eofill} def
/c {setrgbcolor} def /black {0 setgray} def /sd {setdash} def
/cl {closepath} def /sf {scalefont setfont} def /lw {setlinewidth} def
/box {m dup 0 exch d exch 0 d 0 exch neg d cl} def
/NC{systemdict begin initclip end}def/C{NC box clip newpath}def
/bl {box s} def /bf {box f} def /Y { 0 exch d} def /X { 0 d} def 
/K {{pop pop 0 moveto} exch kshow} bind def
/ita {/ang 15 def gsave [1 0 ang dup sin exch cos div 1 0 0] concat} def 
/mp {newpath /y exch def /x exch def} def
/side {[w .77 mul w .23 mul] .385 w mul sd w 0 l currentpoint t -144 r} def
/mr {mp x y w2 0 360 arc} def /m24 {mr s} def /m20 {mr f} def
/mb {mp x y w2 add m w2 neg 0 d 0 w neg d w 0 d 0 w d cl} def
/mt {mp x y w2 add m w2 neg w neg d w 0 d cl} def
/m21 {mb f} def /m25 {mb s} def /m22 {mt f} def /m26{mt s} def
/m23 {mp x y w2 sub m w2 w d w neg 0 d cl f} def
/m27 {mp x y w2 add m w3 neg w2 neg d w3 w2 neg d w3 w2 d cl s} def
/m28 {mp x w2 sub y w2 sub w3 add m w3 0 d  0 w3 neg d w3 0 d 0 w3 d w3 0 d  0 w3 d w3 neg 0 d 0 w3 d w3 neg 0 d 0 w3 neg d w3 neg 0 d cl s } def
/m29 {mp gsave x w2 sub y w2 add w3 sub m currentpoint t 4 {side} repeat cl fill gr} def
/m30 {mp gsave x w2 sub y w2 add w3 sub m currentpoint t 4 {side} repeat cl s gr} def
/m31 {mp x y w2 sub m 0 w d x w2 sub y m w 0 d x w2 sub y w2 add m w w neg d x w2 sub y w2 sub m w w d s} def
/m32 {mp x y w2 sub m w2 w d w neg 0 d cl s} def
/m33 {mp x y w2 add m w3 neg w2 neg d w3 w2 neg d w3 w2 d cl f} def
/m34 {mp x w2 sub y w2 sub w3 add m w3 0 d  0 w3 neg d w3 0 d 0 w3 d w3 0 d  0 w3 d w3 neg 0 d 0 w3 d w3 neg 0 d 0 w3 neg d w3 neg 0 d cl f } def
/m2 {mp x y w2 sub m 0 w d x w2 sub y m w 0 d s} def
/m5 {mp x w2 sub y w2 sub m w w d x w2 sub y w2 add m w w neg d s} def
/reEncode {exch findfont dup length dict begin {1 index /FID eq  {pop pop} {def} ifelse } forall /Encoding exch def currentdict end dup /FontName get exch definefont pop } def [/Times-Bold /Times-Italic /Times-BoldItalic /Helvetica /Helvetica-Oblique
 /Helvetica-Bold /Helvetica-BoldOblique /Courier /Courier-Oblique /Courier-Bold /Courier-BoldOblique /Times-Roman /AvantGarde-Book /AvantGarde-BookOblique /AvantGarde-Demi /AvantGarde-DemiOblique /Bookman-Demi /Bookman-DemiItalic /Bookman-Light
 /Bookman-LightItalic /Helvetica-Narrow /Helvetica-Narrow-Bold /Helvetica-Narrow-BoldOblique /Helvetica-Narrow-Oblique /NewCenturySchlbk-Roman /NewCenturySchlbk-Bold /NewCenturySchlbk-BoldItalic /NewCenturySchlbk-Italic /Palatino-Bold
 /Palatino-BoldItalic /Palatino-Italic /Palatino-Roman ] {ISOLatin1Encoding reEncode } forall
%%EndProlog
%%BeginSetup
%%EndSetup
newpath  gsave  .25 .25 scale  gsave  0 0 t black[  ] 0 sd 6 lw 1 1 1 c 2268 1769 0 0 bf black 3 lw 1 1 1 c 1894 1482 283 216 bf black 1894 1482 283 216 bl 1 1 1 c 1894 1482 283 216 bf black 1894 1482 283 216 bl 6 lw 283 216 m 1894 X s 0.6 0.6 0.6 c[
 12 12] 0 sd 3 lw 283 1698 m -1482 Y s 568 1698 m -1482 Y s 735 1698 m -1482 Y s 853 1698 m -1482 Y s 945 1698 m -1482 Y s 1020 1698 m -1482 Y s 1084 1698 m -1482 Y s 1138 1698 m -1482 Y s 1187 1698 m -1482 Y s 1230 1698 m -1482 Y s 1515 1698 m -1482
 Y s 1682 1698 m -1482 Y s 1800 1698 m -1482 Y s 1892 1698 m -1482 Y s 1967 1698 m -1482 Y s 2030 1698 m -1482 Y s 2085 1698 m -1482 Y s 2134 1698 m -1482 Y s 2177 1698 m -1482 Y s black[  ] 0 sd 6 lw 283 1698 m 1894 X s 283 216 m 1482 Y s 0.6 0.6
 0.6 c[ 12 12] 0 sd 3 lw 2177 216 m -1894 X s 2177 498 m -1894 X s 2177 781 m -1894 X s 2177 1063 m -1894 X s 2177 1345 m -1894 X s 2177 1628 m -1894 X s 2177 1628 m -1894 X s black[  ] 0 sd 6 lw 2177 216 m 1482 Y s 0.95 0.95 0.95 c black 284 221 m 2
 12 d 2 11 d 2 11 d 2 11 d 2 11 d 2 11 d 2 11 d 2 10 d 1 11 d 2 10 d 2 11 d 2 10 d 2 10 d 2 10 d 2 11 d 2 10 d 2 10 d 1 9 d 2 10 d 2 10 d 2 9 d 2 10 d 2 9 d 2 10 d 2 9 d 2 9 d 2 9 d 1 10 d 2 9 d 2 8 d 2 9 d 2 9 d 2 9 d 2 9 d 2 8 d 2 9 d 1 8 d 2 8 d 2
 9 d 2 8 d 2 8 d 2 8 d 2 8 d 2 8 d 2 8 d 2 8 d 1 8 d 2 8 d 2 7 d s 377 680 m 2 8 d 2 7 d 2 8 d 2 7 d 2 8 d 2 7 d 1 7 d 2 7 d 2 8 d 2 7 d 2 7 d 2 7 d 2 6 d 2 7 d 2 7 d 1 7 d 2 7 d 2 6 d 2 7 d 2 6 d 2 7 d 2 6 d 2 7 d 2 6 d 2 6 d 1 6 d 2 7 d 2 6 d 2 6 d
 2 6 d 2 6 d 2 6 d 2 6 d 2 5 d 1 6 d 2 6 d 2 6 d 2 5 d 2 6 d 2 5 d 2 6 d 2 5 d 2 6 d 2 5 d 1 5 d 2 6 d 2 5 d 2 5 d 2 5 d s 470 989 m 2 5 d 2 6 d 2 5 d 2 5 d 1 5 d 2 4 d 2 5 d 2 5 d 2 5 d 2 5 d 2 5 d 2 4 d 2 5 d 1 4 d 2 5 d 2 5 d 2 4 d 2 5 d 2 4 d 2 4
 d 2 5 d 2 4 d 2 4 d 1 5 d 2 4 d 2 4 d 2 4 d 2 4 d 2 4 d 2 4 d 2 4 d 2 4 d 1 4 d 2 4 d 2 4 d 2 4 d 2 4 d 2 4 d 2 4 d 2 3 d 2 4 d 2 4 d 1 3 d 2 4 d 2 4 d 2 3 d 2 4 d 2 3 d 2 4 d s 563 1198 m 2 3 d 2 4 d 1 3 d 2 3 d 2 4 d 2 3 d 2 3 d 2 3 d 2 4 d 2 3 d
 2 3 d 1 3 d 2 3 d 2 4 d 2 3 d 2 3 d 2 3 d 2 3 d 2 3 d 2 3 d 2 3 d 1 3 d 2 2 d 2 3 d 2 3 d 2 3 d 2 3 d 2 3 d 2 2 d 2 3 d 1 3 d 2 2 d 2 3 d 2 3 d 2 2 d 2 3 d 2 3 d 2 2 d 2 3 d 2 2 d 1 3 d 2 2 d 2 3 d 2 2 d 2 2 d 2 3 d 2 2 d 2 3 d 2 2 d s 656 1338 m 1
 2 d 2 3 d 2 2 d 2 2 d 2 2 d 2 3 d 2 2 d 2 2 d 2 2 d 1 2 d 2 3 d 2 2 d 2 2 d 2 2 d 2 2 d 2 2 d 2 2 d 2 2 d 2 2 d 1 2 d 2 2 d 2 2 d 2 2 d 2 2 d 2 2 d 2 2 d 2 2 d 2 1 d 1 2 d 2 2 d 2 2 d 2 2 d 2 2 d 2 1 d 2 2 d 2 2 d 2 2 d 2 1 d 1 2 d 2 2 d 2 1 d 2 2 d
 2 2 d 2 1 d 2 2 d 2 2 d 2 1 d 1 2 d 2 1 d s 748 1432 m 2 2 d 2 2 d 2 1 d 2 2 d 2 1 d 2 2 d 2 1 d 1 2 d 2 1 d 2 2 d 2 1 d 2 1 d 2 2 d 2 1 d 2 2 d 2 1 d 2 1 d 1 2 d 2 1 d 2 2 d 2 1 d 2 1 d 2 2 d 2 1 d 2 1 d 2 1 d 1 2 d 2 1 d 2 1 d 2 1 d 2 2 d 2 1 d 2
 1 d 2 1 d 2 1 d 1 2 d 2 1 d 2 1 d 2 1 d 2 1 d 2 1 d 2 2 d 2 1 d 2 1 d 2 1 d 1 1 d 2 1 d 2 1 d 2 1 d s 841 1496 m 2 1 d 2 1 d 2 1 d 2 1 d 2 1 d 1 1 d 2 1 d 2 1 d 2 1 d 2 1 d 2 1 d 2 1 d 2 1 d 2 1 d 2 1 d 1 1 d 2 1 d 2 1 d 2 1 d 2 1 d 2 1 d 2 1 d 2 X
 2 1 d 1 1 d 2 1 d 2 1 d 2 1 d 2 1 d 2 X 2 1 d 2 1 d 2 1 d 1 1 d 2 1 d 2 X 2 1 d 2 1 d 2 1 d 2 X 2 1 d 2 1 d 2 1 d 1 X 2 1 d 2 1 d 2 1 d 2 X 2 1 d s 934 1539 m 2 1 d 2 1 d 2 X 1 1 d 2 1 d 2 X 2 1 d 2 1 d 2 X 2 1 d 2 1 d 2 X 2 1 d 1 1 d 2 X 2 1 d 2 X
 2 1 d 2 1 d 2 X 2 1 d 2 1 d 1 X 2 1 d 2 X 2 1 d 2 X 2 1 d 2 1 d 2 X 2 1 d 1 X 2 1 d 2 X 2 1 d 2 X 2 1 d 2 X 2 1 d 2 1 d 2 X 1 1 d 2 X 2 1 d 2 X 2 1 d 2 X 2 1 d 2 X s 1027 1568 m 2 X 1 1 d 2 X 2 1 d 2 X 2 1 d 2 X 2 1 d 2 X 2 1 d 2 X 1 1 d 4 X 2 1 d 2
 X 2 1 d 4 X 2 1 d 1 X 2 1 d 2 X 2 1 d 4 X 2 1 d 4 X 1 1 d 2 X 2 1 d 4 X 2 1 d 4 X 2 1 d 3 X 2 1 d 2 X 2 1 d 4 X 2 1 d 5 X s 1119 1587 m 2 1 d 4 X 2 1 d 4 X 2 1 d 4 X 1 1 d 4 X 2 1 d 6 X 2 1 d 5 X 2 1 d 4 X 2 1 d 6 X 1 1 d 6 X 2 1 d 6 X 2 1 d 5 X 2 1
 d 6 X 2 1 d 7 X 2 1 d s 1212 1601 m 8 X 2 1 d 5 X 2 1 d 8 X 2 1 d 9 X 2 1 d 8 X 2 1 d 9 X 2 1 d 9 X 2 1 d 10 X 2 1 d 11 X s 1305 1609 m 2 1 d 11 X 2 1 d 12 X 1 1 d 14 X 2 1 d 13 X 2 1 d 15 X 2 1 d 17 X s 1398 1615 m 2 1 d 19 X 2 1 d 18 X 2 1 d 23 X
 2 1 d 25 X s 1491 1619 m 1 1 d 29 X 2 1 d 34 X 2 1 d 24 X s 1583 1622 m 16 X 1 1 d 48 X 2 1 d 26 X s 1676 1624 m 34 X 2 1 d 57 X s 1769 1625 m 28 X 2 1 d 63 X s 1862 1626 m 75 X 2 1 d 16 X s 1955 1627 m 92 X s 2047 1627 m 93 X s 2140 1627 m 36 X s
 283 216 m 1894 X s
 gsave  2268 1769 0 0 C 2134.8 16.2755 t 0 r /Helvetica findfont 78.6648 sf 0 0 m (k) show NC gr  283 260 m -44 Y s
 gsave  2268 1769 0 0 C 283.466 119.893 t 0 r  -19 0 t /Helvetica findfont 67.8145 sf 0 0 m (1) show NC gr  568 238 m -22 Y s 735 238 m -22 Y s 853 238 m -22 Y s 945 238 m -22 Y s 1020 238 m -22 Y s 1084 238 m -22 Y s 1138 238 m -22 Y s 1187 238 m
 -22 Y s 1230 260 m -44 Y s
 gsave  2268 1769 0 0 C 1230.24 119.893 t 0 r  -38 0 t /Helvetica findfont 67.8145 sf 0 0 m (10) show NC gr  1515 238 m -22 Y s 1682 238 m -22 Y s 1800 238 m -22 Y s 1892 238 m -22 Y s 1967 238 m -22 Y s 2030 238 m -22 Y s 2085 238 m -22 Y s 2134 238
 m -22 Y s 2177 260 m -44 Y s
 gsave  2268 1769 0 0 C 2199.9 154.617 t 0 r /Helvetica findfont 46.1139 sf 0 0 m (2) show NC gr 
 gsave  2268 1769 0 0 C 2123.95 122.066 t 0 r /Helvetica findfont 70.5271 sf 0 0 m (10) show NC gr  283 1698 m 1894 X s 283 1654 m 44 Y s 568 1676 m 22 Y s 735 1676 m 22 Y s 853 1676 m 22 Y s 945 1676 m 22 Y s 1020 1676 m 22 Y s 1084 1676 m 22 Y s
 1138 1676 m 22 Y s 1187 1676 m 22 Y s 1230 1654 m 44 Y s 1515 1676 m 22 Y s 1682 1676 m 22 Y s 1800 1676 m 22 Y s 1892 1676 m 22 Y s 1967 1676 m 22 Y s 2030 1676 m 22 Y s 2085 1676 m 22 Y s 2134 1676 m 22 Y s 2177 1654 m 44 Y s 283 216 m 1482 Y s
 gsave  2268 1769 0 0 C 86.8025 1670.95 t 90 r /Helvetica findfont 78.6648 sf 0 0 m (r) show NC gr  340 216 m -57 X s 312 286 m -29 X s 312 357 m -29 X s 312 428 m -29 X s 340 498 m -57 X s 312 569 m -29 X s 312 639 m -29 X s 312 710 m -29 X s 340
 781 m -57 X s 312 851 m -29 X s 312 922 m -29 X s 312 992 m -29 X s 340 1063 m -57 X s 312 1134 m -29 X s 312 1204 m -29 X s 312 1275 m -29 X s 340 1345 m -57 X s 312 1416 m -29 X s 312 1487 m -29 X s 312 1557 m -29 X s 340 1628 m -57 X s 340 1628 m
 -57 X s
 gsave  2268 1769 0 0 C 233.282 189.881 t 0 r /Helvetica findfont 70.5271 sf 0 0 m (0) show NC gr 
 gsave  2268 1769 0 0 C 176.318 471.989 t 0 r /Helvetica findfont 70.5271 sf 0 0 m (0.2) show NC gr 
 gsave  2268 1769 0 0 C 173.605 754.097 t 0 r /Helvetica findfont 70.5271 sf 0 0 m (0.4) show NC gr 
 gsave  2268 1769 0 0 C 173.605 1036.21 t 0 r /Helvetica findfont 70.5271 sf 0 0 m (0.6) show NC gr 
 gsave  2268 1769 0 0 C 173.605 1318.31 t 0 r /Helvetica findfont 70.5271 sf 0 0 m (0.8) show NC gr 
 gsave  2268 1769 0 0 C 244.132 1603.13 t 0 r /Helvetica findfont 70.5271 sf 0 0 m (1) show NC gr  2177 216 m 1482 Y s 2120 216 m 57 X s 2149 286 m 28 X s 2149 357 m 28 X s 2149 428 m 28 X s 2120 498 m 57 X s 2149 569 m 28 X s 2149 639 m 28 X s 2149
 710 m 28 X s 2120 781 m 57 X s 2149 851 m 28 X s 2149 922 m 28 X s 2149 992 m 28 X s 2120 1063 m 57 X s 2149 1134 m 28 X s 2149 1204 m 28 X s 2149 1275 m 28 X s 2120 1345 m 57 X s 2149 1416 m 28 X s 2149 1487 m 28 X s 2149 1557 m 28 X s 2120 1628 m
 57 X s 2120 1628 m 57 X s
 gsave  2268 1769 0 0 C 1744.19 1415.97 t 0 r /Helvetica findfont 70.5271 sf 0 0 m ( = 2.75) show NC gr 
 gsave  2268 1769 0 0 C 1700.79 1415.97 t 0 r /Symbol findfont 70.5271 sf 0 0 m (G) show NC gr 
 gr  gr showpage
end
%%EOF
