%!PS-Adobe-2.0 EPSF-2.0
%%BoundingBox:  0 0 567 444
%%Title: isotopes_rbeta.eps: isotopes_rbeta
%%Creator: ROOT Version 5.34/14
%%CreationDate: Fri May 30 17:03:17 2014
%%EndComments
%%BeginProlog
80 dict begin
/s {stroke} def /l {lineto} def /m {moveto} def /t {translate} def
/r {rotate} def /rl {roll}  def /R {repeat} def
/d {rlineto} def /rm {rmoveto} def /gr {grestore} def /f {eofill} def
/c {setrgbcolor} def /black {0 setgray} def /sd {setdash} def
/cl {closepath} def /sf {scalefont setfont} def /lw {setlinewidth} def
/box {m dup 0 exch d exch 0 d 0 exch neg d cl} def
/NC{systemdict begin initclip end}def/C{NC box clip newpath}def
/bl {box s} def /bf {box f} def /Y { 0 exch d} def /X { 0 d} def 
/K {{pop pop 0 moveto} exch kshow} bind def
/ita {/ang 15 def gsave [1 0 ang dup sin exch cos div 1 0 0] concat} def 
/mp {newpath /y exch def /x exch def} def
/side {[w .77 mul w .23 mul] .385 w mul sd w 0 l currentpoint t -144 r} def
/mr {mp x y w2 0 360 arc} def /m24 {mr s} def /m20 {mr f} def
/mb {mp x y w2 add m w2 neg 0 d 0 w neg d w 0 d 0 w d cl} def
/mt {mp x y w2 add m w2 neg w neg d w 0 d cl} def
/m21 {mb f} def /m25 {mb s} def /m22 {mt f} def /m26{mt s} def
/m23 {mp x y w2 sub m w2 w d w neg 0 d cl f} def
/m27 {mp x y w2 add m w3 neg w2 neg d w3 w2 neg d w3 w2 d cl s} def
/m28 {mp x w2 sub y w2 sub w3 add m w3 0 d  0 w3 neg d w3 0 d 0 w3 d w3 0 d  0 w3 d w3 neg 0 d 0 w3 d w3 neg 0 d 0 w3 neg d w3 neg 0 d cl s } def
/m29 {mp gsave x w2 sub y w2 add w3 sub m currentpoint t 4 {side} repeat cl fill gr} def
/m30 {mp gsave x w2 sub y w2 add w3 sub m currentpoint t 4 {side} repeat cl s gr} def
/m31 {mp x y w2 sub m 0 w d x w2 sub y m w 0 d x w2 sub y w2 add m w w neg d x w2 sub y w2 sub m w w d s} def
/m32 {mp x y w2 sub m w2 w d w neg 0 d cl s} def
/m33 {mp x y w2 add m w3 neg w2 neg d w3 w2 neg d w3 w2 d cl f} def
/m34 {mp x w2 sub y w2 sub w3 add m w3 0 d  0 w3 neg d w3 0 d 0 w3 d w3 0 d  0 w3 d w3 neg 0 d 0 w3 d w3 neg 0 d 0 w3 neg d w3 neg 0 d cl f } def
/m2 {mp x y w2 sub m 0 w d x w2 sub y m w 0 d s} def
/m5 {mp x w2 sub y w2 sub m w w d x w2 sub y w2 add m w w neg d s} def
/reEncode {exch findfont dup length dict begin {1 index /FID eq  {pop pop} {def} ifelse } forall /Encoding exch def currentdict end dup /FontName get exch definefont pop } def [/Times-Bold /Times-Italic /Times-BoldItalic /Helvetica /Helvetica-Oblique
 /Helvetica-Bold /Helvetica-BoldOblique /Courier /Courier-Oblique /Courier-Bold /Courier-BoldOblique /Times-Roman /AvantGarde-Book /AvantGarde-BookOblique /AvantGarde-Demi /AvantGarde-DemiOblique /Bookman-Demi /Bookman-DemiItalic /Bookman-Light
 /Bookman-LightItalic /Helvetica-Narrow /Helvetica-Narrow-Bold /Helvetica-Narrow-BoldOblique /Helvetica-Narrow-Oblique /NewCenturySchlbk-Roman /NewCenturySchlbk-Bold /NewCenturySchlbk-BoldItalic /NewCenturySchlbk-Italic /Palatino-Bold
 /Palatino-BoldItalic /Palatino-Italic /Palatino-Roman ] {ISOLatin1Encoding reEncode } forall
%%EndProlog
%%BeginSetup
%%EndSetup
newpath  gsave  .25 .25 scale  gsave  0 0 t black[  ] 0 sd 6 lw 1 1 1 c 2268 1774 0 0 bf black 3 lw 1 1 1 c 1894 1487 283 216 bf black 1894 1487 283 216 bl 1 1 1 c 1894 1487 283 216 bf black 1894 1487 283 216 bl 6 lw 283 216 m 1894 X s 0.6 0.6 0.6 c[
 12 12] 0 sd 3 lw 283 1703 m -1487 Y s 473 1703 m -1487 Y s 662 1703 m -1487 Y s 852 1703 m -1487 Y s 1041 1703 m -1487 Y s 1230 1703 m -1487 Y s 1420 1703 m -1487 Y s 1609 1703 m -1487 Y s 1798 1703 m -1487 Y s 1988 1703 m -1487 Y s 2177 1703 m
 -1487 Y s black[  ] 0 sd 6 lw 283 1703 m 1894 X s 283 216 m 1487 Y s 0.6 0.6 0.6 c[ 12 12] 0 sd 3 lw 2177 216 m -1894 X s 2177 365 m -1894 X s 2177 514 m -1894 X s 2177 662 m -1894 X s 2177 811 m -1894 X s 2177 960 m -1894 X s 2177 1108 m -1894 X s
 2177 1257 m -1894 X s 2177 1406 m -1894 X s 2177 1554 m -1894 X s 2177 1703 m -1894 X s black[  ] 0 sd 6 lw 2177 216 m 1487 Y s 1 1 1 c black 283 216 m 1894 X s 283 216 m 1894 X s
 gsave  2268 1774 0 0 C 1942.21 27.1258 t 0 r /Helvetica findfont 78.6648 sf 0 0 m (R [GV]) show NC gr  283 261 m -45 Y s 321 239 m -23 Y s 359 239 m -23 Y s 397 239 m -23 Y s 435 239 m -23 Y s 473 261 m -45 Y s 511 239 m -23 Y s 549 239 m -23 Y s
 586 239 m -23 Y s 624 239 m -23 Y s 662 261 m -45 Y s 700 239 m -23 Y s 738 239 m -23 Y s 776 239 m -23 Y s 814 239 m -23 Y s 852 261 m -45 Y s 889 239 m -23 Y s 927 239 m -23 Y s 965 239 m -23 Y s 1003 239 m -23 Y s 1041 261 m -45 Y s 1079 239 m
 -23 Y s 1117 239 m -23 Y s 1154 239 m -23 Y s 1192 239 m -23 Y s 1230 261 m -45 Y s 1268 239 m -23 Y s 1306 239 m -23 Y s 1344 239 m -23 Y s 1382 239 m -23 Y s 1420 261 m -45 Y s 1457 239 m -23 Y s 1495 239 m -23 Y s 1533 239 m -23 Y s 1571 239 m
 -23 Y s 1609 261 m -45 Y s 1647 239 m -23 Y s 1685 239 m -23 Y s 1723 239 m -23 Y s 1760 239 m -23 Y s 1798 261 m -45 Y s 1836 239 m -23 Y s 1874 239 m -23 Y s 1912 239 m -23 Y s 1950 239 m -23 Y s 1988 261 m -45 Y s 2026 239 m -23 Y s 2063 239 m
 -23 Y s 2101 239 m -23 Y s 2139 239 m -23 Y s 2177 261 m -45 Y s
 gsave  2268 1774 0 0 C 263.12 149.192 t 0 r /Helvetica findfont 70.5271 sf 0 0 m (0) show NC gr 
 gsave  2268 1774 0 0 C 423.162 149.192 t 0 r /Helvetica findfont 70.5271 sf 0 0 m (0.5) show NC gr 
 gsave  2268 1774 0 0 C 648.307 149.192 t 0 r /Helvetica findfont 70.5271 sf 0 0 m (1) show NC gr 
 gsave  2268 1774 0 0 C 800.211 149.192 t 0 r /Helvetica findfont 70.5271 sf 0 0 m (1.5) show NC gr 
 gsave  2268 1774 0 0 C 1019.93 149.192 t 0 r /Helvetica findfont 70.5271 sf 0 0 m (2) show NC gr 
 gsave  2268 1774 0 0 C 1179.97 149.192 t 0 r /Helvetica findfont 70.5271 sf 0 0 m (2.5) show NC gr 
 gsave  2268 1774 0 0 C 1399.69 149.192 t 0 r /Helvetica findfont 70.5271 sf 0 0 m (3) show NC gr 
 gsave  2268 1774 0 0 C 1559.73 149.192 t 0 r /Helvetica findfont 70.5271 sf 0 0 m (3.5) show NC gr 
 gsave  2268 1774 0 0 C 1776.74 149.192 t 0 r /Helvetica findfont 70.5271 sf 0 0 m (4) show NC gr 
 gsave  2268 1774 0 0 C 1936.78 149.192 t 0 r /Helvetica findfont 70.5271 sf 0 0 m (4.5) show NC gr 
 gsave  2268 1774 0 0 C 2156.5 149.192 t 0 r /Helvetica findfont 70.5271 sf 0 0 m (5) show NC gr  283 1703 m 1894 X s 283 1659 m 44 Y s 321 1681 m 22 Y s 359 1681 m 22 Y s 397 1681 m 22 Y s 435 1681 m 22 Y s 473 1659 m 44 Y s 511 1681 m 22 Y s 549
 1681 m 22 Y s 586 1681 m 22 Y s 624 1681 m 22 Y s 662 1659 m 44 Y s 700 1681 m 22 Y s 738 1681 m 22 Y s 776 1681 m 22 Y s 814 1681 m 22 Y s 852 1659 m 44 Y s 889 1681 m 22 Y s 927 1681 m 22 Y s 965 1681 m 22 Y s 1003 1681 m 22 Y s 1041 1659 m 44 Y s
 1079 1681 m 22 Y s 1117 1681 m 22 Y s 1154 1681 m 22 Y s 1192 1681 m 22 Y s 1230 1659 m 44 Y s 1268 1681 m 22 Y s 1306 1681 m 22 Y s 1344 1681 m 22 Y s 1382 1681 m 22 Y s 1420 1659 m 44 Y s 1457 1681 m 22 Y s 1495 1681 m 22 Y s 1533 1681 m 22 Y s
 1571 1681 m 22 Y s 1609 1659 m 44 Y s 1647 1681 m 22 Y s 1685 1681 m 22 Y s 1723 1681 m 22 Y s 1760 1681 m 22 Y s 1798 1659 m 44 Y s 1836 1681 m 22 Y s 1874 1681 m 22 Y s 1912 1681 m 22 Y s 1950 1681 m 22 Y s 1988 1659 m 44 Y s 2026 1681 m 22 Y s
 2063 1681 m 22 Y s 2101 1681 m 22 Y s 2139 1681 m 22 Y s 2177 1659 m 44 Y s 283 216 m 1487 Y s
 gsave  2268 1774 0 0 C 84.09 1662.81 t 90 r /Symbol findfont 78.6648 sf 0 0 m (b) show NC gr  340 216 m -57 X s 312 246 m -29 X s 312 276 m -29 X s 312 306 m -29 X s 312 335 m -29 X s 340 365 m -57 X s 312 395 m -29 X s 312 425 m -29 X s 312 454 m
 -29 X s 312 484 m -29 X s 340 514 m -57 X s 312 543 m -29 X s 312 573 m -29 X s 312 603 m -29 X s 312 633 m -29 X s 340 662 m -57 X s 312 692 m -29 X s 312 722 m -29 X s 312 752 m -29 X s 312 781 m -29 X s 340 811 m -57 X s 312 841 m -29 X s 312 871
 m -29 X s 312 900 m -29 X s 312 930 m -29 X s 340 960 m -57 X s 312 989 m -29 X s 312 1019 m -29 X s 312 1049 m -29 X s 312 1079 m -29 X s 340 1108 m -57 X s 312 1138 m -29 X s 312 1168 m -29 X s 312 1198 m -29 X s 312 1227 m -29 X s 340 1257 m -57
 X s 312 1287 m -29 X s 312 1317 m -29 X s 312 1346 m -29 X s 312 1376 m -29 X s 340 1406 m -57 X s 312 1435 m -29 X s 312 1465 m -29 X s 312 1495 m -29 X s 312 1525 m -29 X s 340 1554 m -57 X s 312 1584 m -29 X s 312 1614 m -29 X s 312 1644 m -29 X
 s 312 1673 m -29 X s 340 1703 m -57 X s
 gsave  2268 1774 0 0 C 233.282 189.881 t 0 r /Helvetica findfont 70.5271 sf 0 0 m (0) show NC gr 
 gsave  2268 1774 0 0 C 187.168 339.072 t 0 r /Helvetica findfont 70.5271 sf 0 0 m (0.1) show NC gr 
 gsave  2268 1774 0 0 C 176.318 488.264 t 0 r /Helvetica findfont 70.5271 sf 0 0 m (0.2) show NC gr 
 gsave  2268 1774 0 0 C 176.318 637.456 t 0 r /Helvetica findfont 70.5271 sf 0 0 m (0.3) show NC gr 
 gsave  2268 1774 0 0 C 173.605 786.648 t 0 r /Helvetica findfont 70.5271 sf 0 0 m (0.4) show NC gr 
 gsave  2268 1774 0 0 C 173.605 933.127 t 0 r /Helvetica findfont 70.5271 sf 0 0 m (0.5) show NC gr 
 gsave  2268 1774 0 0 C 173.605 1082.32 t 0 r /Helvetica findfont 70.5271 sf 0 0 m (0.6) show NC gr 
 gsave  2268 1774 0 0 C 173.605 1231.51 t 0 r /Helvetica findfont 70.5271 sf 0 0 m (0.7) show NC gr 
 gsave  2268 1774 0 0 C 173.605 1380.7 t 0 r /Helvetica findfont 70.5271 sf 0 0 m (0.8) show NC gr 
 gsave  2268 1774 0 0 C 176.318 1529.89 t 0 r /Helvetica findfont 70.5271 sf 0 0 m (0.9) show NC gr 
 gsave  2268 1774 0 0 C 244.132 1676.37 t 0 r /Helvetica findfont 70.5271 sf 0 0 m (1) show NC gr  2177 216 m 1487 Y s 2120 216 m 57 X s 2149 246 m 28 X s 2149 276 m 28 X s 2149 306 m 28 X s 2149 335 m 28 X s 2120 365 m 57 X s 2149 395 m 28 X s 2149
 425 m 28 X s 2149 454 m 28 X s 2149 484 m 28 X s 2120 514 m 57 X s 2149 543 m 28 X s 2149 573 m 28 X s 2149 603 m 28 X s 2149 633 m 28 X s 2120 662 m 57 X s 2149 692 m 28 X s 2149 722 m 28 X s 2149 752 m 28 X s 2149 781 m 28 X s 2120 811 m 57 X s
 2149 841 m 28 X s 2149 871 m 28 X s 2149 900 m 28 X s 2149 930 m 28 X s 2120 960 m 57 X s 2149 989 m 28 X s 2149 1019 m 28 X s 2149 1049 m 28 X s 2149 1079 m 28 X s 2120 1108 m 57 X s 2149 1138 m 28 X s 2149 1168 m 28 X s 2149 1198 m 28 X s 2149
 1227 m 28 X s 2120 1257 m 57 X s 2149 1287 m 28 X s 2149 1317 m 28 X s 2149 1346 m 28 X s 2149 1376 m 28 X s 2120 1406 m 57 X s 2149 1435 m 28 X s 2149 1465 m 28 X s 2149 1495 m 28 X s 2149 1525 m 28 X s 2120 1554 m 57 X s 2149 1584 m 28 X s 2149
 1614 m 28 X s 2149 1644 m 28 X s 2149 1673 m 28 X s 2120 1703 m 57 X s 0.95 0.95 0.95 c black 284 219 m 2 5 d 2 6 d 2 5 d 2 5 d 2 5 d 2 6 d 2 5 d 2 5 d 1 6 d 2 5 d 2 5 d 2 5 d 2 6 d 2 5 d 2 5 d 2 5 d 2 6 d 1 5 d 2 5 d 2 5 d 2 6 d 2 5 d 2 5 d 2 5 d 2
 6 d 2 5 d 2 5 d 1 5 d 2 5 d 2 6 d 2 5 d 2 5 d 2 5 d 2 5 d 2 6 d 2 5 d 1 5 d 2 5 d 2 5 d 2 5 d 2 5 d 2 5 d 2 6 d 2 5 d 2 5 d 2 5 d 1 5 d 2 5 d 2 5 d s 377 474 m 2 5 d 2 5 d 2 5 d 2 5 d 2 5 d 2 5 d 1 5 d 2 5 d 2 5 d 2 5 d 2 5 d 2 5 d 2 5 d 2 5 d 2 5 d
 1 4 d 2 5 d 2 5 d 2 5 d 2 5 d 2 5 d 2 5 d 2 4 d 2 5 d 2 5 d 1 5 d 2 4 d 2 5 d 2 5 d 2 5 d 2 4 d 2 5 d 2 5 d 2 4 d 1 5 d 2 5 d 2 4 d 2 5 d 2 4 d 2 5 d 2 5 d 2 4 d 2 5 d 2 4 d 1 5 d 2 4 d 2 5 d 2 4 d 2 5 d s 470 708 m 2 4 d 2 4 d 2 5 d 2 4 d 1 5 d 2 4
 d 2 4 d 2 5 d 2 4 d 2 4 d 2 5 d 2 4 d 2 4 d 1 4 d 2 5 d 2 4 d 2 4 d 2 4 d 2 4 d 2 4 d 2 5 d 2 4 d 2 4 d 1 4 d 2 4 d 2 4 d 2 4 d 2 4 d 2 4 d 2 4 d 2 4 d 2 4 d 1 4 d 2 4 d 2 4 d 2 4 d 2 3 d 2 4 d 2 4 d 2 4 d 2 4 d 2 4 d 1 3 d 2 4 d 2 4 d 2 4 d 2 3 d 2
 4 d 2 4 d s 563 907 m 2 3 d 2 4 d 1 4 d 2 3 d 2 4 d 2 3 d 2 4 d 2 3 d 2 4 d 2 4 d 2 3 d 1 4 d 2 3 d 2 3 d 2 4 d 2 3 d 2 4 d 2 3 d 2 3 d 2 4 d 2 3 d 1 3 d 2 4 d 2 3 d 2 3 d 2 4 d 2 3 d 2 3 d 2 3 d 2 4 d 1 3 d 2 3 d 2 3 d 2 3 d 2 3 d 2 3 d 2 4 d 2 3 d
 2 3 d 2 3 d 1 3 d 2 3 d 2 3 d 2 3 d 2 3 d 2 3 d 2 3 d 2 3 d 2 3 d s 656 1068 m 1 2 d 2 3 d 2 3 d 2 3 d 2 3 d 2 3 d 2 3 d 2 2 d 2 3 d 1 3 d 2 3 d 2 2 d 2 3 d 2 3 d 2 3 d 2 2 d 2 3 d 2 3 d 2 2 d 1 3 d 2 3 d 2 2 d 2 3 d 2 2 d 2 3 d 2 2 d 2 3 d 2 3 d 1
 2 d 2 3 d 2 2 d 2 3 d 2 2 d 2 2 d 2 3 d 2 2 d 2 3 d 2 2 d 1 3 d 2 2 d 2 2 d 2 3 d 2 2 d 2 2 d 2 3 d 2 2 d 2 2 d 1 2 d 2 3 d s 748 1194 m 2 2 d 2 2 d 2 2 d 2 3 d 2 2 d 2 2 d 2 2 d 1 2 d 2 3 d 2 2 d 2 2 d 2 2 d 2 2 d 2 2 d 2 2 d 2 2 d 2 3 d 1 2 d 2 2
 d 2 2 d 2 2 d 2 2 d 2 2 d 2 2 d 2 2 d 2 2 d 1 2 d 2 2 d 2 2 d 2 1 d 2 2 d 2 2 d 2 2 d 2 2 d 2 2 d 1 2 d 2 2 d 2 2 d 2 1 d 2 2 d 2 2 d 2 2 d 2 2 d 2 1 d 2 2 d 1 2 d 2 2 d 2 2 d 2 1 d s 841 1291 m 2 2 d 2 2 d 2 1 d 2 2 d 2 2 d 1 2 d 2 1 d 2 2 d 2 2 d
 2 1 d 2 2 d 2 2 d 2 1 d 2 2 d 2 1 d 1 2 d 2 2 d 2 1 d 2 2 d 2 1 d 2 2 d 2 1 d 2 2 d 2 2 d 1 1 d 2 2 d 2 1 d 2 2 d 2 1 d 2 2 d 2 1 d 2 2 d 2 1 d 1 1 d 2 2 d 2 1 d 2 2 d 2 1 d 2 2 d 2 1 d 2 1 d 2 2 d 2 1 d 1 2 d 2 1 d 2 1 d 2 2 d 2 1 d 2 1 d s 934
 1366 m 2 2 d 2 1 d 2 1 d 1 2 d 2 1 d 2 1 d 2 2 d 2 1 d 2 1 d 2 2 d 2 1 d 2 1 d 2 1 d 1 2 d 2 1 d 2 1 d 2 1 d 2 2 d 2 1 d 2 1 d 2 1 d 2 1 d 1 2 d 2 1 d 2 1 d 2 1 d 2 1 d 2 1 d 2 2 d 2 1 d 2 1 d 1 1 d 2 1 d 2 1 d 2 1 d 2 2 d 2 1 d 2 1 d 2 1 d 2 1 d 2
 1 d 1 1 d 2 1 d 2 1 d 2 1 d 2 1 d 2 2 d 2 1 d 2 1 d s 1027 1425 m 2 1 d 1 1 d 2 1 d 2 1 d 2 1 d 2 1 d 2 1 d 2 1 d 2 1 d 2 1 d 2 1 d 1 1 d 2 1 d 2 1 d 2 1 d 2 1 d 2 1 d 2 1 d 2 1 d 2 1 d 1 X 2 1 d 2 1 d 2 1 d 2 1 d 2 1 d 2 1 d 2 1 d 2 1 d 1 1 d 2 1 d
 2 1 d 2 X 2 1 d 2 1 d 2 1 d 2 1 d 2 1 d 2 1 d 1 1 d 2 X 2 1 d 2 1 d 2 1 d 2 1 d 2 1 d 2 X 2 1 d 1 1 d s 1119 1470 m 2 1 d 2 1 d 2 1 d 2 X 2 1 d 2 1 d 2 1 d 2 1 d 2 X 1 1 d 2 1 d 2 1 d 2 X 2 1 d 2 1 d 2 1 d 2 X 2 1 d 1 1 d 2 1 d 2 X 2 1 d 2 1 d 2 1 d
 2 X 2 1 d 2 1 d 1 1 d 2 X 2 1 d 2 1 d 2 X 2 1 d 2 1 d 2 1 d 2 X 2 1 d 1 1 d 2 X 2 1 d 2 1 d 2 X 2 1 d 2 1 d 2 X 2 1 d 1 1 d 2 X 2 1 d s 1212 1506 m 2 1 d 2 X 2 1 d 2 1 d 2 X 2 1 d 2 X 1 1 d 2 1 d 2 X 2 1 d 2 1 d 2 X 2 1 d 2 X 2 1 d 1 1 d 2 X 2 1 d 2
 X 2 1 d 2 1 d 2 X 2 1 d 2 X 1 1 d 2 X 2 1 d 2 1 d 2 X 2 1 d 2 X 2 1 d 2 X 2 1 d 1 1 d 2 X 2 1 d 2 X 2 1 d 2 X 2 1 d 2 X 2 1 d 1 X 2 1 d 2 X 2 1 d 2 1 d s 1305 1535 m 2 X 2 1 d 2 X 2 1 d 1 X 2 1 d 2 X 2 1 d 2 X 2 1 d 2 X 2 1 d 2 X 2 1 d 1 X 2 1 d 2 X
 2 1 d 2 X 2 1 d 2 X 2 1 d 3 X 2 1 d 2 X 2 1 d 2 X 2 1 d 2 X 2 1 d 2 X 2 1 d 1 X 2 1 d 4 X 2 1 d 2 X 2 1 d 2 X 2 1 d 3 X 2 1 d 2 X 2 1 d 2 X 2 1 d s 1398 1558 m 4 X 1 1 d 2 X 2 1 d 2 X 2 1 d 4 X 2 1 d 2 X 2 1 d 3 X 2 1 d 2 X 2 1 d 4 X 2 1 d 2 X 1 1 d
 4 X 2 1 d 4 X 2 1 d 2 X 2 1 d 3 X 2 1 d 4 X 2 1 d 2 X 2 1 d 4 X 1 1 d 4 X 2 1 d 4 X 2 1 d 4 X s 1491 1576 m 1 1 d 4 X 2 1 d 2 X 2 1 d 4 X 2 1 d 3 X 2 1 d 4 X 2 1 d 4 X 2 1 d 5 X 2 1 d 4 X 2 1 d 4 X 2 1 d 3 X 2 1 d 4 X 2 1 d 6 X 2 1 d 3 X 2 1 d 4 X 2
 1 d 6 X 1 1 d 2 X s 1583 1592 m 2 X 2 1 d 6 X 2 1 d 4 X 1 1 d 6 X 2 1 d 6 X 2 1 d 3 X 2 1 d 6 X 2 1 d 6 X 1 1 d 6 X 2 1 d 6 X 2 1 d 5 X 2 1 d 6 X 2 1 d 5 X 2 1 d 2 X s 1676 1605 m 4 X 2 1 d 6 X 1 1 d 6 X 2 1 d 8 X 1 1 d 6 X 2 1 d 8 X 2 1 d 5 X 2 1 d
 8 X 2 1 d 7 X 2 1 d 6 X 2 1 d 7 X 2 1 d 2 X s 1769 1616 m 6 X 2 1 d 7 X 2 1 d 8 X 1 1 d 8 X 2 1 d 9 X 2 1 d 8 X 2 1 d 9 X 2 1 d 8 X 2 1 d 9 X 2 1 d 4 X s 1862 1625 m 5 X 2 1 d 10 X 2 1 d 9 X 2 1 d 9 X 2 1 d 10 X 2 1 d 9 X 2 1 d 11 X 2 1 d 10 X 2 1 d
 4 X s 1955 1633 m 7 X 2 1 d 11 X 2 1 d 12 X 1 1 d 12 X 2 1 d 13 X 2 1 d 11 X 2 1 d 13 X 2 1 d s 2047 1640 m 14 X 1 1 d 14 X 2 1 d 13 X 2 1 d 15 X 2 1 d 15 X 2 1 d 13 X s 2140 1645 m 2 X 2 1 d 15 X 2 1 d 15 X s 1 1 1 c 151 74 776 1264 bf black
 gsave  2268 1774 0 0 C 816.486 1274.91 t 0 r /Helvetica findfont 70.5271 sf 0 0 m (He) show NC gr 
 gsave  2268 1774 0 0 C 792.073 1310.18 t 0 r /Helvetica findfont 46.1139 sf 0 0 m (3) show NC gr [ 20 20] 0 sd 0.95 0.95 0.95 c black 284 218 m 2 4 d 2 4 d 2 4 d 2 4 d 2 4 d 2 4 d 2 4 d 2 4 d 1 4 d 2 4 d 2 4 d 2 4 d 2 4 d 2 4 d 2 4 d 2 4 d 2 4 d 1 4
 d 2 4 d 2 4 d 2 3 d 2 4 d 2 4 d 2 4 d 2 4 d 2 4 d 2 4 d 1 4 d 2 4 d 2 4 d 2 4 d 2 4 d 2 4 d 2 4 d 2 3 d 2 4 d 1 4 d 2 4 d 2 4 d 2 4 d 2 4 d 2 4 d 2 4 d 2 4 d 2 3 d 2 4 d 1 4 d 2 4 d 2 4 d s 377 411 m 2 4 d 2 4 d 2 3 d 2 4 d 2 4 d 2 4 d 1 4 d 2 4 d 2
 3 d 2 4 d 2 4 d 2 4 d 2 4 d 2 4 d 2 3 d 1 4 d 2 4 d 2 4 d 2 3 d 2 4 d 2 4 d 2 4 d 2 3 d 2 4 d 2 4 d 1 4 d 2 3 d 2 4 d 2 4 d 2 4 d 2 3 d 2 4 d 2 4 d 2 3 d 1 4 d 2 4 d 2 3 d 2 4 d 2 4 d 2 3 d 2 4 d 2 4 d 2 3 d 2 4 d 1 4 d 2 3 d 2 4 d 2 3 d 2 4 d s 470
 594 m 2 4 d 2 3 d 2 4 d 2 3 d 1 4 d 2 3 d 2 4 d 2 3 d 2 4 d 2 3 d 2 4 d 2 3 d 2 4 d 1 3 d 2 4 d 2 3 d 2 4 d 2 3 d 2 4 d 2 3 d 2 4 d 2 3 d 2 3 d 1 4 d 2 3 d 2 4 d 2 3 d 2 3 d 2 4 d 2 3 d 2 3 d 2 4 d 1 3 d 2 3 d 2 4 d 2 3 d 2 3 d 2 4 d 2 3 d 2 3 d 2 4
 d 2 3 d 1 3 d 2 3 d 2 3 d 2 4 d 2 3 d 2 3 d 2 3 d s 563 760 m 2 4 d 2 3 d 1 3 d 2 3 d 2 3 d 2 3 d 2 3 d 2 4 d 2 3 d 2 3 d 2 3 d 1 3 d 2 3 d 2 3 d 2 3 d 2 3 d 2 3 d 2 3 d 2 3 d 2 3 d 2 3 d 1 3 d 2 3 d 2 3 d 2 3 d 2 3 d 2 3 d 2 3 d 2 3 d 2 3 d 1 3 d 2
 3 d 2 3 d 2 3 d 2 3 d 2 3 d 2 2 d 2 3 d 2 3 d 2 3 d 1 3 d 2 3 d 2 2 d 2 3 d 2 3 d 2 3 d 2 3 d 2 2 d 2 3 d s 656 906 m 1 3 d 2 3 d 2 2 d 2 3 d 2 3 d 2 3 d 2 2 d 2 3 d 2 3 d 1 2 d 2 3 d 2 3 d 2 2 d 2 3 d 2 2 d 2 3 d 2 3 d 2 2 d 2 3 d 1 2 d 2 3 d 2 3 d
 2 2 d 2 3 d 2 2 d 2 3 d 2 2 d 2 3 d 1 2 d 2 3 d 2 2 d 2 3 d 2 2 d 2 3 d 2 2 d 2 2 d 2 3 d 2 2 d 1 3 d 2 2 d 2 3 d 2 2 d 2 2 d 2 3 d 2 2 d 2 2 d 2 3 d 1 2 d 2 2 d s 748 1030 m 2 3 d 2 2 d 2 2 d 2 3 d 2 2 d 2 2 d 2 2 d 1 3 d 2 2 d 2 2 d 2 2 d 2 3 d 2
 2 d 2 2 d 2 2 d 2 2 d 2 3 d 1 2 d 2 2 d 2 2 d 2 2 d 2 2 d 2 3 d 2 2 d 2 2 d 2 2 d 1 2 d 2 2 d 2 2 d 2 2 d 2 2 d 2 2 d 2 2 d 2 3 d 2 2 d 1 2 d 2 2 d 2 2 d 2 2 d 2 2 d 2 2 d 2 2 d 2 2 d 2 2 d 2 2 d 1 2 d 2 1 d 2 2 d 2 2 d s 841 1134 m 2 2 d 2 2 d 2 2
 d 2 2 d 2 2 d 1 2 d 2 2 d 2 2 d 2 1 d 2 2 d 2 2 d 2 2 d 2 2 d 2 2 d 2 1 d 1 2 d 2 2 d 2 2 d 2 2 d 2 1 d 2 2 d 2 2 d 2 2 d 2 2 d 1 1 d 2 2 d 2 2 d 2 1 d 2 2 d 2 2 d 2 2 d 2 1 d 2 2 d 1 2 d 2 1 d 2 2 d 2 2 d 2 1 d 2 2 d 2 2 d 2 1 d 2 2 d 2 2 d 1 1 d 2
 2 d 2 2 d 2 1 d 2 2 d 2 1 d s 934 1220 m 2 2 d 2 1 d 2 2 d 1 2 d 2 1 d 2 2 d 2 1 d 2 2 d 2 1 d 2 2 d 2 1 d 2 2 d 2 1 d 1 2 d 2 1 d 2 2 d 2 1 d 2 2 d 2 1 d 2 2 d 2 1 d 2 2 d 1 1 d 2 2 d 2 1 d 2 2 d 2 1 d 2 1 d 2 2 d 2 1 d 2 2 d 1 1 d 2 1 d 2 2 d 2 1
 d 2 2 d 2 1 d 2 1 d 2 2 d 2 1 d 2 1 d 1 2 d 2 1 d 2 1 d 2 2 d 2 1 d 2 1 d 2 2 d 2 1 d s 1027 1291 m 2 1 d 1 2 d 2 1 d 2 1 d 2 2 d 2 1 d 2 1 d 2 1 d 2 2 d 2 1 d 2 1 d 1 1 d 2 2 d 2 1 d 2 1 d 2 1 d 2 2 d 2 1 d 2 1 d 2 1 d 1 1 d 2 2 d 2 1 d 2 1 d 2 1 d
 2 1 d 2 2 d 2 1 d 2 1 d 1 1 d 2 1 d 2 1 d 2 1 d 2 2 d 2 1 d 2 1 d 2 1 d 2 1 d 2 1 d 1 1 d 2 2 d 2 1 d 2 1 d 2 1 d 2 1 d 2 1 d 2 1 d 2 1 d 1 1 d s 1119 1349 m 2 1 d 2 1 d 2 1 d 2 2 d 2 1 d 2 1 d 2 1 d 2 1 d 2 1 d 1 1 d 2 1 d 2 1 d 2 1 d 2 1 d 2 1 d 2
 1 d 2 1 d 2 1 d 1 1 d 2 1 d 2 1 d 2 1 d 2 1 d 2 1 d 2 1 d 2 1 d 2 1 d 1 1 d 2 1 d 2 1 d 2 1 d 2 1 d 2 1 d 2 X 2 1 d 2 1 d 2 1 d 1 1 d 2 1 d 2 1 d 2 1 d 2 1 d 2 1 d 2 1 d 2 1 d 2 1 d 1 X 2 1 d 2 1 d s 1212 1397 m 2 1 d 2 1 d 2 1 d 2 1 d 2 1 d 2 X 2 1
 d 1 1 d 2 1 d 2 1 d 2 1 d 2 1 d 2 X 2 1 d 2 1 d 2 1 d 1 1 d 2 1 d 2 1 d 2 X 2 1 d 2 1 d 2 1 d 2 1 d 2 X 1 1 d 2 1 d 2 1 d 2 1 d 2 X 2 1 d 2 1 d 2 1 d 2 1 d 2 X 1 1 d 2 1 d 2 1 d 2 X 2 1 d 2 1 d 2 1 d 2 X 2 1 d 1 1 d 2 1 d 2 X 2 1 d 2 1 d s 1305 1437
 m 2 1 d 2 X 2 1 d 2 1 d 1 1 d 2 X 2 1 d 2 1 d 2 X 2 1 d 2 1 d 2 1 d 2 X 2 1 d 1 1 d 2 X 2 1 d 2 1 d 2 X 2 1 d 2 1 d 2 1 d 2 X 1 1 d 2 1 d 2 X 2 1 d 2 1 d 2 X 2 1 d 2 1 d 2 X 2 1 d 1 X 2 1 d 2 1 d 2 X 2 1 d 2 1 d 2 X 2 1 d 2 1 d 1 X 2 1 d 2 X 2 1 d 2
 1 d 2 X 2 1 d s 1398 1470 m 2 1 d 2 X 1 1 d 2 X 2 1 d 2 1 d 2 X 2 1 d 2 X 2 1 d 2 1 d 2 X 1 1 d 2 X 2 1 d 2 1 d 2 X 2 1 d 2 X 2 1 d 2 X 1 1 d 2 1 d 2 X 2 1 d 2 X 2 1 d 2 X 2 1 d 2 X 2 1 d 1 1 d 2 X 2 1 d 2 X 2 1 d 2 X 2 1 d 2 X 2 1 d 1 X 2 1 d 2 1 d
 2 X 2 1 d 2 X 2 1 d 2 X 2 1 d s 1491 1498 m 1 X 2 1 d 2 X 2 1 d 2 X 2 1 d 2 X 2 1 d 2 X 2 1 d 1 X 2 1 d 2 X 2 1 d 2 X 2 1 d 2 X 2 1 d 2 X 1 1 d 2 X 2 1 d 2 X 2 1 d 4 X 2 1 d 2 X 2 1 d 1 X 2 1 d 2 X 2 1 d 2 X 2 1 d 2 X 2 1 d 2 X 1 1 d 4 X 2 1 d 2 X 2
 1 d 2 X 2 1 d 2 X 1 1 d 2 X s 1583 1521 m 2 X 2 1 d 2 X 2 1 d 2 X 2 1 d 4 X 1 1 d 2 X 2 1 d 2 X 2 1 d 4 X 2 1 d 2 X 1 1 d 4 X 2 1 d 2 X 2 1 d 4 X 2 1 d 2 X 1 1 d 4 X 2 1 d 2 X 2 1 d 4 X 2 1 d 1 X 2 1 d 4 X 2 1 d 4 X 2 1 d 2 X 1 1 d 4 X 2 1 d s 1676
 1541 m 4 X 2 1 d 2 X 2 1 d 3 X 2 1 d 4 X 2 1 d 4 X 2 1 d 2 X 1 1 d 4 X 2 1 d 4 X 2 1 d 4 X 2 1 d 3 X 2 1 d 4 X 2 1 d 4 X 2 1 d 3 X 2 1 d 4 X 2 1 d 4 X 2 1 d 3 X 2 1 d 4 X 2 1 d s 1769 1558 m 4 X 2 1 d 5 X 2 1 d 4 X 2 1 d 4 X 2 1 d 3 X 2 1 d 6 X 2 1
 d 4 X 2 1 d 3 X 2 1 d 6 X 2 1 d 4 X 1 1 d 6 X 2 1 d 4 X 2 1 d 5 X 2 1 d 6 X 2 1 d 2 X s 1862 1572 m 2 X 2 1 d 5 X 2 1 d 6 X 2 1 d 3 X 2 1 d 6 X 2 1 d 6 X 1 1 d 6 X 2 1 d 6 X 2 1 d 5 X 2 1 d 6 X 2 1 d 5 X 2 1 d 6 X 2 1 d 6 X 2 1 d s 1955 1585 m 7 X 2
 1 d 6 X 2 1 d 5 X 2 1 d 8 X 2 1 d 5 X 2 1 d 8 X 2 1 d 5 X 2 1 d 8 X 2 1 d 5 X 2 1 d 8 X 2 1 d 7 X s 2047 1595 m 2 1 d 8 X 2 1 d 7 X 2 1 d 8 X 2 1 d 7 X 2 1 d 8 X 2 1 d 7 X 2 1 d 9 X 2 1 d 8 X 2 1 d 7 X 2 1 d 4 X s 2140 1605 m 6 X 2 1 d 9 X 2 1 d 8 X
 1 1 d 8 X s[  ] 0 sd 1 1 1 c 151 74 776 1108 bf black
 gsave  2268 1774 0 0 C 816.486 1120.3 t 0 r /Helvetica findfont 70.5271 sf 0 0 m (He) show NC gr 
 gsave  2268 1774 0 0 C 792.073 1152.85 t 0 r /Helvetica findfont 46.1139 sf 0 0 m (4) show NC gr  0.95 0.95 0.95 c black 284 218 m 2 3 d 2 3 d 2 4 d 2 3 d 2 3 d 2 3 d 2 3 d 2 3 d 1 4 d 2 3 d 2 3 d 2 3 d 2 3 d 2 3 d 2 4 d 2 3 d 2 3 d 1 3 d 2 3 d 2 3
 d 2 4 d 2 3 d 2 3 d 2 3 d 2 3 d 2 3 d 2 3 d 1 4 d 2 3 d 2 3 d 2 3 d 2 3 d 2 3 d 2 3 d 2 4 d 2 3 d 1 3 d 2 3 d 2 3 d 2 3 d 2 3 d 2 4 d 2 3 d 2 3 d 2 3 d 2 3 d 1 3 d 2 3 d 2 3 d s 377 372 m 2 4 d 2 3 d 2 3 d 2 3 d 2 3 d 2 3 d 1 3 d 2 3 d 2 3 d 2 4 d 2
 3 d 2 3 d 2 3 d 2 3 d 2 3 d 1 3 d 2 3 d 2 3 d 2 3 d 2 3 d 2 3 d 2 3 d 2 4 d 2 3 d 2 3 d 1 3 d 2 3 d 2 3 d 2 3 d 2 3 d 2 3 d 2 3 d 2 3 d 2 3 d 1 3 d 2 3 d 2 3 d 2 3 d 2 3 d 2 3 d 2 3 d 2 3 d 2 3 d 2 3 d 1 3 d 2 3 d 2 3 d 2 3 d 2 3 d s 470 522 m 2 3 d
 2 3 d 2 3 d 2 3 d 1 3 d 2 3 d 2 3 d 2 3 d 2 3 d 2 3 d 2 2 d 2 3 d 2 3 d 1 3 d 2 3 d 2 3 d 2 3 d 2 3 d 2 3 d 2 3 d 2 2 d 2 3 d 2 3 d 1 3 d 2 3 d 2 3 d 2 3 d 2 3 d 2 2 d 2 3 d 2 3 d 2 3 d 1 3 d 2 3 d 2 2 d 2 3 d 2 3 d 2 3 d 2 3 d 2 2 d 2 3 d 2 3 d 1 3
 d 2 3 d 2 2 d 2 3 d 2 3 d 2 3 d 2 2 d s 563 662 m 2 3 d 2 3 d 1 3 d 2 2 d 2 3 d 2 3 d 2 3 d 2 2 d 2 3 d 2 3 d 2 2 d 1 3 d 2 3 d 2 2 d 2 3 d 2 3 d 2 2 d 2 3 d 2 3 d 2 2 d 2 3 d 1 3 d 2 2 d 2 3 d 2 3 d 2 2 d 2 3 d 2 2 d 2 3 d 2 3 d 1 2 d 2 3 d 2 2 d 2
 3 d 2 3 d 2 2 d 2 3 d 2 2 d 2 3 d 2 2 d 1 3 d 2 2 d 2 3 d 2 2 d 2 3 d 2 2 d 2 3 d 2 2 d 2 3 d s 656 791 m 1 2 d 2 3 d 2 2 d 2 3 d 2 2 d 2 3 d 2 2 d 2 3 d 2 2 d 1 2 d 2 3 d 2 2 d 2 3 d 2 2 d 2 3 d 2 2 d 2 2 d 2 3 d 2 2 d 1 3 d 2 2 d 2 2 d 2 3 d 2 2 d
 2 2 d 2 3 d 2 2 d 2 2 d 1 3 d 2 2 d 2 2 d 2 3 d 2 2 d 2 2 d 2 2 d 2 3 d 2 2 d 2 2 d 1 3 d 2 2 d 2 2 d 2 2 d 2 3 d 2 2 d 2 2 d 2 2 d 2 2 d 1 3 d 2 2 d s 748 906 m 2 2 d 2 2 d 2 2 d 2 3 d 2 2 d 2 2 d 2 2 d 1 2 d 2 2 d 2 3 d 2 2 d 2 2 d 2 2 d 2 2 d 2 2
 d 2 2 d 2 3 d 1 2 d 2 2 d 2 2 d 2 2 d 2 2 d 2 2 d 2 2 d 2 2 d 2 2 d 1 2 d 2 2 d 2 2 d 2 2 d 2 2 d 2 2 d 2 2 d 2 2 d 2 2 d 1 2 d 2 2 d 2 2 d 2 2 d 2 2 d 2 2 d 2 2 d 2 2 d 2 2 d 2 2 d 1 2 d 2 2 d 2 2 d 2 2 d s 841 1007 m 2 2 d 2 2 d 2 2 d 2 2 d 2 2 d
 1 1 d 2 2 d 2 2 d 2 2 d 2 2 d 2 2 d 2 2 d 2 2 d 2 1 d 2 2 d 1 2 d 2 2 d 2 2 d 2 2 d 2 1 d 2 2 d 2 2 d 2 2 d 2 2 d 1 1 d 2 2 d 2 2 d 2 2 d 2 2 d 2 1 d 2 2 d 2 2 d 2 2 d 1 1 d 2 2 d 2 2 d 2 2 d 2 1 d 2 2 d 2 2 d 2 1 d 2 2 d 2 2 d 1 1 d 2 2 d 2 2 d 2 2
 d 2 1 d 2 2 d s 934 1095 m 2 2 d 2 1 d 2 2 d 1 1 d 2 2 d 2 2 d 2 1 d 2 2 d 2 2 d 2 1 d 2 2 d 2 1 d 2 2 d 1 2 d 2 1 d 2 2 d 2 1 d 2 2 d 2 2 d 2 1 d 2 2 d 2 1 d 1 2 d 2 1 d 2 2 d 2 1 d 2 2 d 2 2 d 2 1 d 2 2 d 2 1 d 1 2 d 2 1 d 2 2 d 2 1 d 2 2 d 2 1 d
 2 2 d 2 1 d 2 1 d 2 2 d 1 1 d 2 2 d 2 1 d 2 2 d 2 1 d 2 2 d 2 1 d 2 2 d s 1027 1171 m 2 1 d 1 1 d 2 2 d 2 1 d 2 2 d 2 1 d 2 1 d 2 2 d 2 1 d 2 2 d 2 1 d 1 1 d 2 2 d 2 1 d 2 1 d 2 2 d 2 1 d 2 2 d 2 1 d 2 1 d 1 2 d 2 1 d 2 1 d 2 2 d 2 1 d 2 1 d 2 2 d 2
 1 d 2 1 d 1 1 d 2 2 d 2 1 d 2 1 d 2 2 d 2 1 d 2 1 d 2 1 d 2 2 d 2 1 d 1 1 d 2 2 d 2 1 d 2 1 d 2 1 d 2 2 d 2 1 d 2 1 d 2 1 d 1 1 d s 1119 1235 m 2 2 d 2 1 d 2 1 d 2 1 d 2 1 d 2 2 d 2 1 d 2 1 d 2 1 d 1 1 d 2 2 d 2 1 d 2 1 d 2 1 d 2 1 d 2 2 d 2 1 d 2 1
 d 1 1 d 2 1 d 2 1 d 2 1 d 2 2 d 2 1 d 2 1 d 2 1 d 2 1 d 1 1 d 2 1 d 2 1 d 2 2 d 2 1 d 2 1 d 2 1 d 2 1 d 2 1 d 2 1 d 1 1 d 2 1 d 2 1 d 2 1 d 2 2 d 2 1 d 2 1 d 2 1 d 2 1 d 1 1 d 2 1 d 2 1 d s 1212 1291 m 2 1 d 2 1 d 2 1 d 2 1 d 2 1 d 2 1 d 2 1 d 1 1 d
 2 1 d 2 1 d 2 1 d 2 1 d 2 1 d 2 1 d 2 1 d 2 1 d 1 1 d 2 1 d 2 1 d 2 1 d 2 1 d 2 1 d 2 1 d 2 1 d 2 1 d 1 1 d 2 1 d 2 1 d 2 1 d 2 1 d 2 1 d 2 1 d 2 1 d 2 1 d 2 1 d 1 1 d 2 X 2 1 d 2 1 d 2 1 d 2 1 d 2 1 d 2 1 d 2 1 d 1 1 d 2 1 d 2 1 d 2 X 2 1 d s 1305
 1338 m 2 1 d 2 1 d 2 1 d 2 1 d 1 1 d 2 1 d 2 1 d 2 X 2 1 d 2 1 d 2 1 d 2 1 d 2 1 d 2 1 d 1 1 d 2 X 2 1 d 2 1 d 2 1 d 2 1 d 2 1 d 2 X 2 1 d 1 1 d 2 1 d 2 1 d 2 1 d 2 X 2 1 d 2 1 d 2 1 d 2 1 d 2 X 1 1 d 2 1 d 2 1 d 2 1 d 2 X 2 1 d 2 1 d 2 1 d 2 1 d 1
 X 2 1 d 2 1 d 2 1 d 2 X 2 1 d 2 1 d s 1398 1379 m 2 1 d 2 1 d 1 X 2 1 d 2 1 d 2 1 d 2 X 2 1 d 2 1 d 2 1 d 2 X 2 1 d 1 1 d 2 1 d 2 X 2 1 d 2 1 d 2 X 2 1 d 2 1 d 2 1 d 1 X 2 1 d 2 1 d 2 X 2 1 d 2 1 d 2 1 d 2 X 2 1 d 2 1 d 1 X 2 1 d 2 1 d 2 X 2 1 d 2 1
 d 2 1 d 2 X 2 1 d 1 1 d 2 X 2 1 d 2 1 d 2 X 2 1 d 2 1 d 2 X 2 1 d s 1491 1414 m 1 1 d 2 X 2 1 d 2 1 d 2 X 2 1 d 2 X 2 1 d 2 1 d 2 X 1 1 d 2 1 d 2 X 2 1 d 2 1 d 2 X 2 1 d 2 X 2 1 d 1 1 d 2 X 2 1 d 2 1 d 2 X 2 1 d 2 X 2 1 d 2 1 d 2 X 1 1 d 2 X 2 1 d 2
 1 d 2 X 2 1 d 2 X 2 1 d 2 1 d 1 X 2 1 d 2 X 2 1 d 2 1 d 2 X 2 1 d 2 X 2 1 d 1 X 2 1 d s 1583 1444 m 2 1 d 2 X 2 1 d 2 X 2 1 d 2 X 2 1 d 2 X 1 1 d 2 1 d 2 X 2 1 d 2 X 2 1 d 2 X 2 1 d 2 X 1 1 d 2 X 2 1 d 2 1 d 2 X 2 1 d 2 X 2 1 d 2 X 2 1 d 1 X 2 1 d 2
 X 2 1 d 2 X 2 1 d 2 X 2 1 d 2 X 1 1 d 2 X 2 1 d 2 X 2 1 d 2 X 2 1 d 2 X 2 1 d 1 X 2 1 d 2 X 2 1 d s 1676 1470 m 2 X 2 1 d 2 X 2 1 d 2 X 2 1 d 1 X 2 1 d 2 X 2 1 d 2 X 2 1 d 2 X 2 1 d 2 X 1 1 d 2 X 2 1 d 4 X 2 1 d 2 X 2 1 d 2 X 2 1 d 1 X 2 1 d 2 X 2 1
 d 2 X 2 1 d 4 X 2 1 d 1 X 2 1 d 2 X 2 1 d 2 X 2 1 d 4 X 2 1 d 1 X 2 1 d 2 X 2 1 d 4 X s 1769 1492 m 2 1 d 2 X 2 1 d 2 X 1 1 d 4 X 2 1 d 2 X 2 1 d 4 X 2 1 d 1 X 2 1 d 2 X 2 1 d 4 X 2 1 d 2 X 2 1 d 3 X 2 1 d 2 X 2 1 d 4 X 2 1 d 2 X 2 1 d 3 X 2 1 d 4 X
 2 1 d 2 X 2 1 d 3 X 2 1 d 2 X 2 1 d 4 X 2 1 d 2 X s 1862 1512 m 2 X 2 1 d 1 X 2 1 d 4 X 2 1 d 4 X 2 1 d 3 X 2 1 d 2 X 2 1 d 4 X 2 1 d 4 X 1 1 d 4 X 2 1 d 4 X 2 1 d 4 X 2 1 d 3 X 2 1 d 2 X 2 1 d 4 X 2 1 d 3 X 2 1 d 4 X 2 1 d 4 X 2 1 d 4 X s 1955 1529
 m 1 1 d 6 X 2 1 d 4 X 2 1 d 3 X 2 1 d 4 X 2 1 d 4 X 2 1 d 3 X 2 1 d 4 X 2 1 d 6 X 2 1 d 3 X 2 1 d 4 X 2 1 d 6 X 2 1 d 3 X 2 1 d 4 X 2 1 d 6 X 2 1 d 3 X s 2047 1544 m 2 1 d 6 X 2 1 d 4 X 1 1 d 6 X 2 1 d 4 X 2 1 d 5 X 2 1 d 6 X 2 1 d 4 X 2 1 d 5 X 2 1
 d 6 X 2 1 d 5 X 2 1 d 6 X 2 1 d 4 X 2 1 d 5 X 2 1 d s 2140 1558 m 6 X 2 1 d 5 X 2 1 d 6 X 2 1 d 5 X 2 1 d 6 X s 1 1 1 c 151 74 1306 1351 bf black
 gsave  2268 1774 0 0 C 1364.43 1361.71 t 0 r /Helvetica findfont 70.5271 sf 0 0 m (Be) show NC gr 
 gsave  2268 1774 0 0 C 1312.89 1396.98 t 0 r /Helvetica findfont 46.1139 sf 0 0 m (10) show NC gr [ 20 20] 0 sd 0.95 0.95 0.95 c black 284 218 m 2 3 d 2 3 d 2 3 d 2 2 d 2 3 d 2 3 d 2 3 d 2 3 d 1 3 d 2 3 d 2 3 d 2 2 d 2 3 d 2 3 d 2 3 d 2 3 d 2 3 d 1
 3 d 2 3 d 2 2 d 2 3 d 2 3 d 2 3 d 2 3 d 2 3 d 2 3 d 2 3 d 1 2 d 2 3 d 2 3 d 2 3 d 2 3 d 2 3 d 2 3 d 2 2 d 2 3 d 1 3 d 2 3 d 2 3 d 2 3 d 2 3 d 2 2 d 2 3 d 2 3 d 2 3 d 2 3 d 1 3 d 2 3 d 2 2 d s 377 358 m 2 3 d 2 3 d 2 3 d 2 3 d 2 3 d 2 2 d 1 3 d 2 3 d
 2 3 d 2 3 d 2 3 d 2 2 d 2 3 d 2 3 d 2 3 d 1 3 d 2 2 d 2 3 d 2 3 d 2 3 d 2 3 d 2 3 d 2 2 d 2 3 d 2 3 d 1 3 d 2 2 d 2 3 d 2 3 d 2 3 d 2 3 d 2 2 d 2 3 d 2 3 d 1 3 d 2 2 d 2 3 d 2 3 d 2 3 d 2 3 d 2 2 d 2 3 d 2 3 d 2 3 d 1 2 d 2 3 d 2 3 d 2 3 d 2 2 d s
 470 495 m 2 3 d 2 3 d 2 2 d 2 3 d 1 3 d 2 3 d 2 2 d 2 3 d 2 3 d 2 2 d 2 3 d 2 3 d 2 2 d 1 3 d 2 3 d 2 3 d 2 2 d 2 3 d 2 3 d 2 2 d 2 3 d 2 3 d 2 2 d 1 3 d 2 3 d 2 2 d 2 3 d 2 2 d 2 3 d 2 3 d 2 2 d 2 3 d 1 3 d 2 2 d 2 3 d 2 2 d 2 3 d 2 3 d 2 2 d 2 3 d
 2 2 d 2 3 d 1 3 d 2 2 d 2 3 d 2 2 d 2 3 d 2 3 d 2 2 d s 563 625 m 2 3 d 2 2 d 1 3 d 2 2 d 2 3 d 2 2 d 2 3 d 2 2 d 2 3 d 2 3 d 2 2 d 1 3 d 2 2 d 2 3 d 2 2 d 2 3 d 2 2 d 2 3 d 2 2 d 2 3 d 2 2 d 1 2 d 2 3 d 2 2 d 2 3 d 2 2 d 2 3 d 2 2 d 2 3 d 2 2 d 1 3
 d 2 2 d 2 2 d 2 3 d 2 2 d 2 3 d 2 2 d 2 2 d 2 3 d 2 2 d 1 3 d 2 2 d 2 2 d 2 3 d 2 2 d 2 3 d 2 2 d 2 2 d 2 3 d s 656 746 m 1 2 d 2 2 d 2 3 d 2 2 d 2 2 d 2 3 d 2 2 d 2 2 d 2 3 d 1 2 d 2 2 d 2 2 d 2 3 d 2 2 d 2 2 d 2 3 d 2 2 d 2 2 d 2 2 d 1 3 d 2 2 d 2
 2 d 2 2 d 2 3 d 2 2 d 2 2 d 2 2 d 2 3 d 1 2 d 2 2 d 2 2 d 2 2 d 2 3 d 2 2 d 2 2 d 2 2 d 2 2 d 2 3 d 1 2 d 2 2 d 2 2 d 2 2 d 2 2 d 2 3 d 2 2 d 2 2 d 2 2 d 1 2 d 2 2 d s 748 855 m 2 2 d 2 2 d 2 3 d 2 2 d 2 2 d 2 2 d 2 2 d 1 2 d 2 2 d 2 2 d 2 2 d 2 2 d
 2 2 d 2 2 d 2 3 d 2 2 d 2 2 d 1 2 d 2 2 d 2 2 d 2 2 d 2 2 d 2 2 d 2 2 d 2 2 d 2 2 d 1 2 d 2 2 d 2 2 d 2 2 d 2 2 d 2 2 d 2 2 d 2 2 d 2 2 d 1 2 d 2 1 d 2 2 d 2 2 d 2 2 d 2 2 d 2 2 d 2 2 d 2 2 d 2 2 d 1 2 d 2 2 d 2 2 d 2 1 d s 841 953 m 2 2 d 2 2 d 2 2
 d 2 2 d 2 2 d 1 2 d 2 2 d 2 1 d 2 2 d 2 2 d 2 2 d 2 2 d 2 2 d 2 1 d 2 2 d 1 2 d 2 2 d 2 2 d 2 1 d 2 2 d 2 2 d 2 2 d 2 2 d 2 1 d 1 2 d 2 2 d 2 2 d 2 1 d 2 2 d 2 2 d 2 2 d 2 1 d 2 2 d 1 2 d 2 2 d 2 1 d 2 2 d 2 2 d 2 2 d 2 1 d 2 2 d 2 2 d 2 1 d 1 2 d 2
 2 d 2 1 d 2 2 d 2 2 d 2 1 d s 934 1040 m 2 2 d 2 2 d 2 1 d 1 2 d 2 2 d 2 1 d 2 2 d 2 2 d 2 1 d 2 2 d 2 1 d 2 2 d 2 2 d 1 1 d 2 2 d 2 1 d 2 2 d 2 2 d 2 1 d 2 2 d 2 1 d 2 2 d 1 1 d 2 2 d 2 2 d 2 1 d 2 2 d 2 1 d 2 2 d 2 1 d 2 2 d 1 1 d 2 2 d 2 1 d 2 2
 d 2 1 d 2 2 d 2 1 d 2 2 d 2 1 d 2 2 d 1 1 d 2 2 d 2 1 d 2 2 d 2 1 d 2 2 d 2 1 d 2 2 d s 1027 1117 m 2 1 d 1 1 d 2 2 d 2 1 d 2 2 d 2 1 d 2 2 d 2 1 d 2 1 d 2 2 d 2 1 d 1 2 d 2 1 d 2 2 d 2 1 d 2 1 d 2 2 d 2 1 d 2 1 d 2 2 d 1 1 d 2 2 d 2 1 d 2 1 d 2 2 d
 2 1 d 2 1 d 2 2 d 2 1 d 1 1 d 2 2 d 2 1 d 2 1 d 2 2 d 2 1 d 2 1 d 2 2 d 2 1 d 2 1 d 1 2 d 2 1 d 2 1 d 2 1 d 2 2 d 2 1 d 2 1 d 2 2 d 2 1 d 1 1 d s 1119 1183 m 2 1 d 2 2 d 2 1 d 2 1 d 2 1 d 2 2 d 2 1 d 2 1 d 2 1 d 1 1 d 2 2 d 2 1 d 2 1 d 2 1 d 2 2 d 2
 1 d 2 1 d 2 1 d 1 1 d 2 2 d 2 1 d 2 1 d 2 1 d 2 1 d 2 2 d 2 1 d 2 1 d 1 1 d 2 1 d 2 1 d 2 2 d 2 1 d 2 1 d 2 1 d 2 1 d 2 1 d 2 1 d 1 2 d 2 1 d 2 1 d 2 1 d 2 1 d 2 1 d 2 1 d 2 1 d 2 1 d 1 2 d 2 1 d 2 1 d s 1212 1241 m 2 1 d 2 1 d 2 1 d 2 1 d 2 1 d 2 1
 d 2 1 d 1 1 d 2 2 d 2 1 d 2 1 d 2 1 d 2 1 d 2 1 d 2 1 d 2 1 d 1 1 d 2 1 d 2 1 d 2 1 d 2 1 d 2 1 d 2 1 d 2 1 d 2 1 d 1 1 d 2 1 d 2 1 d 2 1 d 2 1 d 2 1 d 2 1 d 2 1 d 2 1 d 2 1 d 1 1 d 2 1 d 2 1 d 2 1 d 2 1 d 2 1 d 2 1 d 2 1 d 2 1 d 1 1 d 2 1 d 2 1 d 2
 1 d 2 1 d s 1305 1291 m 2 1 d 2 1 d 2 1 d 2 1 d 1 1 d 2 1 d 2 X 2 1 d 2 1 d 2 1 d 2 1 d 2 1 d 2 1 d 2 1 d 1 1 d 2 1 d 2 1 d 2 1 d 2 X 2 1 d 2 1 d 2 1 d 2 1 d 1 1 d 2 1 d 2 1 d 2 1 d 2 X 2 1 d 2 1 d 2 1 d 2 1 d 2 1 d 1 1 d 2 1 d 2 X 2 1 d 2 1 d 2 1 d
 2 1 d 2 1 d 2 X 1 1 d 2 1 d 2 1 d 2 1 d 2 1 d 2 1 d 2 X s 1398 1334 m 2 1 d 2 1 d 1 1 d 2 1 d 2 X 2 1 d 2 1 d 2 1 d 2 1 d 2 X 2 1 d 2 1 d 1 1 d 2 1 d 2 X 2 1 d 2 1 d 2 1 d 2 1 d 2 X 2 1 d 1 1 d 2 1 d 2 X 2 1 d 2 1 d 2 1 d 2 1 d 2 X 2 1 d 2 1 d 1 1 d
 2 X 2 1 d 2 1 d 2 1 d 2 X 2 1 d 2 1 d 2 1 d 1 X 2 1 d 2 1 d 2 X 2 1 d 2 1 d 2 1 d 2 X 2 1 d s 1491 1372 m 1 1 d 2 X 2 1 d 2 1 d 2 1 d 2 X 2 1 d 2 1 d 2 X 2 1 d 1 1 d 2 1 d 2 X 2 1 d 2 1 d 2 X 2 1 d 2 1 d 2 X 1 1 d 2 1 d 2 X 2 1 d 2 1 d 2 X 2 1 d 2 1
 d 2 X 2 1 d 1 1 d 2 X 2 1 d 2 1 d 2 X 2 1 d 2 1 d 2 X 2 1 d 1 1 d 2 X 2 1 d 2 X 2 1 d 2 1 d 2 X 2 1 d 2 1 d 1 X 2 1 d s 1583 1405 m 2 1 d 2 X 2 1 d 2 X 2 1 d 2 1 d 2 X 2 1 d 1 X 2 1 d 2 1 d 2 X 2 1 d 2 X 2 1 d 2 1 d 2 X 1 1 d 2 X 2 1 d 2 1 d 2 X 2 1
 d 2 X 2 1 d 2 1 d 2 X 1 1 d 2 X 2 1 d 2 X 2 1 d 2 1 d 2 X 2 1 d 2 X 1 1 d 2 X 2 1 d 2 1 d 2 X 2 1 d 2 X 2 1 d 2 X 1 1 d 2 X 2 1 d 2 1 d s 1676 1434 m 2 X 2 1 d 2 X 2 1 d 2 X 2 1 d 1 X 2 1 d 2 X 2 1 d 2 X 2 1 d 2 X 2 1 d 2 1 d 1 X 2 1 d 2 X 2 1 d 2 X
 2 1 d 2 X 2 1 d 2 X 2 1 d 1 X 2 1 d 2 X 2 1 d 2 X 2 1 d 2 X 2 1 d 2 X 1 1 d 2 X 2 1 d 2 X 2 1 d 2 X 2 1 d 2 X 2 1 d 1 X 2 1 d 2 X 2 1 d 2 X 2 1 d s 1769 1459 m 2 X 2 1 d 4 X 1 1 d 2 X 2 1 d 2 X 2 1 d 2 X 2 1 d 2 X 2 1 d 1 X 2 1 d 4 X 2 1 d 2 X 2 1 d
 2 X 2 1 d 2 X 1 1 d 2 X 2 1 d 4 X 2 1 d 2 X 2 1 d 2 X 1 1 d 2 X 2 1 d 4 X 2 1 d 2 X 2 1 d 2 X 1 1 d 4 X 2 1 d 2 X 2 1 d 2 X 2 1 d s 1862 1481 m 4 X 1 1 d 2 X 2 1 d 4 X 2 1 d 2 X 2 1 d 3 X 2 1 d 2 X 2 1 d 2 X 2 1 d 4 X 2 1 d 3 X 2 1 d 2 X 2 1 d 4 X 2
 1 d 2 X 2 1 d 3 X 2 1 d 2 X 2 1 d 4 X 2 1 d 3 X 2 1 d 2 X 2 1 d 4 X 2 1 d 4 X 2 1 d s 1955 1500 m 1 X 2 1 d 4 X 2 1 d 4 X 2 1 d 2 X 1 1 d 4 X 2 1 d 4 X 2 1 d 4 X 1 1 d 4 X 2 1 d 4 X 2 1 d 2 X 2 1 d 3 X 2 1 d 4 X 2 1 d 4 X 2 1 d 3 X 2 1 d 4 X 2 1 d 4
 X 2 1 d 4 X 1 1 d 2 X s 2047 1517 m 2 X 2 1 d 4 X 2 1 d 4 X 1 1 d 6 X 2 1 d 4 X 2 1 d 3 X 2 1 d 4 X 2 1 d 4 X 2 1 d 5 X 2 1 d 4 X 2 1 d 4 X 2 1 d 3 X 2 1 d 6 X 2 1 d 4 X 2 1 d 5 X 2 1 d 2 X s 2140 1532 m 2 X 2 1 d 4 X 2 1 d 5 X 2 1 d 4 X 2 1 d 5 X 2
 1 d 6 X s
 gsave  2268 1774 0 0 C 1586.86 1318.31 t 0 r /Helvetica findfont 70.5271 sf 0 0 m (Be) show NC gr 
 gsave  2268 1774 0 0 C 1543.46 1350.86 t 0 r /Helvetica findfont 46.1139 sf 0 0 m (11) show NC gr 
 gr  gr showpage
end
%%EOF
