%!PS-Adobe-2.0 EPSF-2.0
%%BoundingBox:  0 0 567 444
%%Title: line_search_sensitivity.eps: line_search_sensitivity
%%Creator: ROOT Version 5.34/14
%%CreationDate: Fri Mar 21 09:38:00 2014
%%EndComments
%%BeginProlog
80 dict begin
/s {stroke} def /l {lineto} def /m {moveto} def /t {translate} def
/r {rotate} def /rl {roll}  def /R {repeat} def
/d {rlineto} def /rm {rmoveto} def /gr {grestore} def /f {eofill} def
/c {setrgbcolor} def /black {0 setgray} def /sd {setdash} def
/cl {closepath} def /sf {scalefont setfont} def /lw {setlinewidth} def
/box {m dup 0 exch d exch 0 d 0 exch neg d cl} def
/NC{systemdict begin initclip end}def/C{NC box clip newpath}def
/bl {box s} def /bf {box f} def /Y { 0 exch d} def /X { 0 d} def 
/K {{pop pop 0 moveto} exch kshow} bind def
/ita {/ang 15 def gsave [1 0 ang dup sin exch cos div 1 0 0] concat} def 
/mp {newpath /y exch def /x exch def} def
/side {[w .77 mul w .23 mul] .385 w mul sd w 0 l currentpoint t -144 r} def
/mr {mp x y w2 0 360 arc} def /m24 {mr s} def /m20 {mr f} def
/mb {mp x y w2 add m w2 neg 0 d 0 w neg d w 0 d 0 w d cl} def
/mt {mp x y w2 add m w2 neg w neg d w 0 d cl} def
/m21 {mb f} def /m25 {mb s} def /m22 {mt f} def /m26{mt s} def
/m23 {mp x y w2 sub m w2 w d w neg 0 d cl f} def
/m27 {mp x y w2 add m w3 neg w2 neg d w3 w2 neg d w3 w2 d cl s} def
/m28 {mp x w2 sub y w2 sub w3 add m w3 0 d  0 w3 neg d w3 0 d 0 w3 d w3 0 d  0 w3 d w3 neg 0 d 0 w3 d w3 neg 0 d 0 w3 neg d w3 neg 0 d cl s } def
/m29 {mp gsave x w2 sub y w2 add w3 sub m currentpoint t 4 {side} repeat cl fill gr} def
/m30 {mp gsave x w2 sub y w2 add w3 sub m currentpoint t 4 {side} repeat cl s gr} def
/m31 {mp x y w2 sub m 0 w d x w2 sub y m w 0 d x w2 sub y w2 add m w w neg d x w2 sub y w2 sub m w w d s} def
/m32 {mp x y w2 sub m w2 w d w neg 0 d cl s} def
/m33 {mp x y w2 add m w3 neg w2 neg d w3 w2 neg d w3 w2 d cl f} def
/m34 {mp x w2 sub y w2 sub w3 add m w3 0 d  0 w3 neg d w3 0 d 0 w3 d w3 0 d  0 w3 d w3 neg 0 d 0 w3 d w3 neg 0 d 0 w3 neg d w3 neg 0 d cl f } def
/m2 {mp x y w2 sub m 0 w d x w2 sub y m w 0 d s} def
/m5 {mp x w2 sub y w2 sub m w w d x w2 sub y w2 add m w w neg d s} def
/reEncode {exch findfont dup length dict begin {1 index /FID eq  {pop pop} {def} ifelse } forall /Encoding exch def currentdict end dup /FontName get exch definefont pop } def [/Times-Bold /Times-Italic /Times-BoldItalic /Helvetica /Helvetica-Oblique
 /Helvetica-Bold /Helvetica-BoldOblique /Courier /Courier-Oblique /Courier-Bold /Courier-BoldOblique /Times-Roman /AvantGarde-Book /AvantGarde-BookOblique /AvantGarde-Demi /AvantGarde-DemiOblique /Bookman-Demi /Bookman-DemiItalic /Bookman-Light
 /Bookman-LightItalic /Helvetica-Narrow /Helvetica-Narrow-Bold /Helvetica-Narrow-BoldOblique /Helvetica-Narrow-Oblique /NewCenturySchlbk-Roman /NewCenturySchlbk-Bold /NewCenturySchlbk-BoldItalic /NewCenturySchlbk-Italic /Palatino-Bold
 /Palatino-BoldItalic /Palatino-Italic /Palatino-Roman ] {ISOLatin1Encoding reEncode } forall
%%EndProlog
%%BeginSetup
%%EndSetup
newpath  gsave  .25 .25 scale  gsave  0 0 t black[  ] 0 sd 6 lw 1 1 1 c 2268 1774 0 0 bf black 3 lw 1 1 1 c 1894 1487 283 216 bf black 1894 1487 283 216 bl 1 1 1 c 1894 1487 283 216 bf black 1894 1487 283 216 bl 6 lw 283 216 m 1894 X s
 gsave  2268 1774 0 0 C 1896.09 18.9881 t 0 r /Helvetica findfont 78.6648 sf 0 0 m ( sr year]) show NC gr 
 gsave  2268 1774 0 0 C 1868.97 56.9642 t 0 r /Helvetica findfont 51.539 sf 0 0 m (2) show NC gr 
 gsave  2268 1774 0 0 C 1212.52 18.9881 t 0 r /Helvetica findfont 78.6648 sf 0 0 m (Exposure factor [m) show NC gr  283 239 m -23 Y s 0.6 0.6 0.6 c[ 12 12] 0 sd 3 lw 283 1703 m -1487 Y s black[  ] 0 sd 6 lw 341 239 m -23 Y s 0.6 0.6 0.6 c[ 12 12] 0
 sd 3 lw 341 1703 m -1487 Y s black[  ] 0 sd 6 lw 390 239 m -23 Y s 0.6 0.6 0.6 c[ 12 12] 0 sd 3 lw 390 1703 m -1487 Y s black[  ] 0 sd 6 lw 432 239 m -23 Y s 0.6 0.6 0.6 c[ 12 12] 0 sd 3 lw 432 1703 m -1487 Y s black[  ] 0 sd 6 lw 469 239 m -23 Y s
 0.6 0.6 0.6 c[ 12 12] 0 sd 3 lw 469 1703 m -1487 Y s black[  ] 0 sd 6 lw 503 261 m -45 Y s 0.6 0.6 0.6 c[ 12 12] 0 sd 3 lw 503 1703 m -1487 Y s black
 gsave  2268 1774 0 0 C 502.528 120.528 t 0 r  -18 0 t /Helvetica findfont 67.8145 sf 0 0 m (1) show NC gr [  ] 0 sd 6 lw 722 239 m -23 Y s 0.6 0.6 0.6 c[ 12 12] 0 sd 3 lw 722 1703 m -1487 Y s black[  ] 0 sd 6 lw 850 239 m -23 Y s 0.6 0.6 0.6 c[ 12
 12] 0 sd 3 lw 850 1703 m -1487 Y s black[  ] 0 sd 6 lw 941 239 m -23 Y s 0.6 0.6 0.6 c[ 12 12] 0 sd 3 lw 941 1703 m -1487 Y s black[  ] 0 sd 6 lw 1011 239 m -23 Y s 0.6 0.6 0.6 c[ 12 12] 0 sd 3 lw 1011 1703 m -1487 Y s black[  ] 0 sd 6 lw 1069 239 m
 -23 Y s 0.6 0.6 0.6 c[ 12 12] 0 sd 3 lw 1069 1703 m -1487 Y s black[  ] 0 sd 6 lw 1118 239 m -23 Y s 0.6 0.6 0.6 c[ 12 12] 0 sd 3 lw 1118 1703 m -1487 Y s black[  ] 0 sd 6 lw 1160 239 m -23 Y s 0.6 0.6 0.6 c[ 12 12] 0 sd 3 lw 1160 1703 m -1487 Y s
 black[  ] 0 sd 6 lw 1197 239 m -23 Y s 0.6 0.6 0.6 c[ 12 12] 0 sd 3 lw 1197 1703 m -1487 Y s black[  ] 0 sd 6 lw 1230 261 m -45 Y s 0.6 0.6 0.6 c[ 12 12] 0 sd 3 lw 1230 1703 m -1487 Y s black
 gsave  2268 1774 0 0 C 1230.24 120.528 t 0 r  -37 0 t /Helvetica findfont 67.8145 sf 0 0 m (10) show NC gr [  ] 0 sd 6 lw 1449 239 m -23 Y s 0.6 0.6 0.6 c[ 12 12] 0 sd 3 lw 1449 1703 m -1487 Y s black[  ] 0 sd 6 lw 1577 239 m -23 Y s 0.6 0.6 0.6 c[
 12 12] 0 sd 3 lw 1577 1703 m -1487 Y s black[  ] 0 sd 6 lw 1668 239 m -23 Y s 0.6 0.6 0.6 c[ 12 12] 0 sd 3 lw 1668 1703 m -1487 Y s black[  ] 0 sd 6 lw 1739 239 m -23 Y s 0.6 0.6 0.6 c[ 12 12] 0 sd 3 lw 1739 1703 m -1487 Y s black[  ] 0 sd 6 lw 1797
 239 m -23 Y s 0.6 0.6 0.6 c[ 12 12] 0 sd 3 lw 1797 1703 m -1487 Y s black[  ] 0 sd 6 lw 1845 239 m -23 Y s 0.6 0.6 0.6 c[ 12 12] 0 sd 3 lw 1845 1703 m -1487 Y s black[  ] 0 sd 6 lw 1887 239 m -23 Y s 0.6 0.6 0.6 c[ 12 12] 0 sd 3 lw 1887 1703 m -1487
 Y s black[  ] 0 sd 6 lw 1925 239 m -23 Y s 0.6 0.6 0.6 c[ 12 12] 0 sd 3 lw 1925 1703 m -1487 Y s black[  ] 0 sd 6 lw 1958 261 m -45 Y s 0.6 0.6 0.6 c[ 12 12] 0 sd 3 lw 1958 1703 m -1487 Y s black
 gsave  2268 1774 0 0 C 1980.18 154.617 t 0 r /Helvetica findfont 46.1139 sf 0 0 m (2) show NC gr 
 gsave  2268 1774 0 0 C 1904.23 122.066 t 0 r /Helvetica findfont 70.5271 sf 0 0 m (10) show NC gr [  ] 0 sd 6 lw 2177 239 m -23 Y s 0.6 0.6 0.6 c[ 12 12] 0 sd 3 lw 2177 1703 m -1487 Y s black[  ] 0 sd 6 lw 283 1703 m 1894 X s 283 1681 m 22 Y s 341
 1681 m 22 Y s 390 1681 m 22 Y s 432 1681 m 22 Y s 469 1681 m 22 Y s 503 1659 m 44 Y s 722 1681 m 22 Y s 850 1681 m 22 Y s 941 1681 m 22 Y s 1011 1681 m 22 Y s 1069 1681 m 22 Y s 1118 1681 m 22 Y s 1160 1681 m 22 Y s 1197 1681 m 22 Y s 1230 1659 m 44
 Y s 1449 1681 m 22 Y s 1577 1681 m 22 Y s 1668 1681 m 22 Y s 1739 1681 m 22 Y s 1797 1681 m 22 Y s 1845 1681 m 22 Y s 1887 1681 m 22 Y s 1925 1681 m 22 Y s 1958 1659 m 44 Y s 2177 1681 m 22 Y s 283 216 m 1487 Y s
 gsave  2268 1774 0 0 C 84.09 960.253 t 90 r /Helvetica findfont 78.6648 sf 0 0 m (Energy resolution [%]) show NC gr  312 216 m -29 X s 0.6 0.6 0.6 c[ 12 12] 0 sd 3 lw 2177 216 m -1894 X s black[  ] 0 sd 6 lw 312 283 m -29 X s 0.6 0.6 0.6 c[ 12 12] 0
 sd 3 lw 2177 283 m -1894 X s black[  ] 0 sd 6 lw 312 339 m -29 X s 0.6 0.6 0.6 c[ 12 12] 0 sd 3 lw 2177 339 m -1894 X s black[  ] 0 sd 6 lw 312 387 m -29 X s 0.6 0.6 0.6 c[ 12 12] 0 sd 3 lw 2177 387 m -1894 X s black[  ] 0 sd 6 lw 312 430 m -29 X s
 0.6 0.6 0.6 c[ 12 12] 0 sd 3 lw 2177 430 m -1894 X s black[  ] 0 sd 6 lw 340 468 m -57 X s 0.6 0.6 0.6 c[ 12 12] 0 sd 3 lw 2177 468 m -1894 X s black
 gsave  2268 1774 0 0 C 264.387 439.899 t 0 r  -37 0 t /Helvetica findfont 67.8145 sf 0 0 m (1) show NC gr [  ] 0 sd 6 lw 312 720 m -29 X s 0.6 0.6 0.6 c[ 12 12] 0 sd 3 lw 2177 720 m -1894 X s black[  ] 0 sd 6 lw 312 867 m -29 X s 0.6 0.6 0.6 c[ 12
 12] 0 sd 3 lw 2177 867 m -1894 X s black[  ] 0 sd 6 lw 312 971 m -29 X s 0.6 0.6 0.6 c[ 12 12] 0 sd 3 lw 2177 971 m -1894 X s black[  ] 0 sd 6 lw 312 1052 m -29 X s 0.6 0.6 0.6 c[ 12 12] 0 sd 3 lw 2177 1052 m -1894 X s black[  ] 0 sd 6 lw 312 1119 m
 -29 X s 0.6 0.6 0.6 c[ 12 12] 0 sd 3 lw 2177 1119 m -1894 X s black[  ] 0 sd 6 lw 312 1175 m -29 X s 0.6 0.6 0.6 c[ 12 12] 0 sd 3 lw 2177 1175 m -1894 X s black[  ] 0 sd 6 lw 312 1223 m -29 X s 0.6 0.6 0.6 c[ 12 12] 0 sd 3 lw 2177 1223 m -1894 X s
 black[  ] 0 sd 6 lw 312 1266 m -29 X s 0.6 0.6 0.6 c[ 12 12] 0 sd 3 lw 2177 1266 m -1894 X s black[  ] 0 sd 6 lw 340 1304 m -57 X s 0.6 0.6 0.6 c[ 12 12] 0 sd 3 lw 2177 1304 m -1894 X s black
 gsave  2268 1774 0 0 C 264.387 1275.96 t 0 r  -75 0 t /Helvetica findfont 67.8145 sf 0 0 m (10) show NC gr [  ] 0 sd 6 lw 312 1556 m -29 X s 0.6 0.6 0.6 c[ 12 12] 0 sd 3 lw 2177 1556 m -1894 X s black[  ] 0 sd 6 lw 312 1703 m -29 X s 0.6 0.6 0.6 c[
 12 12] 0 sd 3 lw 2177 1703 m -1894 X s black[  ] 0 sd 6 lw 2177 216 m 1487 Y s 2149 216 m 28 X s 2149 283 m 28 X s 2149 339 m 28 X s 2149 387 m 28 X s 2149 430 m 28 X s 2120 468 m 57 X s 2149 720 m 28 X s 2149 867 m 28 X s 2149 971 m 28 X s 2149
 1052 m 28 X s 2149 1119 m 28 X s 2149 1175 m 28 X s 2149 1223 m 28 X s 2149 1266 m 28 X s 2120 1304 m 57 X s 2149 1556 m 28 X s 2149 1703 m 28 X s
 gsave  2268 1774 0 0 C 132.916 2075.12 t 50 r /Helvetica findfont 54.2516 sf 0 0 m (0.06) show NC gr [ 20 20] 0 sd 0.95 0.95 0.95 c black
 gsave  2268 1774 0 0 C 352.635 1822.85 t 50 r /Helvetica findfont 54.2516 sf 0 0 m (0.12) show NC gr  0.95 0.95 0.95 c black
 gsave  2268 1774 0 0 C 572.354 1576.01 t 50 r /Helvetica findfont 54.2516 sf 0 0 m (0.25) show NC gr  0.95 0.95 0.95 c black 293 1234 m 19 22 d 19 22 d 19 21 d 19 22 d 19 22 d 19 22 d 19 21 d 19 22 d 18 22 d 19 22 d 19 21 d 19 22 d 19 22 d 19 22 d
 19 22 d 19 21 d 19 22 d 19 22 d 19 22 d 19 21 d 19 22 d 19 12 d s
 gsave  2268 1774 0 0 C 792.073 1323.74 t 50 r /Helvetica findfont 54.2516 sf 0 0 m (0.50) show NC gr  0.95 0.95 0.95 c black 293 731 m 19 22 d 19 21 d 19 22 d 19 22 d 19 22 d 19 21 d 19 22 d 19 22 d 18 22 d 19 21 d 19 22 d 19 22 d 19 22 d 19 21 d 19
 22 d 19 22 d 19 22 d 19 21 d 19 22 d 19 22 d 19 22 d 19 21 d 19 22 d 19 22 d 18 22 d 19 21 d 19 22 d 19 22 d 19 22 d 19 21 d 19 22 d 19 22 d 19 22 d 19 21 d 19 22 d 19 22 d 19 22 d 19 22 d 19 21 d 18 22 d 19 22 d 19 22 d 19 21 d 19 22 d 19 15 d s
 gsave  2268 1774 0 0 C 1009.08 1071.47 t 50 r /Helvetica findfont 54.2516 sf 0 0 m (1.00) show NC gr  0.95 0.95 0.95 c black 293 227 m 19 22 d 19 22 d 19 22 d 19 21 d 19 22 d 19 22 d 19 22 d 19 22 d 18 21 d 19 22 d 19 22 d 19 22 d 19 21 d 19 22 d 19
 22 d 19 22 d 19 21 d 19 22 d 19 22 d 19 22 d 19 21 d 19 22 d 19 22 d 19 22 d 18 21 d 19 22 d 19 22 d 19 22 d 19 21 d 19 22 d 19 22 d 19 22 d 19 21 d 19 22 d 19 22 d 19 22 d 19 21 d 19 22 d 19 22 d 18 22 d 19 21 d 19 22 d 19 22 d 19 22 d 19 21 d 19
 22 d 19 22 d 19 22 d 19 21 d s 1221 1293 m 19 22 d 19 22 d 19 22 d 19 21 d 19 22 d 19 22 d 18 22 d 19 21 d 19 22 d 19 22 d 19 22 d 19 22 d 19 21 d 19 22 d 19 22 d 19 22 d 19 21 d 19 22 d 19 18 d s
 gsave  2268 1774 0 0 C 1228.8 819.199 t 50 r /Helvetica findfont 54.2516 sf 0 0 m (2.00) show NC gr  0.95 0.95 0.95 c black 710 216 m 19 8 d 19 22 d 18 22 d 19 22 d 19 21 d 19 22 d 19 22 d 19 22 d 19 22 d 19 21 d 19 22 d 19 22 d 19 22 d 19 21 d 19
 22 d 19 22 d 19 22 d 18 21 d 19 22 d 19 22 d 19 22 d 19 21 d 19 22 d 19 22 d 19 22 d 19 21 d 19 22 d 19 22 d 19 22 d 19 21 d 19 22 d 19 22 d 19 22 d 18 21 d 19 22 d 19 22 d 19 22 d 19 21 d 19 22 d 19 22 d 19 22 d 19 21 d 19 22 d 19 22 d 19 22 d 19
 21 d 19 22 d 19 22 d 18 22 d s 1637 1269 m 19 21 d 19 22 d 19 22 d 19 22 d 19 21 d 19 22 d 19 22 d 19 22 d 19 21 d 19 22 d 19 22 d 19 22 d 19 22 d 19 21 d 19 22 d 18 22 d 19 22 d 19 21 d 19 22 d 19 21 d s
 gsave  2268 1774 0 0 C 1448.52 566.929 t 50 r /Helvetica findfont 54.2516 sf 0 0 m (4.00) show NC gr  0.95 0.95 0.95 c black 1145 216 m 19 5 d 19 22 d 19 22 d 19 22 d 19 21 d 19 22 d 19 22 d 19 22 d 19 22 d 19 21 d 18 22 d 19 22 d 19 22 d 19 21 d 19
 22 d 19 22 d 19 22 d 19 21 d 19 22 d 19 22 d 19 22 d 19 21 d 19 22 d 19 22 d 19 22 d 18 21 d 19 22 d 19 22 d 19 22 d 19 21 d 19 22 d 19 22 d 19 22 d 19 21 d 19 22 d 19 22 d 19 22 d 19 21 d 19 22 d 19 22 d 19 22 d 18 21 d 19 22 d 19 22 d 19 22 d 19
 21 d 19 22 d 19 22 d 19 22 d s 2073 1266 m 19 21 d 19 22 d 19 22 d 19 22 d 19 21 d s
 gsave  2268 1774 0 0 C 1668.24 317.372 t 50 r /Helvetica findfont 54.2516 sf 0 0 m (8.00) show NC gr  0.95 0.95 0.95 c black 1581 216 m 19 2 d 19 22 d 18 22 d 19 22 d 19 21 d 19 22 d 19 22 d 19 22 d 19 22 d 19 21 d 19 22 d 19 22 d 19 22 d 19 21 d 19
 22 d 19 22 d 19 22 d 19 21 d 18 22 d 19 22 d 19 22 d 19 21 d 19 22 d 19 22 d 19 22 d 19 21 d 19 22 d 19 22 d 19 22 d 19 21 d 19 22 d s[  ] 0 sd 3 lw /w 22 def /w2 {w 2 div} def /w3 {w 3 div} def 1449 1304 m20[ 20 20] 0 sd 6 lw
 gsave  2268 1774 0 0 C 1462.08 1323.74 t 0 r /Helvetica findfont 78.6648 sf 0 0 m (LAT) show NC gr [  ] 0 sd 3 lw 341 615 m20[ 20 20] 0 sd 6 lw
 gsave  2268 1774 0 0 C 355.348 634.744 t 0 r /Helvetica findfont 78.6648 sf 0 0 m (DAMPE) show NC gr [  ] 0 sd 3 lw 341 720 m20[ 20 20] 0 sd 6 lw
 gsave  2268 1774 0 0 C 355.348 737.822 t 0 r /Helvetica findfont 78.6648 sf 0 0 m (CALET) show NC gr [  ] 0 sd 3 lw 1577 468 m20[ 20 20] 0 sd 6 lw
 gsave  2268 1774 0 0 C 1592.28 488.264 t 0 r /Helvetica findfont 78.6648 sf 0 0 m (HERD) show NC gr [  ] 0 sd 3 lw 886 468 m20[ 20 20] 0 sd 6 lw
 gsave  2268 1774 0 0 C 900.576 488.264 t 0 r /Helvetica findfont 78.6648 sf 0 0 m (Gamma\255400) show NC gr [  ] 0 sd 3 lw 1504 720 m20[ 20 20] 0 sd 6 lw
 gsave  2268 1774 0 0 C 1519.04 737.822 t 0 r /Helvetica findfont 78.6648 sf 0 0 m (Gamma\255400 \(CC\)) show NC gr 
 gr  gr showpage
end
%%EOF
