%!PS-Adobe-2.0 EPSF-2.0
%%BoundingBox:  0 0 567 442
%%Title: magnetic_spectrometer.eps: magnetic_spectrometer
%%Creator: ROOT Version 5.34/14
%%CreationDate: Tue Jun  3 15:42:14 2014
%%EndComments
%%BeginProlog
80 dict begin
/s {stroke} def /l {lineto} def /m {moveto} def /t {translate} def
/r {rotate} def /rl {roll}  def /R {repeat} def
/d {rlineto} def /rm {rmoveto} def /gr {grestore} def /f {eofill} def
/c {setrgbcolor} def /black {0 setgray} def /sd {setdash} def
/cl {closepath} def /sf {scalefont setfont} def /lw {setlinewidth} def
/box {m dup 0 exch d exch 0 d 0 exch neg d cl} def
/NC{systemdict begin initclip end}def/C{NC box clip newpath}def
/bl {box s} def /bf {box f} def /Y { 0 exch d} def /X { 0 d} def 
/K {{pop pop 0 moveto} exch kshow} bind def
/ita {/ang 15 def gsave [1 0 ang dup sin exch cos div 1 0 0] concat} def 
/mp {newpath /y exch def /x exch def} def
/side {[w .77 mul w .23 mul] .385 w mul sd w 0 l currentpoint t -144 r} def
/mr {mp x y w2 0 360 arc} def /m24 {mr s} def /m20 {mr f} def
/mb {mp x y w2 add m w2 neg 0 d 0 w neg d w 0 d 0 w d cl} def
/mt {mp x y w2 add m w2 neg w neg d w 0 d cl} def
/m21 {mb f} def /m25 {mb s} def /m22 {mt f} def /m26{mt s} def
/m23 {mp x y w2 sub m w2 w d w neg 0 d cl f} def
/m27 {mp x y w2 add m w3 neg w2 neg d w3 w2 neg d w3 w2 d cl s} def
/m28 {mp x w2 sub y w2 sub w3 add m w3 0 d  0 w3 neg d w3 0 d 0 w3 d w3 0 d  0 w3 d w3 neg 0 d 0 w3 d w3 neg 0 d 0 w3 neg d w3 neg 0 d cl s } def
/m29 {mp gsave x w2 sub y w2 add w3 sub m currentpoint t 4 {side} repeat cl fill gr} def
/m30 {mp gsave x w2 sub y w2 add w3 sub m currentpoint t 4 {side} repeat cl s gr} def
/m31 {mp x y w2 sub m 0 w d x w2 sub y m w 0 d x w2 sub y w2 add m w w neg d x w2 sub y w2 sub m w w d s} def
/m32 {mp x y w2 sub m w2 w d w neg 0 d cl s} def
/m33 {mp x y w2 add m w3 neg w2 neg d w3 w2 neg d w3 w2 d cl f} def
/m34 {mp x w2 sub y w2 sub w3 add m w3 0 d  0 w3 neg d w3 0 d 0 w3 d w3 0 d  0 w3 d w3 neg 0 d 0 w3 d w3 neg 0 d 0 w3 neg d w3 neg 0 d cl f } def
/m2 {mp x y w2 sub m 0 w d x w2 sub y m w 0 d s} def
/m5 {mp x w2 sub y w2 sub m w w d x w2 sub y w2 add m w w neg d s} def
/reEncode {exch findfont dup length dict begin {1 index /FID eq  {pop pop} {def} ifelse } forall /Encoding exch def currentdict end dup /FontName get exch definefont pop } def [/Times-Bold /Times-Italic /Times-BoldItalic /Helvetica /Helvetica-Oblique
 /Helvetica-Bold /Helvetica-BoldOblique /Courier /Courier-Oblique /Courier-Bold /Courier-BoldOblique /Times-Roman /AvantGarde-Book /AvantGarde-BookOblique /AvantGarde-Demi /AvantGarde-DemiOblique /Bookman-Demi /Bookman-DemiItalic /Bookman-Light
 /Bookman-LightItalic /Helvetica-Narrow /Helvetica-Narrow-Bold /Helvetica-Narrow-BoldOblique /Helvetica-Narrow-Oblique /NewCenturySchlbk-Roman /NewCenturySchlbk-Bold /NewCenturySchlbk-BoldItalic /NewCenturySchlbk-Italic /Palatino-Bold
 /Palatino-BoldItalic /Palatino-Italic /Palatino-Roman ] {ISOLatin1Encoding reEncode } forall
%%EndProlog
%%BeginSetup
%%EndSetup
newpath  gsave  .25 .25 scale  gsave  0 0 t black[  ] 0 sd 6 lw 1 1 1 c 2268 1769 0 0 bf black 1134 1361 m 794 X s 1134 1134 m 794 X s 1134 907 m 794 X s 1134 680 m 794 X s 1134 454 m 794 X s 1134 227 m 794 X s[ 20 20] 0 sd 1 1 1 c black 1407 227 m 8
 18 d 9 19 d 7 19 d 8 19 d 7 20 d 7 19 d 7 19 d 6 20 d 6 19 d 6 20 d 6 20 d 5 20 d 5 20 d 4 20 d 5 20 d 4 20 d 3 20 d 4 20 d 3 20 d 3 21 d 2 20 d 2 21 d 2 20 d 2 20 d 1 21 d 1 20 d 21 Y 1 20 d 21 Y -1 20 d 21 Y -1 20 d -1 21 d -2 20 d -2 21 d -2 20 d
 -2 21 d -3 20 d -3 20 d -4 20 d -3 21 d -4 20 d -5 20 d -4 20 d -5 20 d -5 20 d -6 19 d -6 20 d -6 20 d -6 19 d -7 20 d -7 19 d -7 19 d -8 19 d -7 19 d -9 19 d -8 19 d -1237 -567 d 1237 -567 d cl s[  ] 0 sd 3 lw /w 22 def /w2 {w 2 div} def /w3 {w 3
 div} def 170 794 m20[ 20 20] 0 sd 6 lw[  ] 0 sd 1 1 1 c black 374 794 m 11 Y -1 11 d -1 10 d -3 11 d -2 11 d -3 10 d -4 11 d -4 10 d s 1 1 1 c black 397 794 m 12 Y -1 12 d -2 12 d -2 12 d -3 12 d -4 12 d -4 11 d -5 11 d s
 gsave  2268 1769 0 0 C 141.054 816.486 t 0 r /Helvetica findfont 70.5271 sf 0 0 m (O) show NC gr 
 gsave  2268 1769 0 0 C 830.049 1044.34 t 0 r /Symbol findfont 70.5271 sf 0 0 m (r) show NC gr 
 gsave  2268 1769 0 0 C 490.977 811.061 t 0 r /Helvetica findfont 70.5271 sf 0 0 m (2) show NC gr 
 gsave  2268 1769 0 0 C 490.977 884.301 t 0 r /Symbol findfont 70.5271 sf 0 0 m (q) show NC gr  491 871 m 38 X s 1 1 1 c black 1407 227 m 8 18 d 9 19 d 7 19 d 8 19 d 7 20 d 7 19 d 7 19 d 6 20 d 6 19 d 6 20 d 6 20 d 5 20 d 5 20 d 4 20 d 5 20 d 4 20 d
 3 20 d 4 20 d 3 20 d 3 21 d 2 20 d 2 21 d 2 20 d 2 20 d 1 21 d 1 20 d 21 Y 1 20 d 21 Y -1 20 d 21 Y -1 20 d -1 21 d -2 20 d -2 21 d -2 20 d -2 21 d -3 20 d -3 20 d -4 20 d -3 21 d -4 20 d -5 20 d -4 20 d -5 20 d -5 20 d -6 19 d -6 20 d -6 20 d -6 19
 d -7 20 d -7 19 d -7 19 d -8 19 d -7 19 d -9 19 d -8 19 d s 3 lw 1407 1361 m20 6 lw 3 lw 1488 1134 m20 6 lw 3 lw 1526 907 m20 6 lw 3 lw 1526 680 m20 6 lw 3 lw 1488 454 m20 6 lw 3 lw 1407 227 m20 6 lw 1407 227 m -104 -227 d s 1407 1361 m -187 408 d
 s[ 20 20] 0 sd 1407 1361 m -1134 Y s 170 794 m 1361 X s
 gsave  2268 1769 0 0 C 1448.52 813.774 t 0 r /Helvetica findfont 70.5271 sf 0 0 m (s) show NC gr 
 gsave  2268 1769 0 0 C 2077.84 767.66 t 0 r /Helvetica findfont 70.5271 sf 0 0 m (L) show NC gr [  ] 0 sd 2041 1361 m -1134 Y s 2059 259 m -18 -32 d -18 32 d s 2023 1329 m 18 32 d 18 -32 d s 1 1 1 c black 726 1474 m -5 20 d -12 15 d -19 9 d -20 X
 -18 -9 d -13 -15 d -4 -20 d 4 -20 d 13 -15 d 18 -9 d 20 X 19 9 d 12 15 d 5 20 d cl s 3 lw 680 1474 m20 6 lw
 gsave  2268 1769 0 0 C 745.959 1475.64 t 0 r /Helvetica findfont 70.5271 sf 0 0 m (B) show NC gr 
 gr  gr showpage
end
%%EOF
