%!PS-Adobe-2.0 EPSF-2.0
%%BoundingBox:  0 0 567 442
%%Title: plane_detector.eps: plane_detector
%%Creator: ROOT Version 5.34/14
%%CreationDate: Fri Jan 31 22:19:20 2014
%%EndComments
%%BeginProlog
80 dict begin
/s {stroke} def /l {lineto} def /m {moveto} def /t {translate} def
/r {rotate} def /rl {roll}  def /R {repeat} def
/d {rlineto} def /rm {rmoveto} def /gr {grestore} def /f {eofill} def
/c {setrgbcolor} def /black {0 setgray} def /sd {setdash} def
/cl {closepath} def /sf {scalefont setfont} def /lw {setlinewidth} def
/box {m dup 0 exch d exch 0 d 0 exch neg d cl} def
/NC{systemdict begin initclip end}def/C{NC box clip newpath}def
/bl {box s} def /bf {box f} def /Y { 0 exch d} def /X { 0 d} def 
/K {{pop pop 0 moveto} exch kshow} bind def
/ita {/ang 15 def gsave [1 0 ang dup sin exch cos div 1 0 0] concat} def 
/mp {newpath /y exch def /x exch def} def
/side {[w .77 mul w .23 mul] .385 w mul sd w 0 l currentpoint t -144 r} def
/mr {mp x y w2 0 360 arc} def /m24 {mr s} def /m20 {mr f} def
/mb {mp x y w2 add m w2 neg 0 d 0 w neg d w 0 d 0 w d cl} def
/mt {mp x y w2 add m w2 neg w neg d w 0 d cl} def
/m21 {mb f} def /m25 {mb s} def /m22 {mt f} def /m26{mt s} def
/m23 {mp x y w2 sub m w2 w d w neg 0 d cl f} def
/m27 {mp x y w2 add m w3 neg w2 neg d w3 w2 neg d w3 w2 d cl s} def
/m28 {mp x w2 sub y w2 sub w3 add m w3 0 d  0 w3 neg d w3 0 d 0 w3 d w3 0 d  0 w3 d w3 neg 0 d 0 w3 d w3 neg 0 d 0 w3 neg d w3 neg 0 d cl s } def
/m29 {mp gsave x w2 sub y w2 add w3 sub m currentpoint t 4 {side} repeat cl fill gr} def
/m30 {mp gsave x w2 sub y w2 add w3 sub m currentpoint t 4 {side} repeat cl s gr} def
/m31 {mp x y w2 sub m 0 w d x w2 sub y m w 0 d x w2 sub y w2 add m w w neg d x w2 sub y w2 sub m w w d s} def
/m32 {mp x y w2 sub m w2 w d w neg 0 d cl s} def
/m33 {mp x y w2 add m w3 neg w2 neg d w3 w2 neg d w3 w2 d cl f} def
/m34 {mp x w2 sub y w2 sub w3 add m w3 0 d  0 w3 neg d w3 0 d 0 w3 d w3 0 d  0 w3 d w3 neg 0 d 0 w3 d w3 neg 0 d 0 w3 neg d w3 neg 0 d cl f } def
/m2 {mp x y w2 sub m 0 w d x w2 sub y m w 0 d s} def
/m5 {mp x w2 sub y w2 sub m w w d x w2 sub y w2 add m w w neg d s} def
/reEncode {exch findfont dup length dict begin {1 index /FID eq  {pop pop} {def} ifelse } forall /Encoding exch def currentdict end dup /FontName get exch definefont pop } def [/Times-Bold /Times-Italic /Times-BoldItalic /Helvetica /Helvetica-Oblique
 /Helvetica-Bold /Helvetica-BoldOblique /Courier /Courier-Oblique /Courier-Bold /Courier-BoldOblique /Times-Roman /AvantGarde-Book /AvantGarde-BookOblique /AvantGarde-Demi /AvantGarde-DemiOblique /Bookman-Demi /Bookman-DemiItalic /Bookman-Light
 /Bookman-LightItalic /Helvetica-Narrow /Helvetica-Narrow-Bold /Helvetica-Narrow-BoldOblique /Helvetica-Narrow-Oblique /NewCenturySchlbk-Roman /NewCenturySchlbk-Bold /NewCenturySchlbk-BoldItalic /NewCenturySchlbk-Italic /Palatino-Bold
 /Palatino-BoldItalic /Palatino-Italic /Palatino-Roman ] {ISOLatin1Encoding reEncode } forall
%%EndProlog
%%BeginSetup
%%EndSetup
newpath  gsave  .25 .25 scale  gsave  0 0 t black[  ] 0 sd 6 lw 1 1 1 c 2268 1769 0 0 bf 0.8 0.8 0.8 c 1024 445 m -694 458 d s 330 903 m 858 188 d s 1188 1091 m 799 -238 d s 1987 853 m -963 -408 d s 1024 446 m -694 458 d s 330 904 m 858 188 d s 1188
 1092 m 799 -238 d s 1987 854 m -963 -408 d s 1024 445 m 1 Y s 330 903 m 1 Y s 1188 1091 m 1 Y s 1987 853 m 1 Y s black 1134 879 m -882 -255 d s
 gsave  2268 1769 0 0 C 149.192 585.917 t 0 r /Helvetica findfont 78.6648 sf 0 0 m (+x) show NC gr  1134 879 m 786 -323 d s
 gsave  2268 1769 0 0 C 1931.36 520.815 t 0 r /Helvetica findfont 78.6648 sf 0 0 m (+y) show NC gr  1134 879 m 672 Y s
 gsave  2268 1769 0 0 C 1090.46 1567.87 t 0 r /Helvetica findfont 78.6648 sf 0 0 m (+z) show NC gr  1134 879 m -558 618 d s
 gsave  2268 1769 0 0 C 504.54 1513.62 t 0 r /Helvetica findfont 78.6648 sf 0 0 m (v) show NC gr  513 1568 m 13 13 d s 526 1581 m 14 -13 d s[ 12 12] 0 sd 1134 879 m -477 -379 d s 576 1497 m 81 -997 d s
 gsave  2268 1769 0 0 C 876.163 737.822 t 0 r /Symbol findfont 70.5271 sf 0 0 m (f) show NC gr [  ] 0 sd 942 824 m 3 -2 d s 945 822 m 4 -2 d s 949 820 m 4 -1 d s 953 819 m 4 -2 d s 957 817 m 4 -2 d s 961 815 m 5 -1 d s 966 814 m 4 -2 d s 970 812 m 4
 -1 d s 974 811 m 5 -2 d s 979 809 m 5 -1 d s 984 808 m 5 -1 d s 989 807 m 5 -2 d s 994 805 m 5 -1 d s 999 804 m 5 -1 d s 1004 803 m 5 -1 d s 1009 802 m 6 -1 d s 1015 801 m 5 -1 d s 1020 800 m 6 -1 d s 1026 799 m 5 -1 d s 916 816 m 4 -2 d s 920 814 m
 4 -2 d s 924 812 m 5 -2 d s 929 810 m 4 -1 d s 933 809 m 5 -2 d s 938 807 m 5 -2 d s 943 805 m 5 -2 d s 948 803 m 5 -1 d s 953 802 m 5 -2 d s 958 800 m 5 -2 d s 963 798 m 6 -1 d s 969 797 m 5 -2 d s 974 795 m 6 -1 d s 980 794 m 6 -2 d s 986 792 m 6
 -1 d s 992 791 m 6 -1 d s 998 790 m 6 -1 d s 1004 789 m 7 -2 d s 1011 787 m 6 -1 d s
 gsave  2268 1769 0 0 C 1044.34 1095.88 t 0 r /Symbol findfont 70.5271 sf 0 0 m (q) show NC gr  1134 1108 m -5 -3 d s 1129 1105 m -4 -4 d s 1125 1101 m -5 -4 d s 1120 1097 m -5 -4 d s 1115 1093 m -4 -5 d s 1111 1088 m -5 -6 d s 1106 1082 m -4 -6 d s
 1102 1076 m -5 -6 d s 1097 1070 m -4 -8 d s 1093 1062 m -5 -7 d s 1088 1055 m -4 -8 d s 1084 1047 m -4 -9 d s 1080 1038 m -4 -9 d s 1076 1029 m -4 -9 d s 1072 1020 m -4 -10 d s 1068 1010 m -4 -10 d s 1064 1000 m -4 -10 d s 1060 990 m -3 -11 d s 1057
 979 m -3 -11 d s
 gr  gr showpage
end
%%EOF
