%!PS-Adobe-2.0 EPSF-2.0
%%BoundingBox:  0 0 567 442
%%Title: rad_int_len.eps: rad_int_len
%%Creator: ROOT Version 5.34/14
%%CreationDate: Mon Jun  2 00:08:51 2014
%%EndComments
%%BeginProlog
80 dict begin
/s {stroke} def /l {lineto} def /m {moveto} def /t {translate} def
/r {rotate} def /rl {roll}  def /R {repeat} def
/d {rlineto} def /rm {rmoveto} def /gr {grestore} def /f {eofill} def
/c {setrgbcolor} def /black {0 setgray} def /sd {setdash} def
/cl {closepath} def /sf {scalefont setfont} def /lw {setlinewidth} def
/box {m dup 0 exch d exch 0 d 0 exch neg d cl} def
/NC{systemdict begin initclip end}def/C{NC box clip newpath}def
/bl {box s} def /bf {box f} def /Y { 0 exch d} def /X { 0 d} def 
/K {{pop pop 0 moveto} exch kshow} bind def
/ita {/ang 15 def gsave [1 0 ang dup sin exch cos div 1 0 0] concat} def 
/mp {newpath /y exch def /x exch def} def
/side {[w .77 mul w .23 mul] .385 w mul sd w 0 l currentpoint t -144 r} def
/mr {mp x y w2 0 360 arc} def /m24 {mr s} def /m20 {mr f} def
/mb {mp x y w2 add m w2 neg 0 d 0 w neg d w 0 d 0 w d cl} def
/mt {mp x y w2 add m w2 neg w neg d w 0 d cl} def
/m21 {mb f} def /m25 {mb s} def /m22 {mt f} def /m26{mt s} def
/m23 {mp x y w2 sub m w2 w d w neg 0 d cl f} def
/m27 {mp x y w2 add m w3 neg w2 neg d w3 w2 neg d w3 w2 d cl s} def
/m28 {mp x w2 sub y w2 sub w3 add m w3 0 d  0 w3 neg d w3 0 d 0 w3 d w3 0 d  0 w3 d w3 neg 0 d 0 w3 d w3 neg 0 d 0 w3 neg d w3 neg 0 d cl s } def
/m29 {mp gsave x w2 sub y w2 add w3 sub m currentpoint t 4 {side} repeat cl fill gr} def
/m30 {mp gsave x w2 sub y w2 add w3 sub m currentpoint t 4 {side} repeat cl s gr} def
/m31 {mp x y w2 sub m 0 w d x w2 sub y m w 0 d x w2 sub y w2 add m w w neg d x w2 sub y w2 sub m w w d s} def
/m32 {mp x y w2 sub m w2 w d w neg 0 d cl s} def
/m33 {mp x y w2 add m w3 neg w2 neg d w3 w2 neg d w3 w2 d cl f} def
/m34 {mp x w2 sub y w2 sub w3 add m w3 0 d  0 w3 neg d w3 0 d 0 w3 d w3 0 d  0 w3 d w3 neg 0 d 0 w3 d w3 neg 0 d 0 w3 neg d w3 neg 0 d cl f } def
/m2 {mp x y w2 sub m 0 w d x w2 sub y m w 0 d s} def
/m5 {mp x w2 sub y w2 sub m w w d x w2 sub y w2 add m w w neg d s} def
/reEncode {exch findfont dup length dict begin {1 index /FID eq  {pop pop} {def} ifelse } forall /Encoding exch def currentdict end dup /FontName get exch definefont pop } def [/Times-Bold /Times-Italic /Times-BoldItalic /Helvetica /Helvetica-Oblique
 /Helvetica-Bold /Helvetica-BoldOblique /Courier /Courier-Oblique /Courier-Bold /Courier-BoldOblique /Times-Roman /AvantGarde-Book /AvantGarde-BookOblique /AvantGarde-Demi /AvantGarde-DemiOblique /Bookman-Demi /Bookman-DemiItalic /Bookman-Light
 /Bookman-LightItalic /Helvetica-Narrow /Helvetica-Narrow-Bold /Helvetica-Narrow-BoldOblique /Helvetica-Narrow-Oblique /NewCenturySchlbk-Roman /NewCenturySchlbk-Bold /NewCenturySchlbk-BoldItalic /NewCenturySchlbk-Italic /Palatino-Bold
 /Palatino-BoldItalic /Palatino-Italic /Palatino-Roman ] {ISOLatin1Encoding reEncode } forall
%%EndProlog
%%BeginSetup
%%EndSetup
newpath  gsave  .25 .25 scale  gsave  0 0 t black[  ] 0 sd 6 lw 1 1 1 c 2268 1769 0 0 bf black 1 1 1 c 2268 1062 0 707 bf black 3 lw 1 1 1 c 1894 957 283 741 bf black 1894 957 283 741 bl 1 1 1 c 1894 957 283 741 bf black 1894 957 283 741 bl 6 lw 283
 741 m 1894 X s 0.6 0.6 0.6 c[ 12 12] 0 sd 3 lw 283 1698 m -957 Y s 568 1698 m -957 Y s 735 1698 m -957 Y s 853 1698 m -957 Y s 945 1698 m -957 Y s 1020 1698 m -957 Y s 1084 1698 m -957 Y s 1138 1698 m -957 Y s 1187 1698 m -957 Y s 1230 1698 m -957 Y
 s 1515 1698 m -957 Y s 1682 1698 m -957 Y s 1800 1698 m -957 Y s 1892 1698 m -957 Y s 1967 1698 m -957 Y s 2030 1698 m -957 Y s 2085 1698 m -957 Y s 2134 1698 m -957 Y s 2177 1698 m -957 Y s black[  ] 0 sd 6 lw 283 1698 m 1894 X s 283 741 m 957 Y s
 0.6 0.6 0.6 c[ 12 12] 0 sd 3 lw 2177 801 m -1894 X s 2177 847 m -1894 X s 2177 885 m -1894 X s 2177 917 m -1894 X s 2177 945 m -1894 X s 2177 970 m -1894 X s 2177 991 m -1894 X s 2177 1135 m -1894 X s 2177 1220 m -1894 X s 2177 1279 m -1894 X s 2177
 1326 m -1894 X s 2177 1364 m -1894 X s 2177 1396 m -1894 X s 2177 1423 m -1894 X s 2177 1448 m -1894 X s 2177 1470 m -1894 X s 2177 1614 m -1894 X s 2177 1698 m -1894 X s black[  ] 0 sd 6 lw 2177 741 m 957 Y s 1 1 1 c black 283 741 m 1894 X s 283
 741 m 1894 X s
 gsave  2268 1062 0 707 C 2129.38 610.33 t 0 r /Helvetica findfont 78.7051 sf 0 0 m (Z) show NC gr  283 768 m -27 Y s 568 755 m -14 Y s 735 755 m -14 Y s 853 755 m -14 Y s 945 755 m -14 Y s 1020 755 m -14 Y s 1084 755 m -14 Y s 1138 755 m -14 Y s
 1187 755 m -14 Y s 1230 768 m -27 Y s 1515 755 m -14 Y s 1682 755 m -14 Y s 1800 755 m -14 Y s 1892 755 m -14 Y s 1967 755 m -14 Y s 2030 755 m -14 Y s 2085 755 m -14 Y s 2134 755 m -14 Y s 2177 768 m -27 Y s 283 1698 m 1894 X s 283 1671 m 27 Y s
 568 1685 m 13 Y s 735 1685 m 13 Y s 853 1685 m 13 Y s 945 1685 m 13 Y s 1020 1685 m 13 Y s 1084 1685 m 13 Y s 1138 1685 m 13 Y s 1187 1685 m 13 Y s 1230 1671 m 27 Y s 1515 1685 m 13 Y s 1682 1685 m 13 Y s 1800 1685 m 13 Y s 1892 1685 m 13 Y s 1967
 1685 m 13 Y s 2030 1685 m 13 Y s 2085 1685 m 13 Y s 2134 1685 m 13 Y s 2177 1671 m 27 Y s 283 741 m 957 Y s
 gsave  2268 1062 0 707 C 86.8025 1679.09 t 90 r /Helvetica findfont 78.7051 sf 0 0 m (]) show NC gr 
 gsave  2268 1062 0 707 C 51.539 1632.97 t 90 r /Helvetica findfont 51.5654 sf 0 0 m (\2552) show NC gr 
 gsave  2268 1062 0 707 C 86.8025 1424.1 t 90 r /Helvetica findfont 78.7051 sf 0 0 m ( [g cm) show NC gr 
 gsave  2268 1062 0 707 C 113.928 1413.25 t 90 r /Helvetica findfont 51.5654 sf 0 0 m (I) show NC gr 
 gsave  2268 1062 0 707 C 86.8025 1369.85 t 90 r /Symbol findfont 78.7051 sf 0 0 m (l) show NC gr 
 gsave  2268 1062 0 707 C 86.8025 1326.45 t 90 r /Helvetica findfont 78.7051 sf 0 0 m (, ) show NC gr 
 gsave  2268 1062 0 707 C 111.216 1299.33 t 90 r /Helvetica findfont 51.5654 sf 0 0 m (0) show NC gr 
 gsave  2268 1062 0 707 C 86.8025 1247.79 t 90 r /Helvetica findfont 78.7051 sf 0 0 m (X) show NC gr  314 801 m -31 X s 314 847 m -31 X s 314 885 m -31 X s 314 917 m -31 X s 314 945 m -31 X s 314 970 m -31 X s 345 991 m -62 X s
 gsave  2268 1062 0 707 C 259.188 963.243 t 0 r  -76 0 t /Helvetica findfont 67.8492 sf 0 0 m (10) show NC gr  314 1135 m -31 X s 314 1220 m -31 X s 314 1279 m -31 X s 314 1326 m -31 X s 314 1364 m -31 X s 314 1396 m -31 X s 314 1423 m -31 X s 314
 1448 m -31 X s 345 1470 m -62 X s
 gsave  2268 1062 0 707 C 233.282 1467.51 t 0 r /Helvetica findfont 46.1374 sf 0 0 m (2) show NC gr 
 gsave  2268 1062 0 707 C 157.33 1437.67 t 0 r /Helvetica findfont 70.5631 sf 0 0 m (10) show NC gr  314 1614 m -31 X s 314 1698 m -31 X s 2177 741 m 957 Y s 2146 801 m 31 X s 2146 847 m 31 X s 2146 885 m 31 X s 2146 917 m 31 X s 2146 945 m 31 X s
 2146 970 m 31 X s 2116 991 m 61 X s 2146 1135 m 31 X s 2146 1220 m 31 X s 2146 1279 m 31 X s 2146 1326 m 31 X s 2146 1364 m 31 X s 2146 1396 m 31 X s 2146 1423 m 31 X s 2146 1448 m 31 X s 2116 1470 m 61 X s 2146 1614 m 31 X s 2146 1698 m 31 X s 0.95
 0.95 0.95 c black 284 1518 m 4 X 2 -1 d 2 X 2 -1 d 4 X 2 -1 d 1 X 2 -1 d 4 X 2 -1 d 2 X 2 -1 d 2 X 2 -1 d 3 X 2 -1 d 2 X 2 -1 d 4 X 2 -1 d 2 X 2 -1 d 1 X 2 -1 d 4 X 2 -1 d 2 X 2 -1 d 2 X 2 -1 d 3 X 2 -1 d 2 X 2 -1 d 2 X 2 -1 d 4 X 2 -1 d 1 X 2 -1 d
 2 X s 377 1498 m 2 -1 d 2 X 2 -1 d 2 X 2 -1 d 3 X 2 -1 d 2 X 2 -1 d 2 X 2 -1 d 2 X 2 -1 d 2 X 1 -1 d 4 X 2 -1 d 2 X 2 -1 d 2 X 2 -1 d 2 X 2 -1 d 1 X 2 -1 d 2 X 2 -1 d 2 X 2 -1 d 2 X 2 -1 d 2 X 1 -1 d 4 X 2 -1 d 2 X 2 -1 d 2 X 2 -1 d 2 X 2 -1 d 1 X 2
 -1 d 2 X 2 -1 d 2 X s 470 1475 m 2 -1 d 2 X 2 -1 d 2 X 1 -1 d 2 X 2 -1 d 2 X 2 -1 d 2 X 2 -1 d 2 X 2 -1 d 1 X 2 -1 d 2 X 2 -1 d 2 X 2 -1 d 2 -1 d 2 X 2 -1 d 2 X 1 -1 d 2 X 2 -1 d 2 X 2 -1 d 2 X 2 -1 d 2 X 2 -1 d 1 X 2 -1 d 2 X 2 -1 d 2 X 2 -1 d 2 -1
 d 2 X 2 -1 d 2 X 1 -1 d 2 X 2 -1 d 2 X 2 -1 d 2 X 2 -1 d s 563 1449 m 2 X 2 -1 d 1 -1 d 2 X 2 -1 d 2 X 2 -1 d 2 X 2 -1 d 2 X 2 -1 d 1 -1 d 2 X 2 -1 d 2 X 2 -1 d 2 X 2 -1 d 2 X 2 -1 d 2 -1 d 1 X 2 -1 d 2 X 2 -1 d 2 X 2 -1 d 2 -1 d 2 X 2 -1 d 1 X 2 -1
 d 2 X 2 -1 d 2 -1 d 2 X 2 -1 d 2 X 2 -1 d 2 X 1 -1 d 2 -1 d 2 X 2 -1 d 2 X 2 -1 d 2 -1 d 2 X 2 -1 d s 656 1421 m 1 X 2 -1 d 2 X 2 -1 d 2 -1 d 2 X 2 -1 d 2 X 2 -1 d 1 -1 d 2 X 2 -1 d 2 X 2 -1 d 2 -1 d 2 X 2 -1 d 2 X 2 -1 d 1 -1 d 2 X 2 -1 d 2 X 2 -1
 d 2 -1 d 2 X 2 -1 d 2 -1 d 1 X 2 -1 d 2 X 2 -1 d 2 -1 d 2 X 2 -1 d 2 X 2 -1 d 2 -1 d 1 X 2 -1 d 2 -1 d 2 X 2 -1 d 2 X 2 -1 d 2 -1 d 2 X 1 -1 d 2 -1 d s 748 1391 m 2 X 2 -1 d 2 X 2 -1 d 2 -1 d 2 X 2 -1 d 1 -1 d 2 X 2 -1 d 2 -1 d 2 X 2 -1 d 2 X 2 -1 d
 2 -1 d 2 X 1 -1 d 2 -1 d 2 X 2 -1 d 2 -1 d 2 X 2 -1 d 2 -1 d 2 X 1 -1 d 2 X 2 -1 d 2 -1 d 2 X 2 -1 d 2 -1 d 2 X 2 -1 d 1 -1 d 2 X 2 -1 d 2 -1 d 2 X 2 -1 d 2 -1 d 2 X 2 -1 d 2 -1 d 1 X 2 -1 d 2 -1 d 2 X s 841 1360 m 2 -1 d 2 -1 d 2 X 2 -1 d 2 -1 d 1
 X 2 -1 d 2 -1 d 2 X 2 -1 d 2 -1 d 2 X 2 -1 d 2 -1 d 2 X 1 -1 d 2 -1 d 2 X 2 -1 d 2 -1 d 2 X 2 -1 d 2 -1 d 2 X 1 -1 d 2 -1 d 2 X 2 -1 d 2 -1 d 2 -1 d 2 X 2 -1 d 2 -1 d 1 X 2 -1 d 2 -1 d 2 X 2 -1 d 2 -1 d 2 X 2 -1 d 2 -1 d 2 X 1 -1 d 2 -1 d 2 -1 d 2 X
 2 -1 d 2 -1 d s 934 1326 m 2 X 2 -1 d 2 -1 d 1 X 2 -1 d 2 -1 d 2 -1 d 2 X 2 -1 d 2 -1 d 2 X 2 -1 d 2 -1 d 1 X 2 -1 d 2 -1 d 2 -1 d 2 X 2 -1 d 2 -1 d 2 X 2 -1 d 1 -1 d 2 X 2 -1 d 2 -1 d 2 -1 d 2 X 2 -1 d 2 -1 d 2 X 1 -1 d 2 -1 d 2 -1 d 2 X 2 -1 d 2
 -1 d 2 X 2 -1 d 2 -1 d 2 -1 d 1 X 2 -1 d 2 -1 d 2 X 2 -1 d 2 -1 d 2 -1 d 2 X s 1027 1292 m 2 -1 d 1 -1 d 2 -1 d 2 X 2 -1 d 2 -1 d 2 X 2 -1 d 2 -1 d 2 -1 d 2 X 1 -1 d 2 -1 d 2 X 2 -1 d 2 -1 d 2 -1 d 2 X 2 -1 d 2 -1 d 1 -1 d 2 X 2 -1 d 2 -1 d 2 -1 d 2
 X 2 -1 d 2 -1 d 2 X 1 -1 d 2 -1 d 2 -1 d 2 X 2 -1 d 2 -1 d 2 -1 d 2 X 2 -1 d 2 -1 d 1 -1 d 2 X 2 -1 d 2 -1 d 2 -1 d 2 X 2 -1 d 2 -1 d 2 X 1 -1 d s 1119 1256 m 2 -1 d 2 -1 d 2 X 2 -1 d 2 -1 d 2 -1 d 2 X 2 -1 d 2 -1 d 1 -1 d 2 X 2 -1 d 2 -1 d 2 -1 d 2
 X 2 -1 d 2 -1 d 2 -1 d 1 X 2 -1 d 2 -1 d 2 -1 d 2 X 2 -1 d 2 -1 d 2 -1 d 2 X 1 -1 d 2 -1 d 2 -1 d 2 X 2 -1 d 2 -1 d 2 -1 d 2 X 2 -1 d 2 -1 d 1 -1 d 2 X 2 -1 d 2 -1 d 2 -1 d 2 -1 d 2 X 2 -1 d 2 -1 d 1 -1 d 2 X 2 -1 d s 1212 1219 m 2 -1 d 2 -1 d 2 X 2
 -1 d 2 -1 d 2 -1 d 2 X 1 -1 d 2 -1 d 2 -1 d 2 X 2 -1 d 2 -1 d 2 -1 d 2 -1 d 2 X 1 -1 d 2 -1 d 2 -1 d 2 X 2 -1 d 2 -1 d 2 -1 d 2 X 2 -1 d 1 -1 d 2 -1 d 2 X 2 -1 d 2 -1 d 2 -1 d 2 -1 d 2 X 2 -1 d 2 -1 d 1 -1 d 2 X 2 -1 d 2 -1 d 2 -1 d 2 X 2 -1 d 2 -1
 d 2 -1 d 1 -1 d 2 X 2 -1 d 2 -1 d 2 -1 d s 1305 1181 m 2 X 2 -1 d 2 -1 d 2 -1 d 1 -1 d 2 X 2 -1 d 2 -1 d 2 -1 d 2 X 2 -1 d 2 -1 d 2 -1 d 2 -1 d 1 X 2 -1 d 2 -1 d 2 -1 d 2 X 2 -1 d 2 -1 d 2 -1 d 2 -1 d 1 X 2 -1 d 2 -1 d 2 -1 d 2 X 2 -1 d 2 -1 d 2 -1
 d 2 -1 d 2 X 1 -1 d 2 -1 d 2 -1 d 2 -1 d 2 X 2 -1 d 2 -1 d 2 -1 d 2 X 1 -1 d 2 -1 d 2 -1 d 2 -1 d 2 X 2 -1 d 2 -1 d s 1398 1143 m 2 -1 d 2 X 1 -1 d 2 -1 d 2 -1 d 2 -1 d 2 X 2 -1 d 2 -1 d 2 -1 d 2 -1 d 2 X 1 -1 d 2 -1 d 2 -1 d 2 -1 d 2 X 2 -1 d 2 -1
 d 2 -1 d 2 X 1 -1 d 2 -1 d 2 -1 d 2 -1 d 2 X 2 -1 d 2 -1 d 2 -1 d 2 -1 d 2 X 1 -1 d 2 -1 d 2 -1 d 2 -1 d 2 X 2 -1 d 2 -1 d 2 -1 d 2 X 1 -1 d 2 -1 d 2 -1 d 2 -1 d 2 X 2 -1 d 2 -1 d 2 -1 d 2 -1 d s 1491 1104 m 1 X 2 -1 d 2 -1 d 2 -1 d 2 -1 d 2 X 2 -1
 d 2 -1 d 2 -1 d 2 -1 d 1 X 2 -1 d 2 -1 d 2 -1 d 2 -1 d 2 X 2 -1 d 2 -1 d 2 -1 d 1 -1 d 2 X 2 -1 d 2 -1 d 2 -1 d 2 -1 d 2 X 2 -1 d 2 -1 d 2 -1 d 1 -1 d 2 X 2 -1 d 2 -1 d 2 -1 d 2 -1 d 2 X 2 -1 d 2 -1 d 1 -1 d 2 -1 d 2 X 2 -1 d 2 -1 d 2 -1 d 2 -1 d 2
 X 2 -1 d 1 -1 d 2 -1 d s 1583 1065 m 2 -1 d 2 X 2 -1 d 2 -1 d 2 -1 d 2 -1 d 2 X 2 -1 d 1 -1 d 2 -1 d 2 -1 d 2 X 2 -1 d 2 -1 d 2 -1 d 2 -1 d 2 X 1 -1 d 2 -1 d 2 -1 d 2 -1 d 2 X 2 -1 d 2 -1 d 2 -1 d 2 -1 d 2 X 1 -1 d 2 -1 d 2 -1 d 2 -1 d 2 X 2 -1 d 2
 -1 d 2 -1 d 2 -1 d 1 X 2 -1 d 2 -1 d 2 -1 d 2 -1 d 2 X 2 -1 d 2 -1 d 2 -1 d 1 -1 d 2 X 2 -1 d 2 -1 d s 1676 1026 m 2 -1 d 2 -1 d 2 X 2 -1 d 2 -1 d 2 -1 d 1 -1 d 2 X 2 -1 d 2 -1 d 2 -1 d 2 -1 d 2 -1 d 2 X 2 -1 d 1 -1 d 2 -1 d 2 -1 d 2 X 2 -1 d 2 -1 d
 2 -1 d 2 -1 d 2 X 2 -1 d 1 -1 d 2 -1 d 2 -1 d 2 X 2 -1 d 2 -1 d 2 -1 d 2 -1 d 2 X 1 -1 d 2 -1 d 2 -1 d 2 -1 d 2 X 2 -1 d 2 -1 d 2 -1 d 2 -1 d 1 X 2 -1 d 2 -1 d 2 -1 d 2 -1 d 2 -1 d s 1769 986 m 2 X 2 -1 d 2 -1 d 2 -1 d 1 -1 d 2 X 2 -1 d 2 -1 d 2 -1
 d 2 -1 d 2 X 2 -1 d 2 -1 d 1 -1 d 2 -1 d 2 X 2 -1 d 2 -1 d 2 -1 d 2 -1 d 2 X 2 -1 d 2 -1 d 1 -1 d 2 -1 d 2 -1 d 2 X 2 -1 d 2 -1 d 2 -1 d 2 -1 d 2 X 1 -1 d 2 -1 d 2 -1 d 2 -1 d 2 X 2 -1 d 2 -1 d 2 -1 d 2 -1 d 1 X 2 -1 d 2 -1 d 2 -1 d 2 -1 d 2 -1 d 2
 X 2 -1 d s 1862 947 m 2 -1 d 2 -1 d 1 -1 d 2 X 2 -1 d 2 -1 d 2 -1 d 2 -1 d 2 X 2 -1 d 2 -1 d 1 -1 d 2 -1 d 2 X 2 -1 d 2 -1 d 2 -1 d 2 -1 d 2 X 2 -1 d 1 -1 d 2 -1 d 2 -1 d 2 -1 d 2 X 2 -1 d 2 -1 d 2 -1 d 2 -1 d 2 X 1 -1 d 2 -1 d 2 -1 d 2 -1 d 2 X 2
 -1 d 2 -1 d 2 -1 d 2 -1 d 1 X 2 -1 d 2 -1 d 2 -1 d 2 -1 d 2 -1 d 2 X 2 -1 d 2 -1 d 2 -1 d s 1955 907 m 1 -1 d 2 X 2 -1 d 2 -1 d 2 -1 d 2 -1 d 2 X 2 -1 d 2 -1 d 1 -1 d 2 -1 d 2 X 2 -1 d 2 -1 d 2 -1 d 2 -1 d 2 X 2 -1 d 1 -1 d 2 -1 d 2 -1 d 2 -1 d 2 X
 2 -1 d 2 -1 d 2 -1 d 2 -1 d 2 X 1 -1 d 2 -1 d 2 -1 d 2 -1 d 2 X 2 -1 d 2 -1 d 2 -1 d 2 -1 d 1 X 2 -1 d 2 -1 d 2 -1 d 2 -1 d 2 X 2 -1 d 2 -1 d 2 -1 d 2 -1 d 1 -1 d 2 X s 2047 868 m 2 -1 d 2 -1 d 2 -1 d 2 -1 d 2 X 2 -1 d 2 -1 d 1 -1 d 2 -1 d 2 X 2 -1
 d 2 -1 d 2 -1 d 2 -1 d 2 X 2 -1 d 1 -1 d 2 -1 d 2 -1 d 2 X 2 -1 d 2 -1 d 2 -1 d 2 -1 d 2 -1 d 2 X 1 -1 d 2 -1 d 2 -1 d 2 -1 d 2 X 2 -1 d 2 -1 d 2 -1 d 2 -1 d 1 X 2 -1 d 2 -1 d 2 -1 d 2 -1 d 2 X 2 -1 d 2 -1 d 2 -1 d 2 -1 d 1 X 2 -1 d 2 -1 d 2 -1 d s
 2140 828 m 2 -1 d 2 X 2 -1 d 2 -1 d 2 -1 d 1 -1 d 2 X 2 -1 d 2 -1 d 2 -1 d 2 -1 d 2 -1 d 2 X 2 -1 d 1 -1 d 2 -1 d 2 -1 d 2 X 2 -1 d s[ 20 20] 0 sd 0.95 0.95 0.95 c black 284 1313 m 4 X 2 1 d 6 X 2 1 d 3 X 2 1 d 4 X 2 1 d 6 X 2 1 d 3 X 2 1 d 4 X 2 1
 d 6 X 2 1 d 3 X 2 1 d 4 X 2 1 d 6 X 1 1 d 4 X 2 1 d 4 X 2 1 d 6 X 1 1 d 4 X s 377 1327 m 2 1 d 4 X 2 1 d 5 X 2 1 d 4 X 2 1 d 6 X 2 1 d 3 X 2 1 d 4 X 2 1 d 6 X 2 1 d 3 X 2 1 d 4 X 2 1 d 6 X 1 1 d 4 X 2 1 d 4 X 2 1 d 6 X 1 1 d 4 X 2 1 d 2 X s 470 1342
 m 2 X 2 1 d 5 X 2 1 d 4 X 2 1 d 4 X 2 1 d 5 X 2 1 d 4 X 2 1 d 4 X 2 1 d 5 X 2 1 d 4 X 2 1 d 6 X 1 1 d 4 X 2 1 d 4 X 2 1 d 6 X 1 1 d 4 X 2 1 d 4 X 2 1 d s 563 1357 m 5 X 2 1 d 4 X 2 1 d 4 X 2 1 d 5 X 2 1 d 4 X 2 1 d 4 X 2 1 d 5 X 2 1 d 4 X 2 1 d 4 X
 2 1 d 5 X 2 1 d 4 X 2 1 d 6 X 1 1 d 4 X 2 1 d 4 X 2 1 d 4 X s 656 1371 m 1 X 2 1 d 4 X 2 1 d 4 X 2 1 d 5 X 2 1 d 4 X 2 1 d 4 X 2 1 d 5 X 2 1 d 4 X 2 1 d 4 X 2 1 d 5 X 2 1 d 4 X 2 1 d 4 X 2 1 d 5 X 2 1 d 4 X 2 1 d 4 X 1 1 d 2 X s 748 1386 m 4 X 2 1 d
 4 X 2 1 d 5 X 2 1 d 4 X 2 1 d 4 X 2 1 d 5 X 2 1 d 4 X 2 1 d 4 X 2 1 d 5 X 2 1 d 4 X 2 1 d 4 X 1 1 d 6 X 2 1 d 4 X 2 1 d 4 X 1 1 d 6 X s 841 1400 m 2 1 d 4 X 2 1 d 3 X 2 1 d 6 X 2 1 d 4 X 2 1 d 3 X 2 1 d 6 X 2 1 d 4 X 2 1 d 5 X 2 1 d 4 X 2 1 d 4 X 1
 1 d 6 X 2 1 d 4 X 2 1 d 4 X 1 1 d 6 X 2 1 d 2 X s 934 1415 m 2 X 2 1 d 3 X 2 1 d 6 X 2 1 d 4 X 2 1 d 3 X 2 1 d 6 X 2 1 d 4 X 2 1 d 3 X 2 1 d 6 X 2 1 d 4 X 1 1 d 6 X 2 1 d 4 X 2 1 d 4 X 1 1 d 6 X 2 1 d 4 X 2 1 d s 1027 1430 m 3 X 2 1 d 6 X 2 1 d 4 X
 2 1 d 3 X 2 1 d 6 X 2 1 d 4 X 2 1 d 3 X 2 1 d 6 X 2 1 d 4 X 1 1 d 4 X 2 1 d 6 X 2 1 d 4 X 1 1 d 4 X 2 1 d 6 X 2 1 d 3 X s 1119 1444 m 2 1 d 6 X 2 1 d 4 X 2 1 d 3 X 2 1 d 6 X 2 1 d 4 X 2 1 d 3 X 2 1 d 6 X 2 1 d 4 X 1 1 d 4 X 2 1 d 6 X 2 1 d 4 X 1 1 d
 4 X 2 1 d 6 X 2 1 d 3 X 2 1 d 2 X s 1212 1459 m 2 X 2 1 d 6 X 2 1 d 3 X 2 1 d 6 X 2 1 d 4 X 2 1 d 3 X 2 1 d 6 X 2 1 d 4 X 1 1 d 4 X 2 1 d 6 X 2 1 d 4 X 1 1 d 4 X 2 1 d 6 X 2 1 d 3 X 2 1 d 4 X 2 1 d s 1305 1474 m 6 X 2 1 d 3 X 2 1 d 4 X 2 1 d 6 X 2 1
 d 3 X 2 1 d 4 X 2 1 d 6 X 1 1 d 4 X 2 1 d 6 X 2 1 d 4 X 1 1 d 4 X 2 1 d 6 X 2 1 d 3 X 2 1 d 4 X 2 1 d 4 X s 1398 1488 m 2 X 2 1 d 3 X 2 1 d 4 X 2 1 d 6 X 2 1 d 3 X 2 1 d 4 X 2 1 d 6 X 1 1 d 4 X 2 1 d 4 X 2 1 d 6 X 1 1 d 4 X 2 1 d 4 X 2 1 d 5 X 2 1 d
 4 X 2 1 d 6 X 2 1 d s 1491 1503 m 3 X 2 1 d 4 X 2 1 d 6 X 2 1 d 3 X 2 1 d 4 X 2 1 d 6 X 1 1 d 4 X 2 1 d 4 X 2 1 d 6 X 1 1 d 4 X 2 1 d 4 X 2 1 d 5 X 2 1 d 4 X 2 1 d 4 X 2 1 d 5 X s 1583 1517 m 2 1 d 4 X 2 1 d 6 X 2 1 d 3 X 2 1 d 4 X 2 1 d 6 X 1 1 d 4
 X 2 1 d 4 X 2 1 d 6 X 1 1 d 4 X 2 1 d 4 X 2 1 d 5 X 2 1 d 4 X 2 1 d 4 X 2 1 d 5 X 2 1 d 2 X s 1676 1532 m 2 X 2 1 d 4 X 2 1 d 5 X 2 1 d 4 X 2 1 d 4 X 2 1 d 5 X 2 1 d 4 X 2 1 d 6 X 1 1 d 4 X 2 1 d 4 X 2 1 d 5 X 2 1 d 4 X 2 1 d 4 X 2 1 d 5 X 2 1 d 4 X
 2 1 d s 1769 1547 m 4 X 2 1 d 5 X 2 1 d 4 X 2 1 d 4 X 2 1 d 5 X 2 1 d 4 X 2 1 d 4 X 2 1 d 5 X 2 1 d 4 X 2 1 d 5 X 2 1 d 4 X 2 1 d 4 X 2 1 d 5 X 2 1 d 4 X 2 1 d 4 X s 1862 1561 m 2 1 d 5 X 2 1 d 4 X 2 1 d 4 X 2 1 d 5 X 2 1 d 4 X 2 1 d 4 X 1 1 d 6 X 2
 1 d 4 X 2 1 d 4 X 1 1 d 6 X 2 1 d 4 X 2 1 d 3 X 2 1 d 6 X 2 1 d 4 X 2 1 d 2 X s 1955 1576 m 3 X 2 1 d 4 X 2 1 d 4 X 2 1 d 5 X 2 1 d 4 X 2 1 d 4 X 1 1 d 6 X 2 1 d 4 X 2 1 d 4 X 1 1 d 6 X 2 1 d 4 X 2 1 d 3 X 2 1 d 6 X 2 1 d 4 X 2 1 d 3 X 2 1 d s 2047
 1591 m 6 X 2 1 d 4 X 2 1 d 3 X 2 1 d 6 X 2 1 d 4 X 1 1 d 6 X 2 1 d 4 X 2 1 d 4 X 1 1 d 6 X 2 1 d 4 X 2 1 d 3 X 2 1 d 6 X 2 1 d 4 X 2 1 d 3 X 2 1 d 4 X s 2140 1605 m 2 X 2 1 d 4 X 2 1 d 3 X 2 1 d 6 X 2 1 d 4 X 1 1 d 4 X 2 1 d 2 X s
 gsave  2268 1062 0 707 C 1565.16 1093.17 t 0 r /Helvetica findfont 51.5654 sf 0 0 m (0) show NC gr 
 gsave  2268 1062 0 707 C 1513.62 1114.87 t 0 r /Helvetica findfont 78.7051 sf 0 0 m (X) show NC gr 
 gsave  2268 1062 0 707 C 1557.02 1521.76 t 0 r /Helvetica findfont 51.5654 sf 0 0 m (I) show NC gr 
 gsave  2268 1062 0 707 C 1513.62 1546.17 t 0 r /Symbol findfont 78.7051 sf 0 0 m (l) show NC gr [  ] 0 sd 1 1 1 c 2268 707 0 0 bf black 3 lw 1 1 1 c 1894 484 283 216 bf black 1894 484 283 216 bl 1 1 1 c 1894 484 283 216 bf black 1894 484 283 216 bl
 6 lw 283 216 m 1894 X s 0.6 0.6 0.6 c[ 12 12] 0 sd 3 lw 283 700 m -484 Y s 568 700 m -484 Y s 735 700 m -484 Y s 853 700 m -484 Y s 945 700 m -484 Y s 1020 700 m -484 Y s 1084 700 m -484 Y s 1138 700 m -484 Y s 1187 700 m -484 Y s 1230 700 m -484 Y
 s 1515 700 m -484 Y s 1682 700 m -484 Y s 1800 700 m -484 Y s 1892 700 m -484 Y s 1967 700 m -484 Y s 2030 700 m -484 Y s 2085 700 m -484 Y s 2134 700 m -484 Y s 2177 700 m -484 Y s black[  ] 0 sd 6 lw 283 700 m 1894 X s 283 216 m 484 Y s 0.6 0.6
 0.6 c[ 12 12] 0 sd 3 lw 2177 216 m -1894 X s 2177 243 m -1894 X s 2177 264 m -1894 X s 2177 281 m -1894 X s 2177 296 m -1894 X s 2177 309 m -1894 X s 2177 320 m -1894 X s 2177 330 m -1894 X s 2177 395 m -1894 X s 2177 434 m -1894 X s 2177 461 m
 -1894 X s 2177 482 m -1894 X s 2177 500 m -1894 X s 2177 514 m -1894 X s 2177 527 m -1894 X s 2177 538 m -1894 X s 2177 548 m -1894 X s 2177 614 m -1894 X s 2177 652 m -1894 X s 2177 679 m -1894 X s 2177 700 m -1894 X s black[  ] 0 sd 6 lw 2177 216
 m 484 Y s 1 1 1 c black 283 216 m 1894 X s 283 216 m 1894 X s
 gsave  2268 707 0 0 C 2129.38 40.6887 t 0 r /Helvetica findfont 78.9069 sf 0 0 m (Z) show NC gr  283 233 m -17 Y s
 gsave  2268 707 0 0 C 283.466 125.199 t 0 r  -18 0 t /Helvetica findfont 68.0231 sf 0 0 m (1) show NC gr  568 225 m -9 Y s 735 225 m -9 Y s 853 225 m -9 Y s 945 225 m -9 Y s 1020 225 m -9 Y s 1084 225 m -9 Y s 1138 225 m -9 Y s 1187 225 m -9 Y s
 1230 233 m -17 Y s
 gsave  2268 707 0 0 C 1230.24 125.199 t 0 r  -37 0 t /Helvetica findfont 68.0231 sf 0 0 m (10) show NC gr  1515 225 m -9 Y s 1682 225 m -9 Y s 1800 225 m -9 Y s 1892 225 m -9 Y s 1967 225 m -9 Y s 2030 225 m -9 Y s 2085 225 m -9 Y s 2134 225 m -9 Y
 s 2177 233 m -17 Y s
 gsave  2268 707 0 0 C 2199.9 160.042 t 0 r /Helvetica findfont 46.2557 sf 0 0 m (2) show NC gr 
 gsave  2268 707 0 0 C 2123.95 127.491 t 0 r /Helvetica findfont 70.7441 sf 0 0 m (10) show NC gr  283 700 m 1894 X s 283 683 m 17 Y s 568 692 m 8 Y s 735 692 m 8 Y s 853 692 m 8 Y s 945 692 m 8 Y s 1020 692 m 8 Y s 1084 692 m 8 Y s 1138 692 m 8 Y s
 1187 692 m 8 Y s 1230 683 m 17 Y s 1515 692 m 8 Y s 1682 692 m 8 Y s 1800 692 m 8 Y s 1892 692 m 8 Y s 1967 692 m 8 Y s 2030 692 m 8 Y s 2085 692 m 8 Y s 2134 692 m 8 Y s 2177 683 m 17 Y s 283 216 m 484 Y s
 gsave  2268 707 0 0 C 92.2277 368.911 t 90 r /Helvetica findfont 78.9069 sf 0 0 m (Ratio) show NC gr  307 216 m -24 X s 307 243 m -24 X s 307 264 m -24 X s 307 281 m -24 X s 307 296 m -24 X s 307 309 m -24 X s 307 320 m -24 X s 330 330 m -47 X s
 gsave  2268 707 0 0 C 252.718 301.601 t 0 r  -37 0 t /Helvetica findfont 68.0231 sf 0 0 m (1) show NC gr  307 395 m -24 X s 307 434 m -24 X s 307 461 m -24 X s 307 482 m -24 X s 307 500 m -24 X s 307 514 m -24 X s 307 527 m -24 X s 307 538 m -24 X s
 330 548 m -47 X s
 gsave  2268 707 0 0 C 252.718 519.707 t 0 r  -75 0 t /Helvetica findfont 68.0231 sf 0 0 m (10) show NC gr  307 614 m -24 X s 307 652 m -24 X s 307 679 m -24 X s 307 700 m -24 X s 2177 216 m 484 Y s 2154 216 m 23 X s 2154 243 m 23 X s 2154 264 m 23 X
 s 2154 281 m 23 X s 2154 296 m 23 X s 2154 309 m 23 X s 2154 320 m 23 X s 2130 330 m 47 X s 2154 395 m 23 X s 2154 434 m 23 X s 2154 461 m 23 X s 2154 482 m 23 X s 2154 500 m 23 X s 2154 514 m 23 X s 2154 527 m 23 X s 2154 538 m 23 X s 2130 548 m 47
 X s 2154 614 m 23 X s 2154 652 m 23 X s 2154 679 m 23 X s 2154 700 m 23 X s 1 1 1 c black 283 236 m 20 3 d 19 3 d 19 4 d 19 3 d 19 3 d 19 4 d 19 3 d 19 4 d 20 4 d 19 3 d 19 4 d 19 4 d 19 3 d 19 4 d 19 4 d 19 4 d 20 4 d 19 4 d 19 4 d 19 4 d 19 4 d 19
 4 d 19 5 d 20 4 d 19 4 d 19 5 d 19 4 d 19 4 d 19 5 d 19 4 d 19 5 d 20 4 d 19 5 d 19 4 d 19 5 d 19 4 d 19 5 d 19 5 d 19 4 d 20 5 d 19 5 d 19 5 d 19 4 d 19 5 d 19 5 d 19 5 d 19 5 d 20 5 d 19 4 d 19 5 d 19 5 d 19 5 d 19 5 d 19 5 d 19 5 d 20 5 d 19 5 d
 19 5 d 19 5 d 19 5 d 19 5 d 19 5 d 19 5 d 20 5 d 19 5 d 19 5 d 19 5 d 19 5 d 19 5 d 19 5 d 19 5 d 20 5 d 19 6 d 19 5 d 19 5 d 19 5 d 19 5 d 19 5 d 19 5 d 20 5 d 19 5 d 19 5 d 19 5 d 19 6 d 19 5 d 19 5 d 19 5 d 20 5 d 19 5 d 19 5 d 19 5 d 19 5 d 19 5
 d 19 6 d 20 5 d 19 5 d 19 5 d 19 5 d 19 5 d s 2095 520 m 152 Y s 2077 640 m 18 32 d 19 -32 d s
 gsave  2268 707 0 0 C 2045.29 461.139 t 0 r /Helvetica findfont 78.9069 sf 0 0 m (Pb) show NC gr  1924 474 m 153 Y s 1905 595 m 19 32 d 18 -32 d s
 gsave  2268 707 0 0 C 1866.25 415.025 t 0 r /Helvetica findfont 78.9069 sf 0 0 m (CsI) show NC gr  1369 584 m -104 Y s 1387 511 m -18 -31 d -19 31 d s
 gsave  2268 707 0 0 C 1334.59 585.917 t 0 r /Helvetica findfont 78.9069 sf 0 0 m (Si) show NC gr  1020 495 m -104 Y s 1039 423 m -19 -32 d -18 32 d s
 gsave  2268 707 0 0 C 992.804 496.402 t 0 r /Helvetica findfont 78.9069 sf 0 0 m (C) show NC gr  2053 377 m 284 Y s 2035 629 m 18 32 d 19 -32 d s
 gsave  2268 707 0 0 C 2012.73 320.084 t 0 r /Helvetica findfont 78.9069 sf 0 0 m (W) show NC gr 
 gr  gr showpage
end
%%EOF
