%!PS-Adobe-2.0 EPSF-2.0
%%BoundingBox:  0 0 567 442
%%Title: rejection_power.eps: rejection_power
%%Creator: ROOT Version 5.34/14
%%CreationDate: Sun Feb  2 23:14:39 2014
%%EndComments
%%BeginProlog
80 dict begin
/s {stroke} def /l {lineto} def /m {moveto} def /t {translate} def
/r {rotate} def /rl {roll}  def /R {repeat} def
/d {rlineto} def /rm {rmoveto} def /gr {grestore} def /f {eofill} def
/c {setrgbcolor} def /black {0 setgray} def /sd {setdash} def
/cl {closepath} def /sf {scalefont setfont} def /lw {setlinewidth} def
/box {m dup 0 exch d exch 0 d 0 exch neg d cl} def
/NC{systemdict begin initclip end}def/C{NC box clip newpath}def
/bl {box s} def /bf {box f} def /Y { 0 exch d} def /X { 0 d} def 
/K {{pop pop 0 moveto} exch kshow} bind def
/ita {/ang 15 def gsave [1 0 ang dup sin exch cos div 1 0 0] concat} def 
/mp {newpath /y exch def /x exch def} def
/side {[w .77 mul w .23 mul] .385 w mul sd w 0 l currentpoint t -144 r} def
/mr {mp x y w2 0 360 arc} def /m24 {mr s} def /m20 {mr f} def
/mb {mp x y w2 add m w2 neg 0 d 0 w neg d w 0 d 0 w d cl} def
/mt {mp x y w2 add m w2 neg w neg d w 0 d cl} def
/m21 {mb f} def /m25 {mb s} def /m22 {mt f} def /m26{mt s} def
/m23 {mp x y w2 sub m w2 w d w neg 0 d cl f} def
/m27 {mp x y w2 add m w3 neg w2 neg d w3 w2 neg d w3 w2 d cl s} def
/m28 {mp x w2 sub y w2 sub w3 add m w3 0 d  0 w3 neg d w3 0 d 0 w3 d w3 0 d  0 w3 d w3 neg 0 d 0 w3 d w3 neg 0 d 0 w3 neg d w3 neg 0 d cl s } def
/m29 {mp gsave x w2 sub y w2 add w3 sub m currentpoint t 4 {side} repeat cl fill gr} def
/m30 {mp gsave x w2 sub y w2 add w3 sub m currentpoint t 4 {side} repeat cl s gr} def
/m31 {mp x y w2 sub m 0 w d x w2 sub y m w 0 d x w2 sub y w2 add m w w neg d x w2 sub y w2 sub m w w d s} def
/m32 {mp x y w2 sub m w2 w d w neg 0 d cl s} def
/m33 {mp x y w2 add m w3 neg w2 neg d w3 w2 neg d w3 w2 d cl f} def
/m34 {mp x w2 sub y w2 sub w3 add m w3 0 d  0 w3 neg d w3 0 d 0 w3 d w3 0 d  0 w3 d w3 neg 0 d 0 w3 d w3 neg 0 d 0 w3 neg d w3 neg 0 d cl f } def
/m2 {mp x y w2 sub m 0 w d x w2 sub y m w 0 d s} def
/m5 {mp x w2 sub y w2 sub m w w d x w2 sub y w2 add m w w neg d s} def
/reEncode {exch findfont dup length dict begin {1 index /FID eq  {pop pop} {def} ifelse } forall /Encoding exch def currentdict end dup /FontName get exch definefont pop } def [/Times-Bold /Times-Italic /Times-BoldItalic /Helvetica /Helvetica-Oblique
 /Helvetica-Bold /Helvetica-BoldOblique /Courier /Courier-Oblique /Courier-Bold /Courier-BoldOblique /Times-Roman /AvantGarde-Book /AvantGarde-BookOblique /AvantGarde-Demi /AvantGarde-DemiOblique /Bookman-Demi /Bookman-DemiItalic /Bookman-Light
 /Bookman-LightItalic /Helvetica-Narrow /Helvetica-Narrow-Bold /Helvetica-Narrow-BoldOblique /Helvetica-Narrow-Oblique /NewCenturySchlbk-Roman /NewCenturySchlbk-Bold /NewCenturySchlbk-BoldItalic /NewCenturySchlbk-Italic /Palatino-Bold
 /Palatino-BoldItalic /Palatino-Italic /Palatino-Roman ] {ISOLatin1Encoding reEncode } forall
%%EndProlog
%%BeginSetup
%%EndSetup
newpath  gsave  .25 .25 scale  gsave  0 0 t black[  ] 0 sd 6 lw 1 1 1 c 2268 1769 0 0 bf black 3 lw 1 1 1 c 1894 1486 283 212 bf black 1894 1486 283 212 bl 1 1 1 c 1894 1486 283 212 bf black 1894 1486 283 212 bl 6 lw 283 212 m 1894 X s 0.6 0.6 0.6 c[
 12 12] 0 sd 3 lw 283 1698 m -1486 Y s 473 1698 m -1486 Y s 662 1698 m -1486 Y s 852 1698 m -1486 Y s 1041 1698 m -1486 Y s 1230 1698 m -1486 Y s 1420 1698 m -1486 Y s 1609 1698 m -1486 Y s 1798 1698 m -1486 Y s 1988 1698 m -1486 Y s 2177 1698 m
 -1486 Y s black[  ] 0 sd 6 lw 283 1698 m 1894 X s 283 212 m 1486 Y s 0.6 0.6 0.6 c[ 12 12] 0 sd 3 lw 2177 212 m -1894 X s 2177 410 m -1894 X s 2177 608 m -1894 X s 2177 806 m -1894 X s 2177 1005 m -1894 X s 2177 1203 m -1894 X s 2177 1401 m -1894 X
 s 2177 1599 m -1894 X s 2177 1599 m -1894 X s black[  ] 0 sd 6 lw 2177 212 m 1486 Y s 1 1 1 c black 283 212 m 1894 X s 283 212 m 1894 X s
 gsave  2268 1769 0 0 C 1608.56 24.4132 t 0 r /Helvetica findfont 78.6648 sf 0 0 m (Signal efficiency) show NC gr  283 257 m -45 Y s 321 234 m -22 Y s 359 234 m -22 Y s 397 234 m -22 Y s 435 234 m -22 Y s 473 257 m -45 Y s 511 234 m -22 Y s 549 234 m
 -22 Y s 586 234 m -22 Y s 624 234 m -22 Y s 662 257 m -45 Y s 700 234 m -22 Y s 738 234 m -22 Y s 776 234 m -22 Y s 814 234 m -22 Y s 852 257 m -45 Y s 889 234 m -22 Y s 927 234 m -22 Y s 965 234 m -22 Y s 1003 234 m -22 Y s 1041 257 m -45 Y s 1079
 234 m -22 Y s 1117 234 m -22 Y s 1154 234 m -22 Y s 1192 234 m -22 Y s 1230 257 m -45 Y s 1268 234 m -22 Y s 1306 234 m -22 Y s 1344 234 m -22 Y s 1382 234 m -22 Y s 1420 257 m -45 Y s 1457 234 m -22 Y s 1495 234 m -22 Y s 1533 234 m -22 Y s 1571
 234 m -22 Y s 1609 257 m -45 Y s 1647 234 m -22 Y s 1685 234 m -22 Y s 1723 234 m -22 Y s 1760 234 m -22 Y s 1798 257 m -45 Y s 1836 234 m -22 Y s 1874 234 m -22 Y s 1912 234 m -22 Y s 1950 234 m -22 Y s 1988 257 m -45 Y s 2026 234 m -22 Y s 2063
 234 m -22 Y s 2101 234 m -22 Y s 2139 234 m -22 Y s 2177 257 m -45 Y s
 gsave  2268 1769 0 0 C 263.12 143.767 t 0 r /Helvetica findfont 70.5271 sf 0 0 m (0) show NC gr 
 gsave  2268 1769 0 0 C 428.588 143.767 t 0 r /Helvetica findfont 70.5271 sf 0 0 m (0.1) show NC gr 
 gsave  2268 1769 0 0 C 613.043 143.767 t 0 r /Helvetica findfont 70.5271 sf 0 0 m (0.2) show NC gr 
 gsave  2268 1769 0 0 C 800.211 143.767 t 0 r /Helvetica findfont 70.5271 sf 0 0 m (0.3) show NC gr 
 gsave  2268 1769 0 0 C 990.092 143.767 t 0 r /Helvetica findfont 70.5271 sf 0 0 m (0.4) show NC gr 
 gsave  2268 1769 0 0 C 1179.97 143.767 t 0 r /Helvetica findfont 70.5271 sf 0 0 m (0.5) show NC gr 
 gsave  2268 1769 0 0 C 1369.85 143.767 t 0 r /Helvetica findfont 70.5271 sf 0 0 m (0.6) show NC gr 
 gsave  2268 1769 0 0 C 1559.73 143.767 t 0 r /Helvetica findfont 70.5271 sf 0 0 m (0.7) show NC gr 
 gsave  2268 1769 0 0 C 1746.9 143.767 t 0 r /Helvetica findfont 70.5271 sf 0 0 m (0.8) show NC gr 
 gsave  2268 1769 0 0 C 1936.78 143.767 t 0 r /Helvetica findfont 70.5271 sf 0 0 m (0.9) show NC gr 
 gsave  2268 1769 0 0 C 2161.93 143.767 t 0 r /Helvetica findfont 70.5271 sf 0 0 m (1) show NC gr  283 1698 m 1894 X s 283 1654 m 44 Y s 321 1676 m 22 Y s 359 1676 m 22 Y s 397 1676 m 22 Y s 435 1676 m 22 Y s 473 1654 m 44 Y s 511 1676 m 22 Y s 549
 1676 m 22 Y s 586 1676 m 22 Y s 624 1676 m 22 Y s 662 1654 m 44 Y s 700 1676 m 22 Y s 738 1676 m 22 Y s 776 1676 m 22 Y s 814 1676 m 22 Y s 852 1654 m 44 Y s 889 1676 m 22 Y s 927 1676 m 22 Y s 965 1676 m 22 Y s 1003 1676 m 22 Y s 1041 1654 m 44 Y s
 1079 1676 m 22 Y s 1117 1676 m 22 Y s 1154 1676 m 22 Y s 1192 1676 m 22 Y s 1230 1654 m 44 Y s 1268 1676 m 22 Y s 1306 1676 m 22 Y s 1344 1676 m 22 Y s 1382 1676 m 22 Y s 1420 1654 m 44 Y s 1457 1676 m 22 Y s 1495 1676 m 22 Y s 1533 1676 m 22 Y s
 1571 1676 m 22 Y s 1609 1654 m 44 Y s 1647 1676 m 22 Y s 1685 1676 m 22 Y s 1723 1676 m 22 Y s 1760 1676 m 22 Y s 1798 1654 m 44 Y s 1836 1676 m 22 Y s 1874 1676 m 22 Y s 1912 1676 m 22 Y s 1950 1676 m 22 Y s 1988 1654 m 44 Y s 2026 1676 m 22 Y s
 2063 1676 m 22 Y s 2101 1676 m 22 Y s 2139 1676 m 22 Y s 2177 1654 m 44 Y s 283 212 m 1486 Y s
 gsave  2268 1769 0 0 C 84.09 1133.86 t 90 r /Helvetica findfont 78.6648 sf 0 0 m (Rejection power) show NC gr  341 212 m -58 X s 312 262 m -29 X s 312 311 m -29 X s 312 361 m -29 X s 341 410 m -58 X s 312 460 m -29 X s 312 509 m -29 X s 312 559 m
 -29 X s 341 608 m -58 X s 312 658 m -29 X s 312 707 m -29 X s 312 757 m -29 X s 341 806 m -58 X s 312 856 m -29 X s 312 906 m -29 X s 312 955 m -29 X s 341 1005 m -58 X s 312 1054 m -29 X s 312 1104 m -29 X s 312 1153 m -29 X s 341 1203 m -58 X s
 312 1252 m -29 X s 312 1302 m -29 X s 312 1351 m -29 X s 341 1401 m -58 X s 312 1450 m -29 X s 312 1500 m -29 X s 312 1549 m -29 X s 341 1599 m -58 X s 341 1599 m -58 X s 312 1648 m -29 X s
 gsave  2268 1769 0 0 C 233.282 187.168 t 0 r /Helvetica findfont 70.5271 sf 0 0 m (0) show NC gr 
 gsave  2268 1769 0 0 C 195.306 385.186 t 0 r /Helvetica findfont 70.5271 sf 0 0 m (20) show NC gr 
 gsave  2268 1769 0 0 C 195.306 583.205 t 0 r /Helvetica findfont 70.5271 sf 0 0 m (40) show NC gr 
 gsave  2268 1769 0 0 C 195.306 781.223 t 0 r /Helvetica findfont 70.5271 sf 0 0 m (60) show NC gr 
 gsave  2268 1769 0 0 C 195.306 979.241 t 0 r /Helvetica findfont 70.5271 sf 0 0 m (80) show NC gr 
 gsave  2268 1769 0 0 C 154.617 1177.26 t 0 r /Helvetica findfont 70.5271 sf 0 0 m (100) show NC gr 
 gsave  2268 1769 0 0 C 154.617 1375.28 t 0 r /Helvetica findfont 70.5271 sf 0 0 m (120) show NC gr 
 gsave  2268 1769 0 0 C 154.617 1573.3 t 0 r /Helvetica findfont 70.5271 sf 0 0 m (140) show NC gr  2177 212 m 1486 Y s 2120 212 m 57 X s 2148 262 m 29 X s 2148 311 m 29 X s 2148 361 m 29 X s 2120 410 m 57 X s 2148 460 m 29 X s 2148 509 m 29 X s 2148
 559 m 29 X s 2120 608 m 57 X s 2148 658 m 29 X s 2148 707 m 29 X s 2148 757 m 29 X s 2120 806 m 57 X s 2148 856 m 29 X s 2148 906 m 29 X s 2148 955 m 29 X s 2120 1005 m 57 X s 2148 1054 m 29 X s 2148 1104 m 29 X s 2148 1153 m 29 X s 2120 1203 m 57 X
 s 2148 1252 m 29 X s 2148 1302 m 29 X s 2148 1351 m 29 X s 2120 1401 m 57 X s 2148 1450 m 29 X s 2148 1500 m 29 X s 2148 1549 m 29 X s 2120 1599 m 57 X s 2120 1599 m 57 X s 2148 1648 m 29 X s 1 1 1 c black 2177 222 m 9 Y -1 X 4 Y -1 X 3 Y -1 X 2 Y
 -1 1 d 1 Y -1 1 d 1 Y -1 X 2 Y -1 X 1 Y -1 1 d 1 Y -1 X 1 Y -1 X 1 Y -1 1 d 1 Y -1 X 1 Y -1 X 1 Y -1 1 d -1 1 d -1 1 d -1 1 d -1 1 d -1 1 d -1 1 d -1 1 d -1 1 d -1 1 d -1 1 d -1 1 d 1 Y -1 X -1 1 d -1 1 d -1 X 1 Y -1 1 d -1 X 1 Y -1 X -1 1 d -1 1 d
 -1 1 d -1 1 d -1 X 1 Y -1 1 d -1 X -1 1 d -1 1 d -1 1 d -1 1 d -1 X -1 1 d -1 1 d -1 1 d -1 X -1 1 d -1 1 d -1 1 d -1 X -1 1 d -1 1 d -1 1 d -1 1 d -1 X -1 1 d -1 1 d -2 1 d -1 1 d -1 X -1 1 d -1 1 d -1 1 d -2 1 d -1 1 d -1 1 d -2 1 d -1 1 d -1 X -2
 1 d -1 1 d -1 1 d -2 1 d -1 1 d -2 1 d -1 1 d -1 1 d -2 1 d -1 1 d -2 1 d -2 1 d -1 1 d -2 1 d -1 1 d -2 1 d -2 2 d -1 1 d -2 1 d -2 1 d -1 1 d -2 1 d -2 1 d -2 1 d -2 2 d -2 1 d -1 1 d -2 1 d -2 1 d -2 2 d -2 1 d -2 1 d -2 1 d -2 2 d -2 1 d -2 1 d
 -2 2 d -3 1 d -2 1 d -2 2 d -2 1 d -2 1 d -3 2 d -2 1 d -2 2 d -3 1 d -2 1 d -2 2 d -3 1 d -2 2 d -3 1 d -2 2 d -3 1 d -2 2 d -3 1 d -2 2 d -3 2 d -3 1 d -2 2 d -3 1 d -3 2 d -3 2 d -2 1 d -3 2 d -3 2 d -3 1 d -3 2 d -3 2 d -3 2 d -3 1 d -3 2 d -3 2
 d -3 2 d -3 2 d -4 2 d -3 1 d -3 2 d -3 2 d -4 2 d -3 2 d -3 2 d -4 2 d -3 2 d -4 2 d -3 2 d -4 2 d -3 2 d -4 2 d -4 2 d -3 3 d -4 2 d -4 2 d -4 2 d -4 2 d -3 3 d -4 2 d -4 2 d -4 2 d -4 3 d -4 2 d -4 2 d -5 3 d -4 2 d -4 2 d -4 3 d -4 2 d -5 3 d -4
 2 d -5 3 d -4 2 d -5 3 d -4 2 d -5 3 d -4 3 d -5 2 d -5 3 d -4 3 d -5 2 d -5 3 d -5 3 d -5 3 d -5 3 d -5 2 d -5 3 d -5 3 d -5 3 d -5 3 d -5 3 d -6 3 d -5 3 d -5 3 d -6 3 d -5 3 d -6 3 d -5 3 d -6 4 d -5 3 d -6 3 d -6 3 d -5 4 d -6 3 d -6 3 d -6 4 d
 -6 3 d -6 3 d -6 4 d -6 3 d -6 4 d -7 3 d -6 4 d -6 3 d -7 4 d -6 4 d -6 3 d -7 4 d -6 4 d -7 4 d -7 3 d -7 4 d -6 4 d -7 4 d -7 4 d -7 4 d -7 4 d -7 4 d -7 4 d -7 4 d -8 4 d -7 4 d -7 5 d -8 4 d -7 4 d -7 4 d -8 5 d -8 4 d -7 5 d -8 4 d -8 4 d -8 5
 d -8 5 d -8 4 d -8 5 d -8 4 d -8 5 d -8 5 d -8 5 d -9 4 d -8 5 d -8 5 d -9 5 d -9 5 d -8 5 d -9 5 d -9 5 d -8 5 d -9 5 d -9 6 d -9 5 d -9 5 d -10 5 d -9 6 d -9 5 d -9 6 d -10 5 d -9 6 d -10 5 d -9 6 d -10 5 d -10 6 d -10 6 d -10 6 d -9 6 d -11 5 d
 -10 6 d -10 6 d -10 6 d -10 6 d -11 7 d -10 6 d -11 6 d -10 6 d -11 6 d -11 7 d -10 6 d -11 7 d -11 6 d -11 7 d -11 6 d -12 7 d -11 6 d -11 7 d -11 7 d -12 7 d -11 7 d -12 7 d -12 7 d -12 7 d -11 7 d -12 7 d -12 7 d -12 7 d -13 7 d -12 8 d -12 7 d
 -13 8 d -12 7 d -13 8 d -12 7 d -13 8 d -13 8 d -13 8 d -13 7 d -13 8 d -13 8 d -13 8 d -13 8 d -14 8 d -13 9 d -14 8 d -13 8 d -14 8 d -14 9 d -14 8 d -14 9 d -14 8 d -14 9 d -14 9 d -15 9 d -14 8 d -14 9 d -15 9 d -15 9 d -15 9 d -14 9 d -15 10 d
 -15 9 d s
 gr  gr showpage
end
%%EOF
