%!PS-Adobe-2.0 EPSF-2.0
%%BoundingBox:  0 0 567 442
%%Title: rich_sketch.eps: rich_sketch
%%Creator: ROOT Version 5.34/14
%%CreationDate: Fri Jul 18 06:36:59 2014
%%EndComments
%%BeginProlog
80 dict begin
/s {stroke} def /l {lineto} def /m {moveto} def /t {translate} def
/r {rotate} def /rl {roll}  def /R {repeat} def
/d {rlineto} def /rm {rmoveto} def /gr {grestore} def /f {eofill} def
/c {setrgbcolor} def /black {0 setgray} def /sd {setdash} def
/cl {closepath} def /sf {scalefont setfont} def /lw {setlinewidth} def
/box {m dup 0 exch d exch 0 d 0 exch neg d cl} def
/NC{systemdict begin initclip end}def/C{NC box clip newpath}def
/bl {box s} def /bf {box f} def /Y { 0 exch d} def /X { 0 d} def 
/K {{pop pop 0 moveto} exch kshow} bind def
/ita {/ang 15 def gsave [1 0 ang dup sin exch cos div 1 0 0] concat} def 
/mp {newpath /y exch def /x exch def} def
/side {[w .77 mul w .23 mul] .385 w mul sd w 0 l currentpoint t -144 r} def
/mr {mp x y w2 0 360 arc} def /m24 {mr s} def /m20 {mr f} def
/mb {mp x y w2 add m w2 neg 0 d 0 w neg d w 0 d 0 w d cl} def
/mt {mp x y w2 add m w2 neg w neg d w 0 d cl} def
/m21 {mb f} def /m25 {mb s} def /m22 {mt f} def /m26{mt s} def
/m23 {mp x y w2 sub m w2 w d w neg 0 d cl f} def
/m27 {mp x y w2 add m w3 neg w2 neg d w3 w2 neg d w3 w2 d cl s} def
/m28 {mp x w2 sub y w2 sub w3 add m w3 0 d  0 w3 neg d w3 0 d 0 w3 d w3 0 d  0 w3 d w3 neg 0 d 0 w3 d w3 neg 0 d 0 w3 neg d w3 neg 0 d cl s } def
/m29 {mp gsave x w2 sub y w2 add w3 sub m currentpoint t 4 {side} repeat cl fill gr} def
/m30 {mp gsave x w2 sub y w2 add w3 sub m currentpoint t 4 {side} repeat cl s gr} def
/m31 {mp x y w2 sub m 0 w d x w2 sub y m w 0 d x w2 sub y w2 add m w w neg d x w2 sub y w2 sub m w w d s} def
/m32 {mp x y w2 sub m w2 w d w neg 0 d cl s} def
/m33 {mp x y w2 add m w3 neg w2 neg d w3 w2 neg d w3 w2 d cl f} def
/m34 {mp x w2 sub y w2 sub w3 add m w3 0 d  0 w3 neg d w3 0 d 0 w3 d w3 0 d  0 w3 d w3 neg 0 d 0 w3 d w3 neg 0 d 0 w3 neg d w3 neg 0 d cl f } def
/m2 {mp x y w2 sub m 0 w d x w2 sub y m w 0 d s} def
/m5 {mp x w2 sub y w2 sub m w w d x w2 sub y w2 add m w w neg d s} def
/reEncode {exch findfont dup length dict begin {1 index /FID eq  {pop pop} {def} ifelse } forall /Encoding exch def currentdict end dup /FontName get exch definefont pop } def [/Times-Bold /Times-Italic /Times-BoldItalic /Helvetica /Helvetica-Oblique
 /Helvetica-Bold /Helvetica-BoldOblique /Courier /Courier-Oblique /Courier-Bold /Courier-BoldOblique /Times-Roman /AvantGarde-Book /AvantGarde-BookOblique /AvantGarde-Demi /AvantGarde-DemiOblique /Bookman-Demi /Bookman-DemiItalic /Bookman-Light
 /Bookman-LightItalic /Helvetica-Narrow /Helvetica-Narrow-Bold /Helvetica-Narrow-BoldOblique /Helvetica-Narrow-Oblique /NewCenturySchlbk-Roman /NewCenturySchlbk-Bold /NewCenturySchlbk-BoldItalic /NewCenturySchlbk-Italic /Palatino-Bold
 /Palatino-BoldItalic /Palatino-Italic /Palatino-Roman ] {ISOLatin1Encoding reEncode } forall
%%EndProlog
%%BeginSetup
%%EndSetup
newpath  gsave  .25 .25 scale  gsave  0 0 t black[  ] 0 sd 6 lw 1 1 1 c 2268 1769 0 0 bf black 1 1 1 c 907 15 113 1397 bf black 907 15 113 1397 bl
 gsave  2268 1769 0 0 C 735.109 1334.59 t 0 r /Helvetica findfont 70.5271 sf 0 0 m (Radiator) show NC gr  1 1 1 c 907 16 113 356 bf black 907 16 113 356 bl
 gsave  2268 1769 0 0 C 735.109 292.959 t 0 r /Helvetica findfont 70.5271 sf 0 0 m (Detection plane) show NC gr [ 20 20] 0 sd 567 1665 m -1561 Y s
 gsave  2268 1769 0 0 C 309.234 1706.21 t 0 r /Helvetica findfont 70.5271 sf 0 0 m (Charged particle) show NC gr [  ] 0 sd 567 1404 m -198 -1032 d s 567 1404 m 198 -1032 d s
 gsave  2268 1769 0 0 C 488.264 1283.05 t 0 r /Helvetica findfont 46.1139 sf 0 0 m (c) show NC gr 
 gsave  2268 1769 0 0 C 453.001 1302.04 t 0 r /Symbol findfont 70.5271 sf 0 0 m (q) show NC gr  0.6 0.6 0.6 c 3 lw 1 1 1 c 21 20 1265 484 bf 0.6 0.6 0.6 c 21 20 1265 484 bl 1 1 1 c 21 20 1265 510 bf 0.6 0.6 0.6 c 21 20 1265 510 bl 1 1 1 c 21 20 1265
 536 bf 0.6 0.6 0.6 c 21 20 1265 536 bl 1 1 1 c 21 20 1265 562 bf 0.6 0.6 0.6 c 21 20 1265 562 bl 1 1 1 c 21 20 1265 588 bf 0.6 0.6 0.6 c 21 20 1265 588 bl 1 1 1 c 21 20 1265 614 bf 0.6 0.6 0.6 c 21 20 1265 614 bl 1 1 1 c 21 20 1265 640 bf 0.6 0.6
 0.6 c 21 20 1265 640 bl 1 1 1 c 21 20 1265 666 bf 0.6 0.6 0.6 c 21 20 1265 666 bl 1 1 1 c 21 20 1265 692 bf 0.6 0.6 0.6 c 21 20 1265 692 bl 1 1 1 c 21 20 1265 718 bf 0.6 0.6 0.6 c 21 20 1265 718 bl 1 1 1 c 21 19 1265 745 bf 0.6 0.6 0.6 c 21 19 1265
 745 bl 1 1 1 c 21 19 1265 771 bf 0.6 0.6 0.6 c 21 19 1265 771 bl 1 1 1 c 21 19 1265 797 bf 0.6 0.6 0.6 c 21 19 1265 797 bl 1 1 1 c 21 19 1265 823 bf 0.6 0.6 0.6 c 21 19 1265 823 bl 1 1 1 c 21 19 1265 849 bf 0.6 0.6 0.6 c 21 19 1265 849 bl 1 1 1 c 21
 19 1265 875 bf 0.6 0.6 0.6 c 21 19 1265 875 bl 1 1 1 c 21 19 1265 901 bf 0.6 0.6 0.6 c 21 19 1265 901 bl 1 1 1 c 21 19 1265 927 bf 0.6 0.6 0.6 c 21 19 1265 927 bl 1 1 1 c 21 19 1265 953 bf 0.6 0.6 0.6 c 21 19 1265 953 bl 1 1 1 c 21 19 1265 979 bf
 0.6 0.6 0.6 c 21 19 1265 979 bl 1 1 1 c 21 19 1265 1005 bf 0.6 0.6 0.6 c 21 19 1265 1005 bl 1 1 1 c 21 19 1265 1031 bf 0.6 0.6 0.6 c 21 19 1265 1031 bl 1 1 1 c 21 19 1265 1057 bf 0.6 0.6 0.6 c 21 19 1265 1057 bl 1 1 1 c 21 19 1265 1083 bf 0.6 0.6
 0.6 c 21 19 1265 1083 bl 1 1 1 c 21 19 1265 1109 bf 0.6 0.6 0.6 c 21 19 1265 1109 bl 1 1 1 c 21 19 1265 1135 bf 0.6 0.6 0.6 c 21 19 1265 1135 bl 1 1 1 c 21 19 1265 1161 bf 0.6 0.6 0.6 c 21 19 1265 1161 bl 1 1 1 c 21 19 1265 1187 bf 0.6 0.6 0.6 c 21
 19 1265 1187 bl 1 1 1 c 21 19 1265 1213 bf 0.6 0.6 0.6 c 21 19 1265 1213 bl 1 1 1 c 21 19 1265 1239 bf 0.6 0.6 0.6 c 21 19 1265 1239 bl 1 1 1 c 21 19 1265 1265 bf 0.6 0.6 0.6 c 21 19 1265 1265 bl 1 1 1 c 22 20 1293 484 bf 0.6 0.6 0.6 c 22 20 1293
 484 bl 1 1 1 c 22 20 1293 510 bf 0.6 0.6 0.6 c 22 20 1293 510 bl 1 1 1 c 22 20 1293 536 bf 0.6 0.6 0.6 c 22 20 1293 536 bl 1 1 1 c 22 20 1293 562 bf 0.6 0.6 0.6 c 22 20 1293 562 bl 1 1 1 c 22 20 1293 588 bf 0.6 0.6 0.6 c 22 20 1293 588 bl 1 1 1 c 22
 20 1293 614 bf 0.6 0.6 0.6 c 22 20 1293 614 bl 1 1 1 c 22 20 1293 640 bf 0.6 0.6 0.6 c 22 20 1293 640 bl 1 1 1 c 22 20 1293 666 bf 0.6 0.6 0.6 c 22 20 1293 666 bl 1 1 1 c 22 20 1293 692 bf 0.6 0.6 0.6 c 22 20 1293 692 bl 1 1 1 c 22 20 1293 718 bf
 0.6 0.6 0.6 c 22 20 1293 718 bl 1 1 1 c 22 19 1293 745 bf 0.6 0.6 0.6 c 22 19 1293 745 bl 1 1 1 c 22 19 1293 771 bf 0.6 0.6 0.6 c 22 19 1293 771 bl 1 1 1 c 22 19 1293 797 bf 0.6 0.6 0.6 c 22 19 1293 797 bl 1 1 1 c 22 19 1293 823 bf 0.6 0.6 0.6 c 22
 19 1293 823 bl 1 1 1 c 22 19 1293 849 bf 0.6 0.6 0.6 c 22 19 1293 849 bl 1 1 1 c 22 19 1293 875 bf 0.6 0.6 0.6 c 22 19 1293 875 bl 1 1 1 c 22 19 1293 901 bf 0.6 0.6 0.6 c 22 19 1293 901 bl 1 1 1 c 22 19 1293 927 bf 0.6 0.6 0.6 c 22 19 1293 927 bl 1
 1 1 c 22 19 1293 953 bf 0.6 0.6 0.6 c 22 19 1293 953 bl 1 1 1 c 22 19 1293 979 bf 0.6 0.6 0.6 c 22 19 1293 979 bl 1 1 1 c 22 19 1293 1005 bf 0.6 0.6 0.6 c 22 19 1293 1005 bl 1 1 1 c 22 19 1293 1031 bf 0.6 0.6 0.6 c 22 19 1293 1031 bl 1 1 1 c 22 19
 1293 1057 bf 0.6 0.6 0.6 c 22 19 1293 1057 bl 1 1 1 c 22 19 1293 1083 bf 0.6 0.6 0.6 c 22 19 1293 1083 bl 1 1 1 c 22 19 1293 1109 bf 0.6 0.6 0.6 c 22 19 1293 1109 bl 1 1 1 c 22 19 1293 1135 bf 0.6 0.6 0.6 c 22 19 1293 1135 bl 1 1 1 c 22 19 1293 1161
 bf 0.6 0.6 0.6 c 22 19 1293 1161 bl 1 1 1 c 22 19 1293 1187 bf 0.6 0.6 0.6 c 22 19 1293 1187 bl 1 1 1 c 22 19 1293 1213 bf 0.6 0.6 0.6 c 22 19 1293 1213 bl 1 1 1 c 22 19 1293 1239 bf 0.6 0.6 0.6 c 22 19 1293 1239 bl 1 1 1 c 22 19 1293 1265 bf 0.6
 0.6 0.6 c 22 19 1293 1265 bl 1 1 1 c 21 20 1322 484 bf 0.6 0.6 0.6 c 21 20 1322 484 bl 1 1 1 c 21 20 1322 510 bf 0.6 0.6 0.6 c 21 20 1322 510 bl 1 1 1 c 21 20 1322 536 bf 0.6 0.6 0.6 c 21 20 1322 536 bl 1 1 1 c 21 20 1322 562 bf 0.6 0.6 0.6 c 21 20
 1322 562 bl 1 1 1 c 21 20 1322 588 bf 0.6 0.6 0.6 c 21 20 1322 588 bl 1 1 1 c 21 20 1322 614 bf 0.6 0.6 0.6 c 21 20 1322 614 bl 1 1 1 c 21 20 1322 640 bf 0.6 0.6 0.6 c 21 20 1322 640 bl 1 1 1 c 21 20 1322 666 bf 0.6 0.6 0.6 c 21 20 1322 666 bl 1 1 1
 c 21 20 1322 692 bf 0.6 0.6 0.6 c 21 20 1322 692 bl 1 1 1 c 21 20 1322 718 bf 0.6 0.6 0.6 c 21 20 1322 718 bl 1 1 1 c 21 19 1322 745 bf 0.6 0.6 0.6 c 21 19 1322 745 bl 1 1 1 c 21 19 1322 771 bf 0.6 0.6 0.6 c 21 19 1322 771 bl 1 1 1 c 21 19 1322 797
 bf 0.6 0.6 0.6 c 21 19 1322 797 bl 1 1 1 c 21 19 1322 823 bf 0.6 0.6 0.6 c 21 19 1322 823 bl 1 1 1 c 21 19 1322 849 bf 0.6 0.6 0.6 c 21 19 1322 849 bl 1 1 1 c 21 19 1322 875 bf 0.6 0.6 0.6 c 21 19 1322 875 bl 1 1 1 c 21 19 1322 901 bf 0.6 0.6 0.6 c
 21 19 1322 901 bl 1 1 1 c 21 19 1322 927 bf 0.6 0.6 0.6 c 21 19 1322 927 bl 1 1 1 c 21 19 1322 953 bf 0.6 0.6 0.6 c 21 19 1322 953 bl 1 1 1 c 21 19 1322 979 bf 0.6 0.6 0.6 c 21 19 1322 979 bl 1 1 1 c 21 19 1322 1005 bf 0.6 0.6 0.6 c 21 19 1322 1005
 bl 1 1 1 c 21 19 1322 1031 bf 0.6 0.6 0.6 c 21 19 1322 1031 bl 1 1 1 c 21 19 1322 1057 bf 0.6 0.6 0.6 c 21 19 1322 1057 bl 1 1 1 c 21 19 1322 1083 bf 0.6 0.6 0.6 c 21 19 1322 1083 bl 1 1 1 c 21 19 1322 1109 bf 0.6 0.6 0.6 c 21 19 1322 1109 bl 1 1 1
 c 21 19 1322 1135 bf 0.6 0.6 0.6 c 21 19 1322 1135 bl 1 1 1 c 21 19 1322 1161 bf 0.6 0.6 0.6 c 21 19 1322 1161 bl 1 1 1 c 21 19 1322 1187 bf 0.6 0.6 0.6 c 21 19 1322 1187 bl 1 1 1 c 21 19 1322 1213 bf 0.6 0.6 0.6 c 21 19 1322 1213 bl 1 1 1 c 21 19
 1322 1239 bf 0.6 0.6 0.6 c 21 19 1322 1239 bl 1 1 1 c 21 19 1322 1265 bf 0.6 0.6 0.6 c 21 19 1322 1265 bl 1 1 1 c 21 20 1350 484 bf 0.6 0.6 0.6 c 21 20 1350 484 bl 1 1 1 c 21 20 1350 510 bf 0.6 0.6 0.6 c 21 20 1350 510 bl 1 1 1 c 21 20 1350 536 bf
 0.6 0.6 0.6 c 21 20 1350 536 bl 1 1 1 c 21 20 1350 562 bf 0.6 0.6 0.6 c 21 20 1350 562 bl 1 1 1 c 21 20 1350 588 bf 0.6 0.6 0.6 c 21 20 1350 588 bl 1 1 1 c 21 20 1350 614 bf 0.6 0.6 0.6 c 21 20 1350 614 bl 1 1 1 c 21 20 1350 640 bf 0.6 0.6 0.6 c 21
 20 1350 640 bl 1 1 1 c 21 20 1350 666 bf 0.6 0.6 0.6 c 21 20 1350 666 bl 1 1 1 c 21 20 1350 692 bf 0.6 0.6 0.6 c 21 20 1350 692 bl 1 1 1 c 21 20 1350 718 bf 0.6 0.6 0.6 c 21 20 1350 718 bl 1 1 1 c 21 19 1350 745 bf 0.6 0.6 0.6 c 21 19 1350 745 bl 1
 1 1 c 21 19 1350 771 bf 0.6 0.6 0.6 c 21 19 1350 771 bl 1 1 1 c 21 19 1350 797 bf 0.6 0.6 0.6 c 21 19 1350 797 bl 1 1 1 c 21 19 1350 823 bf 0.6 0.6 0.6 c 21 19 1350 823 bl 1 1 1 c 21 19 1350 849 bf 0.6 0.6 0.6 c 21 19 1350 849 bl 1 1 1 c 21 19 1350
 875 bf 0.6 0.6 0.6 c 21 19 1350 875 bl 1 1 1 c 21 19 1350 901 bf 0.6 0.6 0.6 c 21 19 1350 901 bl 1 1 1 c 21 19 1350 927 bf 0.6 0.6 0.6 c 21 19 1350 927 bl 1 1 1 c 21 19 1350 953 bf 0.6 0.6 0.6 c 21 19 1350 953 bl 1 1 1 c 21 19 1350 979 bf 0.6 0.6
 0.6 c 21 19 1350 979 bl 1 1 1 c 21 19 1350 1005 bf 0.6 0.6 0.6 c 21 19 1350 1005 bl 1 1 1 c 21 19 1350 1031 bf 0.6 0.6 0.6 c 21 19 1350 1031 bl 1 1 1 c 21 19 1350 1057 bf 0.6 0.6 0.6 c 21 19 1350 1057 bl 1 1 1 c 21 19 1350 1083 bf 0.6 0.6 0.6 c 21
 19 1350 1083 bl 1 1 1 c 21 19 1350 1109 bf 0.6 0.6 0.6 c 21 19 1350 1109 bl 1 1 1 c 21 19 1350 1135 bf 0.6 0.6 0.6 c 21 19 1350 1135 bl 1 1 1 c 21 19 1350 1161 bf 0.6 0.6 0.6 c 21 19 1350 1161 bl 1 1 1 c 21 19 1350 1187 bf 0.6 0.6 0.6 c 21 19 1350
 1187 bl 1 1 1 c 21 19 1350 1213 bf 0.6 0.6 0.6 c 21 19 1350 1213 bl 1 1 1 c 21 19 1350 1239 bf 0.6 0.6 0.6 c 21 19 1350 1239 bl 1 1 1 c 21 19 1350 1265 bf 0.6 0.6 0.6 c 21 19 1350 1265 bl 1 1 1 c 22 20 1378 484 bf 0.6 0.6 0.6 c 22 20 1378 484 bl 1 1
 1 c 22 20 1378 510 bf 0.6 0.6 0.6 c 22 20 1378 510 bl 1 1 1 c 22 20 1378 536 bf 0.6 0.6 0.6 c 22 20 1378 536 bl 1 1 1 c 22 20 1378 562 bf 0.6 0.6 0.6 c 22 20 1378 562 bl 1 1 1 c 22 20 1378 588 bf 0.6 0.6 0.6 c 22 20 1378 588 bl 1 1 1 c 22 20 1378
 614 bf 0.6 0.6 0.6 c 22 20 1378 614 bl 1 1 1 c 22 20 1378 640 bf 0.6 0.6 0.6 c 22 20 1378 640 bl 1 1 1 c 22 20 1378 666 bf 0.6 0.6 0.6 c 22 20 1378 666 bl 1 1 1 c 22 20 1378 692 bf 0.6 0.6 0.6 c 22 20 1378 692 bl 1 1 1 c 22 20 1378 718 bf 0.6 0.6
 0.6 c 22 20 1378 718 bl 1 1 1 c 22 19 1378 745 bf 0.6 0.6 0.6 c 22 19 1378 745 bl 1 1 1 c 22 19 1378 771 bf 0.6 0.6 0.6 c 22 19 1378 771 bl 1 1 1 c 22 19 1378 797 bf 0.6 0.6 0.6 c 22 19 1378 797 bl 1 1 1 c 22 19 1378 823 bf 0.6 0.6 0.6 c 22 19 1378
 823 bl 1 1 1 c 22 19 1378 849 bf 0.6 0.6 0.6 c 22 19 1378 849 bl 1 1 1 c 22 19 1378 875 bf 0.6 0.6 0.6 c 22 19 1378 875 bl 1 1 1 c 22 19 1378 901 bf 0.6 0.6 0.6 c 22 19 1378 901 bl 1 1 1 c 22 19 1378 927 bf 0.6 0.6 0.6 c 22 19 1378 927 bl 1 1 1 c 22
 19 1378 953 bf 0.6 0.6 0.6 c 22 19 1378 953 bl 1 1 1 c 22 19 1378 979 bf 0.6 0.6 0.6 c 22 19 1378 979 bl 1 1 1 c 22 19 1378 1005 bf 0.6 0.6 0.6 c 22 19 1378 1005 bl 1 1 1 c 22 19 1378 1031 bf 0.6 0.6 0.6 c 22 19 1378 1031 bl 1 1 1 c 22 19 1378 1057
 bf 0.6 0.6 0.6 c 22 19 1378 1057 bl 1 1 1 c 22 19 1378 1083 bf 0.6 0.6 0.6 c 22 19 1378 1083 bl 1 1 1 c 22 19 1378 1109 bf 0.6 0.6 0.6 c 22 19 1378 1109 bl 1 1 1 c 22 19 1378 1135 bf 0.6 0.6 0.6 c 22 19 1378 1135 bl 1 1 1 c 22 19 1378 1161 bf 0.6
 0.6 0.6 c 22 19 1378 1161 bl 1 1 1 c 22 19 1378 1187 bf 0.6 0.6 0.6 c 22 19 1378 1187 bl 1 1 1 c 22 19 1378 1213 bf 0.6 0.6 0.6 c 22 19 1378 1213 bl 1 1 1 c 22 19 1378 1239 bf 0.6 0.6 0.6 c 22 19 1378 1239 bl 1 1 1 c 22 19 1378 1265 bf 0.6 0.6 0.6 c
 22 19 1378 1265 bl 1 1 1 c 21 20 1407 484 bf 0.6 0.6 0.6 c 21 20 1407 484 bl 1 1 1 c 21 20 1407 510 bf 0.6 0.6 0.6 c 21 20 1407 510 bl 1 1 1 c 21 20 1407 536 bf 0.6 0.6 0.6 c 21 20 1407 536 bl 1 1 1 c 21 20 1407 562 bf 0.6 0.6 0.6 c 21 20 1407 562
 bl 1 1 1 c 21 20 1407 588 bf 0.6 0.6 0.6 c 21 20 1407 588 bl 1 1 1 c 21 20 1407 614 bf 0.6 0.6 0.6 c 21 20 1407 614 bl 1 1 1 c 21 20 1407 640 bf 0.6 0.6 0.6 c 21 20 1407 640 bl 1 1 1 c 21 20 1407 666 bf 0.6 0.6 0.6 c 21 20 1407 666 bl 1 1 1 c 21 20
 1407 692 bf 0.6 0.6 0.6 c 21 20 1407 692 bl 1 1 1 c 21 20 1407 718 bf 0.6 0.6 0.6 c 21 20 1407 718 bl 1 1 1 c 21 19 1407 745 bf 0.6 0.6 0.6 c 21 19 1407 745 bl 1 1 1 c 21 19 1407 771 bf 0.6 0.6 0.6 c 21 19 1407 771 bl 1 1 1 c 21 19 1407 797 bf 0.6
 0.6 0.6 c 21 19 1407 797 bl 1 1 1 c 21 19 1407 823 bf 0.6 0.6 0.6 c 21 19 1407 823 bl 1 1 1 c 21 19 1407 849 bf 0.6 0.6 0.6 c 21 19 1407 849 bl 1 1 1 c 21 19 1407 875 bf 0.6 0.6 0.6 c 21 19 1407 875 bl 1 1 1 c 21 19 1407 901 bf 0.6 0.6 0.6 c 21 19
 1407 901 bl 1 1 1 c 21 19 1407 927 bf 0.6 0.6 0.6 c 21 19 1407 927 bl 1 1 1 c 21 19 1407 953 bf 0.6 0.6 0.6 c 21 19 1407 953 bl 1 1 1 c 21 19 1407 979 bf 0.6 0.6 0.6 c 21 19 1407 979 bl 1 1 1 c 21 19 1407 1005 bf 0.6 0.6 0.6 c 21 19 1407 1005 bl 1 1
 1 c 21 19 1407 1031 bf 0.6 0.6 0.6 c 21 19 1407 1031 bl 1 1 1 c 21 19 1407 1057 bf 0.6 0.6 0.6 c 21 19 1407 1057 bl 1 1 1 c 21 19 1407 1083 bf 0.6 0.6 0.6 c 21 19 1407 1083 bl 1 1 1 c 21 19 1407 1109 bf 0.6 0.6 0.6 c 21 19 1407 1109 bl 1 1 1 c 21 19
 1407 1135 bf 0.6 0.6 0.6 c 21 19 1407 1135 bl 1 1 1 c 21 19 1407 1161 bf 0.6 0.6 0.6 c 21 19 1407 1161 bl 1 1 1 c 21 19 1407 1187 bf 0.6 0.6 0.6 c 21 19 1407 1187 bl 1 1 1 c 21 19 1407 1213 bf 0.6 0.6 0.6 c 21 19 1407 1213 bl 1 1 1 c 21 19 1407 1239
 bf 0.6 0.6 0.6 c 21 19 1407 1239 bl 1 1 1 c 21 19 1407 1265 bf 0.6 0.6 0.6 c 21 19 1407 1265 bl 1 1 1 c 21 20 1435 484 bf 0.6 0.6 0.6 c 21 20 1435 484 bl 1 1 1 c 21 20 1435 510 bf 0.6 0.6 0.6 c 21 20 1435 510 bl 1 1 1 c 21 20 1435 536 bf 0.6 0.6 0.6
 c 21 20 1435 536 bl 1 1 1 c 21 20 1435 562 bf 0.6 0.6 0.6 c 21 20 1435 562 bl 1 1 1 c 21 20 1435 588 bf 0.6 0.6 0.6 c 21 20 1435 588 bl 1 1 1 c 21 20 1435 614 bf 0.6 0.6 0.6 c 21 20 1435 614 bl 1 1 1 c 21 20 1435 640 bf 0.6 0.6 0.6 c 21 20 1435 640
 bl 1 1 1 c 21 20 1435 666 bf 0.6 0.6 0.6 c 21 20 1435 666 bl 1 1 1 c 21 20 1435 692 bf 0.6 0.6 0.6 c 21 20 1435 692 bl 1 1 1 c 21 20 1435 718 bf 0.6 0.6 0.6 c 21 20 1435 718 bl 1 1 1 c 21 19 1435 745 bf 0.6 0.6 0.6 c 21 19 1435 745 bl 1 1 1 c 21 19
 1435 771 bf 0.6 0.6 0.6 c 21 19 1435 771 bl 1 1 1 c 21 19 1435 797 bf 0.6 0.6 0.6 c 21 19 1435 797 bl 1 1 1 c 21 19 1435 823 bf 0.6 0.6 0.6 c 21 19 1435 823 bl 1 1 1 c 21 19 1435 849 bf 0.6 0.6 0.6 c 21 19 1435 849 bl 1 1 1 c 21 19 1435 875 bf 0.6
 0.6 0.6 c 21 19 1435 875 bl 1 1 1 c 21 19 1435 901 bf 0.6 0.6 0.6 c 21 19 1435 901 bl 1 1 1 c 21 19 1435 927 bf 0.6 0.6 0.6 c 21 19 1435 927 bl 1 1 1 c 21 19 1435 953 bf 0.6 0.6 0.6 c 21 19 1435 953 bl 1 1 1 c 21 19 1435 979 bf 0.6 0.6 0.6 c 21 19
 1435 979 bl 1 1 1 c 21 19 1435 1005 bf 0.6 0.6 0.6 c 21 19 1435 1005 bl 1 1 1 c 21 19 1435 1031 bf 0.6 0.6 0.6 c 21 19 1435 1031 bl 1 1 1 c 21 19 1435 1057 bf 0.6 0.6 0.6 c 21 19 1435 1057 bl 1 1 1 c 21 19 1435 1083 bf 0.6 0.6 0.6 c 21 19 1435 1083
 bl 1 1 1 c 21 19 1435 1109 bf 0.6 0.6 0.6 c 21 19 1435 1109 bl 1 1 1 c 21 19 1435 1135 bf 0.6 0.6 0.6 c 21 19 1435 1135 bl 1 1 1 c 21 19 1435 1161 bf 0.6 0.6 0.6 c 21 19 1435 1161 bl 1 1 1 c 21 19 1435 1187 bf 0.6 0.6 0.6 c 21 19 1435 1187 bl 1 1 1
 c 21 19 1435 1213 bf 0.6 0.6 0.6 c 21 19 1435 1213 bl 1 1 1 c 21 19 1435 1239 bf 0.6 0.6 0.6 c 21 19 1435 1239 bl 1 1 1 c 21 19 1435 1265 bf 0.6 0.6 0.6 c 21 19 1435 1265 bl 1 1 1 c 22 20 1463 484 bf 0.6 0.6 0.6 c 22 20 1463 484 bl 1 1 1 c 22 20
 1463 510 bf 0.6 0.6 0.6 c 22 20 1463 510 bl 1 1 1 c 22 20 1463 536 bf 0.6 0.6 0.6 c 22 20 1463 536 bl 1 1 1 c 22 20 1463 562 bf 0.6 0.6 0.6 c 22 20 1463 562 bl 1 1 1 c 22 20 1463 588 bf 0.6 0.6 0.6 c 22 20 1463 588 bl 1 1 1 c 22 20 1463 614 bf 0.6
 0.6 0.6 c 22 20 1463 614 bl 1 1 1 c 22 20 1463 640 bf 0.6 0.6 0.6 c 22 20 1463 640 bl 1 1 1 c 22 20 1463 666 bf 0.6 0.6 0.6 c 22 20 1463 666 bl 1 1 1 c 22 20 1463 692 bf 0.6 0.6 0.6 c 22 20 1463 692 bl 1 1 1 c 22 20 1463 718 bf 0.6 0.6 0.6 c 22 20
 1463 718 bl 1 1 1 c 22 19 1463 745 bf 0.6 0.6 0.6 c 22 19 1463 745 bl 1 1 1 c 22 19 1463 771 bf 0.6 0.6 0.6 c 22 19 1463 771 bl 1 1 1 c 22 19 1463 797 bf 0.6 0.6 0.6 c 22 19 1463 797 bl black 22 19 1463 823 bf 0.6 0.6 0.6 c 22 19 1463 823 bl black
 22 19 1463 823 bf 0.6 0.6 0.6 c black 22 19 1463 849 bf 0.6 0.6 0.6 c 22 19 1463 849 bl black 22 19 1463 849 bf 0.6 0.6 0.6 c black 22 19 1463 875 bf 0.6 0.6 0.6 c 22 19 1463 875 bl black 22 19 1463 875 bf 0.6 0.6 0.6 c black 22 19 1463 901 bf 0.6
 0.6 0.6 c 22 19 1463 901 bl black 22 19 1463 901 bf 0.6 0.6 0.6 c black 22 19 1463 927 bf 0.6 0.6 0.6 c 22 19 1463 927 bl black 22 19 1463 927 bf 0.6 0.6 0.6 c 1 1 1 c 22 19 1463 953 bf 0.6 0.6 0.6 c 22 19 1463 953 bl 1 1 1 c 22 19 1463 979 bf 0.6
 0.6 0.6 c 22 19 1463 979 bl 1 1 1 c 22 19 1463 1005 bf 0.6 0.6 0.6 c 22 19 1463 1005 bl 1 1 1 c 22 19 1463 1031 bf 0.6 0.6 0.6 c 22 19 1463 1031 bl 1 1 1 c 22 19 1463 1057 bf 0.6 0.6 0.6 c 22 19 1463 1057 bl 1 1 1 c 22 19 1463 1083 bf 0.6 0.6 0.6 c
 22 19 1463 1083 bl 1 1 1 c 22 19 1463 1109 bf 0.6 0.6 0.6 c 22 19 1463 1109 bl 1 1 1 c 22 19 1463 1135 bf 0.6 0.6 0.6 c 22 19 1463 1135 bl 1 1 1 c 22 19 1463 1161 bf 0.6 0.6 0.6 c 22 19 1463 1161 bl 1 1 1 c 22 19 1463 1187 bf 0.6 0.6 0.6 c 22 19
 1463 1187 bl 1 1 1 c 22 19 1463 1213 bf 0.6 0.6 0.6 c 22 19 1463 1213 bl 1 1 1 c 22 19 1463 1239 bf 0.6 0.6 0.6 c 22 19 1463 1239 bl 1 1 1 c 22 19 1463 1265 bf 0.6 0.6 0.6 c 22 19 1463 1265 bl 1 1 1 c 21 20 1492 484 bf 0.6 0.6 0.6 c 21 20 1492 484
 bl 1 1 1 c 21 20 1492 510 bf 0.6 0.6 0.6 c 21 20 1492 510 bl 1 1 1 c 21 20 1492 536 bf 0.6 0.6 0.6 c 21 20 1492 536 bl 1 1 1 c 21 20 1492 562 bf 0.6 0.6 0.6 c 21 20 1492 562 bl 1 1 1 c 21 20 1492 588 bf 0.6 0.6 0.6 c 21 20 1492 588 bl 1 1 1 c 21 20
 1492 614 bf 0.6 0.6 0.6 c 21 20 1492 614 bl 1 1 1 c 21 20 1492 640 bf 0.6 0.6 0.6 c 21 20 1492 640 bl 1 1 1 c 21 20 1492 666 bf 0.6 0.6 0.6 c 21 20 1492 666 bl 1 1 1 c 21 20 1492 692 bf 0.6 0.6 0.6 c 21 20 1492 692 bl 1 1 1 c 21 20 1492 718 bf 0.6
 0.6 0.6 c 21 20 1492 718 bl 1 1 1 c 21 19 1492 745 bf 0.6 0.6 0.6 c 21 19 1492 745 bl black 21 19 1492 771 bf 0.6 0.6 0.6 c 21 19 1492 771 bl black 21 19 1492 771 bf 0.6 0.6 0.6 c black 21 19 1492 797 bf 0.6 0.6 0.6 c 21 19 1492 797 bl black 21 19
 1492 797 bf 0.6 0.6 0.6 c 1 1 1 c 21 19 1492 823 bf 0.6 0.6 0.6 c 21 19 1492 823 bl 1 1 1 c 21 19 1492 849 bf 0.6 0.6 0.6 c 21 19 1492 849 bl 1 1 1 c 21 19 1492 875 bf 0.6 0.6 0.6 c 21 19 1492 875 bl 1 1 1 c 21 19 1492 901 bf 0.6 0.6 0.6 c 21 19
 1492 901 bl 1 1 1 c 21 19 1492 927 bf 0.6 0.6 0.6 c 21 19 1492 927 bl black 21 19 1492 953 bf 0.6 0.6 0.6 c 21 19 1492 953 bl black 21 19 1492 953 bf 0.6 0.6 0.6 c black 21 19 1492 979 bf 0.6 0.6 0.6 c 21 19 1492 979 bl black 21 19 1492 979 bf 0.6
 0.6 0.6 c 1 1 1 c 21 19 1492 1005 bf 0.6 0.6 0.6 c 21 19 1492 1005 bl 1 1 1 c 21 19 1492 1031 bf 0.6 0.6 0.6 c 21 19 1492 1031 bl 1 1 1 c 21 19 1492 1057 bf 0.6 0.6 0.6 c 21 19 1492 1057 bl 1 1 1 c 21 19 1492 1083 bf 0.6 0.6 0.6 c 21 19 1492 1083 bl
 1 1 1 c 21 19 1492 1109 bf 0.6 0.6 0.6 c 21 19 1492 1109 bl 1 1 1 c 21 19 1492 1135 bf 0.6 0.6 0.6 c 21 19 1492 1135 bl 1 1 1 c 21 19 1492 1161 bf 0.6 0.6 0.6 c 21 19 1492 1161 bl 1 1 1 c 21 19 1492 1187 bf 0.6 0.6 0.6 c 21 19 1492 1187 bl 1 1 1 c
 21 19 1492 1213 bf 0.6 0.6 0.6 c 21 19 1492 1213 bl 1 1 1 c 21 19 1492 1239 bf 0.6 0.6 0.6 c 21 19 1492 1239 bl 1 1 1 c 21 19 1492 1265 bf 0.6 0.6 0.6 c 21 19 1492 1265 bl 1 1 1 c 21 20 1520 484 bf 0.6 0.6 0.6 c 21 20 1520 484 bl 1 1 1 c 21 20 1520
 510 bf 0.6 0.6 0.6 c 21 20 1520 510 bl 1 1 1 c 21 20 1520 536 bf 0.6 0.6 0.6 c 21 20 1520 536 bl 1 1 1 c 21 20 1520 562 bf 0.6 0.6 0.6 c 21 20 1520 562 bl 1 1 1 c 21 20 1520 588 bf 0.6 0.6 0.6 c 21 20 1520 588 bl 1 1 1 c 21 20 1520 614 bf 0.6 0.6
 0.6 c 21 20 1520 614 bl 1 1 1 c 21 20 1520 640 bf 0.6 0.6 0.6 c 21 20 1520 640 bl 1 1 1 c 21 20 1520 666 bf 0.6 0.6 0.6 c 21 20 1520 666 bl 1 1 1 c 21 20 1520 692 bf 0.6 0.6 0.6 c 21 20 1520 692 bl black 21 20 1520 718 bf 0.6 0.6 0.6 c 21 20 1520
 718 bl black 21 20 1520 718 bf 0.6 0.6 0.6 c black 21 19 1520 745 bf 0.6 0.6 0.6 c 21 19 1520 745 bl black 21 19 1520 745 bf 0.6 0.6 0.6 c 1 1 1 c 21 19 1520 771 bf 0.6 0.6 0.6 c 21 19 1520 771 bl 1 1 1 c 21 19 1520 797 bf 0.6 0.6 0.6 c 21 19 1520
 797 bl 1 1 1 c 21 19 1520 823 bf 0.6 0.6 0.6 c 21 19 1520 823 bl 1 1 1 c 21 19 1520 849 bf 0.6 0.6 0.6 c 21 19 1520 849 bl 1 1 1 c 21 19 1520 875 bf 0.6 0.6 0.6 c 21 19 1520 875 bl 1 1 1 c 21 19 1520 901 bf 0.6 0.6 0.6 c 21 19 1520 901 bl 1 1 1 c 21
 19 1520 927 bf 0.6 0.6 0.6 c 21 19 1520 927 bl 1 1 1 c 21 19 1520 953 bf 0.6 0.6 0.6 c 21 19 1520 953 bl 1 1 1 c 21 19 1520 979 bf 0.6 0.6 0.6 c 21 19 1520 979 bl black 21 19 1520 1005 bf 0.6 0.6 0.6 c 21 19 1520 1005 bl black 21 19 1520 1005 bf 0.6
 0.6 0.6 c black 21 19 1520 1031 bf 0.6 0.6 0.6 c 21 19 1520 1031 bl black 21 19 1520 1031 bf 0.6 0.6 0.6 c 1 1 1 c 21 19 1520 1057 bf 0.6 0.6 0.6 c 21 19 1520 1057 bl 1 1 1 c 21 19 1520 1083 bf 0.6 0.6 0.6 c 21 19 1520 1083 bl 1 1 1 c 21 19 1520
 1109 bf 0.6 0.6 0.6 c 21 19 1520 1109 bl 1 1 1 c 21 19 1520 1135 bf 0.6 0.6 0.6 c 21 19 1520 1135 bl 1 1 1 c 21 19 1520 1161 bf 0.6 0.6 0.6 c 21 19 1520 1161 bl 1 1 1 c 21 19 1520 1187 bf 0.6 0.6 0.6 c 21 19 1520 1187 bl 1 1 1 c 21 19 1520 1213 bf
 0.6 0.6 0.6 c 21 19 1520 1213 bl 1 1 1 c 21 19 1520 1239 bf 0.6 0.6 0.6 c 21 19 1520 1239 bl 1 1 1 c 21 19 1520 1265 bf 0.6 0.6 0.6 c 21 19 1520 1265 bl 1 1 1 c 22 20 1548 484 bf 0.6 0.6 0.6 c 22 20 1548 484 bl 1 1 1 c 22 20 1548 510 bf 0.6 0.6 0.6
 c 22 20 1548 510 bl 1 1 1 c 22 20 1548 536 bf 0.6 0.6 0.6 c 22 20 1548 536 bl 1 1 1 c 22 20 1548 562 bf 0.6 0.6 0.6 c 22 20 1548 562 bl 1 1 1 c 22 20 1548 588 bf 0.6 0.6 0.6 c 22 20 1548 588 bl 1 1 1 c 22 20 1548 614 bf 0.6 0.6 0.6 c 22 20 1548 614
 bl 1 1 1 c 22 20 1548 640 bf 0.6 0.6 0.6 c 22 20 1548 640 bl 1 1 1 c 22 20 1548 666 bf 0.6 0.6 0.6 c 22 20 1548 666 bl 1 1 1 c 22 20 1548 692 bf 0.6 0.6 0.6 c 22 20 1548 692 bl black 22 20 1548 718 bf 0.6 0.6 0.6 c 22 20 1548 718 bl black 22 20 1548
 718 bf 0.6 0.6 0.6 c 1 1 1 c 22 19 1548 745 bf 0.6 0.6 0.6 c 22 19 1548 745 bl 1 1 1 c 22 19 1548 771 bf 0.6 0.6 0.6 c 22 19 1548 771 bl 1 1 1 c 22 19 1548 797 bf 0.6 0.6 0.6 c 22 19 1548 797 bl 1 1 1 c 22 19 1548 823 bf 0.6 0.6 0.6 c 22 19 1548 823
 bl 1 1 1 c 22 19 1548 849 bf 0.6 0.6 0.6 c 22 19 1548 849 bl 1 1 1 c 22 19 1548 875 bf 0.6 0.6 0.6 c 22 19 1548 875 bl 1 1 1 c 22 19 1548 901 bf 0.6 0.6 0.6 c 22 19 1548 901 bl 1 1 1 c 22 19 1548 927 bf 0.6 0.6 0.6 c 22 19 1548 927 bl 1 1 1 c 22 19
 1548 953 bf 0.6 0.6 0.6 c 22 19 1548 953 bl 1 1 1 c 22 19 1548 979 bf 0.6 0.6 0.6 c 22 19 1548 979 bl 1 1 1 c 22 19 1548 1005 bf 0.6 0.6 0.6 c 22 19 1548 1005 bl black 22 19 1548 1031 bf 0.6 0.6 0.6 c 22 19 1548 1031 bl black 22 19 1548 1031 bf 0.6
 0.6 0.6 c 1 1 1 c 22 19 1548 1057 bf 0.6 0.6 0.6 c 22 19 1548 1057 bl 1 1 1 c 22 19 1548 1083 bf 0.6 0.6 0.6 c 22 19 1548 1083 bl 1 1 1 c 22 19 1548 1109 bf 0.6 0.6 0.6 c 22 19 1548 1109 bl 1 1 1 c 22 19 1548 1135 bf 0.6 0.6 0.6 c 22 19 1548 1135 bl
 1 1 1 c 22 19 1548 1161 bf 0.6 0.6 0.6 c 22 19 1548 1161 bl 1 1 1 c 22 19 1548 1187 bf 0.6 0.6 0.6 c 22 19 1548 1187 bl 1 1 1 c 22 19 1548 1213 bf 0.6 0.6 0.6 c 22 19 1548 1213 bl 1 1 1 c 22 19 1548 1239 bf 0.6 0.6 0.6 c 22 19 1548 1239 bl 1 1 1 c
 22 19 1548 1265 bf 0.6 0.6 0.6 c 22 19 1548 1265 bl 1 1 1 c 21 20 1577 484 bf 0.6 0.6 0.6 c 21 20 1577 484 bl 1 1 1 c 21 20 1577 510 bf 0.6 0.6 0.6 c 21 20 1577 510 bl 1 1 1 c 21 20 1577 536 bf 0.6 0.6 0.6 c 21 20 1577 536 bl 1 1 1 c 21 20 1577 562
 bf 0.6 0.6 0.6 c 21 20 1577 562 bl 1 1 1 c 21 20 1577 588 bf 0.6 0.6 0.6 c 21 20 1577 588 bl 1 1 1 c 21 20 1577 614 bf 0.6 0.6 0.6 c 21 20 1577 614 bl 1 1 1 c 21 20 1577 640 bf 0.6 0.6 0.6 c 21 20 1577 640 bl 1 1 1 c 21 20 1577 666 bf 0.6 0.6 0.6 c
 21 20 1577 666 bl black 21 20 1577 692 bf 0.6 0.6 0.6 c 21 20 1577 692 bl black 21 20 1577 692 bf 0.6 0.6 0.6 c 1 1 1 c 21 20 1577 718 bf 0.6 0.6 0.6 c 21 20 1577 718 bl 1 1 1 c 21 19 1577 745 bf 0.6 0.6 0.6 c 21 19 1577 745 bl 1 1 1 c 21 19 1577
 771 bf 0.6 0.6 0.6 c 21 19 1577 771 bl 1 1 1 c 21 19 1577 797 bf 0.6 0.6 0.6 c 21 19 1577 797 bl 1 1 1 c 21 19 1577 823 bf 0.6 0.6 0.6 c 21 19 1577 823 bl 1 1 1 c 21 19 1577 849 bf 0.6 0.6 0.6 c 21 19 1577 849 bl 1 1 1 c 21 19 1577 875 bf 0.6 0.6
 0.6 c 21 19 1577 875 bl 1 1 1 c 21 19 1577 901 bf 0.6 0.6 0.6 c 21 19 1577 901 bl 1 1 1 c 21 19 1577 927 bf 0.6 0.6 0.6 c 21 19 1577 927 bl 1 1 1 c 21 19 1577 953 bf 0.6 0.6 0.6 c 21 19 1577 953 bl 1 1 1 c 21 19 1577 979 bf 0.6 0.6 0.6 c 21 19 1577
 979 bl 1 1 1 c 21 19 1577 1005 bf 0.6 0.6 0.6 c 21 19 1577 1005 bl 1 1 1 c 21 19 1577 1031 bf 0.6 0.6 0.6 c 21 19 1577 1031 bl black 21 19 1577 1057 bf 0.6 0.6 0.6 c 21 19 1577 1057 bl black 21 19 1577 1057 bf 0.6 0.6 0.6 c 1 1 1 c 21 19 1577 1083
 bf 0.6 0.6 0.6 c 21 19 1577 1083 bl 1 1 1 c 21 19 1577 1109 bf 0.6 0.6 0.6 c 21 19 1577 1109 bl 1 1 1 c 21 19 1577 1135 bf 0.6 0.6 0.6 c 21 19 1577 1135 bl 1 1 1 c 21 19 1577 1161 bf 0.6 0.6 0.6 c 21 19 1577 1161 bl 1 1 1 c 21 19 1577 1187 bf 0.6
 0.6 0.6 c 21 19 1577 1187 bl 1 1 1 c 21 19 1577 1213 bf 0.6 0.6 0.6 c 21 19 1577 1213 bl 1 1 1 c 21 19 1577 1239 bf 0.6 0.6 0.6 c 21 19 1577 1239 bl 1 1 1 c 21 19 1577 1265 bf 0.6 0.6 0.6 c 21 19 1577 1265 bl 1 1 1 c 21 20 1605 484 bf 0.6 0.6 0.6 c
 21 20 1605 484 bl 1 1 1 c 21 20 1605 510 bf 0.6 0.6 0.6 c 21 20 1605 510 bl 1 1 1 c 21 20 1605 536 bf 0.6 0.6 0.6 c 21 20 1605 536 bl 1 1 1 c 21 20 1605 562 bf 0.6 0.6 0.6 c 21 20 1605 562 bl 1 1 1 c 21 20 1605 588 bf 0.6 0.6 0.6 c 21 20 1605 588 bl
 1 1 1 c 21 20 1605 614 bf 0.6 0.6 0.6 c 21 20 1605 614 bl 1 1 1 c 21 20 1605 640 bf 0.6 0.6 0.6 c 21 20 1605 640 bl 1 1 1 c 21 20 1605 666 bf 0.6 0.6 0.6 c 21 20 1605 666 bl black 21 20 1605 692 bf 0.6 0.6 0.6 c 21 20 1605 692 bl black 21 20 1605
 692 bf 0.6 0.6 0.6 c 1 1 1 c 21 20 1605 718 bf 0.6 0.6 0.6 c 21 20 1605 718 bl 1 1 1 c 21 19 1605 745 bf 0.6 0.6 0.6 c 21 19 1605 745 bl 1 1 1 c 21 19 1605 771 bf 0.6 0.6 0.6 c 21 19 1605 771 bl 1 1 1 c 21 19 1605 797 bf 0.6 0.6 0.6 c 21 19 1605 797
 bl 1 1 1 c 21 19 1605 823 bf 0.6 0.6 0.6 c 21 19 1605 823 bl 1 1 1 c 21 19 1605 849 bf 0.6 0.6 0.6 c 21 19 1605 849 bl 1 1 1 c 21 19 1605 875 bf 0.6 0.6 0.6 c 21 19 1605 875 bl 1 1 1 c 21 19 1605 901 bf 0.6 0.6 0.6 c 21 19 1605 901 bl 1 1 1 c 21 19
 1605 927 bf 0.6 0.6 0.6 c 21 19 1605 927 bl 1 1 1 c 21 19 1605 953 bf 0.6 0.6 0.6 c 21 19 1605 953 bl 1 1 1 c 21 19 1605 979 bf 0.6 0.6 0.6 c 21 19 1605 979 bl 1 1 1 c 21 19 1605 1005 bf 0.6 0.6 0.6 c 21 19 1605 1005 bl 1 1 1 c 21 19 1605 1031 bf
 0.6 0.6 0.6 c 21 19 1605 1031 bl black 21 19 1605 1057 bf 0.6 0.6 0.6 c 21 19 1605 1057 bl black 21 19 1605 1057 bf 0.6 0.6 0.6 c 1 1 1 c 21 19 1605 1083 bf 0.6 0.6 0.6 c 21 19 1605 1083 bl 1 1 1 c 21 19 1605 1109 bf 0.6 0.6 0.6 c 21 19 1605 1109 bl
 1 1 1 c 21 19 1605 1135 bf 0.6 0.6 0.6 c 21 19 1605 1135 bl 1 1 1 c 21 19 1605 1161 bf 0.6 0.6 0.6 c 21 19 1605 1161 bl 1 1 1 c 21 19 1605 1187 bf 0.6 0.6 0.6 c 21 19 1605 1187 bl 1 1 1 c 21 19 1605 1213 bf 0.6 0.6 0.6 c 21 19 1605 1213 bl 1 1 1 c
 21 19 1605 1239 bf 0.6 0.6 0.6 c 21 19 1605 1239 bl 1 1 1 c 21 19 1605 1265 bf 0.6 0.6 0.6 c 21 19 1605 1265 bl 1 1 1 c 22 20 1633 484 bf 0.6 0.6 0.6 c 22 20 1633 484 bl 1 1 1 c 22 20 1633 510 bf 0.6 0.6 0.6 c 22 20 1633 510 bl 1 1 1 c 22 20 1633
 536 bf 0.6 0.6 0.6 c 22 20 1633 536 bl 1 1 1 c 22 20 1633 562 bf 0.6 0.6 0.6 c 22 20 1633 562 bl 1 1 1 c 22 20 1633 588 bf 0.6 0.6 0.6 c 22 20 1633 588 bl 1 1 1 c 22 20 1633 614 bf 0.6 0.6 0.6 c 22 20 1633 614 bl 1 1 1 c 22 20 1633 640 bf 0.6 0.6
 0.6 c 22 20 1633 640 bl black 22 20 1633 666 bf 0.6 0.6 0.6 c 22 20 1633 666 bl black 22 20 1633 666 bf 0.6 0.6 0.6 c 1 1 1 c 22 20 1633 692 bf 0.6 0.6 0.6 c 22 20 1633 692 bl 1 1 1 c 22 20 1633 718 bf 0.6 0.6 0.6 c 22 20 1633 718 bl 1 1 1 c 22 19
 1633 745 bf 0.6 0.6 0.6 c 22 19 1633 745 bl 1 1 1 c 22 19 1633 771 bf 0.6 0.6 0.6 c 22 19 1633 771 bl 1 1 1 c 22 19 1633 797 bf 0.6 0.6 0.6 c 22 19 1633 797 bl 1 1 1 c 22 19 1633 823 bf 0.6 0.6 0.6 c 22 19 1633 823 bl 1 1 1 c 22 19 1633 849 bf 0.6
 0.6 0.6 c 22 19 1633 849 bl 1 1 1 c 22 19 1633 875 bf 0.6 0.6 0.6 c 22 19 1633 875 bl 1 1 1 c 22 19 1633 901 bf 0.6 0.6 0.6 c 22 19 1633 901 bl 1 1 1 c 22 19 1633 927 bf 0.6 0.6 0.6 c 22 19 1633 927 bl 1 1 1 c 22 19 1633 953 bf 0.6 0.6 0.6 c 22 19
 1633 953 bl 1 1 1 c 22 19 1633 979 bf 0.6 0.6 0.6 c 22 19 1633 979 bl 1 1 1 c 22 19 1633 1005 bf 0.6 0.6 0.6 c 22 19 1633 1005 bl 1 1 1 c 22 19 1633 1031 bf 0.6 0.6 0.6 c 22 19 1633 1031 bl 1 1 1 c 22 19 1633 1057 bf 0.6 0.6 0.6 c 22 19 1633 1057 bl
 black 22 19 1633 1083 bf 0.6 0.6 0.6 c 22 19 1633 1083 bl black 22 19 1633 1083 bf 0.6 0.6 0.6 c 1 1 1 c 22 19 1633 1109 bf 0.6 0.6 0.6 c 22 19 1633 1109 bl 1 1 1 c 22 19 1633 1135 bf 0.6 0.6 0.6 c 22 19 1633 1135 bl 1 1 1 c 22 19 1633 1161 bf 0.6
 0.6 0.6 c 22 19 1633 1161 bl 1 1 1 c 22 19 1633 1187 bf 0.6 0.6 0.6 c 22 19 1633 1187 bl 1 1 1 c 22 19 1633 1213 bf 0.6 0.6 0.6 c 22 19 1633 1213 bl 1 1 1 c 22 19 1633 1239 bf 0.6 0.6 0.6 c 22 19 1633 1239 bl 1 1 1 c 22 19 1633 1265 bf 0.6 0.6 0.6 c
 22 19 1633 1265 bl 1 1 1 c 21 20 1662 484 bf 0.6 0.6 0.6 c 21 20 1662 484 bl 1 1 1 c 21 20 1662 510 bf 0.6 0.6 0.6 c 21 20 1662 510 bl 1 1 1 c 21 20 1662 536 bf 0.6 0.6 0.6 c 21 20 1662 536 bl 1 1 1 c 21 20 1662 562 bf 0.6 0.6 0.6 c 21 20 1662 562
 bl 1 1 1 c 21 20 1662 588 bf 0.6 0.6 0.6 c 21 20 1662 588 bl 1 1 1 c 21 20 1662 614 bf 0.6 0.6 0.6 c 21 20 1662 614 bl 1 1 1 c 21 20 1662 640 bf 0.6 0.6 0.6 c 21 20 1662 640 bl black 21 20 1662 666 bf 0.6 0.6 0.6 c 21 20 1662 666 bl black 21 20 1662
 666 bf 0.6 0.6 0.6 c 1 1 1 c 21 20 1662 692 bf 0.6 0.6 0.6 c 21 20 1662 692 bl 1 1 1 c 21 20 1662 718 bf 0.6 0.6 0.6 c 21 20 1662 718 bl 1 1 1 c 21 19 1662 745 bf 0.6 0.6 0.6 c 21 19 1662 745 bl 1 1 1 c 21 19 1662 771 bf 0.6 0.6 0.6 c 21 19 1662 771
 bl 1 1 1 c 21 19 1662 797 bf 0.6 0.6 0.6 c 21 19 1662 797 bl 1 1 1 c 21 19 1662 823 bf 0.6 0.6 0.6 c 21 19 1662 823 bl 1 1 1 c 21 19 1662 849 bf 0.6 0.6 0.6 c 21 19 1662 849 bl 1 1 1 c 21 19 1662 875 bf 0.6 0.6 0.6 c 21 19 1662 875 bl 1 1 1 c 21 19
 1662 901 bf 0.6 0.6 0.6 c 21 19 1662 901 bl 1 1 1 c 21 19 1662 927 bf 0.6 0.6 0.6 c 21 19 1662 927 bl 1 1 1 c 21 19 1662 953 bf 0.6 0.6 0.6 c 21 19 1662 953 bl 1 1 1 c 21 19 1662 979 bf 0.6 0.6 0.6 c 21 19 1662 979 bl 1 1 1 c 21 19 1662 1005 bf 0.6
 0.6 0.6 c 21 19 1662 1005 bl 1 1 1 c 21 19 1662 1031 bf 0.6 0.6 0.6 c 21 19 1662 1031 bl 1 1 1 c 21 19 1662 1057 bf 0.6 0.6 0.6 c 21 19 1662 1057 bl black 21 19 1662 1083 bf 0.6 0.6 0.6 c 21 19 1662 1083 bl black 21 19 1662 1083 bf 0.6 0.6 0.6 c 1 1
 1 c 21 19 1662 1109 bf 0.6 0.6 0.6 c 21 19 1662 1109 bl 1 1 1 c 21 19 1662 1135 bf 0.6 0.6 0.6 c 21 19 1662 1135 bl 1 1 1 c 21 19 1662 1161 bf 0.6 0.6 0.6 c 21 19 1662 1161 bl 1 1 1 c 21 19 1662 1187 bf 0.6 0.6 0.6 c 21 19 1662 1187 bl 1 1 1 c 21 19
 1662 1213 bf 0.6 0.6 0.6 c 21 19 1662 1213 bl 1 1 1 c 21 19 1662 1239 bf 0.6 0.6 0.6 c 21 19 1662 1239 bl 1 1 1 c 21 19 1662 1265 bf 0.6 0.6 0.6 c 21 19 1662 1265 bl 1 1 1 c 21 20 1690 484 bf 0.6 0.6 0.6 c 21 20 1690 484 bl 1 1 1 c 21 20 1690 510 bf
 0.6 0.6 0.6 c 21 20 1690 510 bl 1 1 1 c 21 20 1690 536 bf 0.6 0.6 0.6 c 21 20 1690 536 bl 1 1 1 c 21 20 1690 562 bf 0.6 0.6 0.6 c 21 20 1690 562 bl 1 1 1 c 21 20 1690 588 bf 0.6 0.6 0.6 c 21 20 1690 588 bl 1 1 1 c 21 20 1690 614 bf 0.6 0.6 0.6 c 21
 20 1690 614 bl 1 1 1 c 21 20 1690 640 bf 0.6 0.6 0.6 c 21 20 1690 640 bl black 21 20 1690 666 bf 0.6 0.6 0.6 c 21 20 1690 666 bl black 21 20 1690 666 bf 0.6 0.6 0.6 c 1 1 1 c 21 20 1690 692 bf 0.6 0.6 0.6 c 21 20 1690 692 bl 1 1 1 c 21 20 1690 718
 bf 0.6 0.6 0.6 c 21 20 1690 718 bl 1 1 1 c 21 19 1690 745 bf 0.6 0.6 0.6 c 21 19 1690 745 bl 1 1 1 c 21 19 1690 771 bf 0.6 0.6 0.6 c 21 19 1690 771 bl 1 1 1 c 21 19 1690 797 bf 0.6 0.6 0.6 c 21 19 1690 797 bl 1 1 1 c 21 19 1690 823 bf 0.6 0.6 0.6 c
 21 19 1690 823 bl 1 1 1 c 21 19 1690 849 bf 0.6 0.6 0.6 c 21 19 1690 849 bl 1 1 1 c 21 19 1690 875 bf 0.6 0.6 0.6 c 21 19 1690 875 bl 1 1 1 c 21 19 1690 901 bf 0.6 0.6 0.6 c 21 19 1690 901 bl 1 1 1 c 21 19 1690 927 bf 0.6 0.6 0.6 c 21 19 1690 927 bl
 1 1 1 c 21 19 1690 953 bf 0.6 0.6 0.6 c 21 19 1690 953 bl 1 1 1 c 21 19 1690 979 bf 0.6 0.6 0.6 c 21 19 1690 979 bl 1 1 1 c 21 19 1690 1005 bf 0.6 0.6 0.6 c 21 19 1690 1005 bl 1 1 1 c 21 19 1690 1031 bf 0.6 0.6 0.6 c 21 19 1690 1031 bl 1 1 1 c 21 19
 1690 1057 bf 0.6 0.6 0.6 c 21 19 1690 1057 bl black 21 19 1690 1083 bf 0.6 0.6 0.6 c 21 19 1690 1083 bl black 21 19 1690 1083 bf 0.6 0.6 0.6 c 1 1 1 c 21 19 1690 1109 bf 0.6 0.6 0.6 c 21 19 1690 1109 bl 1 1 1 c 21 19 1690 1135 bf 0.6 0.6 0.6 c 21 19
 1690 1135 bl 1 1 1 c 21 19 1690 1161 bf 0.6 0.6 0.6 c 21 19 1690 1161 bl 1 1 1 c 21 19 1690 1187 bf 0.6 0.6 0.6 c 21 19 1690 1187 bl 1 1 1 c 21 19 1690 1213 bf 0.6 0.6 0.6 c 21 19 1690 1213 bl 1 1 1 c 21 19 1690 1239 bf 0.6 0.6 0.6 c 21 19 1690 1239
 bl 1 1 1 c 21 19 1690 1265 bf 0.6 0.6 0.6 c 21 19 1690 1265 bl 1 1 1 c 21 20 1719 484 bf 0.6 0.6 0.6 c 21 20 1719 484 bl 1 1 1 c 21 20 1719 510 bf 0.6 0.6 0.6 c 21 20 1719 510 bl 1 1 1 c 21 20 1719 536 bf 0.6 0.6 0.6 c 21 20 1719 536 bl 1 1 1 c 21
 20 1719 562 bf 0.6 0.6 0.6 c 21 20 1719 562 bl 1 1 1 c 21 20 1719 588 bf 0.6 0.6 0.6 c 21 20 1719 588 bl 1 1 1 c 21 20 1719 614 bf 0.6 0.6 0.6 c 21 20 1719 614 bl 1 1 1 c 21 20 1719 640 bf 0.6 0.6 0.6 c 21 20 1719 640 bl black 21 20 1719 666 bf 0.6
 0.6 0.6 c 21 20 1719 666 bl black 21 20 1719 666 bf 0.6 0.6 0.6 c 1 1 1 c 21 20 1719 692 bf 0.6 0.6 0.6 c 21 20 1719 692 bl 1 1 1 c 21 20 1719 718 bf 0.6 0.6 0.6 c 21 20 1719 718 bl 1 1 1 c 21 19 1719 745 bf 0.6 0.6 0.6 c 21 19 1719 745 bl 1 1 1 c
 21 19 1719 771 bf 0.6 0.6 0.6 c 21 19 1719 771 bl 1 1 1 c 21 19 1719 797 bf 0.6 0.6 0.6 c 21 19 1719 797 bl 1 1 1 c 21 19 1719 823 bf 0.6 0.6 0.6 c 21 19 1719 823 bl 1 1 1 c 21 19 1719 849 bf 0.6 0.6 0.6 c 21 19 1719 849 bl 1 1 1 c 21 19 1719 875 bf
 0.6 0.6 0.6 c 21 19 1719 875 bl 1 1 1 c 21 19 1719 901 bf 0.6 0.6 0.6 c 21 19 1719 901 bl 1 1 1 c 21 19 1719 927 bf 0.6 0.6 0.6 c 21 19 1719 927 bl 1 1 1 c 21 19 1719 953 bf 0.6 0.6 0.6 c 21 19 1719 953 bl 1 1 1 c 21 19 1719 979 bf 0.6 0.6 0.6 c 21
 19 1719 979 bl 1 1 1 c 21 19 1719 1005 bf 0.6 0.6 0.6 c 21 19 1719 1005 bl 1 1 1 c 21 19 1719 1031 bf 0.6 0.6 0.6 c 21 19 1719 1031 bl 1 1 1 c 21 19 1719 1057 bf 0.6 0.6 0.6 c 21 19 1719 1057 bl black 21 19 1719 1083 bf 0.6 0.6 0.6 c 21 19 1719 1083
 bl black 21 19 1719 1083 bf 0.6 0.6 0.6 c 1 1 1 c 21 19 1719 1109 bf 0.6 0.6 0.6 c 21 19 1719 1109 bl 1 1 1 c 21 19 1719 1135 bf 0.6 0.6 0.6 c 21 19 1719 1135 bl 1 1 1 c 21 19 1719 1161 bf 0.6 0.6 0.6 c 21 19 1719 1161 bl 1 1 1 c 21 19 1719 1187 bf
 0.6 0.6 0.6 c 21 19 1719 1187 bl 1 1 1 c 21 19 1719 1213 bf 0.6 0.6 0.6 c 21 19 1719 1213 bl 1 1 1 c 21 19 1719 1239 bf 0.6 0.6 0.6 c 21 19 1719 1239 bl 1 1 1 c 21 19 1719 1265 bf 0.6 0.6 0.6 c 21 19 1719 1265 bl 1 1 1 c 21 20 1747 484 bf 0.6 0.6
 0.6 c 21 20 1747 484 bl 1 1 1 c 21 20 1747 510 bf 0.6 0.6 0.6 c 21 20 1747 510 bl 1 1 1 c 21 20 1747 536 bf 0.6 0.6 0.6 c 21 20 1747 536 bl 1 1 1 c 21 20 1747 562 bf 0.6 0.6 0.6 c 21 20 1747 562 bl 1 1 1 c 21 20 1747 588 bf 0.6 0.6 0.6 c 21 20 1747
 588 bl 1 1 1 c 21 20 1747 614 bf 0.6 0.6 0.6 c 21 20 1747 614 bl 1 1 1 c 21 20 1747 640 bf 0.6 0.6 0.6 c 21 20 1747 640 bl black 21 20 1747 666 bf 0.6 0.6 0.6 c 21 20 1747 666 bl black 21 20 1747 666 bf 0.6 0.6 0.6 c 1 1 1 c 21 20 1747 692 bf 0.6
 0.6 0.6 c 21 20 1747 692 bl 1 1 1 c 21 20 1747 718 bf 0.6 0.6 0.6 c 21 20 1747 718 bl 1 1 1 c 21 19 1747 745 bf 0.6 0.6 0.6 c 21 19 1747 745 bl 1 1 1 c 21 19 1747 771 bf 0.6 0.6 0.6 c 21 19 1747 771 bl 1 1 1 c 21 19 1747 797 bf 0.6 0.6 0.6 c 21 19
 1747 797 bl 1 1 1 c 21 19 1747 823 bf 0.6 0.6 0.6 c 21 19 1747 823 bl 1 1 1 c 21 19 1747 849 bf 0.6 0.6 0.6 c 21 19 1747 849 bl 1 1 1 c 21 19 1747 875 bf 0.6 0.6 0.6 c 21 19 1747 875 bl 1 1 1 c 21 19 1747 901 bf 0.6 0.6 0.6 c 21 19 1747 901 bl 1 1 1
 c 21 19 1747 927 bf 0.6 0.6 0.6 c 21 19 1747 927 bl 1 1 1 c 21 19 1747 953 bf 0.6 0.6 0.6 c 21 19 1747 953 bl 1 1 1 c 21 19 1747 979 bf 0.6 0.6 0.6 c 21 19 1747 979 bl 1 1 1 c 21 19 1747 1005 bf 0.6 0.6 0.6 c 21 19 1747 1005 bl 1 1 1 c 21 19 1747
 1031 bf 0.6 0.6 0.6 c 21 19 1747 1031 bl 1 1 1 c 21 19 1747 1057 bf 0.6 0.6 0.6 c 21 19 1747 1057 bl black 21 19 1747 1083 bf 0.6 0.6 0.6 c 21 19 1747 1083 bl black 21 19 1747 1083 bf 0.6 0.6 0.6 c 1 1 1 c 21 19 1747 1109 bf 0.6 0.6 0.6 c 21 19 1747
 1109 bl 1 1 1 c 21 19 1747 1135 bf 0.6 0.6 0.6 c 21 19 1747 1135 bl 1 1 1 c 21 19 1747 1161 bf 0.6 0.6 0.6 c 21 19 1747 1161 bl 1 1 1 c 21 19 1747 1187 bf 0.6 0.6 0.6 c 21 19 1747 1187 bl 1 1 1 c 21 19 1747 1213 bf 0.6 0.6 0.6 c 21 19 1747 1213 bl 1
 1 1 c 21 19 1747 1239 bf 0.6 0.6 0.6 c 21 19 1747 1239 bl 1 1 1 c 21 19 1747 1265 bf 0.6 0.6 0.6 c 21 19 1747 1265 bl 1 1 1 c 21 20 1775 484 bf 0.6 0.6 0.6 c 21 20 1775 484 bl 1 1 1 c 21 20 1775 510 bf 0.6 0.6 0.6 c 21 20 1775 510 bl 1 1 1 c 21 20
 1775 536 bf 0.6 0.6 0.6 c 21 20 1775 536 bl 1 1 1 c 21 20 1775 562 bf 0.6 0.6 0.6 c 21 20 1775 562 bl 1 1 1 c 21 20 1775 588 bf 0.6 0.6 0.6 c 21 20 1775 588 bl 1 1 1 c 21 20 1775 614 bf 0.6 0.6 0.6 c 21 20 1775 614 bl 1 1 1 c 21 20 1775 640 bf 0.6
 0.6 0.6 c 21 20 1775 640 bl black 21 20 1775 666 bf 0.6 0.6 0.6 c 21 20 1775 666 bl black 21 20 1775 666 bf 0.6 0.6 0.6 c black 21 20 1775 692 bf 0.6 0.6 0.6 c 21 20 1775 692 bl black 21 20 1775 692 bf 0.6 0.6 0.6 c 1 1 1 c 21 20 1775 718 bf 0.6 0.6
 0.6 c 21 20 1775 718 bl 1 1 1 c 21 19 1775 745 bf 0.6 0.6 0.6 c 21 19 1775 745 bl 1 1 1 c 21 19 1775 771 bf 0.6 0.6 0.6 c 21 19 1775 771 bl 1 1 1 c 21 19 1775 797 bf 0.6 0.6 0.6 c 21 19 1775 797 bl 1 1 1 c 21 19 1775 823 bf 0.6 0.6 0.6 c 21 19 1775
 823 bl 1 1 1 c 21 19 1775 849 bf 0.6 0.6 0.6 c 21 19 1775 849 bl 1 1 1 c 21 19 1775 875 bf 0.6 0.6 0.6 c 21 19 1775 875 bl 1 1 1 c 21 19 1775 901 bf 0.6 0.6 0.6 c 21 19 1775 901 bl 1 1 1 c 21 19 1775 927 bf 0.6 0.6 0.6 c 21 19 1775 927 bl 1 1 1 c 21
 19 1775 953 bf 0.6 0.6 0.6 c 21 19 1775 953 bl 1 1 1 c 21 19 1775 979 bf 0.6 0.6 0.6 c 21 19 1775 979 bl 1 1 1 c 21 19 1775 1005 bf 0.6 0.6 0.6 c 21 19 1775 1005 bl 1 1 1 c 21 19 1775 1031 bf 0.6 0.6 0.6 c 21 19 1775 1031 bl black 21 19 1775 1057 bf
 0.6 0.6 0.6 c 21 19 1775 1057 bl black 21 19 1775 1057 bf 0.6 0.6 0.6 c black 21 19 1775 1083 bf 0.6 0.6 0.6 c 21 19 1775 1083 bl black 21 19 1775 1083 bf 0.6 0.6 0.6 c 1 1 1 c 21 19 1775 1109 bf 0.6 0.6 0.6 c 21 19 1775 1109 bl 1 1 1 c 21 19 1775
 1135 bf 0.6 0.6 0.6 c 21 19 1775 1135 bl 1 1 1 c 21 19 1775 1161 bf 0.6 0.6 0.6 c 21 19 1775 1161 bl 1 1 1 c 21 19 1775 1187 bf 0.6 0.6 0.6 c 21 19 1775 1187 bl 1 1 1 c 21 19 1775 1213 bf 0.6 0.6 0.6 c 21 19 1775 1213 bl 1 1 1 c 21 19 1775 1239 bf
 0.6 0.6 0.6 c 21 19 1775 1239 bl 1 1 1 c 21 19 1775 1265 bf 0.6 0.6 0.6 c 21 19 1775 1265 bl 1 1 1 c 21 20 1804 484 bf 0.6 0.6 0.6 c 21 20 1804 484 bl 1 1 1 c 21 20 1804 510 bf 0.6 0.6 0.6 c 21 20 1804 510 bl 1 1 1 c 21 20 1804 536 bf 0.6 0.6 0.6 c
 21 20 1804 536 bl 1 1 1 c 21 20 1804 562 bf 0.6 0.6 0.6 c 21 20 1804 562 bl 1 1 1 c 21 20 1804 588 bf 0.6 0.6 0.6 c 21 20 1804 588 bl 1 1 1 c 21 20 1804 614 bf 0.6 0.6 0.6 c 21 20 1804 614 bl 1 1 1 c 21 20 1804 640 bf 0.6 0.6 0.6 c 21 20 1804 640 bl
 1 1 1 c 21 20 1804 666 bf 0.6 0.6 0.6 c 21 20 1804 666 bl black 21 20 1804 692 bf 0.6 0.6 0.6 c 21 20 1804 692 bl black 21 20 1804 692 bf 0.6 0.6 0.6 c 1 1 1 c 21 20 1804 718 bf 0.6 0.6 0.6 c 21 20 1804 718 bl 1 1 1 c 21 19 1804 745 bf 0.6 0.6 0.6 c
 21 19 1804 745 bl 1 1 1 c 21 19 1804 771 bf 0.6 0.6 0.6 c 21 19 1804 771 bl 1 1 1 c 21 19 1804 797 bf 0.6 0.6 0.6 c 21 19 1804 797 bl 1 1 1 c 21 19 1804 823 bf 0.6 0.6 0.6 c 21 19 1804 823 bl 1 1 1 c 21 19 1804 849 bf 0.6 0.6 0.6 c 21 19 1804 849 bl
 1 1 1 c 21 19 1804 875 bf 0.6 0.6 0.6 c 21 19 1804 875 bl 1 1 1 c 21 19 1804 901 bf 0.6 0.6 0.6 c 21 19 1804 901 bl 1 1 1 c 21 19 1804 927 bf 0.6 0.6 0.6 c 21 19 1804 927 bl 1 1 1 c 21 19 1804 953 bf 0.6 0.6 0.6 c 21 19 1804 953 bl 1 1 1 c 21 19
 1804 979 bf 0.6 0.6 0.6 c 21 19 1804 979 bl 1 1 1 c 21 19 1804 1005 bf 0.6 0.6 0.6 c 21 19 1804 1005 bl 1 1 1 c 21 19 1804 1031 bf 0.6 0.6 0.6 c 21 19 1804 1031 bl black 21 19 1804 1057 bf 0.6 0.6 0.6 c 21 19 1804 1057 bl black 21 19 1804 1057 bf
 0.6 0.6 0.6 c 1 1 1 c 21 19 1804 1083 bf 0.6 0.6 0.6 c 21 19 1804 1083 bl 1 1 1 c 21 19 1804 1109 bf 0.6 0.6 0.6 c 21 19 1804 1109 bl 1 1 1 c 21 19 1804 1135 bf 0.6 0.6 0.6 c 21 19 1804 1135 bl 1 1 1 c 21 19 1804 1161 bf 0.6 0.6 0.6 c 21 19 1804
 1161 bl 1 1 1 c 21 19 1804 1187 bf 0.6 0.6 0.6 c 21 19 1804 1187 bl 1 1 1 c 21 19 1804 1213 bf 0.6 0.6 0.6 c 21 19 1804 1213 bl 1 1 1 c 21 19 1804 1239 bf 0.6 0.6 0.6 c 21 19 1804 1239 bl 1 1 1 c 21 19 1804 1265 bf 0.6 0.6 0.6 c 21 19 1804 1265 bl 1
 1 1 c 21 20 1832 484 bf 0.6 0.6 0.6 c 21 20 1832 484 bl 1 1 1 c 21 20 1832 510 bf 0.6 0.6 0.6 c 21 20 1832 510 bl 1 1 1 c 21 20 1832 536 bf 0.6 0.6 0.6 c 21 20 1832 536 bl 1 1 1 c 21 20 1832 562 bf 0.6 0.6 0.6 c 21 20 1832 562 bl 1 1 1 c 21 20 1832
 588 bf 0.6 0.6 0.6 c 21 20 1832 588 bl 1 1 1 c 21 20 1832 614 bf 0.6 0.6 0.6 c 21 20 1832 614 bl 1 1 1 c 21 20 1832 640 bf 0.6 0.6 0.6 c 21 20 1832 640 bl 1 1 1 c 21 20 1832 666 bf 0.6 0.6 0.6 c 21 20 1832 666 bl 1 1 1 c 21 20 1832 692 bf 0.6 0.6
 0.6 c 21 20 1832 692 bl black 21 20 1832 718 bf 0.6 0.6 0.6 c 21 20 1832 718 bl black 21 20 1832 718 bf 0.6 0.6 0.6 c 1 1 1 c 21 19 1832 745 bf 0.6 0.6 0.6 c 21 19 1832 745 bl 1 1 1 c 21 19 1832 771 bf 0.6 0.6 0.6 c 21 19 1832 771 bl 1 1 1 c 21 19
 1832 797 bf 0.6 0.6 0.6 c 21 19 1832 797 bl 1 1 1 c 21 19 1832 823 bf 0.6 0.6 0.6 c 21 19 1832 823 bl 1 1 1 c 21 19 1832 849 bf 0.6 0.6 0.6 c 21 19 1832 849 bl 1 1 1 c 21 19 1832 875 bf 0.6 0.6 0.6 c 21 19 1832 875 bl 1 1 1 c 21 19 1832 901 bf 0.6
 0.6 0.6 c 21 19 1832 901 bl 1 1 1 c 21 19 1832 927 bf 0.6 0.6 0.6 c 21 19 1832 927 bl 1 1 1 c 21 19 1832 953 bf 0.6 0.6 0.6 c 21 19 1832 953 bl 1 1 1 c 21 19 1832 979 bf 0.6 0.6 0.6 c 21 19 1832 979 bl 1 1 1 c 21 19 1832 1005 bf 0.6 0.6 0.6 c 21 19
 1832 1005 bl black 21 19 1832 1031 bf 0.6 0.6 0.6 c 21 19 1832 1031 bl black 21 19 1832 1031 bf 0.6 0.6 0.6 c 1 1 1 c 21 19 1832 1057 bf 0.6 0.6 0.6 c 21 19 1832 1057 bl 1 1 1 c 21 19 1832 1083 bf 0.6 0.6 0.6 c 21 19 1832 1083 bl 1 1 1 c 21 19 1832
 1109 bf 0.6 0.6 0.6 c 21 19 1832 1109 bl 1 1 1 c 21 19 1832 1135 bf 0.6 0.6 0.6 c 21 19 1832 1135 bl 1 1 1 c 21 19 1832 1161 bf 0.6 0.6 0.6 c 21 19 1832 1161 bl 1 1 1 c 21 19 1832 1187 bf 0.6 0.6 0.6 c 21 19 1832 1187 bl 1 1 1 c 21 19 1832 1213 bf
 0.6 0.6 0.6 c 21 19 1832 1213 bl 1 1 1 c 21 19 1832 1239 bf 0.6 0.6 0.6 c 21 19 1832 1239 bl 1 1 1 c 21 19 1832 1265 bf 0.6 0.6 0.6 c 21 19 1832 1265 bl 1 1 1 c 21 20 1860 484 bf 0.6 0.6 0.6 c 21 20 1860 484 bl 1 1 1 c 21 20 1860 510 bf 0.6 0.6 0.6
 c 21 20 1860 510 bl 1 1 1 c 21 20 1860 536 bf 0.6 0.6 0.6 c 21 20 1860 536 bl 1 1 1 c 21 20 1860 562 bf 0.6 0.6 0.6 c 21 20 1860 562 bl 1 1 1 c 21 20 1860 588 bf 0.6 0.6 0.6 c 21 20 1860 588 bl 1 1 1 c 21 20 1860 614 bf 0.6 0.6 0.6 c 21 20 1860 614
 bl 1 1 1 c 21 20 1860 640 bf 0.6 0.6 0.6 c 21 20 1860 640 bl 1 1 1 c 21 20 1860 666 bf 0.6 0.6 0.6 c 21 20 1860 666 bl 1 1 1 c 21 20 1860 692 bf 0.6 0.6 0.6 c 21 20 1860 692 bl black 21 20 1860 718 bf 0.6 0.6 0.6 c 21 20 1860 718 bl black 21 20 1860
 718 bf 0.6 0.6 0.6 c black 21 19 1860 745 bf 0.6 0.6 0.6 c 21 19 1860 745 bl black 21 19 1860 745 bf 0.6 0.6 0.6 c 1 1 1 c 21 19 1860 771 bf 0.6 0.6 0.6 c 21 19 1860 771 bl 1 1 1 c 21 19 1860 797 bf 0.6 0.6 0.6 c 21 19 1860 797 bl 1 1 1 c 21 19 1860
 823 bf 0.6 0.6 0.6 c 21 19 1860 823 bl 1 1 1 c 21 19 1860 849 bf 0.6 0.6 0.6 c 21 19 1860 849 bl 1 1 1 c 21 19 1860 875 bf 0.6 0.6 0.6 c 21 19 1860 875 bl 1 1 1 c 21 19 1860 901 bf 0.6 0.6 0.6 c 21 19 1860 901 bl 1 1 1 c 21 19 1860 927 bf 0.6 0.6
 0.6 c 21 19 1860 927 bl 1 1 1 c 21 19 1860 953 bf 0.6 0.6 0.6 c 21 19 1860 953 bl 1 1 1 c 21 19 1860 979 bf 0.6 0.6 0.6 c 21 19 1860 979 bl black 21 19 1860 1005 bf 0.6 0.6 0.6 c 21 19 1860 1005 bl black 21 19 1860 1005 bf 0.6 0.6 0.6 c black 21 19
 1860 1031 bf 0.6 0.6 0.6 c 21 19 1860 1031 bl black 21 19 1860 1031 bf 0.6 0.6 0.6 c 1 1 1 c 21 19 1860 1057 bf 0.6 0.6 0.6 c 21 19 1860 1057 bl 1 1 1 c 21 19 1860 1083 bf 0.6 0.6 0.6 c 21 19 1860 1083 bl 1 1 1 c 21 19 1860 1109 bf 0.6 0.6 0.6 c 21
 19 1860 1109 bl 1 1 1 c 21 19 1860 1135 bf 0.6 0.6 0.6 c 21 19 1860 1135 bl 1 1 1 c 21 19 1860 1161 bf 0.6 0.6 0.6 c 21 19 1860 1161 bl 1 1 1 c 21 19 1860 1187 bf 0.6 0.6 0.6 c 21 19 1860 1187 bl 1 1 1 c 21 19 1860 1213 bf 0.6 0.6 0.6 c 21 19 1860
 1213 bl 1 1 1 c 21 19 1860 1239 bf 0.6 0.6 0.6 c 21 19 1860 1239 bl 1 1 1 c 21 19 1860 1265 bf 0.6 0.6 0.6 c 21 19 1860 1265 bl 1 1 1 c 21 20 1889 484 bf 0.6 0.6 0.6 c 21 20 1889 484 bl 1 1 1 c 21 20 1889 510 bf 0.6 0.6 0.6 c 21 20 1889 510 bl 1 1 1
 c 21 20 1889 536 bf 0.6 0.6 0.6 c 21 20 1889 536 bl 1 1 1 c 21 20 1889 562 bf 0.6 0.6 0.6 c 21 20 1889 562 bl 1 1 1 c 21 20 1889 588 bf 0.6 0.6 0.6 c 21 20 1889 588 bl 1 1 1 c 21 20 1889 614 bf 0.6 0.6 0.6 c 21 20 1889 614 bl 1 1 1 c 21 20 1889 640
 bf 0.6 0.6 0.6 c 21 20 1889 640 bl 1 1 1 c 21 20 1889 666 bf 0.6 0.6 0.6 c 21 20 1889 666 bl 1 1 1 c 21 20 1889 692 bf 0.6 0.6 0.6 c 21 20 1889 692 bl 1 1 1 c 21 20 1889 718 bf 0.6 0.6 0.6 c 21 20 1889 718 bl 1 1 1 c 21 19 1889 745 bf 0.6 0.6 0.6 c
 21 19 1889 745 bl black 21 19 1889 771 bf 0.6 0.6 0.6 c 21 19 1889 771 bl black 21 19 1889 771 bf 0.6 0.6 0.6 c black 21 19 1889 797 bf 0.6 0.6 0.6 c 21 19 1889 797 bl black 21 19 1889 797 bf 0.6 0.6 0.6 c 1 1 1 c 21 19 1889 823 bf 0.6 0.6 0.6 c 21
 19 1889 823 bl 1 1 1 c 21 19 1889 849 bf 0.6 0.6 0.6 c 21 19 1889 849 bl 1 1 1 c 21 19 1889 875 bf 0.6 0.6 0.6 c 21 19 1889 875 bl 1 1 1 c 21 19 1889 901 bf 0.6 0.6 0.6 c 21 19 1889 901 bl 1 1 1 c 21 19 1889 927 bf 0.6 0.6 0.6 c 21 19 1889 927 bl
 black 21 19 1889 953 bf 0.6 0.6 0.6 c 21 19 1889 953 bl black 21 19 1889 953 bf 0.6 0.6 0.6 c black 21 19 1889 979 bf 0.6 0.6 0.6 c 21 19 1889 979 bl black 21 19 1889 979 bf 0.6 0.6 0.6 c 1 1 1 c 21 19 1889 1005 bf 0.6 0.6 0.6 c 21 19 1889 1005 bl 1
 1 1 c 21 19 1889 1031 bf 0.6 0.6 0.6 c 21 19 1889 1031 bl 1 1 1 c 21 19 1889 1057 bf 0.6 0.6 0.6 c 21 19 1889 1057 bl 1 1 1 c 21 19 1889 1083 bf 0.6 0.6 0.6 c 21 19 1889 1083 bl 1 1 1 c 21 19 1889 1109 bf 0.6 0.6 0.6 c 21 19 1889 1109 bl 1 1 1 c 21
 19 1889 1135 bf 0.6 0.6 0.6 c 21 19 1889 1135 bl 1 1 1 c 21 19 1889 1161 bf 0.6 0.6 0.6 c 21 19 1889 1161 bl 1 1 1 c 21 19 1889 1187 bf 0.6 0.6 0.6 c 21 19 1889 1187 bl 1 1 1 c 21 19 1889 1213 bf 0.6 0.6 0.6 c 21 19 1889 1213 bl 1 1 1 c 21 19 1889
 1239 bf 0.6 0.6 0.6 c 21 19 1889 1239 bl 1 1 1 c 21 19 1889 1265 bf 0.6 0.6 0.6 c 21 19 1889 1265 bl 1 1 1 c 21 20 1917 484 bf 0.6 0.6 0.6 c 21 20 1917 484 bl 1 1 1 c 21 20 1917 510 bf 0.6 0.6 0.6 c 21 20 1917 510 bl 1 1 1 c 21 20 1917 536 bf 0.6
 0.6 0.6 c 21 20 1917 536 bl 1 1 1 c 21 20 1917 562 bf 0.6 0.6 0.6 c 21 20 1917 562 bl 1 1 1 c 21 20 1917 588 bf 0.6 0.6 0.6 c 21 20 1917 588 bl 1 1 1 c 21 20 1917 614 bf 0.6 0.6 0.6 c 21 20 1917 614 bl 1 1 1 c 21 20 1917 640 bf 0.6 0.6 0.6 c 21 20
 1917 640 bl 1 1 1 c 21 20 1917 666 bf 0.6 0.6 0.6 c 21 20 1917 666 bl 1 1 1 c 21 20 1917 692 bf 0.6 0.6 0.6 c 21 20 1917 692 bl 1 1 1 c 21 20 1917 718 bf 0.6 0.6 0.6 c 21 20 1917 718 bl 1 1 1 c 21 19 1917 745 bf 0.6 0.6 0.6 c 21 19 1917 745 bl 1 1 1
 c 21 19 1917 771 bf 0.6 0.6 0.6 c 21 19 1917 771 bl black 21 19 1917 797 bf 0.6 0.6 0.6 c 21 19 1917 797 bl black 21 19 1917 797 bf 0.6 0.6 0.6 c black 21 19 1917 823 bf 0.6 0.6 0.6 c 21 19 1917 823 bl black 21 19 1917 823 bf 0.6 0.6 0.6 c black 21
 19 1917 849 bf 0.6 0.6 0.6 c 21 19 1917 849 bl black 21 19 1917 849 bf 0.6 0.6 0.6 c black 21 19 1917 875 bf 0.6 0.6 0.6 c 21 19 1917 875 bl black 21 19 1917 875 bf 0.6 0.6 0.6 c black 21 19 1917 901 bf 0.6 0.6 0.6 c 21 19 1917 901 bl black 21 19
 1917 901 bf 0.6 0.6 0.6 c black 21 19 1917 927 bf 0.6 0.6 0.6 c 21 19 1917 927 bl black 21 19 1917 927 bf 0.6 0.6 0.6 c black 21 19 1917 953 bf 0.6 0.6 0.6 c 21 19 1917 953 bl black 21 19 1917 953 bf 0.6 0.6 0.6 c 1 1 1 c 21 19 1917 979 bf 0.6 0.6
 0.6 c 21 19 1917 979 bl 1 1 1 c 21 19 1917 1005 bf 0.6 0.6 0.6 c 21 19 1917 1005 bl 1 1 1 c 21 19 1917 1031 bf 0.6 0.6 0.6 c 21 19 1917 1031 bl 1 1 1 c 21 19 1917 1057 bf 0.6 0.6 0.6 c 21 19 1917 1057 bl 1 1 1 c 21 19 1917 1083 bf 0.6 0.6 0.6 c 21
 19 1917 1083 bl 1 1 1 c 21 19 1917 1109 bf 0.6 0.6 0.6 c 21 19 1917 1109 bl 1 1 1 c 21 19 1917 1135 bf 0.6 0.6 0.6 c 21 19 1917 1135 bl 1 1 1 c 21 19 1917 1161 bf 0.6 0.6 0.6 c 21 19 1917 1161 bl 1 1 1 c 21 19 1917 1187 bf 0.6 0.6 0.6 c 21 19 1917
 1187 bl 1 1 1 c 21 19 1917 1213 bf 0.6 0.6 0.6 c 21 19 1917 1213 bl 1 1 1 c 21 19 1917 1239 bf 0.6 0.6 0.6 c 21 19 1917 1239 bl 1 1 1 c 21 19 1917 1265 bf 0.6 0.6 0.6 c 21 19 1917 1265 bl 1 1 1 c 22 20 1945 484 bf 0.6 0.6 0.6 c 22 20 1945 484 bl 1 1
 1 c 22 20 1945 510 bf 0.6 0.6 0.6 c 22 20 1945 510 bl 1 1 1 c 22 20 1945 536 bf 0.6 0.6 0.6 c 22 20 1945 536 bl 1 1 1 c 22 20 1945 562 bf 0.6 0.6 0.6 c 22 20 1945 562 bl 1 1 1 c 22 20 1945 588 bf 0.6 0.6 0.6 c 22 20 1945 588 bl 1 1 1 c 22 20 1945
 614 bf 0.6 0.6 0.6 c 22 20 1945 614 bl 1 1 1 c 22 20 1945 640 bf 0.6 0.6 0.6 c 22 20 1945 640 bl 1 1 1 c 22 20 1945 666 bf 0.6 0.6 0.6 c 22 20 1945 666 bl 1 1 1 c 22 20 1945 692 bf 0.6 0.6 0.6 c 22 20 1945 692 bl 1 1 1 c 22 20 1945 718 bf 0.6 0.6
 0.6 c 22 20 1945 718 bl 1 1 1 c 22 19 1945 745 bf 0.6 0.6 0.6 c 22 19 1945 745 bl 1 1 1 c 22 19 1945 771 bf 0.6 0.6 0.6 c 22 19 1945 771 bl 1 1 1 c 22 19 1945 797 bf 0.6 0.6 0.6 c 22 19 1945 797 bl 1 1 1 c 22 19 1945 823 bf 0.6 0.6 0.6 c 22 19 1945
 823 bl 1 1 1 c 22 19 1945 849 bf 0.6 0.6 0.6 c 22 19 1945 849 bl 1 1 1 c 22 19 1945 875 bf 0.6 0.6 0.6 c 22 19 1945 875 bl 1 1 1 c 22 19 1945 901 bf 0.6 0.6 0.6 c 22 19 1945 901 bl 1 1 1 c 22 19 1945 927 bf 0.6 0.6 0.6 c 22 19 1945 927 bl 1 1 1 c 22
 19 1945 953 bf 0.6 0.6 0.6 c 22 19 1945 953 bl 1 1 1 c 22 19 1945 979 bf 0.6 0.6 0.6 c 22 19 1945 979 bl 1 1 1 c 22 19 1945 1005 bf 0.6 0.6 0.6 c 22 19 1945 1005 bl 1 1 1 c 22 19 1945 1031 bf 0.6 0.6 0.6 c 22 19 1945 1031 bl 1 1 1 c 22 19 1945 1057
 bf 0.6 0.6 0.6 c 22 19 1945 1057 bl 1 1 1 c 22 19 1945 1083 bf 0.6 0.6 0.6 c 22 19 1945 1083 bl 1 1 1 c 22 19 1945 1109 bf 0.6 0.6 0.6 c 22 19 1945 1109 bl 1 1 1 c 22 19 1945 1135 bf 0.6 0.6 0.6 c 22 19 1945 1135 bl 1 1 1 c 22 19 1945 1161 bf 0.6
 0.6 0.6 c 22 19 1945 1161 bl 1 1 1 c 22 19 1945 1187 bf 0.6 0.6 0.6 c 22 19 1945 1187 bl 1 1 1 c 22 19 1945 1213 bf 0.6 0.6 0.6 c 22 19 1945 1213 bl 1 1 1 c 22 19 1945 1239 bf 0.6 0.6 0.6 c 22 19 1945 1239 bl 1 1 1 c 22 19 1945 1265 bf 0.6 0.6 0.6 c
 22 19 1945 1265 bl 1 1 1 c 21 20 1974 484 bf 0.6 0.6 0.6 c 21 20 1974 484 bl 1 1 1 c 21 20 1974 510 bf 0.6 0.6 0.6 c 21 20 1974 510 bl 1 1 1 c 21 20 1974 536 bf 0.6 0.6 0.6 c 21 20 1974 536 bl 1 1 1 c 21 20 1974 562 bf 0.6 0.6 0.6 c 21 20 1974 562
 bl 1 1 1 c 21 20 1974 588 bf 0.6 0.6 0.6 c 21 20 1974 588 bl 1 1 1 c 21 20 1974 614 bf 0.6 0.6 0.6 c 21 20 1974 614 bl 1 1 1 c 21 20 1974 640 bf 0.6 0.6 0.6 c 21 20 1974 640 bl 1 1 1 c 21 20 1974 666 bf 0.6 0.6 0.6 c 21 20 1974 666 bl 1 1 1 c 21 20
 1974 692 bf 0.6 0.6 0.6 c 21 20 1974 692 bl 1 1 1 c 21 20 1974 718 bf 0.6 0.6 0.6 c 21 20 1974 718 bl 1 1 1 c 21 19 1974 745 bf 0.6 0.6 0.6 c 21 19 1974 745 bl 1 1 1 c 21 19 1974 771 bf 0.6 0.6 0.6 c 21 19 1974 771 bl 1 1 1 c 21 19 1974 797 bf 0.6
 0.6 0.6 c 21 19 1974 797 bl 1 1 1 c 21 19 1974 823 bf 0.6 0.6 0.6 c 21 19 1974 823 bl 1 1 1 c 21 19 1974 849 bf 0.6 0.6 0.6 c 21 19 1974 849 bl 1 1 1 c 21 19 1974 875 bf 0.6 0.6 0.6 c 21 19 1974 875 bl 1 1 1 c 21 19 1974 901 bf 0.6 0.6 0.6 c 21 19
 1974 901 bl 1 1 1 c 21 19 1974 927 bf 0.6 0.6 0.6 c 21 19 1974 927 bl 1 1 1 c 21 19 1974 953 bf 0.6 0.6 0.6 c 21 19 1974 953 bl 1 1 1 c 21 19 1974 979 bf 0.6 0.6 0.6 c 21 19 1974 979 bl 1 1 1 c 21 19 1974 1005 bf 0.6 0.6 0.6 c 21 19 1974 1005 bl 1 1
 1 c 21 19 1974 1031 bf 0.6 0.6 0.6 c 21 19 1974 1031 bl 1 1 1 c 21 19 1974 1057 bf 0.6 0.6 0.6 c 21 19 1974 1057 bl 1 1 1 c 21 19 1974 1083 bf 0.6 0.6 0.6 c 21 19 1974 1083 bl 1 1 1 c 21 19 1974 1109 bf 0.6 0.6 0.6 c 21 19 1974 1109 bl 1 1 1 c 21 19
 1974 1135 bf 0.6 0.6 0.6 c 21 19 1974 1135 bl 1 1 1 c 21 19 1974 1161 bf 0.6 0.6 0.6 c 21 19 1974 1161 bl 1 1 1 c 21 19 1974 1187 bf 0.6 0.6 0.6 c 21 19 1974 1187 bl 1 1 1 c 21 19 1974 1213 bf 0.6 0.6 0.6 c 21 19 1974 1213 bl 1 1 1 c 21 19 1974 1239
 bf 0.6 0.6 0.6 c 21 19 1974 1239 bl 1 1 1 c 21 19 1974 1265 bf 0.6 0.6 0.6 c 21 19 1974 1265 bl 1 1 1 c 21 20 2002 484 bf 0.6 0.6 0.6 c 21 20 2002 484 bl 1 1 1 c 21 20 2002 510 bf 0.6 0.6 0.6 c 21 20 2002 510 bl 1 1 1 c 21 20 2002 536 bf 0.6 0.6 0.6
 c 21 20 2002 536 bl 1 1 1 c 21 20 2002 562 bf 0.6 0.6 0.6 c 21 20 2002 562 bl 1 1 1 c 21 20 2002 588 bf 0.6 0.6 0.6 c 21 20 2002 588 bl 1 1 1 c 21 20 2002 614 bf 0.6 0.6 0.6 c 21 20 2002 614 bl 1 1 1 c 21 20 2002 640 bf 0.6 0.6 0.6 c 21 20 2002 640
 bl 1 1 1 c 21 20 2002 666 bf 0.6 0.6 0.6 c 21 20 2002 666 bl 1 1 1 c 21 20 2002 692 bf 0.6 0.6 0.6 c 21 20 2002 692 bl 1 1 1 c 21 20 2002 718 bf 0.6 0.6 0.6 c 21 20 2002 718 bl 1 1 1 c 21 19 2002 745 bf 0.6 0.6 0.6 c 21 19 2002 745 bl 1 1 1 c 21 19
 2002 771 bf 0.6 0.6 0.6 c 21 19 2002 771 bl 1 1 1 c 21 19 2002 797 bf 0.6 0.6 0.6 c 21 19 2002 797 bl 1 1 1 c 21 19 2002 823 bf 0.6 0.6 0.6 c 21 19 2002 823 bl 1 1 1 c 21 19 2002 849 bf 0.6 0.6 0.6 c 21 19 2002 849 bl 1 1 1 c 21 19 2002 875 bf 0.6
 0.6 0.6 c 21 19 2002 875 bl 1 1 1 c 21 19 2002 901 bf 0.6 0.6 0.6 c 21 19 2002 901 bl 1 1 1 c 21 19 2002 927 bf 0.6 0.6 0.6 c 21 19 2002 927 bl 1 1 1 c 21 19 2002 953 bf 0.6 0.6 0.6 c 21 19 2002 953 bl 1 1 1 c 21 19 2002 979 bf 0.6 0.6 0.6 c 21 19
 2002 979 bl 1 1 1 c 21 19 2002 1005 bf 0.6 0.6 0.6 c 21 19 2002 1005 bl 1 1 1 c 21 19 2002 1031 bf 0.6 0.6 0.6 c 21 19 2002 1031 bl 1 1 1 c 21 19 2002 1057 bf 0.6 0.6 0.6 c 21 19 2002 1057 bl 1 1 1 c 21 19 2002 1083 bf 0.6 0.6 0.6 c 21 19 2002 1083
 bl 1 1 1 c 21 19 2002 1109 bf 0.6 0.6 0.6 c 21 19 2002 1109 bl 1 1 1 c 21 19 2002 1135 bf 0.6 0.6 0.6 c 21 19 2002 1135 bl 1 1 1 c 21 19 2002 1161 bf 0.6 0.6 0.6 c 21 19 2002 1161 bl 1 1 1 c 21 19 2002 1187 bf 0.6 0.6 0.6 c 21 19 2002 1187 bl 1 1 1
 c 21 19 2002 1213 bf 0.6 0.6 0.6 c 21 19 2002 1213 bl 1 1 1 c 21 19 2002 1239 bf 0.6 0.6 0.6 c 21 19 2002 1239 bl 1 1 1 c 21 19 2002 1265 bf 0.6 0.6 0.6 c 21 19 2002 1265 bl 1 1 1 c 22 20 2030 484 bf 0.6 0.6 0.6 c 22 20 2030 484 bl 1 1 1 c 22 20
 2030 510 bf 0.6 0.6 0.6 c 22 20 2030 510 bl 1 1 1 c 22 20 2030 536 bf 0.6 0.6 0.6 c 22 20 2030 536 bl 1 1 1 c 22 20 2030 562 bf 0.6 0.6 0.6 c 22 20 2030 562 bl 1 1 1 c 22 20 2030 588 bf 0.6 0.6 0.6 c 22 20 2030 588 bl 1 1 1 c 22 20 2030 614 bf 0.6
 0.6 0.6 c 22 20 2030 614 bl 1 1 1 c 22 20 2030 640 bf 0.6 0.6 0.6 c 22 20 2030 640 bl 1 1 1 c 22 20 2030 666 bf 0.6 0.6 0.6 c 22 20 2030 666 bl 1 1 1 c 22 20 2030 692 bf 0.6 0.6 0.6 c 22 20 2030 692 bl 1 1 1 c 22 20 2030 718 bf 0.6 0.6 0.6 c 22 20
 2030 718 bl 1 1 1 c 22 19 2030 745 bf 0.6 0.6 0.6 c 22 19 2030 745 bl 1 1 1 c 22 19 2030 771 bf 0.6 0.6 0.6 c 22 19 2030 771 bl 1 1 1 c 22 19 2030 797 bf 0.6 0.6 0.6 c 22 19 2030 797 bl 1 1 1 c 22 19 2030 823 bf 0.6 0.6 0.6 c 22 19 2030 823 bl 1 1 1
 c 22 19 2030 849 bf 0.6 0.6 0.6 c 22 19 2030 849 bl 1 1 1 c 22 19 2030 875 bf 0.6 0.6 0.6 c 22 19 2030 875 bl 1 1 1 c 22 19 2030 901 bf 0.6 0.6 0.6 c 22 19 2030 901 bl 1 1 1 c 22 19 2030 927 bf 0.6 0.6 0.6 c 22 19 2030 927 bl 1 1 1 c 22 19 2030 953
 bf 0.6 0.6 0.6 c 22 19 2030 953 bl 1 1 1 c 22 19 2030 979 bf 0.6 0.6 0.6 c 22 19 2030 979 bl 1 1 1 c 22 19 2030 1005 bf 0.6 0.6 0.6 c 22 19 2030 1005 bl 1 1 1 c 22 19 2030 1031 bf 0.6 0.6 0.6 c 22 19 2030 1031 bl 1 1 1 c 22 19 2030 1057 bf 0.6 0.6
 0.6 c 22 19 2030 1057 bl 1 1 1 c 22 19 2030 1083 bf 0.6 0.6 0.6 c 22 19 2030 1083 bl 1 1 1 c 22 19 2030 1109 bf 0.6 0.6 0.6 c 22 19 2030 1109 bl 1 1 1 c 22 19 2030 1135 bf 0.6 0.6 0.6 c 22 19 2030 1135 bl 1 1 1 c 22 19 2030 1161 bf 0.6 0.6 0.6 c 22
 19 2030 1161 bl 1 1 1 c 22 19 2030 1187 bf 0.6 0.6 0.6 c 22 19 2030 1187 bl 1 1 1 c 22 19 2030 1213 bf 0.6 0.6 0.6 c 22 19 2030 1213 bl 1 1 1 c 22 19 2030 1239 bf 0.6 0.6 0.6 c 22 19 2030 1239 bl 1 1 1 c 22 19 2030 1265 bf 0.6 0.6 0.6 c 22 19 2030
 1265 bl 1 1 1 c 21 20 2059 484 bf 0.6 0.6 0.6 c 21 20 2059 484 bl 1 1 1 c 21 20 2059 510 bf 0.6 0.6 0.6 c 21 20 2059 510 bl 1 1 1 c 21 20 2059 536 bf 0.6 0.6 0.6 c 21 20 2059 536 bl 1 1 1 c 21 20 2059 562 bf 0.6 0.6 0.6 c 21 20 2059 562 bl 1 1 1 c
 21 20 2059 588 bf 0.6 0.6 0.6 c 21 20 2059 588 bl 1 1 1 c 21 20 2059 614 bf 0.6 0.6 0.6 c 21 20 2059 614 bl 1 1 1 c 21 20 2059 640 bf 0.6 0.6 0.6 c 21 20 2059 640 bl 1 1 1 c 21 20 2059 666 bf 0.6 0.6 0.6 c 21 20 2059 666 bl 1 1 1 c 21 20 2059 692 bf
 0.6 0.6 0.6 c 21 20 2059 692 bl 1 1 1 c 21 20 2059 718 bf 0.6 0.6 0.6 c 21 20 2059 718 bl 1 1 1 c 21 19 2059 745 bf 0.6 0.6 0.6 c 21 19 2059 745 bl 1 1 1 c 21 19 2059 771 bf 0.6 0.6 0.6 c 21 19 2059 771 bl 1 1 1 c 21 19 2059 797 bf 0.6 0.6 0.6 c 21
 19 2059 797 bl 1 1 1 c 21 19 2059 823 bf 0.6 0.6 0.6 c 21 19 2059 823 bl 1 1 1 c 21 19 2059 849 bf 0.6 0.6 0.6 c 21 19 2059 849 bl 1 1 1 c 21 19 2059 875 bf 0.6 0.6 0.6 c 21 19 2059 875 bl 1 1 1 c 21 19 2059 901 bf 0.6 0.6 0.6 c 21 19 2059 901 bl 1
 1 1 c 21 19 2059 927 bf 0.6 0.6 0.6 c 21 19 2059 927 bl 1 1 1 c 21 19 2059 953 bf 0.6 0.6 0.6 c 21 19 2059 953 bl 1 1 1 c 21 19 2059 979 bf 0.6 0.6 0.6 c 21 19 2059 979 bl 1 1 1 c 21 19 2059 1005 bf 0.6 0.6 0.6 c 21 19 2059 1005 bl 1 1 1 c 21 19
 2059 1031 bf 0.6 0.6 0.6 c 21 19 2059 1031 bl 1 1 1 c 21 19 2059 1057 bf 0.6 0.6 0.6 c 21 19 2059 1057 bl 1 1 1 c 21 19 2059 1083 bf 0.6 0.6 0.6 c 21 19 2059 1083 bl 1 1 1 c 21 19 2059 1109 bf 0.6 0.6 0.6 c 21 19 2059 1109 bl 1 1 1 c 21 19 2059 1135
 bf 0.6 0.6 0.6 c 21 19 2059 1135 bl 1 1 1 c 21 19 2059 1161 bf 0.6 0.6 0.6 c 21 19 2059 1161 bl 1 1 1 c 21 19 2059 1187 bf 0.6 0.6 0.6 c 21 19 2059 1187 bl 1 1 1 c 21 19 2059 1213 bf 0.6 0.6 0.6 c 21 19 2059 1213 bl 1 1 1 c 21 19 2059 1239 bf 0.6
 0.6 0.6 c 21 19 2059 1239 bl 1 1 1 c 21 19 2059 1265 bf 0.6 0.6 0.6 c 21 19 2059 1265 bl 1 1 1 c 21 20 2087 484 bf 0.6 0.6 0.6 c 21 20 2087 484 bl 1 1 1 c 21 20 2087 510 bf 0.6 0.6 0.6 c 21 20 2087 510 bl 1 1 1 c 21 20 2087 536 bf 0.6 0.6 0.6 c 21
 20 2087 536 bl 1 1 1 c 21 20 2087 562 bf 0.6 0.6 0.6 c 21 20 2087 562 bl 1 1 1 c 21 20 2087 588 bf 0.6 0.6 0.6 c 21 20 2087 588 bl 1 1 1 c 21 20 2087 614 bf 0.6 0.6 0.6 c 21 20 2087 614 bl 1 1 1 c 21 20 2087 640 bf 0.6 0.6 0.6 c 21 20 2087 640 bl 1
 1 1 c 21 20 2087 666 bf 0.6 0.6 0.6 c 21 20 2087 666 bl 1 1 1 c 21 20 2087 692 bf 0.6 0.6 0.6 c 21 20 2087 692 bl 1 1 1 c 21 20 2087 718 bf 0.6 0.6 0.6 c 21 20 2087 718 bl 1 1 1 c 21 19 2087 745 bf 0.6 0.6 0.6 c 21 19 2087 745 bl 1 1 1 c 21 19 2087
 771 bf 0.6 0.6 0.6 c 21 19 2087 771 bl 1 1 1 c 21 19 2087 797 bf 0.6 0.6 0.6 c 21 19 2087 797 bl 1 1 1 c 21 19 2087 823 bf 0.6 0.6 0.6 c 21 19 2087 823 bl 1 1 1 c 21 19 2087 849 bf 0.6 0.6 0.6 c 21 19 2087 849 bl 1 1 1 c 21 19 2087 875 bf 0.6 0.6
 0.6 c 21 19 2087 875 bl 1 1 1 c 21 19 2087 901 bf 0.6 0.6 0.6 c 21 19 2087 901 bl 1 1 1 c 21 19 2087 927 bf 0.6 0.6 0.6 c 21 19 2087 927 bl 1 1 1 c 21 19 2087 953 bf 0.6 0.6 0.6 c 21 19 2087 953 bl 1 1 1 c 21 19 2087 979 bf 0.6 0.6 0.6 c 21 19 2087
 979 bl 1 1 1 c 21 19 2087 1005 bf 0.6 0.6 0.6 c 21 19 2087 1005 bl 1 1 1 c 21 19 2087 1031 bf 0.6 0.6 0.6 c 21 19 2087 1031 bl 1 1 1 c 21 19 2087 1057 bf 0.6 0.6 0.6 c 21 19 2087 1057 bl 1 1 1 c 21 19 2087 1083 bf 0.6 0.6 0.6 c 21 19 2087 1083 bl 1
 1 1 c 21 19 2087 1109 bf 0.6 0.6 0.6 c 21 19 2087 1109 bl 1 1 1 c 21 19 2087 1135 bf 0.6 0.6 0.6 c 21 19 2087 1135 bl 1 1 1 c 21 19 2087 1161 bf 0.6 0.6 0.6 c 21 19 2087 1161 bl 1 1 1 c 21 19 2087 1187 bf 0.6 0.6 0.6 c 21 19 2087 1187 bl 1 1 1 c 21
 19 2087 1213 bf 0.6 0.6 0.6 c 21 19 2087 1213 bl 1 1 1 c 21 19 2087 1239 bf 0.6 0.6 0.6 c 21 19 2087 1239 bl 1 1 1 c 21 19 2087 1265 bf 0.6 0.6 0.6 c 21 19 2087 1265 bl 1 1 1 c 22 20 2115 484 bf 0.6 0.6 0.6 c 22 20 2115 484 bl 1 1 1 c 22 20 2115 510
 bf 0.6 0.6 0.6 c 22 20 2115 510 bl 1 1 1 c 22 20 2115 536 bf 0.6 0.6 0.6 c 22 20 2115 536 bl 1 1 1 c 22 20 2115 562 bf 0.6 0.6 0.6 c 22 20 2115 562 bl 1 1 1 c 22 20 2115 588 bf 0.6 0.6 0.6 c 22 20 2115 588 bl 1 1 1 c 22 20 2115 614 bf 0.6 0.6 0.6 c
 22 20 2115 614 bl 1 1 1 c 22 20 2115 640 bf 0.6 0.6 0.6 c 22 20 2115 640 bl 1 1 1 c 22 20 2115 666 bf 0.6 0.6 0.6 c 22 20 2115 666 bl 1 1 1 c 22 20 2115 692 bf 0.6 0.6 0.6 c 22 20 2115 692 bl 1 1 1 c 22 20 2115 718 bf 0.6 0.6 0.6 c 22 20 2115 718 bl
 1 1 1 c 22 19 2115 745 bf 0.6 0.6 0.6 c 22 19 2115 745 bl 1 1 1 c 22 19 2115 771 bf 0.6 0.6 0.6 c 22 19 2115 771 bl 1 1 1 c 22 19 2115 797 bf 0.6 0.6 0.6 c 22 19 2115 797 bl 1 1 1 c 22 19 2115 823 bf 0.6 0.6 0.6 c 22 19 2115 823 bl 1 1 1 c 22 19
 2115 849 bf 0.6 0.6 0.6 c 22 19 2115 849 bl 1 1 1 c 22 19 2115 875 bf 0.6 0.6 0.6 c 22 19 2115 875 bl 1 1 1 c 22 19 2115 901 bf 0.6 0.6 0.6 c 22 19 2115 901 bl 1 1 1 c 22 19 2115 927 bf 0.6 0.6 0.6 c 22 19 2115 927 bl 1 1 1 c 22 19 2115 953 bf 0.6
 0.6 0.6 c 22 19 2115 953 bl 1 1 1 c 22 19 2115 979 bf 0.6 0.6 0.6 c 22 19 2115 979 bl 1 1 1 c 22 19 2115 1005 bf 0.6 0.6 0.6 c 22 19 2115 1005 bl 1 1 1 c 22 19 2115 1031 bf 0.6 0.6 0.6 c 22 19 2115 1031 bl 1 1 1 c 22 19 2115 1057 bf 0.6 0.6 0.6 c 22
 19 2115 1057 bl 1 1 1 c 22 19 2115 1083 bf 0.6 0.6 0.6 c 22 19 2115 1083 bl 1 1 1 c 22 19 2115 1109 bf 0.6 0.6 0.6 c 22 19 2115 1109 bl 1 1 1 c 22 19 2115 1135 bf 0.6 0.6 0.6 c 22 19 2115 1135 bl 1 1 1 c 22 19 2115 1161 bf 0.6 0.6 0.6 c 22 19 2115
 1161 bl 1 1 1 c 22 19 2115 1187 bf 0.6 0.6 0.6 c 22 19 2115 1187 bl 1 1 1 c 22 19 2115 1213 bf 0.6 0.6 0.6 c 22 19 2115 1213 bl 1 1 1 c 22 19 2115 1239 bf 0.6 0.6 0.6 c 22 19 2115 1239 bl 1 1 1 c 22 19 2115 1265 bf 0.6 0.6 0.6 c 22 19 2115 1265 bl
 black[ 20 20] 0 sd 1020 364 m 241 117 d s 1020 364 m 1120 117 d s
 gr  gr showpage
end
%%EOF
