%!PS-Adobe-2.0 EPSF-2.0
%%BoundingBox:  0 0 567 442
%%Title: sagitta_vs_bp.eps: sagitta_vs_bp
%%Creator: ROOT Version 5.34/14
%%CreationDate: Tue Jun  3 15:42:15 2014
%%EndComments
%%BeginProlog
80 dict begin
/s {stroke} def /l {lineto} def /m {moveto} def /t {translate} def
/r {rotate} def /rl {roll}  def /R {repeat} def
/d {rlineto} def /rm {rmoveto} def /gr {grestore} def /f {eofill} def
/c {setrgbcolor} def /black {0 setgray} def /sd {setdash} def
/cl {closepath} def /sf {scalefont setfont} def /lw {setlinewidth} def
/box {m dup 0 exch d exch 0 d 0 exch neg d cl} def
/NC{systemdict begin initclip end}def/C{NC box clip newpath}def
/bl {box s} def /bf {box f} def /Y { 0 exch d} def /X { 0 d} def 
/K {{pop pop 0 moveto} exch kshow} bind def
/ita {/ang 15 def gsave [1 0 ang dup sin exch cos div 1 0 0] concat} def 
/mp {newpath /y exch def /x exch def} def
/side {[w .77 mul w .23 mul] .385 w mul sd w 0 l currentpoint t -144 r} def
/mr {mp x y w2 0 360 arc} def /m24 {mr s} def /m20 {mr f} def
/mb {mp x y w2 add m w2 neg 0 d 0 w neg d w 0 d 0 w d cl} def
/mt {mp x y w2 add m w2 neg w neg d w 0 d cl} def
/m21 {mb f} def /m25 {mb s} def /m22 {mt f} def /m26{mt s} def
/m23 {mp x y w2 sub m w2 w d w neg 0 d cl f} def
/m27 {mp x y w2 add m w3 neg w2 neg d w3 w2 neg d w3 w2 d cl s} def
/m28 {mp x w2 sub y w2 sub w3 add m w3 0 d  0 w3 neg d w3 0 d 0 w3 d w3 0 d  0 w3 d w3 neg 0 d 0 w3 d w3 neg 0 d 0 w3 neg d w3 neg 0 d cl s } def
/m29 {mp gsave x w2 sub y w2 add w3 sub m currentpoint t 4 {side} repeat cl fill gr} def
/m30 {mp gsave x w2 sub y w2 add w3 sub m currentpoint t 4 {side} repeat cl s gr} def
/m31 {mp x y w2 sub m 0 w d x w2 sub y m w 0 d x w2 sub y w2 add m w w neg d x w2 sub y w2 sub m w w d s} def
/m32 {mp x y w2 sub m w2 w d w neg 0 d cl s} def
/m33 {mp x y w2 add m w3 neg w2 neg d w3 w2 neg d w3 w2 d cl f} def
/m34 {mp x w2 sub y w2 sub w3 add m w3 0 d  0 w3 neg d w3 0 d 0 w3 d w3 0 d  0 w3 d w3 neg 0 d 0 w3 d w3 neg 0 d 0 w3 neg d w3 neg 0 d cl f } def
/m2 {mp x y w2 sub m 0 w d x w2 sub y m w 0 d s} def
/m5 {mp x w2 sub y w2 sub m w w d x w2 sub y w2 add m w w neg d s} def
/reEncode {exch findfont dup length dict begin {1 index /FID eq  {pop pop} {def} ifelse } forall /Encoding exch def currentdict end dup /FontName get exch definefont pop } def [/Times-Bold /Times-Italic /Times-BoldItalic /Helvetica /Helvetica-Oblique
 /Helvetica-Bold /Helvetica-BoldOblique /Courier /Courier-Oblique /Courier-Bold /Courier-BoldOblique /Times-Roman /AvantGarde-Book /AvantGarde-BookOblique /AvantGarde-Demi /AvantGarde-DemiOblique /Bookman-Demi /Bookman-DemiItalic /Bookman-Light
 /Bookman-LightItalic /Helvetica-Narrow /Helvetica-Narrow-Bold /Helvetica-Narrow-BoldOblique /Helvetica-Narrow-Oblique /NewCenturySchlbk-Roman /NewCenturySchlbk-Bold /NewCenturySchlbk-BoldItalic /NewCenturySchlbk-Italic /Palatino-Bold
 /Palatino-BoldItalic /Palatino-Italic /Palatino-Roman ] {ISOLatin1Encoding reEncode } forall
%%EndProlog
%%BeginSetup
%%EndSetup
newpath  gsave  .25 .25 scale  gsave  0 0 t black[  ] 0 sd 6 lw 1 1 1 c 2268 1769 0 0 bf black 3 lw 1 1 1 c 1894 1482 283 216 bf black 1894 1482 283 216 bl 1 1 1 c 1894 1482 283 216 bf black 1894 1482 283 216 bl 6 lw 283 216 m 1894 X s 0.6 0.6 0.6 c[
 12 12] 0 sd 3 lw 283 1698 m -1482 Y s 757 1698 m -1482 Y s 1230 1698 m -1482 Y s 1704 1698 m -1482 Y s 2177 1698 m -1482 Y s black[  ] 0 sd 6 lw 283 1698 m 1894 X s 283 216 m 1482 Y s 0.6 0.6 0.6 c[ 12 12] 0 sd 3 lw 2177 216 m -1894 X s 2177 512 m
 -1894 X s 2177 809 m -1894 X s 2177 1105 m -1894 X s 2177 1401 m -1894 X s 2177 1698 m -1894 X s black[  ] 0 sd 6 lw 2177 216 m 1482 Y s 1 1 1 c black 283 216 m 1894 X s 283 216 m 1894 X s
 gsave  2268 1769 0 0 C 1741.48 27.1258 t 0 r /Helvetica findfont 78.6648 sf 0 0 m (Rigidity [GV]) show NC gr  283 260 m -44 Y s
 gsave  2268 1769 0 0 C 283.465 119.893 t 0 r  -19 0 t /Helvetica findfont 67.8145 sf 0 0 m (1) show NC gr  426 238 m -22 Y s 509 238 m -22 Y s 568 238 m -22 Y s 614 238 m -22 Y s 652 238 m -22 Y s 684 238 m -22 Y s 711 238 m -22 Y s 735 238 m -22 Y
 s 757 260 m -44 Y s
 gsave  2268 1769 0 0 C 756.851 119.893 t 0 r  -38 0 t /Helvetica findfont 67.8145 sf 0 0 m (10) show NC gr  899 238 m -22 Y s 983 238 m -22 Y s 1042 238 m -22 Y s 1088 238 m -22 Y s 1125 238 m -22 Y s 1157 238 m -22 Y s 1184 238 m -22 Y s 1209 238 m
 -22 Y s 1230 260 m -44 Y s
 gsave  2268 1769 0 0 C 1253.21 154.617 t 0 r /Helvetica findfont 46.1139 sf 0 0 m (2) show NC gr 
 gsave  2268 1769 0 0 C 1177.26 122.066 t 0 r /Helvetica findfont 70.5271 sf 0 0 m (10) show NC gr  1373 238 m -22 Y s 1456 238 m -22 Y s 1515 238 m -22 Y s 1561 238 m -22 Y s 1599 238 m -22 Y s 1630 238 m -22 Y s 1658 238 m -22 Y s 1682 238 m -22 Y
 s 1704 260 m -44 Y s
 gsave  2268 1769 0 0 C 1727.91 157.33 t 0 r /Helvetica findfont 46.1139 sf 0 0 m (3) show NC gr 
 gsave  2268 1769 0 0 C 1651.96 122.066 t 0 r /Helvetica findfont 70.5271 sf 0 0 m (10) show NC gr  1846 238 m -22 Y s 1929 238 m -22 Y s 1989 238 m -22 Y s 2035 238 m -22 Y s 2072 238 m -22 Y s 2104 238 m -22 Y s 2131 238 m -22 Y s 2155 238 m -22 Y
 s 2177 260 m -44 Y s
 gsave  2268 1769 0 0 C 2199.9 154.617 t 0 r /Helvetica findfont 46.1139 sf 0 0 m (4) show NC gr 
 gsave  2268 1769 0 0 C 2123.95 122.066 t 0 r /Helvetica findfont 70.5271 sf 0 0 m (10) show NC gr  283 1698 m 1894 X s 283 1654 m 44 Y s 426 1676 m 22 Y s 509 1676 m 22 Y s 568 1676 m 22 Y s 614 1676 m 22 Y s 652 1676 m 22 Y s 684 1676 m 22 Y s 711
 1676 m 22 Y s 735 1676 m 22 Y s 757 1654 m 44 Y s 899 1676 m 22 Y s 983 1676 m 22 Y s 1042 1676 m 22 Y s 1088 1676 m 22 Y s 1125 1676 m 22 Y s 1157 1676 m 22 Y s 1184 1676 m 22 Y s 1209 1676 m 22 Y s 1230 1654 m 44 Y s 1373 1676 m 22 Y s 1456 1676 m
 22 Y s 1515 1676 m 22 Y s 1561 1676 m 22 Y s 1599 1676 m 22 Y s 1630 1676 m 22 Y s 1658 1676 m 22 Y s 1682 1676 m 22 Y s 1704 1654 m 44 Y s 1846 1676 m 22 Y s 1929 1676 m 22 Y s 1989 1676 m 22 Y s 2035 1676 m 22 Y s 2072 1676 m 22 Y s 2104 1676 m 22
 Y s 2131 1676 m 22 Y s 2155 1676 m 22 Y s 2177 1654 m 44 Y s 283 216 m 1482 Y s
 gsave  2268 1769 0 0 C 84.09 1261.35 t 90 r /Helvetica findfont 78.6648 sf 0 0 m (Sagitta [mm]) show NC gr  340 216 m -57 X s
 gsave  2268 1769 0 0 C 222.432 217.006 t 0 r /Helvetica findfont 46.1139 sf 0 0 m (\2553) show NC gr 
 gsave  2268 1769 0 0 C 146.479 184.455 t 0 r /Helvetica findfont 70.5271 sf 0 0 m (10) show NC gr  312 305 m -29 X s 312 357 m -29 X s 312 394 m -29 X s 312 423 m -29 X s 312 446 m -29 X s 312 466 m -29 X s 312 483 m -29 X s 312 499 m -29 X s 340
 512 m -57 X s
 gsave  2268 1769 0 0 C 222.432 509.965 t 0 r /Helvetica findfont 46.1139 sf 0 0 m (\2552) show NC gr 
 gsave  2268 1769 0 0 C 146.479 480.127 t 0 r /Helvetica findfont 70.5271 sf 0 0 m (10) show NC gr  312 601 m -29 X s 312 654 m -29 X s 312 691 m -29 X s 312 719 m -29 X s 312 743 m -29 X s 312 763 m -29 X s 312 780 m -29 X s 312 795 m -29 X s 340
 809 m -57 X s
 gsave  2268 1769 0 0 C 230.569 808.349 t 0 r /Helvetica findfont 46.1139 sf 0 0 m (\2551) show NC gr 
 gsave  2268 1769 0 0 C 154.617 778.51 t 0 r /Helvetica findfont 70.5271 sf 0 0 m (10) show NC gr  312 898 m -29 X s 312 950 m -29 X s 312 987 m -29 X s 312 1016 m -29 X s 312 1039 m -29 X s 312 1059 m -29 X s 312 1076 m -29 X s 312 1091 m -29 X s
 340 1105 m -57 X s
 gsave  2268 1769 0 0 C 264.363 1075.73 t 0 r  -38 0 t /Helvetica findfont 67.8145 sf 0 0 m (1) show NC gr  312 1194 m -29 X s 312 1246 m -29 X s 312 1283 m -29 X s 312 1312 m -29 X s 312 1336 m -29 X s 312 1356 m -29 X s 312 1373 m -29 X s 312 1388
 m -29 X s 340 1401 m -57 X s
 gsave  2268 1769 0 0 C 264.363 1372.14 t 0 r  -76 0 t /Helvetica findfont 67.8145 sf 0 0 m (10) show NC gr  312 1491 m -29 X s 312 1543 m -29 X s 312 1580 m -29 X s 312 1609 m -29 X s 312 1632 m -29 X s 312 1652 m -29 X s 312 1669 m -29 X s 312 1684
 m -29 X s 340 1698 m -57 X s
 gsave  2268 1769 0 0 C 238.707 1695.36 t 0 r /Helvetica findfont 46.1139 sf 0 0 m (2) show NC gr 
 gsave  2268 1769 0 0 C 162.755 1665.52 t 0 r /Helvetica findfont 70.5271 sf 0 0 m (10) show NC gr  2177 216 m 1482 Y s 2120 216 m 57 X s 2149 305 m 28 X s 2149 357 m 28 X s 2149 394 m 28 X s 2149 423 m 28 X s 2149 446 m 28 X s 2149 466 m 28 X s 2149
 483 m 28 X s 2149 499 m 28 X s 2120 512 m 57 X s 2149 601 m 28 X s 2149 654 m 28 X s 2149 691 m 28 X s 2149 719 m 28 X s 2149 743 m 28 X s 2149 763 m 28 X s 2149 780 m 28 X s 2149 795 m 28 X s 2120 809 m 57 X s 2149 898 m 28 X s 2149 950 m 28 X s
 2149 987 m 28 X s 2149 1016 m 28 X s 2149 1039 m 28 X s 2149 1059 m 28 X s 2149 1076 m 28 X s 2149 1091 m 28 X s 2120 1105 m 57 X s 2149 1194 m 28 X s 2149 1246 m 28 X s 2149 1283 m 28 X s 2149 1312 m 28 X s 2149 1336 m 28 X s 2149 1356 m 28 X s
 2149 1373 m 28 X s 2149 1388 m 28 X s 2120 1401 m 57 X s 2149 1491 m 28 X s 2149 1543 m 28 X s 2149 1580 m 28 X s 2149 1609 m 28 X s 2149 1632 m 28 X s 2149 1652 m 28 X s 2149 1669 m 28 X s 2149 1684 m 28 X s 2120 1698 m 57 X s
 gsave  2268 1769 0 0 C 1003.65 672.72 t 0 r /Helvetica findfont 70.5271 sf 0 0 m (\)) show NC gr 
 gsave  2268 1769 0 0 C 979.241 705.271 t 0 r /Helvetica findfont 46.1139 sf 0 0 m (2) show NC gr 
 gsave  2268 1769 0 0 C 360.773 672.72 t 0 r /Helvetica findfont 70.5271 sf 0 0 m (PaMeLa \(0.085 T m) show NC gr  0.95 0.95 0.95 c black 284 1254 m 2 -1 d 2 -1 d 2 -2 d 2 -1 d 2 -1 d 2 -1 d 2 -1 d 2 -2 d 1 -1 d 2 -1 d 2 -1 d 2 -1 d 2 -2 d 2 -1 d 2
 -1 d 2 -1 d 2 -1 d 1 -1 d 2 -2 d 2 -1 d 2 -1 d 2 -1 d 2 -1 d 2 -2 d 2 -1 d 2 -1 d 2 -1 d 1 -1 d 2 -1 d 2 -2 d 2 -1 d 2 -1 d 2 -1 d 2 -1 d 2 -2 d 2 -1 d 1 -1 d 2 -1 d 2 -1 d 2 -2 d 2 -1 d 2 -1 d 2 -1 d 2 -1 d 2 -1 d 2 -2 d 1 -1 d 2 -1 d 2 -1 d s 377
 1196 m 2 -1 d 2 -2 d 2 -1 d 2 -1 d 2 -1 d 2 -1 d 1 -2 d 2 -1 d 2 -1 d 2 -1 d 2 -1 d 2 -1 d 2 -2 d 2 -1 d 2 -1 d 1 -1 d 2 -1 d 2 -2 d 2 -1 d 2 -1 d 2 -1 d 2 -1 d 2 -1 d 2 -2 d 2 -1 d 1 -1 d 2 -1 d 2 -1 d 2 -2 d 2 -1 d 2 -1 d 2 -1 d 2 -1 d 2 -2 d 1 -1
 d 2 -1 d 2 -1 d 2 -1 d 2 -1 d 2 -2 d 2 -1 d 2 -1 d 2 -1 d 2 -1 d 1 -2 d 2 -1 d 2 -1 d 2 -1 d 2 -1 d s 470 1138 m 2 -1 d 2 -2 d 2 -1 d 2 -1 d 1 -1 d 2 -1 d 2 -2 d 2 -1 d 2 -1 d 2 -1 d 2 -1 d 2 -2 d 2 -1 d 1 -1 d 2 -1 d 2 -1 d 2 -1 d 2 -2 d 2 -1 d 2
 -1 d 2 -1 d 2 -1 d 2 -2 d 1 -1 d 2 -1 d 2 -1 d 2 -1 d 2 -2 d 2 -1 d 2 -1 d 2 -1 d 2 -1 d 1 -1 d 2 -2 d 2 -1 d 2 -1 d 2 -1 d 2 -1 d 2 -2 d 2 -1 d 2 -1 d 2 -1 d 1 -1 d 2 -1 d 2 -2 d 2 -1 d 2 -1 d 2 -1 d 2 -1 d s 563 1080 m 2 -2 d 2 -1 d 1 -1 d 2 -1 d
 2 -1 d 2 -2 d 2 -1 d 2 -1 d 2 -1 d 2 -1 d 2 -1 d 1 -2 d 2 -1 d 2 -1 d 2 -1 d 2 -1 d 2 -2 d 2 -1 d 2 -1 d 2 -1 d 2 -1 d 1 -1 d 2 -2 d 2 -1 d 2 -1 d 2 -1 d 2 -1 d 2 -2 d 2 -1 d 2 -1 d 1 -1 d 2 -1 d 2 -2 d 2 -1 d 2 -1 d 2 -1 d 2 -1 d 2 -1 d 2 -2 d 2 -1
 d 1 -1 d 2 -1 d 2 -1 d 2 -2 d 2 -1 d 2 -1 d 2 -1 d 2 -1 d 2 -2 d s 656 1021 m 1 -1 d 2 -1 d 2 -1 d 2 -1 d 2 -1 d 2 -2 d 2 -1 d 2 -1 d 2 -1 d 1 -1 d 2 -2 d 2 -1 d 2 -1 d 2 -1 d 2 -1 d 2 -1 d 2 -2 d 2 -1 d 2 -1 d 1 -1 d 2 -1 d 2 -2 d 2 -1 d 2 -1 d 2
 -1 d 2 -1 d 2 -2 d 2 -1 d 1 -1 d 2 -1 d 2 -1 d 2 -1 d 2 -2 d 2 -1 d 2 -1 d 2 -1 d 2 -1 d 2 -2 d 1 -1 d 2 -1 d 2 -1 d 2 -1 d 2 -1 d 2 -2 d 2 -1 d 2 -1 d 2 -1 d 1 -1 d 2 -2 d s 748 963 m 2 -1 d 2 -1 d 2 -1 d 2 -1 d 2 -2 d 2 -1 d 2 -1 d 1 -1 d 2 -1 d 2
 -1 d 2 -2 d 2 -1 d 2 -1 d 2 -1 d 2 -1 d 2 -2 d 2 -1 d 1 -1 d 2 -1 d 2 -1 d 2 -2 d 2 -1 d 2 -1 d 2 -1 d 2 -1 d 2 -1 d 1 -2 d 2 -1 d 2 -1 d 2 -1 d 2 -1 d 2 -2 d 2 -1 d 2 -1 d 2 -1 d 1 -1 d 2 -1 d 2 -2 d 2 -1 d 2 -1 d 2 -1 d 2 -1 d 2 -2 d 2 -1 d 2 -1 d
 1 -1 d 2 -1 d 2 -2 d 2 -1 d s 841 905 m 2 -1 d 2 -1 d 2 -1 d 2 -1 d 2 -2 d 1 -1 d 2 -1 d 2 -1 d 2 -1 d 2 -2 d 2 -1 d 2 -1 d 2 -1 d 2 -1 d 2 -1 d 1 -2 d 2 -1 d 2 -1 d 2 -1 d 2 -1 d 2 -2 d 2 -1 d 2 -1 d 2 -1 d 1 -1 d 2 -2 d 2 -1 d 2 -1 d 2 -1 d 2 -1 d
 2 -1 d 2 -2 d 2 -1 d 1 -1 d 2 -1 d 2 -1 d 2 -2 d 2 -1 d 2 -1 d 2 -1 d 2 -1 d 2 -1 d 2 -2 d 1 -1 d 2 -1 d 2 -1 d 2 -1 d 2 -2 d 2 -1 d s 934 847 m 2 -1 d 2 -1 d 2 -1 d 1 -2 d 2 -1 d 2 -1 d 2 -1 d 2 -1 d 2 -1 d 2 -2 d 2 -1 d 2 -1 d 2 -1 d 1 -1 d 2 -2 d
 2 -1 d 2 -1 d 2 -1 d 2 -1 d 2 -2 d 2 -1 d 2 -1 d 1 -1 d 2 -1 d 2 -1 d 2 -2 d 2 -1 d 2 -1 d 2 -1 d 2 -1 d 2 -2 d 1 -1 d 2 -1 d 2 -1 d 2 -1 d 2 -1 d 2 -2 d 2 -1 d 2 -1 d 2 -1 d 2 -1 d 1 -2 d 2 -1 d 2 -1 d 2 -1 d 2 -1 d 2 -2 d 2 -1 d 2 -1 d s 1027 789
 m 2 -1 d 1 -1 d 2 -1 d 2 -2 d 2 -1 d 2 -1 d 2 -1 d 2 -1 d 2 -2 d 2 -1 d 2 -1 d 1 -1 d 2 -1 d 2 -1 d 2 -2 d 2 -1 d 2 -1 d 2 -1 d 2 -1 d 2 -2 d 1 -1 d 2 -1 d 2 -1 d 2 -1 d 2 -2 d 2 -1 d 2 -1 d 2 -1 d 2 -1 d 1 -1 d 2 -2 d 2 -1 d 2 -1 d 2 -1 d 2 -1 d 2
 -2 d 2 -1 d 2 -1 d 2 -1 d 1 -1 d 2 -2 d 2 -1 d 2 -1 d 2 -1 d 2 -1 d 2 -1 d 2 -2 d 2 -1 d 1 -1 d s 1119 731 m 2 -1 d 2 -1 d 2 -2 d 2 -1 d 2 -1 d 2 -1 d 2 -1 d 2 -1 d 2 -2 d 1 -1 d 2 -1 d 2 -1 d 2 -1 d 2 -2 d 2 -1 d 2 -1 d 2 -1 d 2 -1 d 1 -2 d 2 -1 d
 2 -1 d 2 -1 d 2 -1 d 2 -1 d 2 -2 d 2 -1 d 2 -1 d 1 -1 d 2 -1 d 2 -2 d 2 -1 d 2 -1 d 2 -1 d 2 -1 d 2 -1 d 2 -2 d 2 -1 d 1 -1 d 2 -1 d 2 -1 d 2 -2 d 2 -1 d 2 -1 d 2 -1 d 2 -1 d 2 -2 d 1 -1 d 2 -1 d 2 -1 d s 1212 673 m 2 -1 d 2 -1 d 2 -2 d 2 -1 d 2 -1
 d 2 -1 d 2 -1 d 1 -2 d 2 -1 d 2 -1 d 2 -1 d 2 -1 d 2 -2 d 2 -1 d 2 -1 d 2 -1 d 1 -1 d 2 -1 d 2 -2 d 2 -1 d 2 -1 d 2 -1 d 2 -1 d 2 -2 d 2 -1 d 1 -1 d 2 -1 d 2 -1 d 2 -1 d 2 -2 d 2 -1 d 2 -1 d 2 -1 d 2 -1 d 2 -2 d 1 -1 d 2 -1 d 2 -1 d 2 -1 d 2 -2 d 2
 -1 d 2 -1 d 2 -1 d 2 -1 d 1 -1 d 2 -2 d 2 -1 d 2 -1 d 2 -1 d s 1305 615 m 2 -1 d 2 -2 d 2 -1 d 2 -1 d 2 -1 d 1 -1 d 2 -1 d 2 -2 d 2 -1 d 2 -1 d 2 -1 d 2 -1 d 2 -2 d 2 -1 d 1 -1 d 2 -1 d 2 -1 d 2 -2 d 2 -1 d 2 -1 d 2 -1 d 2 -1 d 2 -1 d 1 -2 d 2 -1 d
 2 -1 d 2 -1 d 2 -1 d 2 -2 d 2 -1 d 2 -1 d 2 -1 d 2 -1 d 1 -2 d 2 -1 d 2 -1 d 2 -1 d 2 -1 d 2 -1 d 2 -2 d 2 -1 d 2 -1 d 1 -1 d 2 -1 d 2 -2 d 2 -1 d 2 -1 d 2 -1 d 2 -1 d s 1398 557 m 2 -1 d 2 -2 d 1 -1 d 2 -1 d 2 -1 d 2 -1 d 2 -2 d 2 -1 d 2 -1 d 2 -1
 d 2 -1 d 2 -2 d 1 -1 d 2 -1 d 2 -1 d 2 -1 d 2 -1 d 2 -2 d 2 -1 d 2 -1 d 2 -1 d 1 -1 d 2 -2 d 2 -1 d 2 -1 d 2 -1 d 2 -1 d 2 -1 d 2 -2 d 2 -1 d 2 -1 d 1 -1 d 2 -1 d 2 -2 d 2 -1 d 2 -1 d 2 -1 d 2 -1 d 2 -2 d 2 -1 d 1 -1 d 2 -1 d 2 -1 d 2 -1 d 2 -2 d 2
 -1 d 2 -1 d 2 -1 d 2 -1 d s 1491 499 m 1 -2 d 2 -1 d 2 -1 d 2 -1 d 2 -1 d 2 -1 d 2 -2 d 2 -1 d 2 -1 d 2 -1 d 1 -1 d 2 -2 d 2 -1 d 2 -1 d 2 -1 d 2 -1 d 2 -2 d 2 -1 d 2 -1 d 1 -1 d 2 -1 d 2 -1 d 2 -2 d 2 -1 d 2 -1 d 2 -1 d 2 -1 d 2 -2 d 2 -1 d 1 -1 d
 2 -1 d 2 -1 d 2 -2 d 2 -1 d 2 -1 d 2 -1 d 2 -1 d 2 -1 d 1 -2 d 2 -1 d 2 -1 d 2 -1 d 2 -1 d 2 -2 d 2 -1 d 2 -1 d 2 -1 d 1 -1 d 2 -1 d s 1583 441 m 2 -2 d 2 -1 d 2 -1 d 2 -1 d 2 -1 d 2 -2 d 2 -1 d 2 -1 d 1 -1 d 2 -1 d 2 -2 d 2 -1 d 2 -1 d 2 -1 d 2 -1
 d 2 -1 d 2 -2 d 1 -1 d 2 -1 d 2 -1 d 2 -1 d 2 -2 d 2 -1 d 2 -1 d 2 -1 d 2 -1 d 2 -1 d 1 -2 d 2 -1 d 2 -1 d 2 -1 d 2 -1 d 2 -2 d 2 -1 d 2 -1 d 2 -1 d 1 -1 d 2 -2 d 2 -1 d 2 -1 d 2 -1 d 2 -1 d 2 -1 d 2 -2 d 2 -1 d 1 -1 d 2 -1 d 2 -1 d 2 -2 d s 1676
 382 m 2 -1 d 2 -1 d 2 -1 d 2 -1 d 2 -2 d 2 -1 d 1 -1 d 2 -1 d 2 -1 d 2 -1 d 2 -2 d 2 -1 d 2 -1 d 2 -1 d 2 -1 d 1 -2 d 2 -1 d 2 -1 d 2 -1 d 2 -1 d 2 -1 d 2 -2 d 2 -1 d 2 -1 d 2 -1 d 1 -1 d 2 -2 d 2 -1 d 2 -1 d 2 -1 d 2 -1 d 2 -2 d 2 -1 d 2 -1 d 1 -1
 d 2 -1 d 2 -1 d 2 -2 d 2 -1 d 2 -1 d 2 -1 d 2 -1 d 2 -2 d 1 -1 d 2 -1 d 2 -1 d 2 -1 d 2 -1 d 2 -2 d s 1769 324 m 2 -1 d 2 -1 d 2 -1 d 2 -1 d 1 -2 d 2 -1 d 2 -1 d 2 -1 d 2 -1 d 2 -2 d 2 -1 d 2 -1 d 2 -1 d 1 -1 d 2 -1 d 2 -2 d 2 -1 d 2 -1 d 2 -1 d 2
 -1 d 2 -2 d 2 -1 d 2 -1 d 1 -1 d 2 -1 d 2 -2 d 2 -1 d 2 -1 d 2 -1 d 2 -1 d 2 -1 d 2 -2 d 1 -1 d 2 -1 d 2 -1 d 2 -1 d 2 -2 d 2 -1 d 2 -1 d 2 -1 d 2 -1 d 1 -1 d 2 -2 d 2 -1 d 2 -1 d 2 -1 d 2 -1 d 2 -2 d 2 -1 d s 1862 266 m 2 -1 d 2 -1 d 1 -1 d 2 -2 d
 2 -1 d 2 -1 d 2 -1 d 2 -1 d 2 -1 d 2 -2 d 2 -1 d 1 -1 d 2 -1 d 2 -1 d 2 -2 d 2 -1 d 2 -1 d 2 -1 d 2 -1 d 2 -1 d 1 -2 d 2 -1 d 2 -1 d 2 -1 d 2 -1 d 2 -2 d 2 -1 d 2 -1 d 2 -1 d 2 -1 d 1 -2 d 2 -1 d 2 -1 d 2 -1 d 2 -1 d 2 -1 d 2 -2 d 2 -1 d 2 -1 d 1 -1
 d 2 -1 d 2 -2 d 2 X s 0.95 0.95 0.95 c black 284 1552 m 2 -2 d 2 -1 d 2 -1 d 2 -1 d 2 -1 d 2 -2 d 2 -1 d 2 -1 d 1 -1 d 2 -1 d 2 -1 d 2 -2 d 2 -1 d 2 -1 d 2 -1 d 2 -1 d 2 -2 d 1 -1 d 2 -1 d 2 -1 d 2 -1 d 2 -2 d 2 -1 d 2 -1 d 2 -1 d 2 -1 d 2 -1 d 1 -2
 d 2 -1 d 2 -1 d 2 -1 d 2 -1 d 2 -2 d 2 -1 d 2 -1 d 2 -1 d 1 -1 d 2 -1 d 2 -2 d 2 -1 d 2 -1 d 2 -1 d 2 -1 d 2 -2 d 2 -1 d 2 -1 d 1 -1 d 2 -1 d 2 -2 d s 377 1493 m 2 -1 d 2 -1 d 2 -1 d 2 -1 d 2 -1 d 2 -2 d 1 -1 d 2 -1 d 2 -1 d 2 -1 d 2 -2 d 2 -1 d 2
 -1 d 2 -1 d 2 -1 d 1 -1 d 2 -2 d 2 -1 d 2 -1 d 2 -1 d 2 -1 d 2 -2 d 2 -1 d 2 -1 d 2 -1 d 1 -1 d 2 -2 d 2 -1 d 2 -1 d 2 -1 d 2 -1 d 2 -1 d 2 -2 d 2 -1 d 1 -1 d 2 -1 d 2 -1 d 2 -2 d 2 -1 d 2 -1 d 2 -1 d 2 -1 d 2 -1 d 2 -2 d 1 -1 d 2 -1 d 2 -1 d 2 -1 d
 2 -2 d s 470 1435 m 2 -1 d 2 -1 d 2 -1 d 2 -1 d 1 -2 d 2 -1 d 2 -1 d 2 -1 d 2 -1 d 2 -1 d 2 -2 d 2 -1 d 2 -1 d 1 -1 d 2 -1 d 2 -2 d 2 -1 d 2 -1 d 2 -1 d 2 -1 d 2 -2 d 2 -1 d 2 -1 d 1 -1 d 2 -1 d 2 -1 d 2 -2 d 2 -1 d 2 -1 d 2 -1 d 2 -1 d 2 -2 d 1 -1
 d 2 -1 d 2 -1 d 2 -1 d 2 -1 d 2 -2 d 2 -1 d 2 -1 d 2 -1 d 2 -1 d 1 -2 d 2 -1 d 2 -1 d 2 -1 d 2 -1 d 2 -2 d 2 -1 d s 563 1377 m 2 -1 d 2 -1 d 1 -1 d 2 -1 d 2 -2 d 2 -1 d 2 -1 d 2 -1 d 2 -1 d 2 -2 d 2 -1 d 1 -1 d 2 -1 d 2 -1 d 2 -1 d 2 -2 d 2 -1 d 2
 -1 d 2 -1 d 2 -1 d 2 -2 d 1 -1 d 2 -1 d 2 -1 d 2 -1 d 2 -2 d 2 -1 d 2 -1 d 2 -1 d 2 -1 d 1 -1 d 2 -2 d 2 -1 d 2 -1 d 2 -1 d 2 -1 d 2 -2 d 2 -1 d 2 -1 d 2 -1 d 1 -1 d 2 -2 d 2 -1 d 2 -1 d 2 -1 d 2 -1 d 2 -1 d 2 -2 d 2 -1 d s 656 1319 m 1 -1 d 2 -1 d
 2 -1 d 2 -2 d 2 -1 d 2 -1 d 2 -1 d 2 -1 d 2 -1 d 1 -2 d 2 -1 d 2 -1 d 2 -1 d 2 -1 d 2 -2 d 2 -1 d 2 -1 d 2 -1 d 2 -1 d 1 -2 d 2 -1 d 2 -1 d 2 -1 d 2 -1 d 2 -1 d 2 -2 d 2 -1 d 2 -1 d 1 -1 d 2 -1 d 2 -2 d 2 -1 d 2 -1 d 2 -1 d 2 -1 d 2 -1 d 2 -2 d 2 -1
 d 1 -1 d 2 -1 d 2 -1 d 2 -2 d 2 -1 d 2 -1 d 2 -1 d 2 -1 d 2 -2 d 1 -1 d 2 -1 d s 748 1261 m 2 -1 d 2 -1 d 2 -1 d 2 -2 d 2 -1 d 2 -1 d 2 -1 d 1 -1 d 2 -2 d 2 -1 d 2 -1 d 2 -1 d 2 -1 d 2 -2 d 2 -1 d 2 -1 d 2 -1 d 1 -1 d 2 -1 d 2 -2 d 2 -1 d 2 -1 d 2
 -1 d 2 -1 d 2 -2 d 2 -1 d 1 -1 d 2 -1 d 2 -1 d 2 -1 d 2 -2 d 2 -1 d 2 -1 d 2 -1 d 2 -1 d 1 -2 d 2 -1 d 2 -1 d 2 -1 d 2 -1 d 2 -2 d 2 -1 d 2 -1 d 2 -1 d 2 -1 d 1 -1 d 2 -2 d 2 -1 d 2 -1 d s 841 1203 m 2 -1 d 2 -1 d 2 -2 d 2 -1 d 2 -1 d 1 -1 d 2 -1 d
 2 -1 d 2 -2 d 2 -1 d 2 -1 d 2 -1 d 2 -1 d 2 -2 d 2 -1 d 1 -1 d 2 -1 d 2 -1 d 2 -2 d 2 -1 d 2 -1 d 2 -1 d 2 -1 d 2 -1 d 1 -2 d 2 -1 d 2 -1 d 2 -1 d 2 -1 d 2 -2 d 2 -1 d 2 -1 d 2 -1 d 1 -1 d 2 -2 d 2 -1 d 2 -1 d 2 -1 d 2 -1 d 2 -1 d 2 -2 d 2 -1 d 2 -1
 d 1 -1 d 2 -1 d 2 -2 d 2 -1 d 2 -1 d 2 -1 d s 934 1145 m 2 -1 d 2 -1 d 2 -2 d 1 -1 d 2 -1 d 2 -1 d 2 -1 d 2 -2 d 2 -1 d 2 -1 d 2 -1 d 2 -1 d 2 -2 d 1 -1 d 2 -1 d 2 -1 d 2 -1 d 2 -1 d 2 -2 d 2 -1 d 2 -1 d 2 -1 d 1 -1 d 2 -2 d 2 -1 d 2 -1 d 2 -1 d 2
 -1 d 2 -1 d 2 -2 d 2 -1 d 1 -1 d 2 -1 d 2 -1 d 2 -2 d 2 -1 d 2 -1 d 2 -1 d 2 -1 d 2 -2 d 2 -1 d 1 -1 d 2 -1 d 2 -1 d 2 -1 d 2 -2 d 2 -1 d 2 -1 d 2 -1 d s 1027 1087 m 2 -1 d 1 -2 d 2 -1 d 2 -1 d 2 -1 d 2 -1 d 2 -1 d 2 -2 d 2 -1 d 2 -1 d 2 -1 d 1 -1 d
 2 -2 d 2 -1 d 2 -1 d 2 -1 d 2 -1 d 2 -2 d 2 -1 d 2 -1 d 1 -1 d 2 -1 d 2 -1 d 2 -2 d 2 -1 d 2 -1 d 2 -1 d 2 -1 d 2 -2 d 1 -1 d 2 -1 d 2 -1 d 2 -1 d 2 -2 d 2 -1 d 2 -1 d 2 -1 d 2 -1 d 2 -1 d 1 -2 d 2 -1 d 2 -1 d 2 -1 d 2 -1 d 2 -2 d 2 -1 d 2 -1 d 2 -1
 d 1 -1 d s 1119 1029 m 2 -1 d 2 -2 d 2 -1 d 2 -1 d 2 -1 d 2 -1 d 2 -2 d 2 -1 d 2 -1 d 1 -1 d 2 -1 d 2 -2 d 2 -1 d 2 -1 d 2 -1 d 2 -1 d 2 -1 d 2 -2 d 1 -1 d 2 -1 d 2 -1 d 2 -1 d 2 -2 d 2 -1 d 2 -1 d 2 -1 d 2 -1 d 1 -1 d 2 -2 d 2 -1 d 2 -1 d 2 -1 d 2
 -1 d 2 -2 d 2 -1 d 2 -1 d 2 -1 d 1 -1 d 2 -2 d 2 -1 d 2 -1 d 2 -1 d 2 -1 d 2 -1 d 2 -2 d 2 -1 d 1 -1 d 2 -1 d 2 -1 d s 1212 971 m 2 -2 d 2 -1 d 2 -1 d 2 -1 d 2 -1 d 2 -2 d 2 -1 d 1 -1 d 2 -1 d 2 -1 d 2 -1 d 2 -2 d 2 -1 d 2 -1 d 2 -1 d 2 -1 d 1 -2 d
 2 -1 d 2 -1 d 2 -1 d 2 -1 d 2 -1 d 2 -2 d 2 -1 d 2 -1 d 1 -1 d 2 -1 d 2 -2 d 2 -1 d 2 -1 d 2 -1 d 2 -1 d 2 -2 d 2 -1 d 2 -1 d 1 -1 d 2 -1 d 2 -1 d 2 -2 d 2 -1 d 2 -1 d 2 -1 d 2 -1 d 2 -2 d 1 -1 d 2 -1 d 2 -1 d 2 -1 d 2 -1 d s 1305 913 m 2 -2 d 2 -1
 d 2 -1 d 2 -1 d 2 -1 d 1 -2 d 2 -1 d 2 -1 d 2 -1 d 2 -1 d 2 -2 d 2 -1 d 2 -1 d 2 -1 d 1 -1 d 2 -1 d 2 -2 d 2 -1 d 2 -1 d 2 -1 d 2 -1 d 2 -2 d 2 -1 d 1 -1 d 2 -1 d 2 -1 d 2 -2 d 2 -1 d 2 -1 d 2 -1 d 2 -1 d 2 -1 d 2 -2 d 1 -1 d 2 -1 d 2 -1 d 2 -1 d 2
 -2 d 2 -1 d 2 -1 d 2 -1 d 2 -1 d 1 -1 d 2 -2 d 2 -1 d 2 -1 d 2 -1 d 2 -1 d 2 -2 d s 1398 854 m 2 -1 d 2 -1 d 1 -1 d 2 -1 d 2 -2 d 2 -1 d 2 -1 d 2 -1 d 2 -1 d 2 -1 d 2 -2 d 2 -1 d 1 -1 d 2 -1 d 2 -1 d 2 -2 d 2 -1 d 2 -1 d 2 -1 d 2 -1 d 2 -1 d 1 -2 d
 2 -1 d 2 -1 d 2 -1 d 2 -1 d 2 -2 d 2 -1 d 2 -1 d 2 -1 d 2 -1 d 1 -2 d 2 -1 d 2 -1 d 2 -1 d 2 -1 d 2 -1 d 2 -2 d 2 -1 d 2 -1 d 1 -1 d 2 -1 d 2 -2 d 2 -1 d 2 -1 d 2 -1 d 2 -1 d 2 -2 d 2 -1 d s 1491 796 m 1 -1 d 2 -1 d 2 -1 d 2 -1 d 2 -2 d 2 -1 d 2 -1
 d 2 -1 d 2 -1 d 2 -2 d 1 -1 d 2 -1 d 2 -1 d 2 -1 d 2 -1 d 2 -2 d 2 -1 d 2 -1 d 2 -1 d 1 -1 d 2 -2 d 2 -1 d 2 -1 d 2 -1 d 2 -1 d 2 -2 d 2 -1 d 2 -1 d 2 -1 d 1 -1 d 2 -1 d 2 -2 d 2 -1 d 2 -1 d 2 -1 d 2 -1 d 2 -2 d 2 -1 d 1 -1 d 2 -1 d 2 -1 d 2 -1 d 2
 -2 d 2 -1 d 2 -1 d 2 -1 d 2 -1 d 1 -2 d 2 -1 d s 1583 738 m 2 -1 d 2 -1 d 2 -1 d 2 -2 d 2 -1 d 2 -1 d 2 -1 d 2 -1 d 1 -1 d 2 -2 d 2 -1 d 2 -1 d 2 -1 d 2 -1 d 2 -2 d 2 -1 d 2 -1 d 1 -1 d 2 -1 d 2 -2 d 2 -1 d 2 -1 d 2 -1 d 2 -1 d 2 -1 d 2 -2 d 2 -1 d
 1 -1 d 2 -1 d 2 -1 d 2 -2 d 2 -1 d 2 -1 d 2 -1 d 2 -1 d 2 -1 d 1 -2 d 2 -1 d 2 -1 d 2 -1 d 2 -1 d 2 -2 d 2 -1 d 2 -1 d 2 -1 d 1 -1 d 2 -2 d 2 -1 d 2 -1 d s 1676 680 m 2 -1 d 2 -1 d 2 -1 d 2 -2 d 2 -1 d 2 -1 d 1 -1 d 2 -1 d 2 -2 d 2 -1 d 2 -1 d 2 -1
 d 2 -1 d 2 -1 d 2 -2 d 1 -1 d 2 -1 d 2 -1 d 2 -1 d 2 -2 d 2 -1 d 2 -1 d 2 -1 d 2 -1 d 2 -2 d 1 -1 d 2 -1 d 2 -1 d 2 -1 d 2 -1 d 2 -2 d 2 -1 d 2 -1 d 2 -1 d 1 -1 d 2 -2 d 2 -1 d 2 -1 d 2 -1 d 2 -1 d 2 -1 d 2 -2 d 2 -1 d 1 -1 d 2 -1 d 2 -1 d 2 -2 d 2
 -1 d 2 -1 d s 1769 622 m 2 -1 d 2 -1 d 2 -2 d 2 -1 d 1 -1 d 2 -1 d 2 -1 d 2 -1 d 2 -2 d 2 -1 d 2 -1 d 2 -1 d 2 -1 d 1 -2 d 2 -1 d 2 -1 d 2 -1 d 2 -1 d 2 -2 d 2 -1 d 2 -1 d 2 -1 d 2 -1 d 1 -1 d 2 -2 d 2 -1 d 2 -1 d 2 -1 d 2 -1 d 2 -2 d 2 -1 d 2 -1 d
 1 -1 d 2 -1 d 2 -1 d 2 -2 d 2 -1 d 2 -1 d 2 -1 d 2 -1 d 2 -2 d 1 -1 d 2 -1 d 2 -1 d 2 -1 d 2 -2 d 2 -1 d 2 -1 d 2 -1 d s 1862 564 m 2 -1 d 2 -1 d 1 -2 d 2 -1 d 2 -1 d 2 -1 d 2 -1 d 2 -2 d 2 -1 d 2 -1 d 2 -1 d 1 -1 d 2 -1 d 2 -2 d 2 -1 d 2 -1 d 2 -1
 d 2 -1 d 2 -2 d 2 -1 d 1 -1 d 2 -1 d 2 -1 d 2 -2 d 2 -1 d 2 -1 d 2 -1 d 2 -1 d 2 -1 d 2 -2 d 1 -1 d 2 -1 d 2 -1 d 2 -1 d 2 -2 d 2 -1 d 2 -1 d 2 -1 d 2 -1 d 1 -2 d 2 -1 d 2 -1 d 2 -1 d 2 -1 d 2 -1 d 2 -2 d 2 -1 d 2 -1 d 2 -1 d s 1955 506 m 1 -1 d 2
 -2 d 2 -1 d 2 -1 d 2 -1 d 2 -1 d 2 -1 d 2 -2 d 2 -1 d 1 -1 d 2 -1 d 2 -1 d 2 -2 d 2 -1 d 2 -1 d 2 -1 d 2 -1 d 2 -2 d 1 -1 d 2 -1 d 2 -1 d 2 -1 d 2 -1 d 2 -2 d 2 -1 d 2 -1 d 2 -1 d 2 -1 d 1 -2 d 2 -1 d 2 -1 d 2 -1 d 2 -1 d 2 -1 d 2 -2 d 2 -1 d 2 -1 d
 1 -1 d 2 -1 d 2 -2 d 2 -1 d 2 -1 d 2 -1 d 2 -1 d 2 -2 d 2 -1 d 2 -1 d 1 -1 d 2 -1 d s 2047 448 m 2 -1 d 2 -2 d 2 -1 d 2 -1 d 2 -1 d 2 -1 d 2 -2 d 1 -1 d 2 -1 d 2 -1 d 2 -1 d 2 -2 d 2 -1 d 2 -1 d 2 -1 d 2 -1 d 1 -1 d 2 -2 d 2 -1 d 2 -1 d 2 -1 d 2 -1
 d 2 -2 d 2 -1 d 2 -1 d 2 -1 d 1 -1 d 2 -1 d 2 -2 d 2 -1 d 2 -1 d 2 -1 d 2 -1 d 2 -2 d 2 -1 d 1 -1 d 2 -1 d 2 -1 d 2 -2 d 2 -1 d 2 -1 d 2 -1 d 2 -1 d 2 -1 d 2 -2 d 1 -1 d 2 -1 d 2 -1 d 2 -1 d s 2140 390 m 2 -2 d 2 -1 d 2 -1 d 2 -1 d 2 -1 d 1 -1 d 2
 -2 d 2 -1 d 2 -1 d 2 -1 d 2 -1 d 2 -2 d 2 -1 d 2 -1 d 1 -1 d 2 -1 d 2 -2 d 2 -1 d 2 -1 d s
 gsave  2268 1769 0 0 C 1942.21 1326.45 t 0 r /Helvetica findfont 70.5271 sf 0 0 m (\)) show NC gr 
 gsave  2268 1769 0 0 C 1917.79 1359 t 0 r /Helvetica findfont 46.1139 sf 0 0 m (2) show NC gr 
 gsave  2268 1769 0 0 C 813.774 1326.45 t 0 r /Helvetica findfont 70.5271 sf 0 0 m (AMS\25502 superconductive \(0.86 T m) show NC gr 
 gr  gr showpage
end
%%EOF
