%!PS-Adobe-2.0 EPSF-2.0
%%BoundingBox:  0 0 567 442
%%Title: shower_containment.eps: shower_containment
%%Creator: ROOT Version 5.34/14
%%CreationDate: Fri Jan 31 22:18:49 2014
%%EndComments
%%BeginProlog
80 dict begin
/s {stroke} def /l {lineto} def /m {moveto} def /t {translate} def
/r {rotate} def /rl {roll}  def /R {repeat} def
/d {rlineto} def /rm {rmoveto} def /gr {grestore} def /f {eofill} def
/c {setrgbcolor} def /black {0 setgray} def /sd {setdash} def
/cl {closepath} def /sf {scalefont setfont} def /lw {setlinewidth} def
/box {m dup 0 exch d exch 0 d 0 exch neg d cl} def
/NC{systemdict begin initclip end}def/C{NC box clip newpath}def
/bl {box s} def /bf {box f} def /Y { 0 exch d} def /X { 0 d} def 
/K {{pop pop 0 moveto} exch kshow} bind def
/ita {/ang 15 def gsave [1 0 ang dup sin exch cos div 1 0 0] concat} def 
/mp {newpath /y exch def /x exch def} def
/side {[w .77 mul w .23 mul] .385 w mul sd w 0 l currentpoint t -144 r} def
/mr {mp x y w2 0 360 arc} def /m24 {mr s} def /m20 {mr f} def
/mb {mp x y w2 add m w2 neg 0 d 0 w neg d w 0 d 0 w d cl} def
/mt {mp x y w2 add m w2 neg w neg d w 0 d cl} def
/m21 {mb f} def /m25 {mb s} def /m22 {mt f} def /m26{mt s} def
/m23 {mp x y w2 sub m w2 w d w neg 0 d cl f} def
/m27 {mp x y w2 add m w3 neg w2 neg d w3 w2 neg d w3 w2 d cl s} def
/m28 {mp x w2 sub y w2 sub w3 add m w3 0 d  0 w3 neg d w3 0 d 0 w3 d w3 0 d  0 w3 d w3 neg 0 d 0 w3 d w3 neg 0 d 0 w3 neg d w3 neg 0 d cl s } def
/m29 {mp gsave x w2 sub y w2 add w3 sub m currentpoint t 4 {side} repeat cl fill gr} def
/m30 {mp gsave x w2 sub y w2 add w3 sub m currentpoint t 4 {side} repeat cl s gr} def
/m31 {mp x y w2 sub m 0 w d x w2 sub y m w 0 d x w2 sub y w2 add m w w neg d x w2 sub y w2 sub m w w d s} def
/m32 {mp x y w2 sub m w2 w d w neg 0 d cl s} def
/m33 {mp x y w2 add m w3 neg w2 neg d w3 w2 neg d w3 w2 d cl f} def
/m34 {mp x w2 sub y w2 sub w3 add m w3 0 d  0 w3 neg d w3 0 d 0 w3 d w3 0 d  0 w3 d w3 neg 0 d 0 w3 d w3 neg 0 d 0 w3 neg d w3 neg 0 d cl f } def
/m2 {mp x y w2 sub m 0 w d x w2 sub y m w 0 d s} def
/m5 {mp x w2 sub y w2 sub m w w d x w2 sub y w2 add m w w neg d s} def
/reEncode {exch findfont dup length dict begin {1 index /FID eq  {pop pop} {def} ifelse } forall /Encoding exch def currentdict end dup /FontName get exch definefont pop } def [/Times-Bold /Times-Italic /Times-BoldItalic /Helvetica /Helvetica-Oblique
 /Helvetica-Bold /Helvetica-BoldOblique /Courier /Courier-Oblique /Courier-Bold /Courier-BoldOblique /Times-Roman /AvantGarde-Book /AvantGarde-BookOblique /AvantGarde-Demi /AvantGarde-DemiOblique /Bookman-Demi /Bookman-DemiItalic /Bookman-Light
 /Bookman-LightItalic /Helvetica-Narrow /Helvetica-Narrow-Bold /Helvetica-Narrow-BoldOblique /Helvetica-Narrow-Oblique /NewCenturySchlbk-Roman /NewCenturySchlbk-Bold /NewCenturySchlbk-BoldItalic /NewCenturySchlbk-Italic /Palatino-Bold
 /Palatino-BoldItalic /Palatino-Italic /Palatino-Roman ] {ISOLatin1Encoding reEncode } forall
%%EndProlog
%%BeginSetup
%%EndSetup
newpath  gsave  .25 .25 scale  gsave  0 0 t black[  ] 0 sd 6 lw 1 1 1 c 2268 1769 0 0 bf black 3 lw 1 1 1 c 1894 1486 283 212 bf black 1894 1486 283 212 bl 1 1 1 c 1894 1486 283 212 bf black 1894 1486 283 212 bl 6 lw 283 212 m 1894 X s 0.6 0.6 0.6 c[
 12 12] 0 sd 3 lw 283 1698 m -1486 Y s 599 1698 m -1486 Y s 914 1698 m -1486 Y s 1229 1698 m -1486 Y s 1545 1698 m -1486 Y s 1860 1698 m -1486 Y s 2175 1698 m -1486 Y s 2175 1698 m -1486 Y s black[  ] 0 sd 6 lw 283 1698 m 1894 X s 283 212 m 1486 Y s
 0.6 0.6 0.6 c[ 12 12] 0 sd 3 lw 2177 212 m -1894 X s 2177 482 m -1894 X s 2177 752 m -1894 X s 2177 1023 m -1894 X s 2177 1293 m -1894 X s 2177 1563 m -1894 X s 2177 1563 m -1894 X s black[  ] 0 sd 6 lw 2177 212 m 1486 Y s 283 212 m 1894 X s
 gsave  2268 1769 0 0 C 2156.5 37.9761 t 0 r /Helvetica findfont 78.6648 sf 0 0 m (]) show NC gr 
 gsave  2268 1769 0 0 C 2129.38 -5.42516 t 0 r /Helvetica findfont 51.539 sf 0 0 m (0) show NC gr 
 gsave  2268 1769 0 0 C 2012.73 37.9761 t 0 r /Helvetica findfont 78.6648 sf 0 0 m (t [X) show NC gr  283 257 m -45 Y s 347 234 m -22 Y s 410 234 m -22 Y s 473 234 m -22 Y s 536 234 m -22 Y s 599 257 m -45 Y s 662 234 m -22 Y s 725 234 m -22 Y s 788
 234 m -22 Y s 851 234 m -22 Y s 914 257 m -45 Y s 977 234 m -22 Y s 1040 234 m -22 Y s 1103 234 m -22 Y s 1166 234 m -22 Y s 1229 257 m -45 Y s 1292 234 m -22 Y s 1355 234 m -22 Y s 1418 234 m -22 Y s 1482 234 m -22 Y s 1545 257 m -45 Y s 1608 234 m
 -22 Y s 1671 234 m -22 Y s 1734 234 m -22 Y s 1797 234 m -22 Y s 1860 257 m -45 Y s 1923 234 m -22 Y s 1986 234 m -22 Y s 2049 234 m -22 Y s 2112 234 m -22 Y s 2175 257 m -45 Y s 2175 257 m -45 Y s
 gsave  2268 1769 0 0 C 263.12 143.767 t 0 r /Helvetica findfont 70.5271 sf 0 0 m (0) show NC gr 
 gsave  2268 1769 0 0 C 577.779 143.767 t 0 r /Helvetica findfont 70.5271 sf 0 0 m (5) show NC gr 
 gsave  2268 1769 0 0 C 873.451 143.767 t 0 r /Helvetica findfont 70.5271 sf 0 0 m (10) show NC gr 
 gsave  2268 1769 0 0 C 1190.82 143.767 t 0 r /Helvetica findfont 70.5271 sf 0 0 m (15) show NC gr 
 gsave  2268 1769 0 0 C 1505.48 143.767 t 0 r /Helvetica findfont 70.5271 sf 0 0 m (20) show NC gr 
 gsave  2268 1769 0 0 C 1820.14 143.767 t 0 r /Helvetica findfont 70.5271 sf 0 0 m (25) show NC gr 
 gsave  2268 1769 0 0 C 2134.8 143.767 t 0 r /Helvetica findfont 70.5271 sf 0 0 m (30) show NC gr  283 1698 m 1894 X s 283 1654 m 44 Y s 347 1676 m 22 Y s 410 1676 m 22 Y s 473 1676 m 22 Y s 536 1676 m 22 Y s 599 1654 m 44 Y s 662 1676 m 22 Y s 725
 1676 m 22 Y s 788 1676 m 22 Y s 851 1676 m 22 Y s 914 1654 m 44 Y s 977 1676 m 22 Y s 1040 1676 m 22 Y s 1103 1676 m 22 Y s 1166 1676 m 22 Y s 1229 1654 m 44 Y s 1292 1676 m 22 Y s 1355 1676 m 22 Y s 1418 1676 m 22 Y s 1482 1676 m 22 Y s 1545 1654 m
 44 Y s 1608 1676 m 22 Y s 1671 1676 m 22 Y s 1734 1676 m 22 Y s 1797 1676 m 22 Y s 1860 1654 m 44 Y s 1923 1676 m 22 Y s 1986 1676 m 22 Y s 2049 1676 m 22 Y s 2112 1676 m 22 Y s 2175 1654 m 44 Y s 2175 1654 m 44 Y s 283 212 m 1486 Y s
 gsave  2268 1769 0 0 C 92.2277 981.954 t 90 r /Helvetica findfont 78.6648 sf 0 0 m (Shower containment) show NC gr  341 212 m -58 X s 312 280 m -29 X s 312 347 m -29 X s 312 415 m -29 X s 341 482 m -58 X s 312 550 m -29 X s 312 617 m -29 X s 312 685
 m -29 X s 341 752 m -58 X s 312 820 m -29 X s 312 888 m -29 X s 312 955 m -29 X s 341 1023 m -58 X s 312 1090 m -29 X s 312 1158 m -29 X s 312 1225 m -29 X s 341 1293 m -58 X s 312 1360 m -29 X s 312 1428 m -29 X s 312 1495 m -29 X s 341 1563 m -58
 X s 341 1563 m -58 X s 312 1630 m -29 X s
 gsave  2268 1769 0 0 C 233.282 187.168 t 0 r /Helvetica findfont 70.5271 sf 0 0 m (0) show NC gr 
 gsave  2268 1769 0 0 C 176.318 455.713 t 0 r /Helvetica findfont 70.5271 sf 0 0 m (0.2) show NC gr 
 gsave  2268 1769 0 0 C 173.605 726.971 t 0 r /Helvetica findfont 70.5271 sf 0 0 m (0.4) show NC gr 
 gsave  2268 1769 0 0 C 173.605 995.517 t 0 r /Helvetica findfont 70.5271 sf 0 0 m (0.6) show NC gr 
 gsave  2268 1769 0 0 C 173.605 1266.77 t 0 r /Helvetica findfont 70.5271 sf 0 0 m (0.8) show NC gr 
 gsave  2268 1769 0 0 C 244.132 1538.03 t 0 r /Helvetica findfont 70.5271 sf 0 0 m (1) show NC gr  2177 212 m 1486 Y s 2120 212 m 57 X s 2148 280 m 29 X s 2148 347 m 29 X s 2148 415 m 29 X s 2120 482 m 57 X s 2148 550 m 29 X s 2148 617 m 29 X s 2148
 685 m 29 X s 2120 752 m 57 X s 2148 820 m 29 X s 2148 888 m 29 X s 2148 955 m 29 X s 2120 1023 m 57 X s 2148 1090 m 29 X s 2148 1158 m 29 X s 2148 1225 m 29 X s 2120 1293 m 57 X s 2148 1360 m 29 X s 2148 1428 m 29 X s 2148 1495 m 29 X s 2120 1563 m
 57 X s 2120 1563 m 57 X s 2148 1630 m 29 X s 1 1 1 c black 283 212 m 20 1 d 19 4 d 16 7 d 3 2 d 15 12 d 4 4 d 15 17 d 4 5 d 15 23 d 4 6 d 16 30 d 3 6 d 19 41 d 19 45 d 20 49 d 19 51 d 19 54 d 19 54 d 19 55 d 19 54 d 19 54 d 19 53 d 19 50 d 20 49 d
 19 47 d 19 45 d 19 42 d 19 40 d 19 38 d 19 35 d 19 32 d 19 31 d 19 28 d 20 26 d 19 24 d 19 22 d 19 20 d 19 19 d 19 17 d 19 16 d 19 14 d 19 13 d 20 11 d 19 11 d 19 10 d 19 8 d 19 8 d 19 7 d 19 7 d 19 5 d 19 6 d 20 4 d 19 4 d 19 4 d 19 3 d 19 3 d 19 3
 d 19 3 d 19 2 d 19 2 d 19 1 d 20 2 d 19 1 d 19 1 d 19 1 d 19 1 d 19 1 d 19 1 d 19 1 d 19 X 20 1 d 19 X 19 1 d 38 X 19 1 d 57 X 20 1 d 191 X 19 1 d 248 X s 1 1 1 c black 283 212 m 39 X 19 1 d 19 2 d 19 4 d 19 7 d 19 9 d 19 13 d 19 16 d 20 20 d 19 24
 d 19 27 d 19 31 d 19 34 d 19 36 d 19 39 d 19 41 d 19 42 d 20 43 d 19 44 d 19 44 d 19 45 d 19 44 d 19 44 d 19 43 d 19 41 d 19 41 d 19 39 d 20 38 d 19 37 d 19 34 d 19 34 d 19 31 d 19 30 d 19 28 d 19 27 d 19 24 d 20 24 d 19 22 d 19 20 d 19 19 d 19 18 d
 19 16 d 19 15 d 19 14 d 19 13 d 20 12 d 19 11 d 19 10 d 19 9 d 19 8 d 19 8 d 19 7 d 19 7 d 19 5 d 19 6 d 20 5 d 19 4 d 19 4 d 19 4 d 19 3 d 19 3 d 19 3 d 19 2 d 19 2 d 20 2 d 19 2 d 19 2 d 19 1 d 19 2 d 19 1 d 19 1 d 19 1 d 19 1 d 20 X 19 1 d 19 1 d
 19 X 19 1 d 19 X 19 1 d 38 X 20 1 d 76 X 19 1 d 191 X s 1 1 1 c black 283 212 m 77 X 19 1 d 19 1 d 19 2 d 19 2 d 19 5 d 20 5 d 19 8 d 19 10 d 19 12 d 19 14 d 19 17 d 19 20 d 19 22 d 19 24 d 20 27 d 19 28 d 19 31 d 19 33 d 19 34 d 19 35 d 19 37 d 19
 37 d 19 38 d 19 38 d 20 38 d 19 39 d 19 38 d 19 37 d 19 38 d 19 36 d 19 35 d 19 35 d 19 33 d 20 33 d 19 31 d 19 30 d 19 29 d 19 27 d 19 26 d 19 25 d 19 24 d 19 22 d 20 21 d 19 20 d 19 19 d 19 18 d 19 16 d 19 16 d 19 14 d 19 14 d 19 12 d 19 12 d 20
 11 d 19 10 d 19 9 d 19 9 d 19 8 d 19 7 d 19 7 d 19 6 d 19 6 d 20 5 d 19 5 d 19 4 d 19 4 d 19 4 d 19 3 d 19 3 d 19 3 d 19 3 d 20 2 d 19 2 d 19 2 d 19 2 d 19 2 d 19 1 d 19 2 d 19 1 d 19 1 d 20 1 d 19 1 d 19 1 d 19 X 19 1 d 19 1 d 19 X 19 1 d 38 X 20 1
 d 38 X 19 1 d 38 X s 1 1 1 c black 283 212 m 115 X 19 1 d 19 X 19 1 d 20 1 d 19 2 d 19 3 d 19 3 d 19 5 d 19 6 d 19 7 d 19 9 d 19 11 d 20 13 d 19 14 d 19 16 d 19 18 d 19 20 d 19 22 d 19 23 d 19 26 d 19 27 d 19 28 d 20 29 d 19 31 d 19 32 d 19 32 d 19
 33 d 19 34 d 19 34 d 19 34 d 19 35 d 20 34 d 19 34 d 19 33 d 19 33 d 19 33 d 19 32 d 19 31 d 19 30 d 19 30 d 20 28 d 19 28 d 19 27 d 19 25 d 19 25 d 19 23 d 19 23 d 19 21 d 19 20 d 19 20 d 20 18 d 19 17 d 19 17 d 19 15 d 19 15 d 19 13 d 19 13 d 19
 12 d 19 12 d 20 10 d 19 10 d 19 9 d 19 9 d 19 8 d 19 7 d 19 7 d 19 7 d 19 5 d 20 6 d 19 5 d 19 5 d 19 4 d 19 4 d 19 4 d 19 3 d 19 3 d 19 3 d 20 3 d 19 2 d 19 2 d 19 2 d 19 2 d 19 2 d 19 1 d 19 2 d 19 1 d 19 1 d 20 1 d 19 1 d 19 1 d 19 1 d 19 1 d 19
 X s 1 1 1 c black 283 212 m 172 X 20 1 d 19 X 19 1 d 19 X 19 2 d 19 1 d 19 3 d 19 3 d 19 3 d 20 5 d 19 6 d 19 7 d 19 8 d 19 9 d 19 11 d 19 12 d 19 14 d 19 15 d 19 17 d 20 18 d 19 19 d 19 22 d 19 22 d 19 24 d 19 25 d 19 26 d 19 27 d 19 28 d 20 29 d
 19 30 d 19 30 d 19 30 d 19 31 d 19 32 d 19 31 d 19 31 d 19 31 d 20 31 d 19 31 d 19 30 d 19 30 d 19 29 d 19 28 d 19 28 d 19 27 d 19 27 d 19 26 d 20 24 d 19 24 d 19 23 d 19 23 d 19 21 d 19 21 d 19 19 d 19 19 d 19 18 d 20 17 d 19 16 d 19 15 d 19 15 d
 19 13 d 19 13 d 19 13 d 19 11 d 19 11 d 20 10 d 19 10 d 19 9 d 19 8 d 19 8 d 19 7 d 19 7 d 19 7 d 19 6 d 20 5 d 19 6 d 19 4 d 19 5 d 19 4 d 19 4 d 19 3 d 19 4 d 19 3 d 19 3 d 20 2 d 19 3 d 19 2 d 19 2 d 19 2 d 19 2 d s
 gsave  2268 1769 0 0 C 453.001 1063.33 t 0 r /Helvetica findfont 70.5271 sf 0 0 m (1 GeV) show NC gr 
 gsave  2268 1769 0 0 C 1133.86 672.72 t 0 r /Helvetica findfont 70.5271 sf 0 0 m (10 TeV) show NC gr 
 gr  gr showpage
end
%%EOF
