%!PS-Adobe-2.0 EPSF-2.0
%%BoundingBox:  0 0 567 442
%%Title: shower_profile.eps: shower_profile
%%Creator: ROOT Version 5.34/14
%%CreationDate: Fri Jan 31 22:18:49 2014
%%EndComments
%%BeginProlog
80 dict begin
/s {stroke} def /l {lineto} def /m {moveto} def /t {translate} def
/r {rotate} def /rl {roll}  def /R {repeat} def
/d {rlineto} def /rm {rmoveto} def /gr {grestore} def /f {eofill} def
/c {setrgbcolor} def /black {0 setgray} def /sd {setdash} def
/cl {closepath} def /sf {scalefont setfont} def /lw {setlinewidth} def
/box {m dup 0 exch d exch 0 d 0 exch neg d cl} def
/NC{systemdict begin initclip end}def/C{NC box clip newpath}def
/bl {box s} def /bf {box f} def /Y { 0 exch d} def /X { 0 d} def 
/K {{pop pop 0 moveto} exch kshow} bind def
/ita {/ang 15 def gsave [1 0 ang dup sin exch cos div 1 0 0] concat} def 
/mp {newpath /y exch def /x exch def} def
/side {[w .77 mul w .23 mul] .385 w mul sd w 0 l currentpoint t -144 r} def
/mr {mp x y w2 0 360 arc} def /m24 {mr s} def /m20 {mr f} def
/mb {mp x y w2 add m w2 neg 0 d 0 w neg d w 0 d 0 w d cl} def
/mt {mp x y w2 add m w2 neg w neg d w 0 d cl} def
/m21 {mb f} def /m25 {mb s} def /m22 {mt f} def /m26{mt s} def
/m23 {mp x y w2 sub m w2 w d w neg 0 d cl f} def
/m27 {mp x y w2 add m w3 neg w2 neg d w3 w2 neg d w3 w2 d cl s} def
/m28 {mp x w2 sub y w2 sub w3 add m w3 0 d  0 w3 neg d w3 0 d 0 w3 d w3 0 d  0 w3 d w3 neg 0 d 0 w3 d w3 neg 0 d 0 w3 neg d w3 neg 0 d cl s } def
/m29 {mp gsave x w2 sub y w2 add w3 sub m currentpoint t 4 {side} repeat cl fill gr} def
/m30 {mp gsave x w2 sub y w2 add w3 sub m currentpoint t 4 {side} repeat cl s gr} def
/m31 {mp x y w2 sub m 0 w d x w2 sub y m w 0 d x w2 sub y w2 add m w w neg d x w2 sub y w2 sub m w w d s} def
/m32 {mp x y w2 sub m w2 w d w neg 0 d cl s} def
/m33 {mp x y w2 add m w3 neg w2 neg d w3 w2 neg d w3 w2 d cl f} def
/m34 {mp x w2 sub y w2 sub w3 add m w3 0 d  0 w3 neg d w3 0 d 0 w3 d w3 0 d  0 w3 d w3 neg 0 d 0 w3 d w3 neg 0 d 0 w3 neg d w3 neg 0 d cl f } def
/m2 {mp x y w2 sub m 0 w d x w2 sub y m w 0 d s} def
/m5 {mp x w2 sub y w2 sub m w w d x w2 sub y w2 add m w w neg d s} def
/reEncode {exch findfont dup length dict begin {1 index /FID eq  {pop pop} {def} ifelse } forall /Encoding exch def currentdict end dup /FontName get exch definefont pop } def [/Times-Bold /Times-Italic /Times-BoldItalic /Helvetica /Helvetica-Oblique
 /Helvetica-Bold /Helvetica-BoldOblique /Courier /Courier-Oblique /Courier-Bold /Courier-BoldOblique /Times-Roman /AvantGarde-Book /AvantGarde-BookOblique /AvantGarde-Demi /AvantGarde-DemiOblique /Bookman-Demi /Bookman-DemiItalic /Bookman-Light
 /Bookman-LightItalic /Helvetica-Narrow /Helvetica-Narrow-Bold /Helvetica-Narrow-BoldOblique /Helvetica-Narrow-Oblique /NewCenturySchlbk-Roman /NewCenturySchlbk-Bold /NewCenturySchlbk-BoldItalic /NewCenturySchlbk-Italic /Palatino-Bold
 /Palatino-BoldItalic /Palatino-Italic /Palatino-Roman ] {ISOLatin1Encoding reEncode } forall
%%EndProlog
%%BeginSetup
%%EndSetup
newpath  gsave  .25 .25 scale  gsave  0 0 t black[  ] 0 sd 6 lw 1 1 1 c 2268 1769 0 0 bf black 3 lw 1 1 1 c 1894 1486 283 212 bf black 1894 1486 283 212 bl 1 1 1 c 1894 1486 283 212 bf black 1894 1486 283 212 bl 6 lw 283 212 m 1894 X s 0.6 0.6 0.6 c[
 12 12] 0 sd 3 lw 283 1698 m -1486 Y s 599 1698 m -1486 Y s 915 1698 m -1486 Y s 1230 1698 m -1486 Y s 1546 1698 m -1486 Y s 1861 1698 m -1486 Y s 2177 1698 m -1486 Y s black[  ] 0 sd 6 lw 283 1698 m 1894 X s 283 212 m 1486 Y s 0.6 0.6 0.6 c[ 12 12]
 0 sd 3 lw 2177 212 m -1894 X s 2177 361 m -1894 X s 2177 509 m -1894 X s 2177 658 m -1894 X s 2177 806 m -1894 X s 2177 955 m -1894 X s 2177 1104 m -1894 X s 2177 1252 m -1894 X s 2177 1401 m -1894 X s 2177 1549 m -1894 X s 2177 1698 m -1894 X s
 black[  ] 0 sd 6 lw 2177 212 m 1486 Y s 0.95 0.95 0.95 c black 284 212 m 29 X 2 1 d 11 X 2 1 d 6 X 2 1 d 1 X 2 1 d 2 X 2 1 d 2 X 2 1 d 2 X 2 1 d 2 1 d 1 1 d 2 1 d 2 X 2 1 d 2 2 d 2 1 d 2 1 d 2 1 d 2 2 d 2 1 d 1 1 d 2 2 d 2 2 d s 377 236 m 2 1 d 2 2
 d 2 2 d 2 2 d 2 2 d 2 3 d 1 2 d 2 2 d 2 3 d 2 2 d 2 3 d 2 3 d 2 3 d 2 2 d 2 4 d 1 3 d 2 3 d 2 3 d 2 4 d 2 3 d 2 4 d 2 4 d 2 4 d 2 4 d 2 4 d 1 4 d 2 4 d 2 5 d 2 4 d 2 5 d 2 5 d 2 4 d 2 5 d 2 5 d 1 6 d 2 5 d 2 5 d 2 6 d 2 5 d 2 6 d 2 6 d 2 5 d 2 6 d 2
 6 d 1 6 d 2 7 d 2 6 d 2 6 d 2 7 d s 470 437 m 2 7 d 2 6 d 2 7 d 2 7 d 1 7 d 2 7 d 2 7 d 2 7 d 2 7 d 2 8 d 2 7 d 2 8 d 2 7 d 1 8 d 2 8 d 2 7 d 2 8 d 2 8 d 2 8 d 2 8 d 2 8 d 2 9 d 2 8 d 1 8 d 2 8 d 2 9 d 2 8 d 2 9 d 2 8 d 2 9 d 2 8 d 2 9 d 1 9 d 2 8 d
 2 9 d 2 9 d 2 9 d 2 9 d 2 9 d 2 8 d 2 9 d 2 9 d 1 9 d 2 9 d 2 9 d 2 9 d 2 9 d 2 9 d 2 9 d s 563 836 m 2 9 d 2 9 d 1 10 d 2 9 d 2 9 d 2 9 d 2 9 d 2 9 d 2 9 d 2 9 d 2 9 d 1 9 d 2 9 d 2 9 d 2 9 d 2 9 d 2 9 d 2 8 d 2 9 d 2 9 d 2 9 d 1 9 d 2 9 d 2 8 d 2
 9 d 2 9 d 2 8 d 2 9 d 2 8 d 2 9 d 1 8 d 2 9 d 2 8 d 2 8 d 2 9 d 2 8 d 2 8 d 2 8 d 2 8 d 2 8 d 1 8 d 2 8 d 2 8 d 2 8 d 2 7 d 2 8 d 2 8 d 2 7 d 2 8 d s 656 1255 m 1 7 d 2 7 d 2 8 d 2 7 d 2 7 d 2 7 d 2 7 d 2 7 d 2 7 d 1 7 d 2 6 d 2 7 d 2 6 d 2 7 d 2 6
 d 2 7 d 2 6 d 2 6 d 2 6 d 1 6 d 2 6 d 2 6 d 2 6 d 2 6 d 2 5 d 2 6 d 2 5 d 2 6 d 1 5 d 2 5 d 2 5 d 2 6 d 2 4 d 2 5 d 2 5 d 2 5 d 2 5 d 2 4 d 1 5 d 2 4 d 2 4 d 2 5 d 2 4 d 2 4 d 2 4 d 2 4 d 2 3 d 1 4 d 2 4 d s 748 1529 m 2 3 d 2 4 d 2 3 d 2 3 d 2 4 d
 2 3 d 2 3 d 1 3 d 2 2 d 2 3 d 2 3 d 2 3 d 2 2 d 2 2 d 2 3 d 2 2 d 2 2 d 1 2 d 2 2 d 2 2 d 2 2 d 2 2 d 2 2 d 2 1 d 2 2 d 2 1 d 1 2 d 2 1 d 2 1 d 2 1 d 2 1 d 2 1 d 2 1 d 2 1 d 2 1 d 1 X 2 1 d 2 1 d 4 X 2 1 d 13 X 2 -1 d s 841 1605 m 4 X 2 -1 d 2 X 2
 -1 d 1 -1 d 2 X 2 -1 d 2 -1 d 2 -1 d 2 -1 d 2 -1 d 2 -1 d 2 -2 d 2 -1 d 1 -1 d 2 -2 d 2 -1 d 2 -2 d 2 -1 d 2 -2 d 2 -2 d 2 -1 d 2 -2 d 1 -2 d 2 -2 d 2 -2 d 2 -2 d 2 -2 d 2 -2 d 2 -2 d 2 -2 d 2 -3 d 1 -2 d 2 -3 d 2 -2 d 2 -2 d 2 -3 d 2 -3 d 2 -2 d 2
 -3 d 2 -3 d 2 -2 d 1 -3 d 2 -3 d 2 -3 d 2 -3 d 2 -3 d 2 -3 d s 934 1517 m 2 -3 d 2 -3 d 2 -3 d 1 -3 d 2 -4 d 2 -3 d 2 -3 d 2 -4 d 2 -3 d 2 -3 d 2 -4 d 2 -3 d 2 -4 d 1 -3 d 2 -4 d 2 -3 d 2 -4 d 2 -4 d 2 -4 d 2 -3 d 2 -4 d 2 -4 d 1 -4 d 2 -3 d 2 -4 d
 2 -4 d 2 -4 d 2 -4 d 2 -4 d 2 -4 d 2 -4 d 1 -4 d 2 -4 d 2 -4 d 2 -4 d 2 -5 d 2 -4 d 2 -4 d 2 -4 d 2 -4 d 2 -5 d 1 -4 d 2 -4 d 2 -4 d 2 -5 d 2 -4 d 2 -4 d 2 -5 d 2 -4 d s 1027 1330 m 2 -5 d 1 -4 d 2 -4 d 2 -5 d 2 -4 d 2 -5 d 2 -4 d 2 -5 d 2 -4 d 2 -5
 d 2 -4 d 1 -5 d 2 -4 d 2 -5 d 2 -4 d 2 -5 d 2 -4 d 2 -5 d 2 -4 d 2 -5 d 1 -5 d 2 -4 d 2 -5 d 2 -4 d 2 -5 d 2 -5 d 2 -4 d 2 -5 d 2 -4 d 1 -5 d 2 -5 d 2 -4 d 2 -5 d 2 -4 d 2 -5 d 2 -5 d 2 -4 d 2 -5 d 2 -5 d 1 -4 d 2 -5 d 2 -4 d 2 -5 d 2 -5 d 2 -4 d 2
 -5 d 2 -5 d 2 -4 d 1 -5 d s 1119 1106 m 2 -4 d 2 -5 d 2 -5 d 2 -4 d 2 -5 d 2 -4 d 2 -5 d 2 -4 d 2 -5 d 1 -5 d 2 -4 d 2 -5 d 2 -4 d 2 -5 d 2 -4 d 2 -5 d 2 -4 d 2 -5 d 1 -4 d 2 -5 d 2 -4 d 2 -5 d 2 -4 d 2 -5 d 2 -4 d 2 -4 d 2 -5 d 1 -4 d 2 -5 d 2 -4 d
 2 -4 d 2 -5 d 2 -4 d 2 -4 d 2 -5 d 2 -4 d 2 -4 d 1 -5 d 2 -4 d 2 -4 d 2 -5 d 2 -4 d 2 -4 d 2 -4 d 2 -4 d 2 -5 d 1 -4 d 2 -4 d 2 -4 d s 1212 890 m 2 -4 d 2 -4 d 2 -5 d 2 -4 d 2 -4 d 2 -4 d 2 -4 d 1 -4 d 2 -4 d 2 -4 d 2 -4 d 2 -4 d 2 -4 d 2 -4 d 2 -4
 d 2 -4 d 1 -4 d 2 -4 d 2 -4 d 2 -3 d 2 -4 d 2 -4 d 2 -4 d 2 -4 d 2 -4 d 1 -3 d 2 -4 d 2 -4 d 2 -4 d 2 -3 d 2 -4 d 2 -4 d 2 -3 d 2 -4 d 2 -4 d 1 -3 d 2 -4 d 2 -4 d 2 -3 d 2 -4 d 2 -3 d 2 -4 d 2 -3 d 2 -4 d 1 -3 d 2 -4 d 2 -3 d 2 -4 d 2 -3 d s 1305
 704 m 2 -4 d 2 -3 d 2 -3 d 2 -4 d 1 -3 d 2 -3 d 2 -4 d 2 -3 d 2 -3 d 2 -3 d 2 -4 d 2 -3 d 2 -3 d 2 -3 d 1 -3 d 2 -4 d 2 -3 d 2 -3 d 2 -3 d 2 -3 d 2 -3 d 2 -3 d 2 -3 d 1 -3 d 2 -3 d 2 -3 d 2 -3 d 2 -3 d 2 -3 d 2 -3 d 2 -3 d 2 -3 d 2 -3 d 1 -3 d 2 -2
 d 2 -3 d 2 -3 d 2 -3 d 2 -3 d 2 -2 d 2 -3 d 2 -3 d 1 -3 d 2 -2 d 2 -3 d 2 -3 d 2 -2 d 2 -3 d 2 -3 d s 1398 556 m 2 -2 d 2 -3 d 1 -2 d 2 -3 d 2 -3 d 2 -2 d 2 -3 d 2 -2 d 2 -3 d 2 -2 d 2 -3 d 2 -2 d 1 -2 d 2 -3 d 2 -2 d 2 -3 d 2 -2 d 2 -2 d 2 -3 d 2
 -2 d 2 -2 d 1 -3 d 2 -2 d 2 -2 d 2 -2 d 2 -3 d 2 -2 d 2 -2 d 2 -2 d 2 -2 d 2 -3 d 1 -2 d 2 -2 d 2 -2 d 2 -2 d 2 -2 d 2 -2 d 2 -2 d 2 -2 d 2 -2 d 1 -2 d 2 -2 d 2 -2 d 2 -2 d 2 -2 d 2 -2 d 2 -2 d 2 -2 d 2 -2 d s 1491 446 m 1 -2 d 2 -2 d 2 -2 d 2 -2 d
 2 -1 d 2 -2 d 2 -2 d 2 -2 d 2 -2 d 2 -2 d 1 -1 d 2 -2 d 2 -2 d 2 -2 d 2 -1 d 2 -2 d 2 -2 d 2 -1 d 2 -2 d 1 -2 d 2 -1 d 2 -2 d 2 -2 d 2 -1 d 2 -2 d 2 -2 d 2 -1 d 2 -2 d 2 -1 d 1 -2 d 2 -1 d 2 -2 d 2 -1 d 2 -2 d 2 -1 d 2 -2 d 2 -1 d 2 -2 d 1 -1 d 2 -2
 d 2 -1 d 2 -2 d 2 -1 d 2 -1 d 2 -2 d 2 -1 d 2 -1 d 1 -2 d 2 -1 d s 1583 367 m 2 -1 d 2 -2 d 2 -1 d 2 -1 d 2 -2 d 2 -1 d 2 -1 d 2 -2 d 1 -1 d 2 -1 d 2 -1 d 2 -1 d 2 -2 d 2 -1 d 2 -1 d 2 -1 d 2 -1 d 1 -2 d 2 -1 d 2 -1 d 2 -1 d 2 -1 d 2 -1 d 2 -1 d 2
 -2 d 2 -1 d 2 -1 d 1 -1 d 2 -1 d 2 -1 d 2 -1 d 2 -1 d 2 -1 d 2 -1 d 2 -1 d 2 -1 d 1 -1 d 2 -1 d 2 -1 d 2 -1 d 2 -1 d 2 -1 d 2 -1 d 2 -1 d 2 -1 d 1 -1 d 2 -1 d 2 -1 d 2 -1 d s 1676 312 m 2 -1 d 2 X 2 -1 d 2 -1 d 2 -1 d 2 -1 d 1 -1 d 2 -1 d 2 -1 d 2 X
 2 -1 d 2 -1 d 2 -1 d 2 -1 d 2 -1 d 1 X 2 -1 d 2 -1 d 2 -1 d 2 X 2 -1 d 2 -1 d 2 -1 d 2 X 2 -1 d 1 -1 d 2 -1 d 2 X 2 -1 d 2 -1 d 2 -1 d 2 X 2 -1 d 2 -1 d 1 X 2 -1 d 2 -1 d 2 X 2 -1 d 2 -1 d 2 X 2 -1 d 2 -1 d 1 X 2 -1 d 2 X 2 -1 d 2 -1 d 2 X s 1769
 276 m 2 -1 d 2 X 2 -1 d 2 -1 d 1 X 2 -1 d 2 X 2 -1 d 2 X 2 -1 d 2 -1 d 2 X 2 -1 d 1 X 2 -1 d 2 X 2 -1 d 2 X 2 -1 d 2 X 2 -1 d 2 X 2 -1 d 1 X 2 -1 d 2 X 2 -1 d 2 X 2 -1 d 2 X 2 -1 d 3 X 2 -1 d 2 X 2 -1 d 2 X 2 -1 d 4 X 2 -1 d 1 X 2 -1 d 2 X 2 -1 d 4
 X 2 -1 d 2 X s 1862 252 m 2 -1 d 3 X 2 -1 d 4 X 2 -1 d 4 X 2 -1 d 2 X 1 -1 d 4 X 2 -1 d 4 X 2 -1 d 4 X 1 -1 d 6 X 2 -1 d 4 X 2 -1 d 4 X 1 -1 d 6 X 2 -1 d 4 X 2 -1 d 5 X 2 -1 d 6 X 2 -1 d 6 X s 1955 237 m 1 -1 d 6 X 2 -1 d 6 X 2 -1 d 7 X 2 -1 d 8 X 1
 -1 d 8 X 2 -1 d 8 X 1 -1 d 8 X 2 -1 d 9 X 2 -1 d 10 X 2 -1 d 5 X s 2047 227 m 6 X 2 -1 d 11 X 2 -1 d 11 X 2 -1 d 16 X 1 -1 d 16 X 1 -1 d 16 X 2 -1 d 7 X s 2140 221 m 11 X 2 -1 d 21 X 2 -1 d s 283 212 m 1894 X s
 gsave  2268 1769 0 0 C 2156.5 37.9761 t 0 r /Helvetica findfont 78.6648 sf 0 0 m (]) show NC gr 
 gsave  2268 1769 0 0 C 2129.38 -5.42516 t 0 r /Helvetica findfont 51.539 sf 0 0 m (0) show NC gr 
 gsave  2268 1769 0 0 C 2012.73 37.9761 t 0 r /Helvetica findfont 78.6648 sf 0 0 m (t [X) show NC gr  283 257 m -45 Y s 347 234 m -22 Y s 410 234 m -22 Y s 473 234 m -22 Y s 536 234 m -22 Y s 599 257 m -45 Y s 662 234 m -22 Y s 725 234 m -22 Y s 788
 234 m -22 Y s 852 234 m -22 Y s 915 257 m -45 Y s 978 234 m -22 Y s 1041 234 m -22 Y s 1104 234 m -22 Y s 1167 234 m -22 Y s 1230 257 m -45 Y s 1293 234 m -22 Y s 1356 234 m -22 Y s 1420 234 m -22 Y s 1483 234 m -22 Y s 1546 257 m -45 Y s 1609 234 m
 -22 Y s 1672 234 m -22 Y s 1735 234 m -22 Y s 1798 234 m -22 Y s 1861 257 m -45 Y s 1925 234 m -22 Y s 1988 234 m -22 Y s 2051 234 m -22 Y s 2114 234 m -22 Y s 2177 257 m -45 Y s
 gsave  2268 1769 0 0 C 263.12 143.767 t 0 r /Helvetica findfont 70.5271 sf 0 0 m (0) show NC gr 
 gsave  2268 1769 0 0 C 577.779 143.767 t 0 r /Helvetica findfont 70.5271 sf 0 0 m (5) show NC gr 
 gsave  2268 1769 0 0 C 876.163 143.767 t 0 r /Helvetica findfont 70.5271 sf 0 0 m (10) show NC gr 
 gsave  2268 1769 0 0 C 1190.82 143.767 t 0 r /Helvetica findfont 70.5271 sf 0 0 m (15) show NC gr 
 gsave  2268 1769 0 0 C 1505.48 143.767 t 0 r /Helvetica findfont 70.5271 sf 0 0 m (20) show NC gr 
 gsave  2268 1769 0 0 C 1822.85 143.767 t 0 r /Helvetica findfont 70.5271 sf 0 0 m (25) show NC gr 
 gsave  2268 1769 0 0 C 2137.51 143.767 t 0 r /Helvetica findfont 70.5271 sf 0 0 m (30) show NC gr  283 1698 m 1894 X s 283 1654 m 44 Y s 347 1676 m 22 Y s 410 1676 m 22 Y s 473 1676 m 22 Y s 536 1676 m 22 Y s 599 1654 m 44 Y s 662 1676 m 22 Y s 725
 1676 m 22 Y s 788 1676 m 22 Y s 852 1676 m 22 Y s 915 1654 m 44 Y s 978 1676 m 22 Y s 1041 1676 m 22 Y s 1104 1676 m 22 Y s 1167 1676 m 22 Y s 1230 1654 m 44 Y s 1293 1676 m 22 Y s 1356 1676 m 22 Y s 1420 1676 m 22 Y s 1483 1676 m 22 Y s 1546 1654 m
 44 Y s 1609 1676 m 22 Y s 1672 1676 m 22 Y s 1735 1676 m 22 Y s 1798 1676 m 22 Y s 1861 1654 m 44 Y s 1925 1676 m 22 Y s 1988 1676 m 22 Y s 2051 1676 m 22 Y s 2114 1676 m 22 Y s 2177 1654 m 44 Y s 283 212 m 1486 Y s
 gsave  2268 1769 0 0 C 78.6648 1679.09 t 90 r /Helvetica findfont 78.6648 sf 0 0 m (]) show NC gr 
 gsave  2268 1769 0 0 C 43.4013 1643.82 t 90 r /Helvetica findfont 51.539 sf 0 0 m (\2551) show NC gr 
 gsave  2268 1769 0 0 C 119.354 1643.82 t 90 r /Helvetica findfont 51.539 sf 0 0 m (0) show NC gr 
 gsave  2268 1769 0 0 C 78.6648 1185.4 t 90 r /Helvetica findfont 78.6648 sf 0 0 m (dE/dt [GeV X) show NC gr  341 212 m -58 X s 312 242 m -29 X s 312 272 m -29 X s 312 301 m -29 X s 312 331 m -29 X s 341 361 m -58 X s 312 391 m -29 X s 312 420 m -29
 X s 312 450 m -29 X s 312 480 m -29 X s 341 509 m -58 X s 312 539 m -29 X s 312 569 m -29 X s 312 598 m -29 X s 312 628 m -29 X s 341 658 m -58 X s 312 688 m -29 X s 312 717 m -29 X s 312 747 m -29 X s 312 777 m -29 X s 341 806 m -58 X s 312 836 m
 -29 X s 312 866 m -29 X s 312 896 m -29 X s 312 925 m -29 X s 341 955 m -58 X s 312 985 m -29 X s 312 1014 m -29 X s 312 1044 m -29 X s 312 1074 m -29 X s 341 1104 m -58 X s 312 1133 m -29 X s 312 1163 m -29 X s 312 1193 m -29 X s 312 1222 m -29 X s
 341 1252 m -58 X s 312 1282 m -29 X s 312 1312 m -29 X s 312 1341 m -29 X s 312 1371 m -29 X s 341 1401 m -58 X s 312 1430 m -29 X s 312 1460 m -29 X s 312 1490 m -29 X s 312 1520 m -29 X s 341 1549 m -58 X s 312 1579 m -29 X s 312 1609 m -29 X s
 312 1638 m -29 X s 312 1668 m -29 X s 341 1698 m -58 X s
 gsave  2268 1769 0 0 C 233.282 187.168 t 0 r /Helvetica findfont 70.5271 sf 0 0 m (0) show NC gr 
 gsave  2268 1769 0 0 C 244.132 336.36 t 0 r /Helvetica findfont 70.5271 sf 0 0 m (1) show NC gr 
 gsave  2268 1769 0 0 C 233.282 482.839 t 0 r /Helvetica findfont 70.5271 sf 0 0 m (2) show NC gr 
 gsave  2268 1769 0 0 C 233.282 632.031 t 0 r /Helvetica findfont 70.5271 sf 0 0 m (3) show NC gr 
 gsave  2268 1769 0 0 C 233.282 781.223 t 0 r /Helvetica findfont 70.5271 sf 0 0 m (4) show NC gr 
 gsave  2268 1769 0 0 C 233.282 930.415 t 0 r /Helvetica findfont 70.5271 sf 0 0 m (5) show NC gr 
 gsave  2268 1769 0 0 C 233.282 1076.89 t 0 r /Helvetica findfont 70.5271 sf 0 0 m (6) show NC gr 
 gsave  2268 1769 0 0 C 233.282 1226.09 t 0 r /Helvetica findfont 70.5271 sf 0 0 m (7) show NC gr 
 gsave  2268 1769 0 0 C 233.282 1375.28 t 0 r /Helvetica findfont 70.5271 sf 0 0 m (8) show NC gr 
 gsave  2268 1769 0 0 C 233.282 1524.47 t 0 r /Helvetica findfont 70.5271 sf 0 0 m (9) show NC gr 
 gsave  2268 1769 0 0 C 195.306 1670.95 t 0 r /Helvetica findfont 70.5271 sf 0 0 m (10) show NC gr  2177 212 m 1486 Y s 2120 212 m 57 X s 2148 242 m 29 X s 2148 272 m 29 X s 2148 301 m 29 X s 2148 331 m 29 X s 2120 361 m 57 X s 2148 391 m 29 X s 2148
 420 m 29 X s 2148 450 m 29 X s 2148 480 m 29 X s 2120 509 m 57 X s 2148 539 m 29 X s 2148 569 m 29 X s 2148 598 m 29 X s 2148 628 m 29 X s 2120 658 m 57 X s 2148 688 m 29 X s 2148 717 m 29 X s 2148 747 m 29 X s 2148 777 m 29 X s 2120 806 m 57 X s
 2148 836 m 29 X s 2148 866 m 29 X s 2148 896 m 29 X s 2148 925 m 29 X s 2120 955 m 57 X s 2148 985 m 29 X s 2148 1014 m 29 X s 2148 1044 m 29 X s 2148 1074 m 29 X s 2120 1104 m 57 X s 2148 1133 m 29 X s 2148 1163 m 29 X s 2148 1193 m 29 X s 2148
 1222 m 29 X s 2120 1252 m 57 X s 2148 1282 m 29 X s 2148 1312 m 29 X s 2148 1341 m 29 X s 2148 1371 m 29 X s 2120 1401 m 57 X s 2148 1430 m 29 X s 2148 1460 m 29 X s 2148 1490 m 29 X s 2148 1520 m 29 X s 2120 1549 m 57 X s 2148 1579 m 29 X s 2148
 1609 m 29 X s 2148 1638 m 29 X s 2148 1668 m 29 X s 2120 1698 m 57 X s
 gsave  2268 1769 0 0 C 1133.86 1451.23 t 0 r /Helvetica findfont 70.5271 sf 0 0 m (100 GeV electron in BGO) show NC gr 
 gr  gr showpage
end
%%EOF
