%!PS-Adobe-2.0 EPSF-2.0
%%BoundingBox:  0 0 567 442
%%Title: si_detector_size.eps: si_detector_size
%%Creator: ROOT Version 5.34/14
%%CreationDate: Fri Jan 31 22:19:21 2014
%%EndComments
%%BeginProlog
80 dict begin
/s {stroke} def /l {lineto} def /m {moveto} def /t {translate} def
/r {rotate} def /rl {roll}  def /R {repeat} def
/d {rlineto} def /rm {rmoveto} def /gr {grestore} def /f {eofill} def
/c {setrgbcolor} def /black {0 setgray} def /sd {setdash} def
/cl {closepath} def /sf {scalefont setfont} def /lw {setlinewidth} def
/box {m dup 0 exch d exch 0 d 0 exch neg d cl} def
/NC{systemdict begin initclip end}def/C{NC box clip newpath}def
/bl {box s} def /bf {box f} def /Y { 0 exch d} def /X { 0 d} def 
/K {{pop pop 0 moveto} exch kshow} bind def
/ita {/ang 15 def gsave [1 0 ang dup sin exch cos div 1 0 0] concat} def 
/mp {newpath /y exch def /x exch def} def
/side {[w .77 mul w .23 mul] .385 w mul sd w 0 l currentpoint t -144 r} def
/mr {mp x y w2 0 360 arc} def /m24 {mr s} def /m20 {mr f} def
/mb {mp x y w2 add m w2 neg 0 d 0 w neg d w 0 d 0 w d cl} def
/mt {mp x y w2 add m w2 neg w neg d w 0 d cl} def
/m21 {mb f} def /m25 {mb s} def /m22 {mt f} def /m26{mt s} def
/m23 {mp x y w2 sub m w2 w d w neg 0 d cl f} def
/m27 {mp x y w2 add m w3 neg w2 neg d w3 w2 neg d w3 w2 d cl s} def
/m28 {mp x w2 sub y w2 sub w3 add m w3 0 d  0 w3 neg d w3 0 d 0 w3 d w3 0 d  0 w3 d w3 neg 0 d 0 w3 d w3 neg 0 d 0 w3 neg d w3 neg 0 d cl s } def
/m29 {mp gsave x w2 sub y w2 add w3 sub m currentpoint t 4 {side} repeat cl fill gr} def
/m30 {mp gsave x w2 sub y w2 add w3 sub m currentpoint t 4 {side} repeat cl s gr} def
/m31 {mp x y w2 sub m 0 w d x w2 sub y m w 0 d x w2 sub y w2 add m w w neg d x w2 sub y w2 sub m w w d s} def
/m32 {mp x y w2 sub m w2 w d w neg 0 d cl s} def
/m33 {mp x y w2 add m w3 neg w2 neg d w3 w2 neg d w3 w2 d cl f} def
/m34 {mp x w2 sub y w2 sub w3 add m w3 0 d  0 w3 neg d w3 0 d 0 w3 d w3 0 d  0 w3 d w3 neg 0 d 0 w3 d w3 neg 0 d 0 w3 neg d w3 neg 0 d cl f } def
/m2 {mp x y w2 sub m 0 w d x w2 sub y m w 0 d s} def
/m5 {mp x w2 sub y w2 sub m w w d x w2 sub y w2 add m w w neg d s} def
/reEncode {exch findfont dup length dict begin {1 index /FID eq  {pop pop} {def} ifelse } forall /Encoding exch def currentdict end dup /FontName get exch definefont pop } def [/Times-Bold /Times-Italic /Times-BoldItalic /Helvetica /Helvetica-Oblique
 /Helvetica-Bold /Helvetica-BoldOblique /Courier /Courier-Oblique /Courier-Bold /Courier-BoldOblique /Times-Roman /AvantGarde-Book /AvantGarde-BookOblique /AvantGarde-Demi /AvantGarde-DemiOblique /Bookman-Demi /Bookman-DemiItalic /Bookman-Light
 /Bookman-LightItalic /Helvetica-Narrow /Helvetica-Narrow-Bold /Helvetica-Narrow-BoldOblique /Helvetica-Narrow-Oblique /NewCenturySchlbk-Roman /NewCenturySchlbk-Bold /NewCenturySchlbk-BoldItalic /NewCenturySchlbk-Italic /Palatino-Bold
 /Palatino-BoldItalic /Palatino-Italic /Palatino-Roman ] {ISOLatin1Encoding reEncode } forall
%%EndProlog
%%BeginSetup
%%EndSetup
newpath  gsave  .25 .25 scale  gsave  0 0 t black[  ] 0 sd 6 lw 1 1 1 c 2268 1769 0 0 bf black 3 lw 1 1 1 c 1894 1486 283 212 bf black 1894 1486 283 212 bl 1 1 1 c 1894 1486 283 212 bf black 1894 1486 283 212 bl 6 lw 283 212 m 1894 X s 0.6 0.6 0.6 c[
 12 12] 0 sd 3 lw 584 1698 m -1486 Y s 1015 1698 m -1486 Y s 1446 1698 m -1486 Y s 1876 1698 m -1486 Y s black[  ] 0 sd 6 lw 283 1698 m 1894 X s 283 212 m 1486 Y s 0.6 0.6 0.6 c[ 12 12] 0 sd 3 lw 2177 212 m -1894 X s 2177 528 m -1894 X s 2177 845 m
 -1894 X s 2177 1161 m -1894 X s 2177 1477 m -1894 X s black[  ] 0 sd 6 lw 2177 212 m 1486 Y s 1 1 1 c black 283 212 m 1894 X s 283 212 m 1894 X s
 gsave  2268 1769 0 0 C 1185.4 16.2755 t 0 r /Helvetica findfont 78.6648 sf 0 0 m (Number of readout channels) show NC gr  359 234 m -22 Y s 413 234 m -22 Y s 455 234 m -22 Y s 489 234 m -22 Y s 518 234 m -22 Y s 543 234 m -22 Y s 565 234 m -22 Y s
 584 257 m -45 Y s
 gsave  2268 1769 0 0 C 607.618 149.192 t 0 r /Helvetica findfont 46.1139 sf 0 0 m (4) show NC gr 
 gsave  2268 1769 0 0 C 531.666 116.641 t 0 r /Helvetica findfont 70.5271 sf 0 0 m (10) show NC gr  714 234 m -22 Y s 790 234 m -22 Y s 844 234 m -22 Y s 885 234 m -22 Y s 919 234 m -22 Y s 948 234 m -22 Y s 973 234 m -22 Y s 995 234 m -22 Y s 1015
 257 m -45 Y s
 gsave  2268 1769 0 0 C 1038.92 151.904 t 0 r /Helvetica findfont 46.1139 sf 0 0 m (5) show NC gr 
 gsave  2268 1769 0 0 C 962.966 116.641 t 0 r /Helvetica findfont 70.5271 sf 0 0 m (10) show NC gr  1145 234 m -22 Y s 1220 234 m -22 Y s 1274 234 m -22 Y s 1316 234 m -22 Y s 1350 234 m -22 Y s 1379 234 m -22 Y s 1404 234 m -22 Y s 1426 234 m -22 Y
 s 1446 257 m -45 Y s
 gsave  2268 1769 0 0 C 1467.51 151.904 t 0 r /Helvetica findfont 46.1139 sf 0 0 m (6) show NC gr 
 gsave  2268 1769 0 0 C 1391.55 116.641 t 0 r /Helvetica findfont 70.5271 sf 0 0 m (10) show NC gr  1575 234 m -22 Y s 1651 234 m -22 Y s 1705 234 m -22 Y s 1746 234 m -22 Y s 1781 234 m -22 Y s 1809 234 m -22 Y s 1834 234 m -22 Y s 1856 234 m -22 Y
 s 1876 257 m -45 Y s
 gsave  2268 1769 0 0 C 1898.81 149.192 t 0 r /Helvetica findfont 46.1139 sf 0 0 m (7) show NC gr 
 gsave  2268 1769 0 0 C 1822.85 116.641 t 0 r /Helvetica findfont 70.5271 sf 0 0 m (10) show NC gr  2006 234 m -22 Y s 2081 234 m -22 Y s 2135 234 m -22 Y s 2177 234 m -22 Y s 283 1698 m 1894 X s 359 1676 m 22 Y s 413 1676 m 22 Y s 455 1676 m 22 Y s
 489 1676 m 22 Y s 518 1676 m 22 Y s 543 1676 m 22 Y s 565 1676 m 22 Y s 584 1654 m 44 Y s 714 1676 m 22 Y s 790 1676 m 22 Y s 844 1676 m 22 Y s 885 1676 m 22 Y s 919 1676 m 22 Y s 948 1676 m 22 Y s 973 1676 m 22 Y s 995 1676 m 22 Y s 1015 1654 m 44
 Y s 1145 1676 m 22 Y s 1220 1676 m 22 Y s 1274 1676 m 22 Y s 1316 1676 m 22 Y s 1350 1676 m 22 Y s 1379 1676 m 22 Y s 1404 1676 m 22 Y s 1426 1676 m 22 Y s 1446 1654 m 44 Y s 1575 1676 m 22 Y s 1651 1676 m 22 Y s 1705 1676 m 22 Y s 1746 1676 m 22 Y
 s 1781 1676 m 22 Y s 1809 1676 m 22 Y s 1834 1676 m 22 Y s 1856 1676 m 22 Y s 1876 1654 m 44 Y s 2006 1676 m 22 Y s 2081 1676 m 22 Y s 2135 1676 m 22 Y s 2177 1676 m 22 Y s 283 212 m 1486 Y s
 gsave  2268 1769 0 0 C 92.2277 1679.09 t 90 r /Helvetica findfont 78.6648 sf 0 0 m (]) show NC gr 
 gsave  2268 1769 0 0 C 54.2516 1651.96 t 90 r /Helvetica findfont 51.539 sf 0 0 m (2) show NC gr 
 gsave  2268 1769 0 0 C 92.2277 1136.57 t 90 r /Helvetica findfont 78.6648 sf 0 0 m (Silicon area [m) show NC gr  341 212 m -58 X s
 gsave  2268 1769 0 0 C 222.432 211.581 t 0 r /Helvetica findfont 46.1139 sf 0 0 m (\2552) show NC gr 
 gsave  2268 1769 0 0 C 146.479 181.743 t 0 r /Helvetica findfont 70.5271 sf 0 0 m (10) show NC gr  312 307 m -29 X s 312 363 m -29 X s 312 403 m -29 X s 312 433 m -29 X s 312 458 m -29 X s 312 479 m -29 X s 312 498 m -29 X s 312 514 m -29 X s 341
 528 m -58 X s
 gsave  2268 1769 0 0 C 230.569 526.24 t 0 r /Helvetica findfont 46.1139 sf 0 0 m (\2551) show NC gr 
 gsave  2268 1769 0 0 C 154.617 496.402 t 0 r /Helvetica findfont 70.5271 sf 0 0 m (10) show NC gr  312 624 m -29 X s 312 679 m -29 X s 312 719 m -29 X s 312 749 m -29 X s 312 774 m -29 X s 312 796 m -29 X s 312 814 m -29 X s 312 830 m -29 X s 341
 845 m -58 X s
 gsave  2268 1769 0 0 C 264.363 815.256 t 0 r  -38 0 t /Helvetica findfont 67.8145 sf 0 0 m (1) show NC gr  312 940 m -29 X s 312 995 m -29 X s 312 1035 m -29 X s 312 1066 m -29 X s 312 1091 m -29 X s 312 1112 m -29 X s 312 1130 m -29 X s 312 1146 m
 -29 X s 341 1161 m -58 X s
 gsave  2268 1769 0 0 C 264.363 1131.42 t 0 r  -75 0 t /Helvetica findfont 67.8145 sf 0 0 m (10) show NC gr  312 1256 m -29 X s 312 1312 m -29 X s 312 1351 m -29 X s 312 1382 m -29 X s 312 1407 m -29 X s 312 1428 m -29 X s 312 1446 m -29 X s 312 1462
 m -29 X s 341 1477 m -58 X s
 gsave  2268 1769 0 0 C 238.707 1475.64 t 0 r /Helvetica findfont 46.1139 sf 0 0 m (2) show NC gr 
 gsave  2268 1769 0 0 C 162.755 1445.8 t 0 r /Helvetica findfont 70.5271 sf 0 0 m (10) show NC gr  312 1572 m -29 X s 312 1628 m -29 X s 312 1667 m -29 X s 312 1698 m -29 X s 2177 212 m 1486 Y s 2120 212 m 57 X s 2148 307 m 29 X s 2148 363 m 29 X s
 2148 403 m 29 X s 2148 433 m 29 X s 2148 458 m 29 X s 2148 479 m 29 X s 2148 498 m 29 X s 2148 514 m 29 X s 2120 528 m 57 X s 2148 624 m 29 X s 2148 679 m 29 X s 2148 719 m 29 X s 2148 749 m 29 X s 2148 774 m 29 X s 2148 796 m 29 X s 2148 814 m 29 X
 s 2148 830 m 29 X s 2120 845 m 57 X s 2148 940 m 29 X s 2148 995 m 29 X s 2148 1035 m 29 X s 2148 1066 m 29 X s 2148 1091 m 29 X s 2148 1112 m 29 X s 2148 1130 m 29 X s 2148 1146 m 29 X s 2120 1161 m 57 X s 2148 1256 m 29 X s 2148 1312 m 29 X s 2148
 1351 m 29 X s 2148 1382 m 29 X s 2148 1407 m 29 X s 2148 1428 m 29 X s 2148 1446 m 29 X s 2148 1462 m 29 X s 2120 1477 m 57 X s 2148 1572 m 29 X s 2148 1628 m 29 X s 2148 1667 m 29 X s 2148 1698 m 29 X s 0.6 0.6 0.6 c[ 12 12] 0 sd 3 lw 0.95 0.95
 0.95 c black 0.6 0.6 0.6 c 284 940 m 2 2 d 2 1 d 2 2 d 2 1 d 2 1 d 2 2 d 2 1 d 2 2 d 1 1 d 2 1 d 2 2 d 2 1 d 2 1 d 2 2 d 2 1 d 2 2 d 2 1 d 1 1 d 2 2 d 2 1 d 2 2 d 2 1 d 2 1 d 2 2 d 2 1 d 2 2 d 2 1 d 1 1 d 2 2 d 2 1 d 2 2 d 2 1 d 2 1 d 2 2 d 2 1 d 2
 1 d 1 2 d 2 1 d 2 2 d 2 1 d 2 1 d 2 2 d 2 1 d 2 2 d 2 1 d 2 1 d 1 2 d 2 1 d 2 2 d s 377 1009 m 2 1 d 2 1 d 2 2 d 2 1 d 2 2 d 2 1 d 1 1 d 2 2 d 2 1 d 2 1 d 2 2 d 2 1 d 2 2 d 2 1 d 2 1 d 1 2 d 2 1 d 2 2 d 2 1 d 2 1 d 2 2 d 2 1 d 2 2 d 2 1 d 2 1 d 1 2
 d 2 1 d 2 1 d 2 2 d 2 1 d 2 2 d 2 1 d 2 1 d 2 2 d 1 1 d 2 2 d 2 1 d 2 1 d 2 2 d 2 1 d 2 2 d 2 1 d 2 1 d 2 2 d 1 1 d 2 2 d 2 1 d 2 1 d 2 2 d s 470 1077 m 2 1 d 2 1 d 2 2 d 2 1 d 1 2 d 2 1 d 2 1 d 2 2 d 2 1 d 2 2 d 2 1 d 2 1 d 2 2 d 1 1 d 2 2 d 2 1 d
 2 1 d 2 2 d 2 1 d 2 1 d 2 2 d 2 1 d 2 2 d 1 1 d 2 1 d 2 2 d 2 1 d 2 2 d 2 1 d 2 1 d 2 2 d 2 1 d 1 2 d 2 1 d 2 1 d 2 2 d 2 1 d 2 2 d 2 1 d 2 1 d 2 2 d 2 1 d 1 1 d 2 2 d 2 1 d 2 2 d 2 1 d 2 1 d 2 2 d s 563 1145 m 2 1 d 2 2 d 1 1 d 2 1 d 2 2 d 2 1 d 2
 2 d 2 1 d 2 1 d 2 2 d 2 1 d 1 2 d 2 1 d 2 1 d 2 2 d 2 1 d 2 1 d 2 2 d 2 1 d 2 2 d 2 1 d 1 1 d 2 2 d 2 1 d 2 2 d 2 1 d 2 1 d 2 2 d 2 1 d 2 2 d 1 1 d 2 1 d 2 2 d 2 1 d 2 1 d 2 2 d 2 1 d 2 2 d 2 1 d 2 1 d 1 2 d 2 1 d 2 2 d 2 1 d 2 1 d 2 2 d 2 1 d 2 2 d
 2 1 d s 656 1213 m 1 1 d 2 2 d 2 1 d 2 2 d 2 1 d 2 1 d 2 2 d 2 1 d 2 1 d 1 2 d 2 1 d 2 2 d 2 1 d 2 1 d 2 2 d 2 1 d 2 2 d 2 1 d 2 1 d 1 2 d 2 1 d 2 2 d 2 1 d 2 1 d 2 2 d 2 1 d 2 1 d 2 2 d 1 1 d 2 2 d 2 1 d 2 1 d 2 2 d 2 1 d 2 2 d 2 1 d 2 1 d 2 2 d 1
 1 d 2 2 d 2 1 d 2 1 d 2 2 d 2 1 d 2 2 d 2 1 d 2 1 d 1 2 d 2 1 d s 748 1281 m 2 1 d 2 2 d 2 1 d 2 2 d 2 1 d 2 1 d 2 2 d 1 1 d 2 2 d 2 1 d 2 1 d 2 2 d 2 1 d 2 2 d 2 1 d 2 1 d 2 2 d 1 1 d 2 2 d 2 1 d 2 1 d 2 2 d 2 1 d 2 1 d 2 2 d 2 1 d 1 2 d 2 1 d 2 1
 d 2 2 d 2 1 d 2 2 d 2 1 d 2 1 d 2 2 d 1 1 d 2 2 d 2 1 d 2 1 d 2 2 d 2 1 d 2 1 d 2 2 d 2 1 d 2 2 d 1 1 d 2 1 d 2 2 d 2 1 d s 841 1349 m 2 2 d 2 1 d 2 1 d 2 2 d 2 1 d 1 2 d 2 1 d 2 1 d 2 2 d 2 1 d 2 2 d 2 1 d 2 1 d 2 2 d 2 1 d 1 1 d 2 2 d 2 1 d 2 2 d
 2 1 d 2 1 d 2 2 d 2 1 d 2 2 d 1 1 d 2 1 d 2 2 d 2 1 d 2 2 d 2 1 d 2 1 d 2 2 d 2 1 d 1 1 d 2 2 d 2 1 d 2 2 d 2 1 d 2 1 d 2 2 d 2 1 d 2 2 d 2 1 d 1 1 d 2 2 d 2 1 d 2 2 d 2 1 d 2 1 d s 934 1417 m 2 2 d 2 1 d 2 2 d 1 1 d 2 1 d 2 2 d 2 1 d 2 1 d 2 2 d 2
 1 d 2 2 d 2 1 d 2 1 d 1 2 d 2 1 d 2 2 d 2 1 d 2 1 d 2 2 d 2 1 d 2 2 d 2 1 d 1 1 d 2 2 d 2 1 d 2 1 d 2 2 d 2 1 d 2 2 d 2 1 d 2 1 d 1 2 d 2 1 d 2 2 d 2 1 d 2 1 d 2 2 d 2 1 d 2 2 d 2 1 d 2 1 d 1 2 d 2 1 d 2 2 d 2 1 d 2 1 d 2 2 d 2 1 d 2 1 d s 1027 1485
 m 2 2 d 1 1 d 2 2 d 2 1 d 2 1 d 2 2 d 2 1 d 2 2 d 2 1 d 2 1 d 2 2 d 1 1 d 2 2 d 2 1 d 2 1 d 2 2 d 2 1 d 2 2 d 2 1 d 2 1 d 1 2 d 2 1 d 2 1 d 2 2 d 2 1 d 2 2 d 2 1 d 2 1 d 2 2 d 1 1 d 2 2 d 2 1 d 2 1 d 2 2 d 2 1 d 2 2 d 2 1 d 2 1 d 2 2 d 1 1 d 2 1 d 2
 2 d 2 1 d 2 2 d 2 1 d 2 1 d 2 2 d 2 1 d 1 2 d s 1119 1554 m 2 1 d 2 1 d 2 2 d 2 1 d 2 2 d 2 1 d 2 1 d 2 2 d 2 1 d 1 2 d 2 1 d 2 1 d 2 2 d 2 1 d 2 1 d 2 2 d 2 1 d 2 2 d 1 1 d 2 1 d 2 2 d 2 1 d 2 2 d 2 1 d 2 1 d 2 2 d 2 1 d 1 2 d 2 1 d 2 1 d 2 2 d 2 1
 d 2 1 d 2 2 d 2 1 d 2 2 d 2 1 d 1 1 d 2 2 d 2 1 d 2 2 d 2 1 d 2 1 d 2 2 d 2 1 d 2 2 d 1 1 d 2 1 d 2 2 d s 1212 1622 m 2 1 d 2 2 d 2 1 d 2 1 d 2 2 d 2 1 d 2 1 d 1 2 d 2 1 d 2 2 d 2 1 d 2 1 d 2 2 d 2 1 d 2 2 d 2 1 d 1 1 d 2 2 d 2 1 d 2 2 d 2 1 d 2 1 d
 2 2 d 2 1 d 2 2 d 1 1 d 2 1 d 2 2 d 2 1 d 2 1 d 2 2 d 2 1 d 2 2 d 2 1 d 2 1 d 1 2 d 2 1 d 2 2 d 2 1 d 2 1 d 2 2 d 2 1 d 2 2 d 2 1 d 1 1 d 2 2 d 2 1 d 2 1 d 2 2 d s 1305 1690 m 2 1 d 2 2 d 2 1 d 2 1 d 2 2 d 1 1 d s 0.95 0.95 0.95 c black 0.6 0.6 0.6
 c 284 624 m 2 2 d 2 1 d 2 1 d 2 2 d 2 1 d 2 2 d 2 1 d 2 1 d 1 2 d 2 1 d 2 2 d 2 1 d 2 1 d 2 2 d 2 1 d 2 2 d 2 1 d 1 1 d 2 2 d 2 1 d 2 1 d 2 2 d 2 1 d 2 2 d 2 1 d 2 1 d 2 2 d 1 1 d 2 2 d 2 1 d 2 1 d 2 2 d 2 1 d 2 2 d 2 1 d 2 1 d 1 2 d 2 1 d 2 1 d 2 2
 d 2 1 d 2 2 d 2 1 d 2 1 d 2 2 d 2 1 d 1 2 d 2 1 d 2 1 d s 377 692 m 2 2 d 2 1 d 2 2 d 2 1 d 2 1 d 2 2 d 1 1 d 2 2 d 2 1 d 2 1 d 2 2 d 2 1 d 2 1 d 2 2 d 2 1 d 1 2 d 2 1 d 2 1 d 2 2 d 2 1 d 2 2 d 2 1 d 2 1 d 2 2 d 2 1 d 1 2 d 2 1 d 2 1 d 2 2 d 2 1 d 2
 1 d 2 2 d 2 1 d 2 2 d 1 1 d 2 1 d 2 2 d 2 1 d 2 2 d 2 1 d 2 1 d 2 2 d 2 1 d 2 2 d 1 1 d 2 1 d 2 2 d 2 1 d 2 2 d s 470 761 m 2 1 d 2 1 d 2 2 d 2 1 d 1 1 d 2 2 d 2 1 d 2 2 d 2 1 d 2 1 d 2 2 d 2 1 d 2 2 d 1 1 d 2 1 d 2 2 d 2 1 d 2 2 d 2 1 d 2 1 d 2 2 d
 2 1 d 2 2 d 1 1 d 2 1 d 2 2 d 2 1 d 2 1 d 2 2 d 2 1 d 2 2 d 2 1 d 1 1 d 2 2 d 2 1 d 2 2 d 2 1 d 2 1 d 2 2 d 2 1 d 2 2 d 2 1 d 1 1 d 2 2 d 2 1 d 2 1 d 2 2 d 2 1 d 2 2 d s 563 829 m 2 1 d 2 1 d 1 2 d 2 1 d 2 2 d 2 1 d 2 1 d 2 2 d 2 1 d 2 2 d 2 1 d 1 1
 d 2 2 d 2 1 d 2 2 d 2 1 d 2 1 d 2 2 d 2 1 d 2 1 d 2 2 d 1 1 d 2 2 d 2 1 d 2 1 d 2 2 d 2 1 d 2 2 d 2 1 d 2 1 d 1 2 d 2 1 d 2 2 d 2 1 d 2 1 d 2 2 d 2 1 d 2 1 d 2 2 d 2 1 d 1 2 d 2 1 d 2 1 d 2 2 d 2 1 d 2 2 d 2 1 d 2 1 d 2 2 d s 656 897 m 1 1 d 2 2 d 2
 1 d 2 1 d 2 2 d 2 1 d 2 2 d 2 1 d 2 1 d 1 2 d 2 1 d 2 1 d 2 2 d 2 1 d 2 2 d 2 1 d 2 1 d 2 2 d 2 1 d 1 2 d 2 1 d 2 1 d 2 2 d 2 1 d 2 2 d 2 1 d 2 1 d 2 2 d 1 1 d 2 2 d 2 1 d 2 1 d 2 2 d 2 1 d 2 1 d 2 2 d 2 1 d 2 2 d 1 1 d 2 1 d 2 2 d 2 1 d 2 2 d 2 1 d
 2 1 d 2 2 d 2 1 d 1 2 d 2 1 d s 748 965 m 2 1 d 2 2 d 2 1 d 2 1 d 2 2 d 2 1 d 2 2 d 1 1 d 2 1 d 2 2 d 2 1 d 2 2 d 2 1 d 2 1 d 2 2 d 2 1 d 2 2 d 1 1 d 2 1 d 2 2 d 2 1 d 2 2 d 2 1 d 2 1 d 2 2 d 2 1 d 1 1 d 2 2 d 2 1 d 2 2 d 2 1 d 2 1 d 2 2 d 2 1 d 2 2
 d 1 1 d 2 1 d 2 2 d 2 1 d 2 2 d 2 1 d 2 1 d 2 2 d 2 1 d 2 1 d 1 2 d 2 1 d 2 2 d 2 1 d s 841 1033 m 2 1 d 2 2 d 2 1 d 2 2 d 2 1 d 1 1 d 2 2 d 2 1 d 2 2 d 2 1 d 2 1 d 2 2 d 2 1 d 2 2 d 2 1 d 1 1 d 2 2 d 2 1 d 2 1 d 2 2 d 2 1 d 2 2 d 2 1 d 2 1 d 1 2 d
 2 1 d 2 2 d 2 1 d 2 1 d 2 2 d 2 1 d 2 2 d 2 1 d 1 1 d 2 2 d 2 1 d 2 2 d 2 1 d 2 1 d 2 2 d 2 1 d 2 1 d 2 2 d 1 1 d 2 2 d 2 1 d 2 1 d 2 2 d 2 1 d s 934 1101 m 2 2 d 2 1 d 2 1 d 1 2 d 2 1 d 2 2 d 2 1 d 2 1 d 2 2 d 2 1 d 2 1 d 2 2 d 2 1 d 1 2 d 2 1 d 2
 1 d 2 2 d 2 1 d 2 2 d 2 1 d 2 1 d 2 2 d 1 1 d 2 2 d 2 1 d 2 1 d 2 2 d 2 1 d 2 2 d 2 1 d 2 1 d 1 2 d 2 1 d 2 1 d 2 2 d 2 1 d 2 2 d 2 1 d 2 1 d 2 2 d 2 1 d 1 2 d 2 1 d 2 1 d 2 2 d 2 1 d 2 2 d 2 1 d 2 1 d s 1027 1169 m 2 2 d 1 1 d 2 1 d 2 2 d 2 1 d 2 2
 d 2 1 d 2 1 d 2 2 d 2 1 d 2 2 d 1 1 d 2 1 d 2 2 d 2 1 d 2 2 d 2 1 d 2 1 d 2 2 d 2 1 d 1 2 d 2 1 d 2 1 d 2 2 d 2 1 d 2 1 d 2 2 d 2 1 d 2 2 d 1 1 d 2 1 d 2 2 d 2 1 d 2 2 d 2 1 d 2 1 d 2 2 d 2 1 d 2 2 d 1 1 d 2 1 d 2 2 d 2 1 d 2 1 d 2 2 d 2 1 d 2 2 d 2
 1 d 1 1 d s 1119 1237 m 2 2 d 2 1 d 2 2 d 2 1 d 2 1 d 2 2 d 2 1 d 2 2 d 2 1 d 1 1 d 2 2 d 2 1 d 2 2 d 2 1 d 2 1 d 2 2 d 2 1 d 2 1 d 1 2 d 2 1 d 2 2 d 2 1 d 2 1 d 2 2 d 2 1 d 2 2 d 2 1 d 1 1 d 2 2 d 2 1 d 2 2 d 2 1 d 2 1 d 2 2 d 2 1 d 2 2 d 2 1 d 1 1
 d 2 2 d 2 1 d 2 1 d 2 2 d 2 1 d 2 2 d 2 1 d 2 1 d 1 2 d 2 1 d 2 2 d s 1212 1306 m 2 1 d 2 1 d 2 2 d 2 1 d 2 2 d 2 1 d 2 1 d 1 2 d 2 1 d 2 1 d 2 2 d 2 1 d 2 2 d 2 1 d 2 1 d 2 2 d 1 1 d 2 2 d 2 1 d 2 1 d 2 2 d 2 1 d 2 2 d 2 1 d 2 1 d 1 2 d 2 1 d 2 2 d
 2 1 d 2 1 d 2 2 d 2 1 d 2 1 d 2 2 d 2 1 d 1 2 d 2 1 d 2 1 d 2 2 d 2 1 d 2 2 d 2 1 d 2 1 d 2 2 d 1 1 d 2 2 d 2 1 d 2 1 d 2 2 d s 1305 1374 m 2 1 d 2 1 d 2 2 d 2 1 d 2 2 d 1 1 d 2 1 d 2 2 d 2 1 d 2 2 d 2 1 d 2 1 d 2 2 d 2 1 d 1 2 d 2 1 d 2 1 d 2 2 d 2
 1 d 2 2 d 2 1 d 2 1 d 2 2 d 1 1 d 2 1 d 2 2 d 2 1 d 2 2 d 2 1 d 2 1 d 2 2 d 2 1 d 2 2 d 1 1 d 2 1 d 2 2 d 2 1 d 2 2 d 2 1 d 2 1 d 2 2 d 2 1 d 1 2 d 2 1 d 2 1 d 2 2 d 2 1 d 2 1 d 2 2 d s 1398 1442 m 2 1 d 2 2 d 1 1 d 2 1 d 2 2 d 2 1 d 2 2 d 2 1 d 2 1
 d 2 2 d 2 1 d 2 2 d 1 1 d 2 1 d 2 2 d 2 1 d 2 1 d 2 2 d 2 1 d 2 2 d 2 1 d 1 1 d 2 2 d 2 1 d 2 2 d 2 1 d 2 1 d 2 2 d 2 1 d 2 2 d 2 1 d 1 1 d 2 2 d 2 1 d 2 2 d 2 1 d 2 1 d 2 2 d 2 1 d 2 1 d 1 2 d 2 1 d 2 2 d 2 1 d 2 1 d 2 2 d 2 1 d 2 2 d 2 1 d s 1491
 1510 m 1 1 d 2 2 d 2 1 d 2 2 d 2 1 d 2 1 d 2 2 d 2 1 d 2 1 d 2 2 d 1 1 d 2 2 d 2 1 d 2 1 d 2 2 d 2 1 d 2 2 d 2 1 d 2 1 d 1 2 d 2 1 d 2 2 d 2 1 d 2 1 d 2 2 d 2 1 d 2 2 d 2 1 d 2 1 d 1 2 d 2 1 d 2 1 d 2 2 d 2 1 d 2 2 d 2 1 d 2 1 d 2 2 d 1 1 d 2 2 d 2
 1 d 2 1 d 2 2 d 2 1 d 2 2 d 2 1 d 2 1 d 1 2 d 2 1 d s 1583 1578 m 2 2 d 2 1 d 2 1 d 2 2 d 2 1 d 2 1 d 2 2 d 2 1 d 1 2 d 2 1 d 2 1 d 2 2 d 2 1 d 2 2 d 2 1 d 2 1 d 2 2 d 1 1 d 2 2 d 2 1 d 2 1 d 2 2 d 2 1 d 2 1 d 2 2 d 2 1 d 2 2 d 1 1 d 2 1 d 2 2 d 2 1
 d 2 2 d 2 1 d 2 1 d 2 2 d 2 1 d 1 2 d 2 1 d 2 1 d 2 2 d 2 1 d 2 2 d 2 1 d 2 1 d 2 2 d 1 1 d 2 1 d 2 2 d 2 1 d s 1676 1646 m 2 2 d 2 1 d 2 1 d 2 2 d 2 1 d 2 2 d 1 1 d 2 1 d 2 2 d 2 1 d 2 2 d 2 1 d 2 1 d 2 2 d 2 1 d 1 1 d 2 2 d 2 1 d 2 2 d 2 1 d 2 1 d
 2 2 d 2 1 d 2 2 d 2 1 d 1 1 d 2 2 d 2 1 d 2 2 d 2 1 d 2 1 d 2 2 d 2 1 d 2 2 d 1 1 d 2 1 d 2 2 d 2 X s 0.95 0.95 0.95 c black 0.6 0.6 0.6 c 284 308 m 2 1 d 2 2 d 2 1 d 2 2 d 2 1 d 2 1 d 2 2 d 2 1 d 1 2 d 2 1 d 2 1 d 2 2 d 2 1 d 2 2 d 2 1 d 2 1 d 2 2
 d 1 1 d 2 2 d 2 1 d 2 1 d 2 2 d 2 1 d 2 1 d 2 2 d 2 1 d 2 2 d 1 1 d 2 1 d 2 2 d 2 1 d 2 2 d 2 1 d 2 1 d 2 2 d 2 1 d 1 2 d 2 1 d 2 1 d 2 2 d 2 1 d 2 2 d 2 1 d 2 1 d 2 2 d 2 1 d 1 1 d 2 2 d 2 1 d s 377 376 m 2 2 d 2 1 d 2 1 d 2 2 d 2 1 d 2 2 d 1 1 d 2
 1 d 2 2 d 2 1 d 2 2 d 2 1 d 2 1 d 2 2 d 2 1 d 1 1 d 2 2 d 2 1 d 2 2 d 2 1 d 2 1 d 2 2 d 2 1 d 2 2 d 2 1 d 1 1 d 2 2 d 2 1 d 2 2 d 2 1 d 2 1 d 2 2 d 2 1 d 2 2 d 1 1 d 2 1 d 2 2 d 2 1 d 2 1 d 2 2 d 2 1 d 2 2 d 2 1 d 2 1 d 1 2 d 2 1 d 2 2 d 2 1 d 2 1 d
 s 470 444 m 2 2 d 2 1 d 2 2 d 2 1 d 1 1 d 2 2 d 2 1 d 2 1 d 2 2 d 2 1 d 2 2 d 2 1 d 2 1 d 1 2 d 2 1 d 2 2 d 2 1 d 2 1 d 2 2 d 2 1 d 2 2 d 2 1 d 2 1 d 1 2 d 2 1 d 2 2 d 2 1 d 2 1 d 2 2 d 2 1 d 2 1 d 2 2 d 1 1 d 2 2 d 2 1 d 2 1 d 2 2 d 2 1 d 2 2 d 2 1
 d 2 1 d 2 2 d 1 1 d 2 2 d 2 1 d 2 1 d 2 2 d 2 1 d 2 1 d s 563 512 m 2 2 d 2 1 d 1 2 d 2 1 d 2 1 d 2 2 d 2 1 d 2 2 d 2 1 d 2 1 d 2 2 d 1 1 d 2 2 d 2 1 d 2 1 d 2 2 d 2 1 d 2 2 d 2 1 d 2 1 d 2 2 d 1 1 d 2 1 d 2 2 d 2 1 d 2 2 d 2 1 d 2 1 d 2 2 d 2 1 d 1
 2 d 2 1 d 2 1 d 2 2 d 2 1 d 2 2 d 2 1 d 2 1 d 2 2 d 2 1 d 1 2 d 2 1 d 2 1 d 2 2 d 2 1 d 2 1 d 2 2 d 2 1 d 2 2 d s 656 581 m 1 1 d 2 1 d 2 2 d 2 1 d 2 2 d 2 1 d 2 1 d 2 2 d 2 1 d 1 2 d 2 1 d 2 1 d 2 2 d 2 1 d 2 1 d 2 2 d 2 1 d 2 2 d 2 1 d 1 1 d 2 2 d
 2 1 d 2 2 d 2 1 d 2 1 d 2 2 d 2 1 d 2 2 d 1 1 d 2 1 d 2 2 d 2 1 d 2 2 d 2 1 d 2 1 d 2 2 d 2 1 d 2 1 d 1 2 d 2 1 d 2 2 d 2 1 d 2 1 d 2 2 d 2 1 d 2 2 d 2 1 d 1 1 d 2 2 d s 748 649 m 2 1 d 2 2 d 2 1 d 2 1 d 2 2 d 2 1 d 2 1 d 1 2 d 2 1 d 2 2 d 2 1 d 2 1
 d 2 2 d 2 1 d 2 2 d 2 1 d 2 1 d 1 2 d 2 1 d 2 2 d 2 1 d 2 1 d 2 2 d 2 1 d 2 2 d 2 1 d 1 1 d 2 2 d 2 1 d 2 1 d 2 2 d 2 1 d 2 2 d 2 1 d 2 1 d 1 2 d 2 1 d 2 2 d 2 1 d 2 1 d 2 2 d 2 1 d 2 2 d 2 1 d 2 1 d 1 2 d 2 1 d 2 2 d 2 1 d s 841 717 m 2 1 d 2 2 d 2
 1 d 2 1 d 2 2 d 1 1 d 2 2 d 2 1 d 2 1 d 2 2 d 2 1 d 2 2 d 2 1 d 2 1 d 2 2 d 1 1 d 2 2 d 2 1 d 2 1 d 2 2 d 2 1 d 2 1 d 2 2 d 2 1 d 1 2 d 2 1 d 2 1 d 2 2 d 2 1 d 2 2 d 2 1 d 2 1 d 2 2 d 1 1 d 2 2 d 2 1 d 2 1 d 2 2 d 2 1 d 2 2 d 2 1 d 2 1 d 2 2 d 1 1 d
 2 1 d 2 2 d 2 1 d 2 2 d 2 1 d s 934 785 m 2 1 d 2 2 d 2 1 d 1 2 d 2 1 d 2 1 d 2 2 d 2 1 d 2 2 d 2 1 d 2 1 d 2 2 d 2 1 d 1 1 d 2 2 d 2 1 d 2 2 d 2 1 d 2 1 d 2 2 d 2 1 d 2 2 d 1 1 d 2 1 d 2 2 d 2 1 d 2 2 d 2 1 d 2 1 d 2 2 d 2 1 d 1 2 d 2 1 d 2 1 d 2 2
 d 2 1 d 2 1 d 2 2 d 2 1 d 2 2 d 2 1 d 1 1 d 2 2 d 2 1 d 2 2 d 2 1 d 2 1 d 2 2 d 2 1 d s 1027 853 m 2 2 d 1 1 d 2 1 d 2 2 d 2 1 d 2 2 d 2 1 d 2 1 d 2 2 d 2 1 d 2 1 d 1 2 d 2 1 d 2 2 d 2 1 d 2 1 d 2 2 d 2 1 d 2 2 d 2 1 d 1 1 d 2 2 d 2 1 d 2 2 d 2 1 d
 2 1 d 2 2 d 2 1 d 2 1 d 1 2 d 2 1 d 2 2 d 2 1 d 2 1 d 2 2 d 2 1 d 2 2 d 2 1 d 2 1 d 1 2 d 2 1 d 2 2 d 2 1 d 2 1 d 2 2 d 2 1 d 2 2 d 2 1 d 1 1 d s 1119 921 m 2 2 d 2 1 d 2 1 d 2 2 d 2 1 d 2 2 d 2 1 d 2 1 d 2 2 d 1 1 d 2 2 d 2 1 d 2 1 d 2 2 d 2 1 d 2
 2 d 2 1 d 2 1 d 1 2 d 2 1 d 2 1 d 2 2 d 2 1 d 2 2 d 2 1 d 2 1 d 2 2 d 1 1 d 2 2 d 2 1 d 2 1 d 2 2 d 2 1 d 2 2 d 2 1 d 2 1 d 2 2 d 1 1 d 2 2 d 2 1 d 2 1 d 2 2 d 2 1 d 2 1 d 2 2 d 2 1 d 1 2 d 2 1 d 2 1 d s 1212 989 m 2 2 d 2 1 d 2 2 d 2 1 d 2 1 d 2 2
 d 2 1 d 1 2 d 2 1 d 2 1 d 2 2 d 2 1 d 2 2 d 2 1 d 2 1 d 2 2 d 1 1 d 2 1 d 2 2 d 2 1 d 2 2 d 2 1 d 2 1 d 2 2 d 2 1 d 1 2 d 2 1 d 2 1 d 2 2 d 2 1 d 2 2 d 2 1 d 2 1 d 2 2 d 2 1 d 1 1 d 2 2 d 2 1 d 2 2 d 2 1 d 2 1 d 2 2 d 2 1 d 2 2 d 1 1 d 2 1 d 2 2 d 2
 1 d 2 2 d s 1305 1058 m 2 1 d 2 1 d 2 2 d 2 1 d 2 2 d 1 1 d 2 1 d 2 2 d 2 1 d 2 1 d 2 2 d 2 1 d 2 2 d 2 1 d 1 1 d 2 2 d 2 1 d 2 2 d 2 1 d 2 1 d 2 2 d 2 1 d 2 2 d 1 1 d 2 1 d 2 2 d 2 1 d 2 1 d 2 2 d 2 1 d 2 2 d 2 1 d 2 1 d 1 2 d 2 1 d 2 2 d 2 1 d 2 1
 d 2 2 d 2 1 d 2 2 d 2 1 d 1 1 d 2 2 d 2 1 d 2 2 d 2 1 d 2 1 d 2 2 d s 1398 1126 m 2 1 d 2 1 d 1 2 d 2 1 d 2 2 d 2 1 d 2 1 d 2 2 d 2 1 d 2 2 d 2 1 d 2 1 d 1 2 d 2 1 d 2 2 d 2 1 d 2 1 d 2 2 d 2 1 d 2 1 d 2 2 d 1 1 d 2 2 d 2 1 d 2 1 d 2 2 d 2 1 d 2 2 d
 2 1 d 2 1 d 2 2 d 1 1 d 2 2 d 2 1 d 2 1 d 2 2 d 2 1 d 2 2 d 2 1 d 2 1 d 1 2 d 2 1 d 2 1 d 2 2 d 2 1 d 2 2 d 2 1 d 2 1 d 2 2 d s 1491 1194 m 1 1 d 2 2 d 2 1 d 2 1 d 2 2 d 2 1 d 2 2 d 2 1 d 2 1 d 2 2 d 1 1 d 2 2 d 2 1 d 2 1 d 2 2 d 2 1 d 2 1 d 2 2 d 2
 1 d 1 2 d 2 1 d 2 1 d 2 2 d 2 1 d 2 2 d 2 1 d 2 1 d 2 2 d 2 1 d 1 2 d 2 1 d 2 1 d 2 2 d 2 1 d 2 1 d 2 2 d 2 1 d 2 2 d 1 1 d 2 1 d 2 2 d 2 1 d 2 2 d 2 1 d 2 1 d 2 2 d 2 1 d 1 2 d 2 1 d s 1583 1262 m 2 1 d 2 2 d 2 1 d 2 2 d 2 1 d 2 1 d 2 2 d 2 1 d 1 1
 d 2 2 d 2 1 d 2 2 d 2 1 d 2 1 d 2 2 d 2 1 d 2 2 d 1 1 d 2 1 d 2 2 d 2 1 d 2 2 d 2 1 d 2 1 d 2 2 d 2 1 d 2 1 d 1 2 d 2 1 d 2 2 d 2 1 d 2 1 d 2 2 d 2 1 d 2 2 d 2 1 d 1 1 d 2 2 d 2 1 d 2 2 d 2 1 d 2 1 d 2 2 d 2 1 d 2 2 d 1 1 d 2 1 d 2 2 d 2 1 d s 1676
 1330 m 2 1 d 2 2 d 2 1 d 2 2 d 2 1 d 2 1 d 1 2 d 2 1 d 2 2 d 2 1 d 2 1 d 2 2 d 2 1 d 2 2 d 2 1 d 1 1 d 2 2 d 2 1 d 2 2 d 2 1 d 2 1 d 2 2 d 2 1 d 2 1 d 2 2 d 1 1 d 2 2 d 2 1 d 2 1 d 2 2 d 2 1 d 2 2 d 2 1 d 2 1 d 1 2 d 2 1 d 2 2 d 2 1 d 2 1 d 2 2 d 2
 1 d 2 1 d 2 2 d 1 1 d 2 2 d 2 1 d 2 1 d 2 2 d 2 1 d s 1769 1398 m 2 2 d 2 1 d 2 1 d 2 2 d 1 1 d 2 2 d 2 1 d 2 1 d 2 2 d 2 1 d 2 2 d 2 1 d 2 1 d 1 2 d 2 1 d 2 1 d 2 2 d 2 1 d 2 2 d 2 1 d 2 1 d 2 2 d 2 1 d 1 2 d 2 1 d 2 1 d 2 2 d 2 1 d 2 2 d 2 1 d 2 1
 d 2 2 d 1 1 d 2 1 d 2 2 d 2 1 d 2 2 d 2 1 d 2 1 d 2 2 d 2 1 d 1 2 d 2 1 d 2 1 d 2 2 d 2 1 d 2 2 d 2 1 d 2 1 d s 1862 1466 m 2 2 d 2 1 d 1 2 d 2 1 d 2 1 d 2 2 d 2 1 d 2 1 d 2 2 d 2 1 d 2 2 d 1 1 d 2 1 d 2 2 d 2 1 d 2 2 d 2 1 d 2 1 d 2 2 d 2 1 d 1 2 d
 2 1 d 2 1 d 2 2 d 2 1 d 2 2 d 2 1 d 2 1 d 2 2 d 2 1 d 1 1 d 2 2 d 2 1 d 2 2 d 2 1 d 2 1 d 2 2 d 2 1 d 2 2 d 1 1 d 2 1 d 2 2 d 2 1 d 2 2 d 2 1 d 2 1 d 2 2 d 2 1 d 2 1 d s 1955 1534 m 1 2 d 2 1 d 2 2 d 2 1 d 2 1 d 2 2 d 2 1 d 2 2 d 2 1 d 1 1 d 2 2 d 2
 1 d 2 2 d 2 1 d 2 1 d 2 2 d 2 1 d 2 2 d 1 1 d 2 1 d 2 2 d 2 1 d 2 1 d 2 2 d 2 1 d 2 2 d 2 1 d 2 1 d 1 2 d 2 1 d 2 2 d 2 1 d 2 1 d 2 2 d 2 1 d 2 2 d 2 1 d 1 1 d 2 2 d 2 1 d 2 1 d 2 2 d 2 1 d 2 2 d 2 1 d 2 1 d 2 2 d 1 1 d 2 2 d s 2047 1603 m 2 1 d 2 1
 d 2 2 d 2 1 d 2 2 d 2 1 d 2 1 d 1 2 d 2 1 d 2 2 d 2 1 d 2 1 d 2 2 d 2 1 d 2 1 d 2 2 d 1 1 d 2 2 d 2 1 d 2 1 d 2 2 d 2 1 d 2 2 d 2 1 d 2 1 d 2 2 d 1 1 d 2 2 d 2 1 d 2 1 d 2 2 d 2 1 d 2 1 d 2 2 d 2 1 d 1 2 d 2 1 d 2 1 d 2 2 d 2 1 d 2 2 d 2 1 d 2 1 d 2
 2 d 2 1 d 1 2 d 2 1 d 2 1 d 2 2 d s 2140 1671 m 2 1 d 2 2 d 2 1 d 2 1 d 2 2 d 1 1 d 2 1 d 2 2 d 2 1 d 2 2 d 2 1 d 2 1 d 2 2 d 2 1 d 1 2 d 2 1 d 2 1 d 2 2 d 2 1 d s 0.95 0.95 0.95 c black 0.6 0.6 0.6 c 584 212 m 1 1 d 2 1 d 2 2 d 2 1 d 2 2 d 2 1 d 2
 1 d 2 2 d 2 1 d 2 2 d 1 1 d 2 1 d 2 2 d 2 1 d 2 1 d 2 2 d 2 1 d 2 2 d 2 1 d 1 1 d 2 2 d 2 1 d 2 2 d 2 1 d 2 1 d 2 2 d 2 1 d 2 2 d 2 1 d 1 1 d 2 2 d 2 1 d 2 2 d 2 1 d 2 1 d 2 2 d 2 1 d 2 1 d 1 2 d 2 1 d 2 2 d 2 1 d 2 1 d 2 2 d 2 1 d 2 2 d 2 1 d 1 1 d
 2 2 d s 676 280 m 2 1 d 2 2 d 2 1 d 2 1 d 2 2 d 2 1 d 2 1 d 2 2 d 1 1 d 2 2 d 2 1 d 2 1 d 2 2 d 2 1 d 2 2 d 2 1 d 2 1 d 1 2 d 2 1 d 2 2 d 2 1 d 2 1 d 2 2 d 2 1 d 2 2 d 2 1 d 2 1 d 1 2 d 2 1 d 2 1 d 2 2 d 2 1 d 2 2 d 2 1 d 2 1 d 2 2 d 1 1 d 2 2 d 2 1
 d 2 1 d 2 2 d 2 1 d 2 2 d 2 1 d 2 1 d 1 2 d 2 1 d 2 2 d 2 1 d s 769 348 m 2 1 d 2 2 d 2 1 d 2 1 d 2 2 d 2 1 d 1 2 d 2 1 d 2 1 d 2 2 d 2 1 d 2 2 d 2 1 d 2 1 d 2 2 d 1 1 d 2 2 d 2 1 d 2 1 d 2 2 d 2 1 d 2 1 d 2 2 d 2 1 d 1 2 d 2 1 d 2 1 d 2 2 d 2 1 d 2
 2 d 2 1 d 2 1 d 2 2 d 2 1 d 1 2 d 2 1 d 2 1 d 2 2 d 2 1 d 2 2 d 2 1 d 2 1 d 2 2 d 1 1 d 2 1 d 2 2 d 2 1 d 2 2 d 2 1 d s 862 416 m 2 1 d 2 2 d 2 1 d 2 2 d 1 1 d 2 1 d 2 2 d 2 1 d 2 2 d 2 1 d 2 1 d 2 2 d 2 1 d 1 1 d 2 2 d 2 1 d 2 2 d 2 1 d 2 1 d 2 2 d
 2 1 d 2 2 d 1 1 d 2 1 d 2 2 d 2 1 d 2 2 d 2 1 d 2 1 d 2 2 d 2 1 d 2 2 d 1 1 d 2 1 d 2 2 d 2 1 d 2 1 d 2 2 d 2 1 d 2 2 d 2 1 d 1 1 d 2 2 d 2 1 d 2 2 d 2 1 d 2 1 d 2 2 d 2 1 d s 955 484 m 2 2 d 2 1 d 1 1 d 2 2 d 2 1 d 2 2 d 2 1 d 2 1 d 2 2 d 2 1 d 2 1
 d 1 2 d 2 1 d 2 2 d 2 1 d 2 1 d 2 2 d 2 1 d 2 2 d 2 1 d 1 1 d 2 2 d 2 1 d 2 2 d 2 1 d 2 1 d 2 2 d 2 1 d 2 1 d 2 2 d 1 1 d 2 2 d 2 1 d 2 1 d 2 2 d 2 1 d 2 2 d 2 1 d 2 1 d 1 2 d 2 1 d 2 2 d 2 1 d 2 1 d 2 2 d 2 1 d 2 2 d 2 1 d 2 1 d s 1048 552 m 1 2 d
 2 1 d 2 1 d 2 2 d 2 1 d 2 2 d 2 1 d 2 1 d 2 2 d 1 1 d 2 2 d 2 1 d 2 1 d 2 2 d 2 1 d 2 2 d 2 1 d 2 1 d 1 2 d 2 1 d 2 1 d 2 2 d 2 1 d 2 2 d 2 1 d 2 1 d 2 2 d 2 1 d 1 2 d 2 1 d 2 1 d 2 2 d 2 1 d 2 2 d 2 1 d 2 1 d 2 2 d 1 1 d 2 2 d 2 1 d 2 1 d 2 2 d 2 1
 d 2 1 d 2 2 d 2 1 d 2 2 d 1 1 d 2 1 d s 1140 620 m 2 2 d 2 1 d 2 2 d 2 1 d 2 1 d 2 2 d 2 1 d 1 2 d 2 1 d 2 1 d 2 2 d 2 1 d 2 2 d 2 1 d 2 1 d 2 2 d 1 1 d 2 1 d 2 2 d 2 1 d 2 2 d 2 1 d 2 1 d 2 2 d 2 1 d 2 2 d 1 1 d 2 1 d 2 2 d 2 1 d 2 2 d 2 1 d 2 1 d
 2 2 d 2 1 d 1 1 d 2 2 d 2 1 d 2 2 d 2 1 d 2 1 d 2 2 d 2 1 d 2 2 d 2 1 d 1 1 d 2 2 d 2 1 d 2 2 d s 1233 689 m 2 1 d 2 1 d 2 2 d 2 1 d 2 2 d 1 1 d 2 1 d 2 2 d 2 1 d 2 1 d 2 2 d 2 1 d 2 2 d 2 1 d 1 1 d 2 2 d 2 1 d 2 2 d 2 1 d 2 1 d 2 2 d 2 1 d 2 2 d 2
 1 d 1 1 d 2 2 d 2 1 d 2 1 d 2 2 d 2 1 d 2 2 d 2 1 d 2 1 d 1 2 d 2 1 d 2 2 d 2 1 d 2 1 d 2 2 d 2 1 d 2 2 d 2 1 d 2 1 d 1 2 d 2 1 d 2 2 d 2 1 d 2 1 d 2 2 d s 1326 757 m 2 1 d 2 1 d 2 2 d 1 1 d 2 2 d 2 1 d 2 1 d 2 2 d 2 1 d 2 2 d 2 1 d 2 1 d 1 2 d 2 1
 d 2 2 d 2 1 d 2 1 d 2 2 d 2 1 d 2 2 d 2 1 d 2 1 d 1 2 d 2 1 d 2 1 d 2 2 d 2 1 d 2 2 d 2 1 d 2 1 d 2 2 d 1 1 d 2 2 d 2 1 d 2 1 d 2 2 d 2 1 d 2 2 d 2 1 d 2 1 d 1 2 d 2 1 d 2 1 d 2 2 d 2 1 d 2 2 d 2 1 d 2 1 d 2 2 d s 1419 825 m 2 1 d 1 2 d 2 1 d 2 1 d
 2 2 d 2 1 d 2 2 d 2 1 d 2 1 d 2 2 d 1 1 d 2 2 d 2 1 d 2 1 d 2 2 d 2 1 d 2 1 d 2 2 d 2 1 d 2 2 d 1 1 d 2 1 d 2 2 d 2 1 d 2 2 d 2 1 d 2 1 d 2 2 d 2 1 d 1 2 d 2 1 d 2 1 d 2 2 d 2 1 d 2 1 d 2 2 d 2 1 d 2 2 d 1 1 d 2 1 d 2 2 d 2 1 d 2 2 d 2 1 d 2 1 d 2 2
 d 2 1 d 2 2 d 1 1 d s 1511 893 m 2 1 d 2 2 d 2 1 d 2 2 d 2 1 d 2 1 d 2 2 d 2 1 d 1 1 d 2 2 d 2 1 d 2 2 d 2 1 d 2 1 d 2 2 d 2 1 d 2 2 d 2 1 d 1 1 d 2 2 d 2 1 d 2 2 d 2 1 d 2 1 d 2 2 d 2 1 d 2 1 d 1 2 d 2 1 d 2 2 d 2 1 d 2 1 d 2 2 d 2 1 d 2 2 d 2 1 d
 1 1 d 2 2 d 2 1 d 2 2 d 2 1 d 2 1 d 2 2 d 2 1 d 2 2 d 2 1 d 1 1 d 2 2 d 2 1 d s 1604 961 m 2 1 d 2 2 d 2 1 d 2 2 d 2 1 d 2 1 d 1 2 d 2 1 d 2 2 d 2 1 d 2 1 d 2 2 d 2 1 d 2 2 d 2 1 d 2 1 d 1 2 d 2 1 d 2 2 d 2 1 d 2 1 d 2 2 d 2 1 d 2 1 d 2 2 d 1 1 d 2
 2 d 2 1 d 2 1 d 2 2 d 2 1 d 2 2 d 2 1 d 2 1 d 1 2 d 2 1 d 2 2 d 2 1 d 2 1 d 2 2 d 2 1 d 2 1 d 2 2 d 2 1 d 1 2 d 2 1 d 2 1 d 2 2 d 2 1 d s 1697 1029 m 2 2 d 2 1 d 2 1 d 2 2 d 1 1 d 2 2 d 2 1 d 2 1 d 2 2 d 2 1 d 2 2 d 2 1 d 2 1 d 2 2 d 1 1 d 2 1 d 2 2
 d 2 1 d 2 2 d 2 1 d 2 1 d 2 2 d 2 1 d 1 2 d 2 1 d 2 1 d 2 2 d 2 1 d 2 2 d 2 1 d 2 1 d 2 2 d 1 1 d 2 1 d 2 2 d 2 1 d 2 2 d 2 1 d 2 1 d 2 2 d 2 1 d 2 2 d 1 1 d 2 1 d 2 2 d 2 1 d 2 2 d 2 1 d 2 1 d s 1790 1097 m 2 2 d 2 1 d 1 2 d 2 1 d 2 1 d 2 2 d 2 1 d
 2 1 d 2 2 d 2 1 d 2 2 d 2 1 d 1 1 d 2 2 d 2 1 d 2 2 d 2 1 d 2 1 d 2 2 d 2 1 d 2 2 d 1 1 d 2 1 d 2 2 d 2 1 d 2 2 d 2 1 d 2 1 d 2 2 d 2 1 d 1 1 d 2 2 d 2 1 d 2 2 d 2 1 d 2 1 d 2 2 d 2 1 d 2 2 d 2 1 d 1 1 d 2 2 d 2 1 d 2 2 d 2 1 d 2 1 d 2 2 d 2 1 d 2 1
 d s 1883 1165 m 1 2 d 2 1 d 2 2 d 2 1 d 2 1 d 2 2 d 2 1 d 2 2 d 2 1 d 1 1 d 2 2 d 2 1 d 2 2 d 2 1 d 2 1 d 2 2 d 2 1 d 2 2 d 2 1 d 1 1 d 2 2 d 2 1 d 2 1 d 2 2 d 2 1 d 2 2 d 2 1 d 2 1 d 1 2 d 2 1 d 2 2 d 2 1 d 2 1 d 2 2 d 2 1 d 2 2 d 2 1 d 2 1 d 1 2 d
 2 1 d 2 1 d 2 2 d 2 1 d 2 2 d 2 1 d 2 1 d 2 2 d 1 1 d 2 2 d s 1975 1234 m 2 1 d 2 1 d 2 2 d 2 1 d 2 2 d 2 1 d 2 1 d 1 2 d 2 1 d 2 2 d 2 1 d 2 1 d 2 2 d 2 1 d 2 1 d 2 2 d 2 1 d 1 2 d 2 1 d 2 1 d 2 2 d 2 1 d 2 2 d 2 1 d 2 1 d 2 2 d 1 1 d 2 2 d 2 1 d 2
 1 d 2 2 d 2 1 d 2 2 d 2 1 d 2 1 d 2 2 d 1 1 d 2 1 d 2 2 d 2 1 d 2 2 d 2 1 d 2 1 d 2 2 d 2 1 d 1 2 d 2 1 d 2 1 d 2 2 d s 2068 1302 m 2 1 d 2 2 d 2 1 d 2 1 d 2 2 d 1 1 d 2 1 d 2 2 d 2 1 d 2 2 d 2 1 d 2 1 d 2 2 d 2 1 d 2 2 d 1 1 d 2 1 d 2 2 d 2 1 d 2 2
 d 2 1 d 2 1 d 2 2 d 2 1 d 1 2 d 2 1 d 2 1 d 2 2 d 2 1 d 2 1 d 2 2 d 2 1 d 2 2 d 2 1 d 1 1 d 2 2 d 2 1 d 2 2 d 2 1 d 2 1 d 2 2 d 2 1 d 2 2 d 1 1 d 2 1 d 2 2 d 2 1 d 2 1 d 2 2 d s 2161 1370 m 2 1 d 2 2 d 2 1 d 1 1 d 2 2 d 2 1 d 2 2 d 2 1 d s 0.95 0.95
 0.95 c black 0.6 0.6 0.6 c 1013 212 m 2 X 2 2 d 2 1 d 2 2 d 2 1 d 2 1 d 2 2 d 2 1 d 1 2 d 2 1 d 2 1 d 2 2 d 2 1 d 2 2 d 2 1 d 2 1 d 2 2 d 2 1 d 1 2 d 2 1 d 2 1 d 2 2 d 2 1 d 2 1 d 2 2 d 2 1 d 2 2 d 1 1 d 2 1 d 2 2 d 2 1 d 2 2 d 2 1 d 2 1 d 2 2 d 2 1
 d 1 2 d 2 1 d 2 1 d 2 2 d 2 1 d 2 2 d 2 1 d 2 1 d 2 2 d 2 1 d 1 1 d 2 2 d 2 1 d s 1106 279 m 2 2 d 2 1 d 2 1 d 2 2 d 2 1 d 2 2 d 1 1 d 2 1 d 2 2 d 2 1 d 2 2 d 2 1 d 2 1 d 2 2 d 2 1 d 2 1 d 1 2 d 2 1 d 2 2 d 2 1 d 2 1 d 2 2 d 2 1 d 2 2 d 2 1 d 1 1 d
 2 2 d 2 1 d 2 2 d 2 1 d 2 1 d 2 2 d 2 1 d 2 2 d 1 1 d 2 1 d 2 2 d 2 1 d 2 1 d 2 2 d 2 1 d 2 2 d 2 1 d 2 1 d 1 2 d 2 1 d 2 2 d 2 1 d 2 1 d s 1199 347 m 2 2 d 2 1 d 2 2 d 2 1 d 1 1 d 2 2 d 2 1 d 2 1 d 2 2 d 2 1 d 2 2 d 2 1 d 2 1 d 2 2 d 1 1 d 2 2 d 2
 1 d 2 1 d 2 2 d 2 1 d 2 2 d 2 1 d 2 1 d 1 2 d 2 1 d 2 2 d 2 1 d 2 1 d 2 2 d 2 1 d 2 1 d 2 2 d 1 1 d 2 2 d 2 1 d 2 1 d 2 2 d 2 1 d 2 2 d 2 1 d 2 1 d 2 2 d 1 1 d 2 2 d 2 1 d 2 1 d 2 2 d 2 1 d 2 2 d s 1292 416 m 2 1 d 2 1 d 1 2 d 2 1 d 2 1 d 2 2 d 2 1
 d 2 2 d 2 1 d 2 1 d 2 2 d 2 1 d 1 2 d 2 1 d 2 1 d 2 2 d 2 1 d 2 2 d 2 1 d 2 1 d 2 2 d 1 1 d 2 1 d 2 2 d 2 1 d 2 2 d 2 1 d 2 1 d 2 2 d 2 1 d 1 2 d 2 1 d 2 1 d 2 2 d 2 1 d 2 2 d 2 1 d 2 1 d 2 2 d 2 1 d 1 2 d 2 1 d 2 1 d 2 2 d 2 1 d 2 1 d 2 2 d 2 1 d 2
 2 d s 1385 484 m 1 1 d 2 1 d 2 2 d 2 1 d 2 2 d 2 1 d 2 1 d 2 2 d 2 1 d 1 2 d 2 1 d 2 1 d 2 2 d 2 1 d 2 1 d 2 2 d 2 1 d 2 2 d 2 1 d 1 1 d 2 2 d 2 1 d 2 2 d 2 1 d 2 1 d 2 2 d 2 1 d 2 2 d 1 1 d 2 1 d 2 2 d 2 1 d 2 2 d 2 1 d 2 1 d 2 2 d 2 1 d 2 1 d 1 2
 d 2 1 d 2 2 d 2 1 d 2 1 d 2 2 d 2 1 d 2 2 d 2 1 d 1 1 d 2 2 d s 1477 552 m 2 1 d 2 2 d 2 1 d 2 1 d 2 2 d 2 1 d 2 2 d 1 1 d 2 1 d 2 2 d 2 1 d 2 1 d 2 2 d 2 1 d 2 2 d 2 1 d 2 1 d 1 2 d 2 1 d 2 2 d 2 1 d 2 1 d 2 2 d 2 1 d 2 2 d 2 1 d 1 1 d 2 2 d 2 1 d
 2 1 d 2 2 d 2 1 d 2 2 d 2 1 d 2 1 d 2 2 d 1 1 d 2 2 d 2 1 d 2 1 d 2 2 d 2 1 d 2 2 d 2 1 d 2 1 d 1 2 d 2 1 d 2 2 d 2 1 d s 1570 620 m 2 1 d 2 2 d 2 1 d 2 1 d 2 2 d 1 1 d 2 2 d 2 1 d 2 1 d 2 2 d 2 1 d 2 2 d 2 1 d 2 1 d 2 2 d 1 1 d 2 2 d 2 1 d 2 1 d 2
 2 d 2 1 d 2 1 d 2 2 d 2 1 d 1 2 d 2 1 d 2 1 d 2 2 d 2 1 d 2 2 d 2 1 d 2 1 d 2 2 d 2 1 d 1 2 d 2 1 d 2 1 d 2 2 d 2 1 d 2 2 d 2 1 d 2 1 d 2 2 d 1 1 d 2 1 d 2 2 d 2 1 d 2 2 d 2 1 d s 1663 688 m 2 1 d 2 2 d 2 1 d 1 2 d 2 1 d 2 1 d 2 2 d 2 1 d 2 2 d 2 1
 d 2 1 d 2 2 d 2 1 d 1 1 d 2 2 d 2 1 d 2 2 d 2 1 d 2 1 d 2 2 d 2 1 d 2 2 d 1 1 d 2 1 d 2 2 d 2 1 d 2 2 d 2 1 d 2 1 d 2 2 d 2 1 d 2 2 d 1 1 d 2 1 d 2 2 d 2 1 d 2 1 d 2 2 d 2 1 d 2 2 d 2 1 d 1 1 d 2 2 d 2 1 d 2 2 d 2 1 d 2 1 d 2 2 d 2 1 d s 1756 756 m
 2 2 d 1 1 d 2 1 d 2 2 d 2 1 d 2 2 d 2 1 d 2 1 d 2 2 d 2 1 d 2 1 d 1 2 d 2 1 d 2 2 d 2 1 d 2 1 d 2 2 d 2 1 d 2 2 d 2 1 d 1 1 d 2 2 d 2 1 d 2 2 d 2 1 d 2 1 d 2 2 d 2 1 d 2 1 d 2 2 d 1 1 d 2 2 d 2 1 d 2 1 d 2 2 d 2 1 d 2 2 d 2 1 d 2 1 d 1 2 d 2 1 d 2 2
 d 2 1 d 2 1 d 2 2 d 2 1 d 2 2 d 2 1 d 1 1 d s 1848 824 m 2 2 d 2 1 d 2 1 d 2 2 d 2 1 d 2 2 d 2 1 d 2 1 d 2 2 d 1 1 d 2 2 d 2 1 d 2 1 d 2 2 d 2 1 d 2 2 d 2 1 d 2 1 d 1 2 d 2 1 d 2 1 d 2 2 d 2 1 d 2 2 d 2 1 d 2 1 d 2 2 d 1 1 d 2 2 d 2 1 d 2 1 d 2 2 d
 2 1 d 2 2 d 2 1 d 2 1 d 2 2 d 1 1 d 2 2 d 2 1 d 2 1 d 2 2 d 2 1 d 2 1 d 2 2 d 2 1 d 1 2 d 2 1 d 2 1 d s 1941 892 m 2 2 d 2 1 d 2 2 d 2 1 d 2 1 d 2 2 d 2 1 d 1 2 d 2 1 d 2 1 d 2 2 d 2 1 d 2 2 d 2 1 d 2 1 d 2 2 d 1 1 d 2 1 d 2 2 d 2 1 d 2 2 d 2 1 d 2
 1 d 2 2 d 2 1 d 1 2 d 2 1 d 2 1 d 2 2 d 2 1 d 2 2 d 2 1 d 2 1 d 2 2 d 2 1 d 1 1 d 2 2 d 2 1 d 2 2 d 2 1 d 2 1 d 2 2 d 2 1 d 2 2 d 1 1 d 2 1 d 2 2 d 2 1 d 2 2 d s 2034 961 m 2 1 d 2 1 d 2 2 d 2 1 d 2 2 d 1 1 d 2 1 d 2 2 d 2 1 d 2 1 d 2 2 d 2 1 d 2 2
 d 2 1 d 1 1 d 2 2 d 2 1 d 2 2 d 2 1 d 2 1 d 2 2 d 2 1 d 2 2 d 1 1 d 2 1 d 2 2 d 2 1 d 2 1 d 2 2 d 2 1 d 2 2 d 2 1 d 2 1 d 1 2 d 2 1 d 2 2 d 2 1 d 2 1 d 2 2 d 2 1 d 2 2 d 2 1 d 1 1 d 2 2 d 2 1 d 2 2 d 2 1 d 2 1 d 2 2 d s 2127 1029 m 2 1 d 2 1 d 2 2 d
 1 1 d 2 2 d 2 1 d 2 1 d 2 2 d 2 1 d 2 2 d 2 1 d 2 1 d 1 2 d 2 1 d 2 2 d 2 1 d 2 1 d 2 2 d 2 1 d 2 2 d 2 1 d 1 1 d 2 2 d 2 1 d 2 1 d 2 2 d s black[  ] 0 sd /w 22 def /w2 {w 2 div} def /w3 {w 3 div} def 454 779 m24[ 12 12] 0 sd
 gsave  2268 1769 0 0 C 471.989 786.648 t 0 r /Helvetica findfont 54.2516 sf 0 0 m (CREAM\255II) show NC gr [  ] 0 sd 434 845 m24[ 12 12] 0 sd
 gsave  2268 1769 0 0 C 450.288 851.75 t 0 r /Helvetica findfont 54.2516 sf 0 0 m (ATIC) show NC gr [  ] 0 sd 1402 995 m20[ 12 12] 0 sd
 gsave  2268 1769 0 0 C 1418.68 1003.65 t 0 r /Helvetica findfont 54.2516 sf 0 0 m (D0 run II) show NC gr [  ] 0 sd 828 1017 m25[ 12 12] 0 sd
 gsave  2268 1769 0 0 C 843.612 1025.36 t 0 r /Helvetica findfont 54.2516 sf 0 0 m (Agile) show NC gr [  ] 0 sd 1057 783 m20[ 12 12] 0 sd
 gsave  2268 1769 0 0 C 1074.18 792.073 t 0 r /Helvetica findfont 54.2516 sf 0 0 m (CLEO III) show NC gr [  ] 0 sd 1918 1102 m20[ 12 12] 0 sd
 gsave  2268 1769 0 0 C 1934.07 1109.45 t 0 r /Helvetica findfont 54.2516 sf 0 0 m (ALICE) show NC gr [  ] 0 sd 930 940 m25[ 12 12] 0 sd
 gsave  2268 1769 0 0 C 946.69 946.69 t 0 r /Helvetica findfont 54.2516 sf 0 0 m (AMS\25501) show NC gr [  ] 0 sd 1385 1086 m20[ 12 12] 0 sd
 gsave  2268 1769 0 0 C 1402.4 1093.17 t 0 r /Helvetica findfont 54.2516 sf 0 0 m (CDF run II) show NC gr [  ] 0 sd 828 569 m25[ 12 12] 0 sd
 gsave  2268 1769 0 0 C 843.612 577.779 t 0 r /Helvetica findfont 54.2516 sf 0 0 m (PaMeLa) show NC gr [  ] 0 sd 956 654 m20[ 12 12] 0 sd
 gsave  2268 1769 0 0 C 973.816 661.869 t 0 r /Helvetica findfont 54.2516 sf 0 0 m (L3) show NC gr [  ] 0 sd 699 433 m20[ 12 12] 0 sd
 gsave  2268 1769 0 0 C 716.121 442.15 t 0 r /Helvetica findfont 54.2516 sf 0 0 m (MarkII) show NC gr [  ] 0 sd 1790 1409 m20[ 12 12] 0 sd
 gsave  2268 1769 0 0 C 1806.58 1415.97 t 0 r /Helvetica findfont 54.2516 sf 0 0 m (ATLAS) show NC gr [  ] 0 sd 1423 1434 m25[ 12 12] 0 sd
 gsave  2268 1769 0 0 C 1440.38 1440.38 t 0 r /Helvetica findfont 54.2516 sf 0 0 m (Fermi\255LAT) show NC gr [  ] 0 sd 1091 838 m20[ 12 12] 0 sd
 gsave  2268 1769 0 0 C 1106.73 846.325 t 0 r /Helvetica findfont 54.2516 sf 0 0 m (BaBar) show NC gr [  ] 0 sd 1862 1571 m20[ 12 12] 0 sd
 gsave  2268 1769 0 0 C 1879.82 1578.72 t 0 r /Helvetica findfont 54.2516 sf 0 0 m (CMS) show NC gr [  ] 0 sd 1141 1095 m25[ 12 12] 0 sd
 gsave  2268 1769 0 0 C 1158.27 1104.02 t 0 r /Helvetica findfont 54.2516 sf 0 0 m (AMS\25502) show NC gr 
 gr  gr showpage
end
%%EOF
