%!PS-Adobe-2.0 EPSF-2.0
%%BoundingBox:  0 0 567 442
%%Title: si_detector_power.eps: si_detector_power
%%Creator: ROOT Version 5.34/14
%%CreationDate: Fri Jan 31 22:19:21 2014
%%EndComments
%%BeginProlog
80 dict begin
/s {stroke} def /l {lineto} def /m {moveto} def /t {translate} def
/r {rotate} def /rl {roll}  def /R {repeat} def
/d {rlineto} def /rm {rmoveto} def /gr {grestore} def /f {eofill} def
/c {setrgbcolor} def /black {0 setgray} def /sd {setdash} def
/cl {closepath} def /sf {scalefont setfont} def /lw {setlinewidth} def
/box {m dup 0 exch d exch 0 d 0 exch neg d cl} def
/NC{systemdict begin initclip end}def/C{NC box clip newpath}def
/bl {box s} def /bf {box f} def /Y { 0 exch d} def /X { 0 d} def 
/K {{pop pop 0 moveto} exch kshow} bind def
/ita {/ang 15 def gsave [1 0 ang dup sin exch cos div 1 0 0] concat} def 
/mp {newpath /y exch def /x exch def} def
/side {[w .77 mul w .23 mul] .385 w mul sd w 0 l currentpoint t -144 r} def
/mr {mp x y w2 0 360 arc} def /m24 {mr s} def /m20 {mr f} def
/mb {mp x y w2 add m w2 neg 0 d 0 w neg d w 0 d 0 w d cl} def
/mt {mp x y w2 add m w2 neg w neg d w 0 d cl} def
/m21 {mb f} def /m25 {mb s} def /m22 {mt f} def /m26{mt s} def
/m23 {mp x y w2 sub m w2 w d w neg 0 d cl f} def
/m27 {mp x y w2 add m w3 neg w2 neg d w3 w2 neg d w3 w2 d cl s} def
/m28 {mp x w2 sub y w2 sub w3 add m w3 0 d  0 w3 neg d w3 0 d 0 w3 d w3 0 d  0 w3 d w3 neg 0 d 0 w3 d w3 neg 0 d 0 w3 neg d w3 neg 0 d cl s } def
/m29 {mp gsave x w2 sub y w2 add w3 sub m currentpoint t 4 {side} repeat cl fill gr} def
/m30 {mp gsave x w2 sub y w2 add w3 sub m currentpoint t 4 {side} repeat cl s gr} def
/m31 {mp x y w2 sub m 0 w d x w2 sub y m w 0 d x w2 sub y w2 add m w w neg d x w2 sub y w2 sub m w w d s} def
/m32 {mp x y w2 sub m w2 w d w neg 0 d cl s} def
/m33 {mp x y w2 add m w3 neg w2 neg d w3 w2 neg d w3 w2 d cl f} def
/m34 {mp x w2 sub y w2 sub w3 add m w3 0 d  0 w3 neg d w3 0 d 0 w3 d w3 0 d  0 w3 d w3 neg 0 d 0 w3 d w3 neg 0 d 0 w3 neg d w3 neg 0 d cl f } def
/m2 {mp x y w2 sub m 0 w d x w2 sub y m w 0 d s} def
/m5 {mp x w2 sub y w2 sub m w w d x w2 sub y w2 add m w w neg d s} def
/reEncode {exch findfont dup length dict begin {1 index /FID eq  {pop pop} {def} ifelse } forall /Encoding exch def currentdict end dup /FontName get exch definefont pop } def [/Times-Bold /Times-Italic /Times-BoldItalic /Helvetica /Helvetica-Oblique
 /Helvetica-Bold /Helvetica-BoldOblique /Courier /Courier-Oblique /Courier-Bold /Courier-BoldOblique /Times-Roman /AvantGarde-Book /AvantGarde-BookOblique /AvantGarde-Demi /AvantGarde-DemiOblique /Bookman-Demi /Bookman-DemiItalic /Bookman-Light
 /Bookman-LightItalic /Helvetica-Narrow /Helvetica-Narrow-Bold /Helvetica-Narrow-BoldOblique /Helvetica-Narrow-Oblique /NewCenturySchlbk-Roman /NewCenturySchlbk-Bold /NewCenturySchlbk-BoldItalic /NewCenturySchlbk-Italic /Palatino-Bold
 /Palatino-BoldItalic /Palatino-Italic /Palatino-Roman ] {ISOLatin1Encoding reEncode } forall
%%EndProlog
%%BeginSetup
%%EndSetup
newpath  gsave  .25 .25 scale  gsave  0 0 t black[  ] 0 sd 6 lw 1 1 1 c 2268 1769 0 0 bf black 3 lw 1 1 1 c 1894 1486 283 212 bf black 1894 1486 283 212 bl 1 1 1 c 1894 1486 283 212 bf black 1894 1486 283 212 bl 6 lw 283 212 m 1894 X s 0.6 0.6 0.6 c[
 12 12] 0 sd 3 lw 584 1698 m -1486 Y s 1015 1698 m -1486 Y s 1446 1698 m -1486 Y s 1876 1698 m -1486 Y s black[  ] 0 sd 6 lw 283 1698 m 1894 X s 283 212 m 1486 Y s 0.6 0.6 0.6 c[ 12 12] 0 sd 3 lw 2177 212 m -1894 X s 2177 558 m -1894 X s 2177 903 m
 -1894 X s 2177 1248 m -1894 X s 2177 1594 m -1894 X s black[  ] 0 sd 6 lw 2177 212 m 1486 Y s 1 1 1 c black 283 212 m 1894 X s 283 212 m 1894 X s
 gsave  2268 1769 0 0 C 1185.4 16.2755 t 0 r /Helvetica findfont 78.6648 sf 0 0 m (Number of readout channels) show NC gr  359 234 m -22 Y s 413 234 m -22 Y s 455 234 m -22 Y s 489 234 m -22 Y s 518 234 m -22 Y s 543 234 m -22 Y s 565 234 m -22 Y s
 584 257 m -45 Y s
 gsave  2268 1769 0 0 C 607.618 149.192 t 0 r /Helvetica findfont 46.1139 sf 0 0 m (4) show NC gr 
 gsave  2268 1769 0 0 C 531.666 116.641 t 0 r /Helvetica findfont 70.5271 sf 0 0 m (10) show NC gr  714 234 m -22 Y s 790 234 m -22 Y s 844 234 m -22 Y s 885 234 m -22 Y s 919 234 m -22 Y s 948 234 m -22 Y s 973 234 m -22 Y s 995 234 m -22 Y s 1015
 257 m -45 Y s
 gsave  2268 1769 0 0 C 1038.92 151.904 t 0 r /Helvetica findfont 46.1139 sf 0 0 m (5) show NC gr 
 gsave  2268 1769 0 0 C 962.966 116.641 t 0 r /Helvetica findfont 70.5271 sf 0 0 m (10) show NC gr  1145 234 m -22 Y s 1220 234 m -22 Y s 1274 234 m -22 Y s 1316 234 m -22 Y s 1350 234 m -22 Y s 1379 234 m -22 Y s 1404 234 m -22 Y s 1426 234 m -22 Y
 s 1446 257 m -45 Y s
 gsave  2268 1769 0 0 C 1467.51 151.904 t 0 r /Helvetica findfont 46.1139 sf 0 0 m (6) show NC gr 
 gsave  2268 1769 0 0 C 1391.55 116.641 t 0 r /Helvetica findfont 70.5271 sf 0 0 m (10) show NC gr  1575 234 m -22 Y s 1651 234 m -22 Y s 1705 234 m -22 Y s 1746 234 m -22 Y s 1781 234 m -22 Y s 1809 234 m -22 Y s 1834 234 m -22 Y s 1856 234 m -22 Y
 s 1876 257 m -45 Y s
 gsave  2268 1769 0 0 C 1898.81 149.192 t 0 r /Helvetica findfont 46.1139 sf 0 0 m (7) show NC gr 
 gsave  2268 1769 0 0 C 1822.85 116.641 t 0 r /Helvetica findfont 70.5271 sf 0 0 m (10) show NC gr  2006 234 m -22 Y s 2081 234 m -22 Y s 2135 234 m -22 Y s 2177 234 m -22 Y s 283 1698 m 1894 X s 359 1676 m 22 Y s 413 1676 m 22 Y s 455 1676 m 22 Y s
 489 1676 m 22 Y s 518 1676 m 22 Y s 543 1676 m 22 Y s 565 1676 m 22 Y s 584 1654 m 44 Y s 714 1676 m 22 Y s 790 1676 m 22 Y s 844 1676 m 22 Y s 885 1676 m 22 Y s 919 1676 m 22 Y s 948 1676 m 22 Y s 973 1676 m 22 Y s 995 1676 m 22 Y s 1015 1654 m 44
 Y s 1145 1676 m 22 Y s 1220 1676 m 22 Y s 1274 1676 m 22 Y s 1316 1676 m 22 Y s 1350 1676 m 22 Y s 1379 1676 m 22 Y s 1404 1676 m 22 Y s 1426 1676 m 22 Y s 1446 1654 m 44 Y s 1575 1676 m 22 Y s 1651 1676 m 22 Y s 1705 1676 m 22 Y s 1746 1676 m 22 Y
 s 1781 1676 m 22 Y s 1809 1676 m 22 Y s 1834 1676 m 22 Y s 1856 1676 m 22 Y s 1876 1654 m 44 Y s 2006 1676 m 22 Y s 2081 1676 m 22 Y s 2135 1676 m 22 Y s 2177 1676 m 22 Y s 283 212 m 1486 Y s
 gsave  2268 1769 0 0 C 84.09 870.738 t 90 r /Helvetica findfont 78.6648 sf 0 0 m (Power consumption [W]) show NC gr  341 212 m -58 X s
 gsave  2268 1769 0 0 C 264.363 182.937 t 0 r  -38 0 t /Helvetica findfont 67.8145 sf 0 0 m (1) show NC gr  312 316 m -29 X s 312 377 m -29 X s 312 420 m -29 X s 312 454 m -29 X s 312 481 m -29 X s 312 504 m -29 X s 312 524 m -29 X s 312 542 m -29 X
 s 341 558 m -58 X s
 gsave  2268 1769 0 0 C 264.363 528.348 t 0 r  -75 0 t /Helvetica findfont 67.8145 sf 0 0 m (10) show NC gr  312 662 m -29 X s 312 722 m -29 X s 312 766 m -29 X s 312 799 m -29 X s 312 826 m -29 X s 312 850 m -29 X s 312 870 m -29 X s 312 887 m -29 X
 s 341 903 m -58 X s
 gsave  2268 1769 0 0 C 238.707 900.576 t 0 r /Helvetica findfont 46.1139 sf 0 0 m (2) show NC gr 
 gsave  2268 1769 0 0 C 162.755 870.738 t 0 r /Helvetica findfont 70.5271 sf 0 0 m (10) show NC gr  312 1007 m -29 X s 312 1068 m -29 X s 312 1111 m -29 X s 312 1144 m -29 X s 312 1172 m -29 X s 312 1195 m -29 X s 312 1215 m -29 X s 312 1233 m -29 X
 s 341 1248 m -58 X s
 gsave  2268 1769 0 0 C 238.707 1250.5 t 0 r /Helvetica findfont 46.1139 sf 0 0 m (3) show NC gr 
 gsave  2268 1769 0 0 C 162.755 1217.95 t 0 r /Helvetica findfont 70.5271 sf 0 0 m (10) show NC gr  312 1352 m -29 X s 312 1413 m -29 X s 312 1456 m -29 X s 312 1490 m -29 X s 312 1517 m -29 X s 312 1540 m -29 X s 312 1560 m -29 X s 312 1578 m -29 X
 s 341 1594 m -58 X s
 gsave  2268 1769 0 0 C 238.707 1592.28 t 0 r /Helvetica findfont 46.1139 sf 0 0 m (4) show NC gr 
 gsave  2268 1769 0 0 C 162.755 1562.45 t 0 r /Helvetica findfont 70.5271 sf 0 0 m (10) show NC gr  312 1698 m -29 X s 2177 212 m 1486 Y s 2120 212 m 57 X s 2148 316 m 29 X s 2148 377 m 29 X s 2148 420 m 29 X s 2148 454 m 29 X s 2148 481 m 29 X s
 2148 504 m 29 X s 2148 524 m 29 X s 2148 542 m 29 X s 2120 558 m 57 X s 2148 662 m 29 X s 2148 722 m 29 X s 2148 766 m 29 X s 2148 799 m 29 X s 2148 826 m 29 X s 2148 850 m 29 X s 2148 870 m 29 X s 2148 887 m 29 X s 2120 903 m 57 X s 2148 1007 m 29
 X s 2148 1068 m 29 X s 2148 1111 m 29 X s 2148 1144 m 29 X s 2148 1172 m 29 X s 2148 1195 m 29 X s 2148 1215 m 29 X s 2148 1233 m 29 X s 2120 1248 m 57 X s 2148 1352 m 29 X s 2148 1413 m 29 X s 2148 1456 m 29 X s 2148 1490 m 29 X s 2148 1517 m 29 X
 s 2148 1540 m 29 X s 2148 1560 m 29 X s 2148 1578 m 29 X s 2120 1594 m 57 X s 2148 1698 m 29 X s 0.6 0.6 0.6 c[ 12 12] 0 sd 3 lw 0.95 0.95 0.95 c black 0.6 0.6 0.6 c 1013 212 m 2 1 d 2 1 d 2 2 d 2 1 d 2 2 d 2 1 d 2 2 d 2 1 d 1 2 d 2 1 d 2 2 d 2 1 d
 2 2 d 2 1 d 2 2 d 2 1 d 2 2 d 2 1 d 1 2 d 2 1 d 2 2 d 2 1 d 2 2 d 2 1 d 2 2 d 2 1 d 2 2 d 1 2 d 2 1 d 2 2 d 2 1 d 2 2 d 2 1 d 2 2 d 2 1 d 2 2 d 1 1 d 2 2 d 2 1 d 2 2 d 2 1 d 2 2 d 2 1 d 2 2 d 2 1 d 2 2 d 1 1 d 2 2 d 2 1 d s 1106 285 m 2 2 d 2 1 d 2
 2 d 2 2 d 2 1 d 2 2 d 1 1 d 2 2 d 2 1 d 2 2 d 2 1 d 2 2 d 2 1 d 2 2 d 2 1 d 2 2 d 1 1 d 2 2 d 2 1 d 2 2 d 2 1 d 2 2 d 2 1 d 2 2 d 2 1 d 1 2 d 2 1 d 2 2 d 2 1 d 2 2 d 2 2 d 2 1 d 2 2 d 2 1 d 1 2 d 2 1 d 2 2 d 2 1 d 2 2 d 2 1 d 2 2 d 2 1 d 2 2 d 2 1 d
 1 2 d 2 1 d 2 2 d 2 1 d 2 2 d s 1199 360 m 2 1 d 2 2 d 2 1 d 2 2 d 1 1 d 2 2 d 2 2 d 2 1 d 2 2 d 2 1 d 2 2 d 2 1 d 2 2 d 2 1 d 1 2 d 2 1 d 2 2 d 2 1 d 2 2 d 2 1 d 2 2 d 2 1 d 2 2 d 1 1 d 2 2 d 2 1 d 2 2 d 2 1 d 2 2 d 2 1 d 2 2 d 2 1 d 1 2 d 2 2 d 2
 1 d 2 2 d 2 1 d 2 2 d 2 1 d 2 2 d 2 1 d 2 2 d 1 1 d 2 2 d 2 1 d 2 2 d 2 1 d 2 2 d 2 1 d s 1292 434 m 2 2 d 2 1 d 1 2 d 2 1 d 2 2 d 2 1 d 2 2 d 2 1 d 2 2 d 2 2 d 2 1 d 2 2 d 1 1 d 2 2 d 2 1 d 2 2 d 2 1 d 2 2 d 2 1 d 2 2 d 2 1 d 1 2 d 2 1 d 2 2 d 2 1
 d 2 2 d 2 1 d 2 2 d 2 1 d 2 2 d 1 1 d 2 2 d 2 1 d 2 2 d 2 1 d 2 2 d 2 2 d 2 1 d 2 2 d 2 1 d 1 2 d 2 1 d 2 2 d 2 1 d 2 2 d 2 1 d 2 2 d 2 1 d 2 2 d s 1385 509 m 1 1 d 2 2 d 2 1 d 2 2 d 2 1 d 2 2 d 2 1 d 2 2 d 2 1 d 1 2 d 2 1 d 2 2 d 2 1 d 2 2 d 2 2 d
 2 1 d 2 2 d 2 1 d 2 2 d 1 1 d 2 2 d 2 1 d 2 2 d 2 1 d 2 2 d 2 1 d 2 2 d 2 1 d 1 2 d 2 1 d 2 2 d 2 1 d 2 2 d 2 1 d 2 2 d 2 1 d 2 2 d 2 1 d 1 2 d 2 2 d 2 1 d 2 2 d 2 1 d 2 2 d 2 1 d 2 2 d 2 1 d 1 2 d 2 1 d s 1477 583 m 2 2 d 2 1 d 2 2 d 2 1 d 2 2 d 2
 1 d 2 2 d 1 1 d 2 2 d 2 1 d 2 2 d 2 1 d 2 2 d 2 1 d 2 2 d 2 1 d 2 2 d 1 2 d 2 1 d 2 2 d 2 1 d 2 2 d 2 1 d 2 2 d 2 1 d 2 2 d 1 1 d 2 2 d 2 1 d 2 2 d 2 1 d 2 2 d 2 1 d 2 2 d 2 1 d 2 2 d 1 1 d 2 2 d 2 1 d 2 2 d 2 1 d 2 2 d 2 2 d 2 1 d 2 2 d 1 1 d 2 2 d
 2 1 d 2 2 d s 1570 658 m 2 1 d 2 2 d 2 1 d 2 2 d 2 1 d 1 2 d 2 1 d 2 2 d 2 1 d 2 2 d 2 1 d 2 2 d 2 1 d 2 2 d 2 1 d 1 2 d 2 1 d 2 2 d 2 1 d 2 2 d 2 2 d 2 1 d 2 2 d 2 1 d 1 2 d 2 1 d 2 2 d 2 1 d 2 2 d 2 1 d 2 2 d 2 1 d 2 2 d 2 1 d 1 2 d 2 1 d 2 2 d 2
 1 d 2 2 d 2 1 d 2 2 d 2 1 d 2 2 d 1 1 d 2 2 d 2 1 d 2 2 d 2 2 d 2 1 d s 1663 732 m 2 2 d 2 1 d 2 2 d 1 1 d 2 2 d 2 1 d 2 2 d 2 1 d 2 2 d 2 1 d 2 2 d 2 1 d 2 2 d 1 1 d 2 2 d 2 1 d 2 2 d 2 1 d 2 2 d 2 1 d 2 2 d 2 1 d 1 2 d 2 2 d 2 1 d 2 2 d 2 1 d 2 2
 d 2 1 d 2 2 d 2 1 d 2 2 d 1 1 d 2 2 d 2 1 d 2 2 d 2 1 d 2 2 d 2 1 d 2 2 d 2 1 d 1 2 d 2 1 d 2 2 d 2 1 d 2 2 d 2 1 d 2 2 d 2 1 d s 1756 806 m 2 2 d 1 2 d 2 1 d 2 2 d 2 1 d 2 2 d 2 1 d 2 2 d 2 1 d 2 2 d 2 1 d 1 2 d 2 1 d 2 2 d 2 1 d 2 2 d 2 1 d 2 2 d
 2 1 d 2 2 d 1 1 d 2 2 d 2 1 d 2 2 d 2 1 d 2 2 d 2 2 d 2 1 d 2 2 d 2 1 d 1 2 d 2 1 d 2 2 d 2 1 d 2 2 d 2 1 d 2 2 d 2 1 d 2 2 d 1 1 d 2 2 d 2 1 d 2 2 d 2 1 d 2 2 d 2 1 d 2 2 d 2 1 d 1 2 d s 1848 881 m 2 1 d 2 2 d 2 1 d 2 2 d 2 2 d 2 1 d 2 2 d 2 1 d 2
 2 d 1 1 d 2 2 d 2 1 d 2 2 d 2 1 d 2 2 d 2 1 d 2 2 d 2 1 d 1 2 d 2 1 d 2 2 d 2 1 d 2 2 d 2 1 d 2 2 d 2 1 d 2 2 d 1 1 d 2 2 d 2 1 d 2 2 d 2 2 d 2 1 d 2 2 d 2 1 d 2 2 d 2 1 d 1 2 d 2 1 d 2 2 d 2 1 d 2 2 d 2 1 d 2 2 d 2 1 d 2 2 d 1 1 d 2 2 d 2 1 d s
 1941 955 m 2 2 d 2 1 d 2 2 d 2 1 d 2 2 d 2 1 d 2 2 d 1 2 d 2 1 d 2 2 d 2 1 d 2 2 d 2 1 d 2 2 d 2 1 d 2 2 d 1 1 d 2 2 d 2 1 d 2 2 d 2 1 d 2 2 d 2 1 d 2 2 d 2 1 d 1 2 d 2 1 d 2 2 d 2 1 d 2 2 d 2 1 d 2 2 d 2 1 d 2 2 d 2 2 d 1 1 d 2 2 d 2 1 d 2 2 d 2 1
 d 2 2 d 2 1 d 2 2 d 2 1 d 1 2 d 2 1 d 2 2 d 2 1 d 2 2 d s 2034 1030 m 2 1 d 2 2 d 2 1 d 2 2 d 2 1 d 1 2 d 2 1 d 2 2 d 2 1 d 2 2 d 2 2 d 2 1 d 2 2 d 2 1 d 1 2 d 2 1 d 2 2 d 2 1 d 2 2 d 2 1 d 2 2 d 2 1 d 2 2 d 1 1 d 2 2 d 2 1 d 2 2 d 2 1 d 2 2 d 2 1 d
 2 2 d 2 1 d 2 2 d 1 1 d 2 2 d 2 1 d 2 2 d 2 2 d 2 1 d 2 2 d 2 1 d 2 2 d 1 1 d 2 2 d 2 1 d 2 2 d 2 1 d 2 2 d 2 1 d s 2127 1104 m 2 2 d 2 1 d 2 2 d 1 1 d 2 2 d 2 1 d 2 2 d 2 1 d 2 2 d 2 1 d 2 2 d 2 1 d 1 2 d 2 2 d 2 1 d 2 2 d 2 1 d 2 2 d 2 1 d 2 2 d 2
 1 d 1 2 d 2 1 d 2 2 d 2 1 d 2 2 d s 0.95 0.95 0.95 c black 0.6 0.6 0.6 c 584 212 m 1 1 d 2 2 d 2 1 d 2 2 d 2 1 d 2 2 d 2 1 d 2 2 d 2 1 d 2 2 d 1 1 d 2 2 d 2 1 d 2 2 d 2 1 d 2 2 d 2 1 d 2 2 d 2 1 d 1 2 d 2 1 d 2 2 d 2 2 d 2 1 d 2 2 d 2 1 d 2 2 d 2 1
 d 2 2 d 1 1 d 2 2 d 2 1 d 2 2 d 2 1 d 2 2 d 2 1 d 2 2 d 2 1 d 1 2 d 2 1 d 2 2 d 2 1 d 2 2 d 2 1 d 2 2 d 2 1 d 2 2 d 1 1 d 2 2 d s 676 286 m 2 2 d 2 1 d 2 2 d 2 1 d 2 2 d 2 1 d 2 2 d 2 1 d 1 2 d 2 1 d 2 2 d 2 1 d 2 2 d 2 1 d 2 2 d 2 1 d 2 2 d 1 1 d 2
 2 d 2 1 d 2 2 d 2 1 d 2 2 d 2 1 d 2 2 d 2 2 d 2 1 d 1 2 d 2 1 d 2 2 d 2 1 d 2 2 d 2 1 d 2 2 d 2 1 d 2 2 d 1 1 d 2 2 d 2 1 d 2 2 d 2 1 d 2 2 d 2 1 d 2 2 d 2 1 d 1 2 d 2 1 d 2 2 d 2 1 d s 769 360 m 2 2 d 2 1 d 2 2 d 2 2 d 2 1 d 2 2 d 1 1 d 2 2 d 2 1 d
 2 2 d 2 1 d 2 2 d 2 1 d 2 2 d 2 1 d 1 2 d 2 1 d 2 2 d 2 1 d 2 2 d 2 1 d 2 2 d 2 1 d 2 2 d 1 1 d 2 2 d 2 1 d 2 2 d 2 2 d 2 1 d 2 2 d 2 1 d 2 2 d 2 1 d 1 2 d 2 1 d 2 2 d 2 1 d 2 2 d 2 1 d 2 2 d 2 1 d 2 2 d 1 1 d 2 2 d 2 1 d 2 2 d 2 1 d 2 2 d s 862 435
 m 2 1 d 2 2 d 2 1 d 2 2 d 1 1 d 2 2 d 2 2 d 2 1 d 2 2 d 2 1 d 2 2 d 2 1 d 2 2 d 1 1 d 2 2 d 2 1 d 2 2 d 2 1 d 2 2 d 2 1 d 2 2 d 2 1 d 1 2 d 2 1 d 2 2 d 2 1 d 2 2 d 2 1 d 2 2 d 2 1 d 2 2 d 2 1 d 1 2 d 2 2 d 2 1 d 2 2 d 2 1 d 2 2 d 2 1 d 2 2 d 2 1 d 1
 2 d 2 1 d 2 2 d 2 1 d 2 2 d 2 1 d 2 2 d 2 1 d s 955 509 m 2 2 d 2 1 d 1 2 d 2 1 d 2 2 d 2 1 d 2 2 d 2 1 d 2 2 d 2 2 d 2 1 d 1 2 d 2 1 d 2 2 d 2 1 d 2 2 d 2 1 d 2 2 d 2 1 d 2 2 d 1 1 d 2 2 d 2 1 d 2 2 d 2 1 d 2 2 d 2 1 d 2 2 d 2 1 d 2 2 d 1 1 d 2 2 d
 2 1 d 2 2 d 2 1 d 2 2 d 2 2 d 2 1 d 2 2 d 1 1 d 2 2 d 2 1 d 2 2 d 2 1 d 2 2 d 2 1 d 2 2 d 2 1 d 2 2 d s 1048 584 m 1 1 d 2 2 d 2 1 d 2 2 d 2 1 d 2 2 d 2 1 d 2 2 d 2 1 d 1 2 d 2 1 d 2 2 d 2 2 d 2 1 d 2 2 d 2 1 d 2 2 d 2 1 d 1 2 d 2 1 d 2 2 d 2 1 d 2
 2 d 2 1 d 2 2 d 2 1 d 2 2 d 2 1 d 1 2 d 2 1 d 2 2 d 2 1 d 2 2 d 2 1 d 2 2 d 2 1 d 2 2 d 1 1 d 2 2 d 2 2 d 2 1 d 2 2 d 2 1 d 2 2 d 2 1 d 2 2 d 2 1 d 1 2 d 2 1 d s 1140 658 m 2 2 d 2 1 d 2 2 d 2 1 d 2 2 d 2 1 d 2 2 d 1 1 d 2 2 d 2 1 d 2 2 d 2 1 d 2 2
 d 2 1 d 2 2 d 2 1 d 1 2 d 2 2 d 2 1 d 2 2 d 2 1 d 2 2 d 2 1 d 2 2 d 2 1 d 2 2 d 1 1 d 2 2 d 2 1 d 2 2 d 2 1 d 2 2 d 2 1 d 2 2 d 2 1 d 1 2 d 2 1 d 2 2 d 2 1 d 2 2 d 2 1 d 2 2 d 2 2 d 2 1 d 2 2 d 1 1 d 2 2 d 2 1 d 2 2 d s 1233 733 m 2 1 d 2 2 d 2 1 d
 2 2 d 2 1 d 1 2 d 2 1 d 2 2 d 2 1 d 2 2 d 2 1 d 2 2 d 2 1 d 2 2 d 1 1 d 2 2 d 2 1 d 2 2 d 2 1 d 2 2 d 2 2 d 2 1 d 2 2 d 2 1 d 1 2 d 2 1 d 2 2 d 2 1 d 2 2 d 2 1 d 2 2 d 2 1 d 2 2 d 1 1 d 2 2 d 2 1 d 2 2 d 2 1 d 2 2 d 2 1 d 2 2 d 2 1 d 2 2 d 1 1 d 2 2
 d 2 2 d 2 1 d 2 2 d 2 1 d s 1326 807 m 2 2 d 2 1 d 2 2 d 1 1 d 2 2 d 2 1 d 2 2 d 2 1 d 2 2 d 2 1 d 2 2 d 2 1 d 1 2 d 2 1 d 2 2 d 2 1 d 2 2 d 2 1 d 2 2 d 2 1 d 2 2 d 2 1 d 1 2 d 2 2 d 2 1 d 2 2 d 2 1 d 2 2 d 2 1 d 2 2 d 2 1 d 1 2 d 2 1 d 2 2 d 2 1 d
 2 2 d 2 1 d 2 2 d 2 1 d 2 2 d 1 1 d 2 2 d 2 1 d 2 2 d 2 1 d 2 2 d 2 1 d 2 2 d 2 2 d s 1419 882 m 2 1 d 1 2 d 2 1 d 2 2 d 2 1 d 2 2 d 2 1 d 2 2 d 2 1 d 2 2 d 1 1 d 2 2 d 2 1 d 2 2 d 2 1 d 2 2 d 2 1 d 2 2 d 2 1 d 2 2 d 1 1 d 2 2 d 2 1 d 2 2 d 2 1 d 2
 2 d 2 2 d 2 1 d 2 2 d 1 1 d 2 2 d 2 1 d 2 2 d 2 1 d 2 2 d 2 1 d 2 2 d 2 1 d 1 2 d 2 1 d 2 2 d 2 1 d 2 2 d 2 1 d 2 2 d 2 1 d 2 2 d 2 1 d 1 2 d s 1511 956 m 2 1 d 2 2 d 2 1 d 2 2 d 2 2 d 2 1 d 2 2 d 2 1 d 1 2 d 2 1 d 2 2 d 2 1 d 2 2 d 2 1 d 2 2 d 2 1
 d 2 2 d 2 1 d 1 2 d 2 1 d 2 2 d 2 1 d 2 2 d 2 1 d 2 2 d 2 1 d 2 2 d 1 1 d 2 2 d 2 2 d 2 1 d 2 2 d 2 1 d 2 2 d 2 1 d 2 2 d 1 1 d 2 2 d 2 1 d 2 2 d 2 1 d 2 2 d 2 1 d 2 2 d 2 1 d 2 2 d 1 1 d 2 2 d 2 1 d s 1604 1030 m 2 2 d 2 1 d 2 2 d 2 1 d 2 2 d 2 1 d
 1 2 d 2 2 d 2 1 d 2 2 d 2 1 d 2 2 d 2 1 d 2 2 d 2 1 d 2 2 d 1 1 d 2 2 d 2 1 d 2 2 d 2 1 d 2 2 d 2 1 d 2 2 d 2 1 d 1 2 d 2 1 d 2 2 d 2 1 d 2 2 d 2 1 d 2 2 d 2 2 d 2 1 d 1 2 d 2 1 d 2 2 d 2 1 d 2 2 d 2 1 d 2 2 d 2 1 d 2 2 d 2 1 d 1 2 d 2 1 d 2 2 d 2 1
 d 2 2 d s 1697 1105 m 2 1 d 2 2 d 2 1 d 2 2 d 1 1 d 2 2 d 2 1 d 2 2 d 2 1 d 2 2 d 2 2 d 2 1 d 2 2 d 2 1 d 1 2 d 2 1 d 2 2 d 2 1 d 2 2 d 2 1 d 2 2 d 2 1 d 2 2 d 1 1 d 2 2 d 2 1 d 2 2 d 2 1 d 2 2 d 2 1 d 2 2 d 2 1 d 1 2 d 2 1 d 2 2 d 2 1 d 2 2 d 2 2 d
 2 1 d 2 2 d 2 1 d 2 2 d 1 1 d 2 2 d 2 1 d 2 2 d 2 1 d 2 2 d 2 1 d s 1790 1179 m 2 2 d 2 1 d 1 2 d 2 1 d 2 2 d 2 1 d 2 2 d 2 1 d 2 2 d 2 1 d 2 2 d 2 1 d 1 2 d 2 2 d 2 1 d 2 2 d 2 1 d 2 2 d 2 1 d 2 2 d 2 1 d 1 2 d 2 1 d 2 2 d 2 1 d 2 2 d 2 1 d 2 2 d 2
 1 d 2 2 d 1 1 d 2 2 d 2 1 d 2 2 d 2 1 d 2 2 d 2 1 d 2 2 d 2 1 d 2 2 d 1 2 d 2 1 d 2 2 d 2 1 d 2 2 d 2 1 d 2 2 d 2 1 d 2 2 d s 1883 1254 m 1 1 d 2 2 d 2 1 d 2 2 d 2 1 d 2 2 d 2 1 d 2 2 d 2 1 d 1 2 d 2 1 d 2 2 d 2 1 d 2 2 d 2 1 d 2 2 d 2 2 d 2 1 d 2 2
 d 1 1 d 2 2 d 2 1 d 2 2 d 2 1 d 2 2 d 2 1 d 2 2 d 2 1 d 1 2 d 2 1 d 2 2 d 2 1 d 2 2 d 2 1 d 2 2 d 2 1 d 2 2 d 2 1 d 1 2 d 2 1 d 2 2 d 2 1 d 2 2 d 2 2 d 2 1 d 2 2 d 2 1 d 1 2 d 2 1 d s 1975 1328 m 2 2 d 2 1 d 2 2 d 2 1 d 2 2 d 2 1 d 2 2 d 1 1 d 2 2 d
 2 1 d 2 2 d 2 1 d 2 2 d 2 1 d 2 2 d 2 1 d 2 2 d 1 1 d 2 2 d 2 1 d 2 2 d 2 2 d 2 1 d 2 2 d 2 1 d 2 2 d 1 1 d 2 2 d 2 1 d 2 2 d 2 1 d 2 2 d 2 1 d 2 2 d 2 1 d 2 2 d 1 1 d 2 2 d 2 1 d 2 2 d 2 1 d 2 2 d 2 1 d 2 2 d 2 1 d 1 2 d 2 2 d 2 1 d 2 2 d s 2068
 1403 m 2 1 d 2 2 d 2 1 d 2 2 d 2 1 d 1 2 d 2 1 d 2 2 d 2 1 d 2 2 d 2 1 d 2 2 d 2 1 d 2 2 d 2 1 d 1 2 d 2 1 d 2 2 d 2 1 d 2 2 d 2 1 d 2 2 d 2 1 d 2 2 d 1 2 d 2 1 d 2 2 d 2 1 d 2 2 d 2 1 d 2 2 d 2 1 d 2 2 d 2 1 d 1 2 d 2 1 d 2 2 d 2 1 d 2 2 d 2 1 d 2
 2 d 2 1 d 2 2 d 1 1 d 2 2 d 2 1 d 2 2 d 2 1 d 2 2 d s 2161 1477 m 2 2 d 2 1 d 2 2 d 1 1 d 2 2 d 2 1 d 2 2 d 2 1 d s 0.95 0.95 0.95 c black 0.6 0.6 0.6 c 284 317 m 2 1 d 2 2 d 2 2 d 2 1 d 2 2 d 2 1 d 2 2 d 2 1 d 1 2 d 2 1 d 2 2 d 2 1 d 2 2 d 2 1 d 2
 2 d 2 1 d 2 2 d 1 1 d 2 2 d 2 1 d 2 2 d 2 1 d 2 2 d 2 1 d 2 2 d 2 1 d 2 2 d 1 2 d 2 1 d 2 2 d 2 1 d 2 2 d 2 1 d 2 2 d 2 1 d 2 2 d 1 1 d 2 2 d 2 1 d 2 2 d 2 1 d 2 2 d 2 1 d 2 2 d 2 1 d 2 2 d 1 1 d 2 2 d 2 1 d s 377 391 m 2 2 d 2 1 d 2 2 d 2 1 d 2 2 d
 2 2 d 1 1 d 2 2 d 2 1 d 2 2 d 2 1 d 2 2 d 2 1 d 2 2 d 2 1 d 1 2 d 2 1 d 2 2 d 2 1 d 2 2 d 2 1 d 2 2 d 2 1 d 2 2 d 2 1 d 1 2 d 2 1 d 2 2 d 2 1 d 2 2 d 2 2 d 2 1 d 2 2 d 2 1 d 1 2 d 2 1 d 2 2 d 2 1 d 2 2 d 2 1 d 2 2 d 2 1 d 2 2 d 2 1 d 1 2 d 2 1 d 2 2
 d 2 1 d 2 2 d s 470 466 m 2 1 d 2 2 d 2 1 d 2 2 d 1 1 d 2 2 d 2 1 d 2 2 d 2 2 d 2 1 d 2 2 d 2 1 d 2 2 d 1 1 d 2 2 d 2 1 d 2 2 d 2 1 d 2 2 d 2 1 d 2 2 d 2 1 d 2 2 d 1 1 d 2 2 d 2 1 d 2 2 d 2 1 d 2 2 d 2 1 d 2 2 d 2 1 d 1 2 d 2 1 d 2 2 d 2 2 d 2 1 d 2
 2 d 2 1 d 2 2 d 2 1 d 2 2 d 1 1 d 2 2 d 2 1 d 2 2 d 2 1 d 2 2 d 2 1 d s 563 540 m 2 2 d 2 1 d 1 2 d 2 1 d 2 2 d 2 1 d 2 2 d 2 1 d 2 2 d 2 1 d 2 2 d 1 2 d 2 1 d 2 2 d 2 1 d 2 2 d 2 1 d 2 2 d 2 1 d 2 2 d 2 1 d 1 2 d 2 1 d 2 2 d 2 1 d 2 2 d 2 1 d 2 2 d
 2 1 d 2 2 d 1 1 d 2 2 d 2 1 d 2 2 d 2 1 d 2 2 d 2 1 d 2 2 d 2 2 d 2 1 d 1 2 d 2 1 d 2 2 d 2 1 d 2 2 d 2 1 d 2 2 d 2 1 d 2 2 d s 656 615 m 1 1 d 2 2 d 2 1 d 2 2 d 2 1 d 2 2 d 2 1 d 2 2 d 2 1 d 1 2 d 2 1 d 2 2 d 2 1 d 2 2 d 2 2 d 2 1 d 2 2 d 2 1 d 2 2
 d 1 1 d 2 2 d 2 1 d 2 2 d 2 1 d 2 2 d 2 1 d 2 2 d 2 1 d 1 2 d 2 1 d 2 2 d 2 1 d 2 2 d 2 1 d 2 2 d 2 1 d 2 2 d 2 1 d 1 2 d 2 1 d 2 2 d 2 2 d 2 1 d 2 2 d 2 1 d 2 2 d 2 1 d 1 2 d 2 1 d s 748 689 m 2 2 d 2 1 d 2 2 d 2 1 d 2 2 d 2 1 d 2 2 d 1 1 d 2 2 d 2
 1 d 2 2 d 2 1 d 2 2 d 2 1 d 2 2 d 2 1 d 2 2 d 1 1 d 2 2 d 2 2 d 2 1 d 2 2 d 2 1 d 2 2 d 2 1 d 2 2 d 1 1 d 2 2 d 2 1 d 2 2 d 2 1 d 2 2 d 2 1 d 2 2 d 2 1 d 1 2 d 2 1 d 2 2 d 2 1 d 2 2 d 2 1 d 2 2 d 2 1 d 2 2 d 2 2 d 1 1 d 2 2 d 2 1 d 2 2 d s 841 764 m
 2 1 d 2 2 d 2 1 d 2 2 d 2 1 d 1 2 d 2 1 d 2 2 d 2 1 d 2 2 d 2 1 d 2 2 d 2 1 d 2 2 d 2 1 d 1 2 d 2 1 d 2 2 d 2 1 d 2 2 d 2 1 d 2 2 d 2 2 d 2 1 d 1 2 d 2 1 d 2 2 d 2 1 d 2 2 d 2 1 d 2 2 d 2 1 d 2 2 d 1 1 d 2 2 d 2 1 d 2 2 d 2 1 d 2 2 d 2 1 d 2 2 d 2 1
 d 2 2 d 1 1 d 2 2 d 2 1 d 2 2 d 2 2 d 2 1 d s 934 838 m 2 2 d 2 1 d 2 2 d 1 1 d 2 2 d 2 1 d 2 2 d 2 1 d 2 2 d 2 1 d 2 2 d 2 1 d 2 2 d 1 1 d 2 2 d 2 1 d 2 2 d 2 1 d 2 2 d 2 1 d 2 2 d 2 1 d 1 2 d 2 1 d 2 2 d 2 2 d 2 1 d 2 2 d 2 1 d 2 2 d 2 1 d 1 2 d 2
 1 d 2 2 d 2 1 d 2 2 d 2 1 d 2 2 d 2 1 d 2 2 d 2 1 d 1 2 d 2 1 d 2 2 d 2 1 d 2 2 d 2 1 d 2 2 d 2 1 d s 1027 912 m 2 2 d 1 1 d 2 2 d 2 2 d 2 1 d 2 2 d 2 1 d 2 2 d 2 1 d 2 2 d 2 1 d 1 2 d 2 1 d 2 2 d 2 1 d 2 2 d 2 1 d 2 2 d 2 1 d 2 2 d 1 1 d 2 2 d 2 1
 d 2 2 d 2 1 d 2 2 d 2 1 d 2 2 d 2 2 d 1 1 d 2 2 d 2 1 d 2 2 d 2 1 d 2 2 d 2 1 d 2 2 d 2 1 d 2 2 d 1 1 d 2 2 d 2 1 d 2 2 d 2 1 d 2 2 d 2 1 d 2 2 d 2 1 d 1 2 d s 1119 987 m 2 1 d 2 2 d 2 1 d 2 2 d 2 1 d 2 2 d 2 2 d 2 1 d 2 2 d 1 1 d 2 2 d 2 1 d 2 2 d
 2 1 d 2 2 d 2 1 d 2 2 d 2 1 d 1 2 d 2 1 d 2 2 d 2 1 d 2 2 d 2 1 d 2 2 d 2 1 d 2 2 d 1 1 d 2 2 d 2 1 d 2 2 d 2 2 d 2 1 d 2 2 d 2 1 d 2 2 d 2 1 d 1 2 d 2 1 d 2 2 d 2 1 d 2 2 d 2 1 d 2 2 d 2 1 d 2 2 d 1 1 d 2 2 d 2 1 d s 1212 1061 m 2 2 d 2 1 d 2 2 d 2
 1 d 2 2 d 2 1 d 2 2 d 1 1 d 2 2 d 2 2 d 2 1 d 2 2 d 2 1 d 2 2 d 2 1 d 2 2 d 1 1 d 2 2 d 2 1 d 2 2 d 2 1 d 2 2 d 2 1 d 2 2 d 2 1 d 1 2 d 2 1 d 2 2 d 2 1 d 2 2 d 2 1 d 2 2 d 2 1 d 2 2 d 2 2 d 1 1 d 2 2 d 2 1 d 2 2 d 2 1 d 2 2 d 2 1 d 2 2 d 2 1 d 1 2 d
 2 1 d 2 2 d 2 1 d 2 2 d s 1305 1136 m 2 1 d 2 2 d 2 1 d 2 2 d 2 1 d 1 2 d 2 1 d 2 2 d 2 1 d 2 2 d 2 1 d 2 2 d 2 2 d 2 1 d 1 2 d 2 1 d 2 2 d 2 1 d 2 2 d 2 1 d 2 2 d 2 1 d 2 2 d 1 1 d 2 2 d 2 1 d 2 2 d 2 1 d 2 2 d 2 1 d 2 2 d 2 1 d 2 2 d 1 1 d 2 2 d 2
 1 d 2 2 d 2 1 d 2 2 d 2 2 d 2 1 d 2 2 d 1 1 d 2 2 d 2 1 d 2 2 d 2 1 d 2 2 d 2 1 d s 1398 1210 m 2 2 d 2 1 d 1 2 d 2 1 d 2 2 d 2 1 d 2 2 d 2 1 d 2 2 d 2 1 d 2 2 d 2 1 d 1 2 d 2 1 d 2 2 d 2 2 d 2 1 d 2 2 d 2 1 d 2 2 d 2 1 d 1 2 d 2 1 d 2 2 d 2 1 d 2 2
 d 2 1 d 2 2 d 2 1 d 2 2 d 2 1 d 1 2 d 2 1 d 2 2 d 2 1 d 2 2 d 2 1 d 2 2 d 2 1 d 2 2 d 1 1 d 2 2 d 2 2 d 2 1 d 2 2 d 2 1 d 2 2 d 2 1 d 2 2 d s 1491 1285 m 1 1 d 2 2 d 2 1 d 2 2 d 2 1 d 2 2 d 2 1 d 2 2 d 2 1 d 2 2 d 1 1 d 2 2 d 2 1 d 2 2 d 2 1 d 2 2 d
 2 1 d 2 2 d 2 2 d 1 1 d 2 2 d 2 1 d 2 2 d 2 1 d 2 2 d 2 1 d 2 2 d 2 1 d 2 2 d 1 1 d 2 2 d 2 1 d 2 2 d 2 1 d 2 2 d 2 1 d 2 2 d 2 1 d 1 2 d 2 1 d 2 2 d 2 1 d 2 2 d 2 1 d 2 2 d 2 2 d 2 1 d 1 2 d 2 1 d s 1583 1359 m 2 2 d 2 1 d 2 2 d 2 1 d 2 2 d 2 1 d 2
 2 d 2 1 d 1 2 d 2 1 d 2 2 d 2 1 d 2 2 d 2 1 d 2 2 d 2 1 d 2 2 d 1 1 d 2 2 d 2 1 d 2 2 d 2 1 d 2 2 d 2 2 d 2 1 d 2 2 d 2 1 d 1 2 d 2 1 d 2 2 d 2 1 d 2 2 d 2 1 d 2 2 d 2 1 d 2 2 d 1 1 d 2 2 d 2 1 d 2 2 d 2 1 d 2 2 d 2 1 d 2 2 d 2 1 d 1 2 d 2 1 d 2 2 d
 2 2 d s 1676 1434 m 2 1 d 2 2 d 2 1 d 2 2 d 2 1 d 2 2 d 1 1 d 2 2 d 2 1 d 2 2 d 2 1 d 2 2 d 2 1 d 2 2 d 2 1 d 1 2 d 2 1 d 2 2 d 2 1 d 2 2 d 2 1 d 2 2 d 2 1 d 2 2 d 2 1 d 1 2 d 2 2 d 2 1 d 2 2 d 2 1 d 2 2 d 2 1 d 2 2 d 2 1 d 1 2 d 2 1 d 2 2 d 2 1 d 2
 2 d 2 1 d 2 2 d 2 1 d 2 2 d 1 1 d 2 2 d 2 1 d 2 2 d 2 1 d 2 2 d s 1769 1508 m 2 1 d 2 2 d 2 2 d 2 1 d 1 2 d 2 1 d 2 2 d 2 1 d 2 2 d 2 1 d 2 2 d 2 1 d 2 2 d 1 1 d 2 2 d 2 1 d 2 2 d 2 1 d 2 2 d 2 1 d 2 2 d 2 1 d 2 2 d 1 1 d 2 2 d 2 1 d 2 2 d 2 1 d 2 2
 d 2 2 d 2 1 d 2 2 d 1 1 d 2 2 d 2 1 d 2 2 d 2 1 d 2 2 d 2 1 d 2 2 d 2 1 d 1 2 d 2 1 d 2 2 d 2 1 d 2 2 d 2 1 d 2 2 d 2 1 d s 1862 1582 m 2 2 d 2 1 d 1 2 d 2 1 d 2 2 d 2 1 d 2 2 d 2 2 d 2 1 d 2 2 d 2 1 d 1 2 d 2 1 d 2 2 d 2 1 d 2 2 d 2 1 d 2 2 d 2 1 d
 2 2 d 1 1 d 2 2 d 2 1 d 2 2 d 2 1 d 2 2 d 2 1 d 2 2 d 2 1 d 2 2 d 1 1 d 2 2 d 2 2 d 2 1 d 2 2 d 2 1 d 2 2 d 2 1 d 2 2 d 1 1 d 2 2 d 2 1 d 2 2 d 2 1 d 2 2 d 2 1 d 2 2 d 2 1 d 2 2 d s 1955 1657 m 1 1 d 2 2 d 2 1 d 2 2 d 2 1 d 2 2 d 2 1 d 2 2 d 2 1 d 1
 2 d 2 2 d 2 1 d 2 2 d 2 1 d 2 2 d 2 1 d 2 2 d 2 1 d 1 2 d 2 1 d 2 2 d 2 1 d 2 2 d 2 1 d 2 2 d 2 1 d 2 2 d 2 X s 0.95 0.95 0.95 c black 0.6 0.6 0.6 c 284 662 m 2 2 d 2 1 d 2 2 d 2 1 d 2 2 d 2 1 d 2 2 d 2 2 d 1 1 d 2 2 d 2 1 d 2 2 d 2 1 d 2 2 d 2 1 d
 2 2 d 2 1 d 1 2 d 2 1 d 2 2 d 2 1 d 2 2 d 2 1 d 2 2 d 2 1 d 2 2 d 2 1 d 1 2 d 2 1 d 2 2 d 2 1 d 2 2 d 2 2 d 2 1 d 2 2 d 2 1 d 1 2 d 2 1 d 2 2 d 2 1 d 2 2 d 2 1 d 2 2 d 2 1 d 2 2 d 2 1 d 1 2 d 2 1 d 2 2 d s 377 737 m 2 1 d 2 2 d 2 1 d 2 2 d 2 1 d 2 2
 d 1 1 d 2 2 d 2 1 d 2 2 d 2 2 d 2 1 d 2 2 d 2 1 d 2 2 d 1 1 d 2 2 d 2 1 d 2 2 d 2 1 d 2 2 d 2 1 d 2 2 d 2 1 d 2 2 d 1 1 d 2 2 d 2 1 d 2 2 d 2 1 d 2 2 d 2 1 d 2 2 d 2 1 d 1 2 d 2 2 d 2 1 d 2 2 d 2 1 d 2 2 d 2 1 d 2 2 d 2 1 d 2 2 d 1 1 d 2 2 d 2 1 d 2
 2 d 2 1 d s 470 811 m 2 2 d 2 1 d 2 2 d 2 1 d 1 2 d 2 1 d 2 2 d 2 1 d 2 2 d 2 1 d 2 2 d 2 1 d 2 2 d 1 2 d 2 1 d 2 2 d 2 1 d 2 2 d 2 1 d 2 2 d 2 1 d 2 2 d 2 1 d 1 2 d 2 1 d 2 2 d 2 1 d 2 2 d 2 1 d 2 2 d 2 1 d 2 2 d 1 1 d 2 2 d 2 1 d 2 2 d 2 1 d 2 2 d
 2 2 d 2 1 d 2 2 d 2 1 d 1 2 d 2 1 d 2 2 d 2 1 d 2 2 d 2 1 d 2 2 d s 563 886 m 2 1 d 2 2 d 1 1 d 2 2 d 2 1 d 2 2 d 2 1 d 2 2 d 2 1 d 2 2 d 2 1 d 1 2 d 2 1 d 2 2 d 2 1 d 2 2 d 2 2 d 2 1 d 2 2 d 2 1 d 2 2 d 1 1 d 2 2 d 2 1 d 2 2 d 2 1 d 2 2 d 2 1 d 2 2
 d 2 1 d 1 2 d 2 1 d 2 2 d 2 1 d 2 2 d 2 1 d 2 2 d 2 1 d 2 2 d 2 1 d 1 2 d 2 1 d 2 2 d 2 2 d 2 1 d 2 2 d 2 1 d 2 2 d 2 1 d s 656 960 m 1 2 d 2 1 d 2 2 d 2 1 d 2 2 d 2 1 d 2 2 d 2 1 d 2 2 d 1 1 d 2 2 d 2 1 d 2 2 d 2 1 d 2 2 d 2 1 d 2 2 d 2 1 d 2 2 d 1
 2 d 2 1 d 2 2 d 2 1 d 2 2 d 2 1 d 2 2 d 2 1 d 2 2 d 1 1 d 2 2 d 2 1 d 2 2 d 2 1 d 2 2 d 2 1 d 2 2 d 2 1 d 2 2 d 1 1 d 2 2 d 2 1 d 2 2 d 2 1 d 2 2 d 2 1 d 2 2 d 2 2 d 1 1 d 2 2 d s 748 1035 m 2 1 d 2 2 d 2 1 d 2 2 d 2 1 d 2 2 d 2 1 d 1 2 d 2 1 d 2 2
 d 2 1 d 2 2 d 2 1 d 2 2 d 2 1 d 2 2 d 2 1 d 1 2 d 2 1 d 2 2 d 2 1 d 2 2 d 2 2 d 2 1 d 2 2 d 2 1 d 1 2 d 2 1 d 2 2 d 2 1 d 2 2 d 2 1 d 2 2 d 2 1 d 2 2 d 1 1 d 2 2 d 2 1 d 2 2 d 2 1 d 2 2 d 2 1 d 2 2 d 2 1 d 2 2 d 1 1 d 2 2 d 2 1 d 2 2 d s 841 1109 m
 2 2 d 2 1 d 2 2 d 2 1 d 2 2 d 1 1 d 2 2 d 2 1 d 2 2 d 2 1 d 2 2 d 2 1 d 2 2 d 2 1 d 2 2 d 1 1 d 2 2 d 2 1 d 2 2 d 2 1 d 2 2 d 2 1 d 2 2 d 2 1 d 1 2 d 2 1 d 2 2 d 2 2 d 2 1 d 2 2 d 2 1 d 2 2 d 2 1 d 1 2 d 2 1 d 2 2 d 2 1 d 2 2 d 2 1 d 2 2 d 2 1 d 2 2
 d 2 1 d 1 2 d 2 1 d 2 2 d 2 1 d 2 2 d 2 1 d s 934 1183 m 2 2 d 2 1 d 2 2 d 1 2 d 2 1 d 2 2 d 2 1 d 2 2 d 2 1 d 2 2 d 2 1 d 2 2 d 2 1 d 1 2 d 2 1 d 2 2 d 2 1 d 2 2 d 2 1 d 2 2 d 2 1 d 2 2 d 1 1 d 2 2 d 2 1 d 2 2 d 2 1 d 2 2 d 2 1 d 2 2 d 2 2 d 1 1 d
 2 2 d 2 1 d 2 2 d 2 1 d 2 2 d 2 1 d 2 2 d 2 1 d 2 2 d 1 1 d 2 2 d 2 1 d 2 2 d 2 1 d 2 2 d 2 1 d 2 2 d s 1027 1258 m 2 1 d 1 2 d 2 1 d 2 2 d 2 1 d 2 2 d 2 2 d 2 1 d 2 2 d 2 1 d 2 2 d 1 1 d 2 2 d 2 1 d 2 2 d 2 1 d 2 2 d 2 1 d 2 2 d 2 1 d 1 2 d 2 1 d 2
 2 d 2 1 d 2 2 d 2 1 d 2 2 d 2 1 d 2 2 d 1 1 d 2 2 d 2 1 d 2 2 d 2 2 d 2 1 d 2 2 d 2 1 d 2 2 d 2 1 d 1 2 d 2 1 d 2 2 d 2 1 d 2 2 d 2 1 d 2 2 d 2 1 d 2 2 d 1 1 d s 1119 1332 m 2 2 d 2 1 d 2 2 d 2 1 d 2 2 d 2 1 d 2 2 d 2 1 d 2 2 d 1 1 d 2 2 d 2 2 d 2 1
 d 2 2 d 2 1 d 2 2 d 2 1 d 2 2 d 1 1 d 2 2 d 2 1 d 2 2 d 2 1 d 2 2 d 2 1 d 2 2 d 2 1 d 1 2 d 2 1 d 2 2 d 2 1 d 2 2 d 2 1 d 2 2 d 2 1 d 2 2 d 2 2 d 1 1 d 2 2 d 2 1 d 2 2 d 2 1 d 2 2 d 2 1 d 2 2 d 2 1 d 1 2 d 2 1 d 2 2 d s 1212 1407 m 2 1 d 2 2 d 2 1 d
 2 2 d 2 1 d 2 2 d 2 1 d 1 2 d 2 1 d 2 2 d 2 1 d 2 2 d 2 1 d 2 2 d 2 2 d 2 1 d 1 2 d 2 1 d 2 2 d 2 1 d 2 2 d 2 1 d 2 2 d 2 1 d 2 2 d 1 1 d 2 2 d 2 1 d 2 2 d 2 1 d 2 2 d 2 1 d 2 2 d 2 1 d 2 2 d 1 1 d 2 2 d 2 1 d 2 2 d 2 2 d 2 1 d 2 2 d 2 1 d 2 2 d 1 1
 d 2 2 d 2 1 d 2 2 d 2 1 d s 1305 1481 m 2 2 d 2 1 d 2 2 d 2 1 d 2 2 d 1 1 d 2 2 d 2 1 d 2 2 d 2 1 d 2 2 d 2 1 d 2 2 d 2 1 d 1 2 d 2 1 d 2 2 d 2 2 d 2 1 d 2 2 d 2 1 d 2 2 d 2 1 d 1 2 d 2 1 d 2 2 d 2 1 d 2 2 d 2 1 d 2 2 d 2 1 d 2 2 d 2 1 d 1 2 d 2 1 d
 2 2 d 2 1 d 2 2 d 2 1 d 2 2 d 2 1 d 2 2 d 1 2 d 2 1 d 2 2 d 2 1 d 2 2 d 2 1 d 2 2 d s 1398 1556 m 2 1 d 2 2 d 1 1 d 2 2 d 2 1 d 2 2 d 2 1 d 2 2 d 2 1 d 2 2 d 2 1 d 2 2 d 1 1 d 2 2 d 2 1 d 2 2 d 2 1 d 2 2 d 2 1 d 2 2 d 2 2 d 1 1 d 2 2 d 2 1 d 2 2 d 2
 1 d 2 2 d 2 1 d 2 2 d 2 1 d 2 2 d 1 1 d 2 2 d 2 1 d 2 2 d 2 1 d 2 2 d 2 1 d 2 2 d 2 1 d 1 2 d 2 1 d 2 2 d 2 1 d 2 2 d 2 1 d 2 2 d 2 2 d 2 1 d s 1491 1630 m 1 2 d 2 1 d 2 2 d 2 1 d 2 2 d 2 1 d 2 2 d 2 1 d 2 2 d 2 1 d 1 2 d 2 1 d 2 2 d 2 1 d 2 2 d 2 1
 d 2 2 d 2 1 d 2 2 d 1 1 d 2 2 d 2 1 d 2 2 d 2 2 d 2 1 d 2 2 d 2 1 d 2 2 d 2 1 d 1 2 d 2 1 d 2 2 d 2 1 d 2 2 d 2 1 d 2 2 d 2 1 d 2 2 d 1 1 d 2 2 d 2 1 d 2 2 d 2 1 d 2 2 d 2 1 d s black[  ] 0 sd /w 22 def /w2 {w 2 div} def /w3 {w 3 div} def 454 949
 m24[ 12 12] 0 sd
 gsave  2268 1769 0 0 C 471.989 957.541 t 0 r /Helvetica findfont 54.2516 sf 0 0 m (CREAM\255II) show NC gr [  ] 0 sd 828 618 m25[ 12 12] 0 sd
 gsave  2268 1769 0 0 C 843.612 626.606 t 0 r /Helvetica findfont 54.2516 sf 0 0 m (Agile) show NC gr [  ] 0 sd 1057 1129 m20[ 12 12] 0 sd
 gsave  2268 1769 0 0 C 1074.18 1136.57 t 0 r /Helvetica findfont 54.2516 sf 0 0 m (CLEO III) show NC gr [  ] 0 sd 1918 1522 m20[ 12 12] 0 sd
 gsave  2268 1769 0 0 C 1934.07 1529.89 t 0 r /Helvetica findfont 54.2516 sf 0 0 m (ALICE) show NC gr [  ] 0 sd 930 783 m25[ 12 12] 0 sd
 gsave  2268 1769 0 0 C 946.69 792.073 t 0 r /Helvetica findfont 54.2516 sf 0 0 m (AMS\25501) show NC gr [  ] 0 sd 1385 1413 m20[ 12 12] 0 sd
 gsave  2268 1769 0 0 C 1402.4 1421.39 t 0 r /Helvetica findfont 54.2516 sf 0 0 m (CDF run II) show NC gr [  ] 0 sd 828 754 m25[ 12 12] 0 sd
 gsave  2268 1769 0 0 C 843.612 762.235 t 0 r /Helvetica findfont 54.2516 sf 0 0 m (PaMeLa) show NC gr [  ] 0 sd 956 1007 m20[ 12 12] 0 sd
 gsave  2268 1769 0 0 C 973.816 1014.5 t 0 r /Helvetica findfont 54.2516 sf 0 0 m (L3) show NC gr [  ] 0 sd 1423 974 m25[ 12 12] 0 sd
 gsave  2268 1769 0 0 C 1440.38 981.954 t 0 r /Helvetica findfont 54.2516 sf 0 0 m (Fermi\255LAT) show NC gr [  ] 0 sd 1141 954 m25[ 12 12] 0 sd
 gsave  2268 1769 0 0 C 1158.27 962.966 t 0 r /Helvetica findfont 54.2516 sf 0 0 m (AMS\25502) show NC gr 
 gr  gr showpage
end
%%EOF
