%!PS-Adobe-2.0 EPSF-2.0
%%BoundingBox:  0 0 567 442
%%Title: simple_detector.eps: simple_detector
%%Creator: ROOT Version 5.34/14
%%CreationDate: Fri Jan 31 22:18:51 2014
%%EndComments
%%BeginProlog
80 dict begin
/s {stroke} def /l {lineto} def /m {moveto} def /t {translate} def
/r {rotate} def /rl {roll}  def /R {repeat} def
/d {rlineto} def /rm {rmoveto} def /gr {grestore} def /f {eofill} def
/c {setrgbcolor} def /black {0 setgray} def /sd {setdash} def
/cl {closepath} def /sf {scalefont setfont} def /lw {setlinewidth} def
/box {m dup 0 exch d exch 0 d 0 exch neg d cl} def
/NC{systemdict begin initclip end}def/C{NC box clip newpath}def
/bl {box s} def /bf {box f} def /Y { 0 exch d} def /X { 0 d} def 
/K {{pop pop 0 moveto} exch kshow} bind def
/ita {/ang 15 def gsave [1 0 ang dup sin exch cos div 1 0 0] concat} def 
/mp {newpath /y exch def /x exch def} def
/side {[w .77 mul w .23 mul] .385 w mul sd w 0 l currentpoint t -144 r} def
/mr {mp x y w2 0 360 arc} def /m24 {mr s} def /m20 {mr f} def
/mb {mp x y w2 add m w2 neg 0 d 0 w neg d w 0 d 0 w d cl} def
/mt {mp x y w2 add m w2 neg w neg d w 0 d cl} def
/m21 {mb f} def /m25 {mb s} def /m22 {mt f} def /m26{mt s} def
/m23 {mp x y w2 sub m w2 w d w neg 0 d cl f} def
/m27 {mp x y w2 add m w3 neg w2 neg d w3 w2 neg d w3 w2 d cl s} def
/m28 {mp x w2 sub y w2 sub w3 add m w3 0 d  0 w3 neg d w3 0 d 0 w3 d w3 0 d  0 w3 d w3 neg 0 d 0 w3 d w3 neg 0 d 0 w3 neg d w3 neg 0 d cl s } def
/m29 {mp gsave x w2 sub y w2 add w3 sub m currentpoint t 4 {side} repeat cl fill gr} def
/m30 {mp gsave x w2 sub y w2 add w3 sub m currentpoint t 4 {side} repeat cl s gr} def
/m31 {mp x y w2 sub m 0 w d x w2 sub y m w 0 d x w2 sub y w2 add m w w neg d x w2 sub y w2 sub m w w d s} def
/m32 {mp x y w2 sub m w2 w d w neg 0 d cl s} def
/m33 {mp x y w2 add m w3 neg w2 neg d w3 w2 neg d w3 w2 d cl f} def
/m34 {mp x w2 sub y w2 sub w3 add m w3 0 d  0 w3 neg d w3 0 d 0 w3 d w3 0 d  0 w3 d w3 neg 0 d 0 w3 d w3 neg 0 d 0 w3 neg d w3 neg 0 d cl f } def
/m2 {mp x y w2 sub m 0 w d x w2 sub y m w 0 d s} def
/m5 {mp x w2 sub y w2 sub m w w d x w2 sub y w2 add m w w neg d s} def
/reEncode {exch findfont dup length dict begin {1 index /FID eq  {pop pop} {def} ifelse } forall /Encoding exch def currentdict end dup /FontName get exch definefont pop } def [/Times-Bold /Times-Italic /Times-BoldItalic /Helvetica /Helvetica-Oblique
 /Helvetica-Bold /Helvetica-BoldOblique /Courier /Courier-Oblique /Courier-Bold /Courier-BoldOblique /Times-Roman /AvantGarde-Book /AvantGarde-BookOblique /AvantGarde-Demi /AvantGarde-DemiOblique /Bookman-Demi /Bookman-DemiItalic /Bookman-Light
 /Bookman-LightItalic /Helvetica-Narrow /Helvetica-Narrow-Bold /Helvetica-Narrow-BoldOblique /Helvetica-Narrow-Oblique /NewCenturySchlbk-Roman /NewCenturySchlbk-Bold /NewCenturySchlbk-BoldItalic /NewCenturySchlbk-Italic /Palatino-Bold
 /Palatino-BoldItalic /Palatino-Italic /Palatino-Roman ] {ISOLatin1Encoding reEncode } forall
%%EndProlog
%%BeginSetup
%%EndSetup
newpath  gsave  .25 .25 scale  gsave  0 0 t black[  ] 0 sd 6 lw 1 1 1 c 2268 1769 0 0 bf black 0.8 0.8 0.8 c 1063 217 m -524 400 d s 539 617 m 637 200 d s 1176 817 m 579 -250 d s 1755 567 m -692 -350 d s 1060 417 m -536 355 d s 524 772 m 653 176 d s
 1177 948 m 595 -219 d s 1772 729 m -712 -312 d s 1063 217 m -3 200 d s 539 617 m -15 155 d s 1176 817 m 1 131 d s 1755 567 m 17 162 d s 1060 437 m -538 351 d s 522 788 m 655 173 d s 1177 961 m 597 -216 d s 1774 745 m -714 -308 d s 1060 438 m -538
 351 d s 522 789 m 655 173 d s 1177 962 m 597 -216 d s 1774 746 m -714 -308 d s 1060 437 m 1 Y s 522 788 m 1 Y s 1177 961 m 1 Y s 1774 745 m 1 Y s 1059 517 m -543 332 d s 516 849 m 662 163 d s 1178 1012 m 603 -204 d s 1781 808 m -722 -291 d s 1059
 518 m -543 332 d s 516 850 m 662 162 d s 1178 1012 m 603 -203 d s 1781 809 m -722 -291 d s 1059 517 m 1 Y s 516 849 m 1 Y s 1178 1012 m s 1781 808 m 1 Y s 1058 598 m -548 313 d s 510 911 m 668 152 d s 1178 1063 m 609 -190 d s 1787 873 m -729 -275 d
 s 1058 600 m -548 312 d s 510 912 m 668 152 d s 1178 1064 m 609 -190 d s 1787 874 m -729 -274 d s 1058 598 m 2 Y s 510 911 m 1 Y s 1178 1063 m 1 Y s 1787 873 m 1 Y s 1057 682 m -553 292 d s 504 974 m 674 142 d s 1178 1116 m 616 -177 d s 1794 939 m
 -737 -257 d s 1057 684 m -553 291 d s 504 975 m 674 141 d s 1178 1116 m 616 -176 d s 1794 940 m -737 -256 d s 1057 682 m 2 Y s 504 974 m 1 Y s 1178 1116 m s 1794 939 m 1 Y s 1056 769 m -559 270 d s 497 1039 m 682 130 d s 1179 1169 m 622 -163 d s
 1801 1006 m -745 -237 d s 1056 770 m -559 270 d s 497 1040 m 682 130 d s 1179 1170 m 622 -163 d s 1801 1007 m -745 -237 d s 1056 769 m 1 Y s 497 1039 m 1 Y s 1179 1169 m 1 Y s 1801 1006 m 1 Y s 1053 981 m -571 214 d s 482 1195 m 698 102 d s 1180
 1297 m 638 -127 d s 1818 1170 m -765 -189 d s 1053 1013 m -574 205 d s 479 1218 m 701 98 d s 1180 1316 m 641 -122 d s 1821 1194 m -768 -181 d s 1053 981 m 32 Y s 482 1195 m -3 23 d s 1180 1297 m 19 Y s 1818 1170 m 3 24 d s black 1134 767 m -620 -203
 d s
 gsave  2268 1769 0 0 C 431.3 531.666 t 0 r /Helvetica findfont 78.6648 sf 0 0 m (+x) show NC gr  1134 767 m 543 -252 d s
 gsave  2268 1769 0 0 C 1668.24 485.552 t 0 r /Helvetica findfont 78.6648 sf 0 0 m (+y) show NC gr  1134 767 m 683 Y s
 gsave  2268 1769 0 0 C 1090.46 1467.51 t 0 r /Helvetica findfont 78.6648 sf 0 0 m (+z) show NC gr  1134 767 m -566 547 d s
 gsave  2268 1769 0 0 C 493.689 1326.45 t 0 r /Helvetica findfont 78.6648 sf 0 0 m (v) show NC gr  502 1381 m 13 13 d s 515 1394 m 14 -13 d s[ 12 12] 0 sd 1134 767 m -483 -434 d s 568 1314 m 83 -981 d s
 gsave  2268 1769 0 0 C 946.69 651.019 t 0 r /Symbol findfont 70.5271 sf 0 0 m (f) show NC gr [  ] 0 sd 991 721 m 3 -2 d s 994 719 m 3 -1 d s 997 718 m 3 -1 d s 1000 717 m 3 -2 d s 1003 715 m 3 -1 d s 1006 714 m 3 -1 d s 1009 713 m 3 -2 d s 1012 711
 m 4 -1 d s 1016 710 m 3 -1 d s 1019 709 m 4 -1 d s 1023 708 m 3 -1 d s 1026 707 m 4 -1 d s 1030 706 m 4 -1 d s 1034 705 m 4 -1 d s 1038 704 m 4 -1 d s 1042 703 m 4 -1 d s 1046 702 m 4 -1 d s 1050 701 m 4 -1 d s 1054 700 m 4 -1 d s 972 715 m 3 -2 d s
 975 713 m 4 -2 d s 979 711 m 3 -1 d s 982 710 m 3 -2 d s 985 708 m 4 -1 d s 989 707 m 3 -2 d s 992 705 m 4 -1 d s 996 704 m 4 -2 d s 1000 702 m 4 -1 d s 1004 701 m 4 -1 d s 1008 700 m 4 -1 d s 1012 699 m 4 -2 d s 1016 697 m 5 -1 d s 1021 696 m 4 -1
 d s 1025 695 m 4 -1 d s 1029 694 m 5 -1 d s 1034 693 m 4 -1 d s 1038 692 m 5 -1 d s 1043 691 m 5 -1 d s
 gsave  2268 1769 0 0 C 1068.76 916.852 t 0 r /Symbol findfont 70.5271 sf 0 0 m (q) show NC gr  1134 936 m -4 -3 d s 1130 933 m -3 -3 d s 1127 930 m -3 -4 d s 1124 926 m -4 -3 d s 1120 923 m -3 -5 d s 1117 918 m -4 -4 d s 1113 914 m -3 -5 d s 1110
 909 m -3 -6 d s 1107 903 m -4 -6 d s 1103 897 m -3 -6 d s 1100 891 m -3 -6 d s 1097 885 m -3 -7 d s 1094 878 m -3 -7 d s 1091 871 m -3 -7 d s 1088 864 m -3 -7 d s 1085 857 m -3 -8 d s 1082 849 m -2 -8 d s 1080 841 m -3 -8 d s 1077 833 m -2 -8 d s
 gr  gr showpage
end
%%EOF
