%!PS-Adobe-2.0 EPSF-2.0
%%BoundingBox:  0 0 567 442
%%Title: spillover.eps: spillover
%%Creator: ROOT Version 5.34/14
%%CreationDate: Fri Jan 31 22:19:19 2014
%%EndComments
%%BeginProlog
80 dict begin
/s {stroke} def /l {lineto} def /m {moveto} def /t {translate} def
/r {rotate} def /rl {roll}  def /R {repeat} def
/d {rlineto} def /rm {rmoveto} def /gr {grestore} def /f {eofill} def
/c {setrgbcolor} def /black {0 setgray} def /sd {setdash} def
/cl {closepath} def /sf {scalefont setfont} def /lw {setlinewidth} def
/box {m dup 0 exch d exch 0 d 0 exch neg d cl} def
/NC{systemdict begin initclip end}def/C{NC box clip newpath}def
/bl {box s} def /bf {box f} def /Y { 0 exch d} def /X { 0 d} def 
/K {{pop pop 0 moveto} exch kshow} bind def
/ita {/ang 15 def gsave [1 0 ang dup sin exch cos div 1 0 0] concat} def 
/mp {newpath /y exch def /x exch def} def
/side {[w .77 mul w .23 mul] .385 w mul sd w 0 l currentpoint t -144 r} def
/mr {mp x y w2 0 360 arc} def /m24 {mr s} def /m20 {mr f} def
/mb {mp x y w2 add m w2 neg 0 d 0 w neg d w 0 d 0 w d cl} def
/mt {mp x y w2 add m w2 neg w neg d w 0 d cl} def
/m21 {mb f} def /m25 {mb s} def /m22 {mt f} def /m26{mt s} def
/m23 {mp x y w2 sub m w2 w d w neg 0 d cl f} def
/m27 {mp x y w2 add m w3 neg w2 neg d w3 w2 neg d w3 w2 d cl s} def
/m28 {mp x w2 sub y w2 sub w3 add m w3 0 d  0 w3 neg d w3 0 d 0 w3 d w3 0 d  0 w3 d w3 neg 0 d 0 w3 d w3 neg 0 d 0 w3 neg d w3 neg 0 d cl s } def
/m29 {mp gsave x w2 sub y w2 add w3 sub m currentpoint t 4 {side} repeat cl fill gr} def
/m30 {mp gsave x w2 sub y w2 add w3 sub m currentpoint t 4 {side} repeat cl s gr} def
/m31 {mp x y w2 sub m 0 w d x w2 sub y m w 0 d x w2 sub y w2 add m w w neg d x w2 sub y w2 sub m w w d s} def
/m32 {mp x y w2 sub m w2 w d w neg 0 d cl s} def
/m33 {mp x y w2 add m w3 neg w2 neg d w3 w2 neg d w3 w2 d cl f} def
/m34 {mp x w2 sub y w2 sub w3 add m w3 0 d  0 w3 neg d w3 0 d 0 w3 d w3 0 d  0 w3 d w3 neg 0 d 0 w3 d w3 neg 0 d 0 w3 neg d w3 neg 0 d cl f } def
/m2 {mp x y w2 sub m 0 w d x w2 sub y m w 0 d s} def
/m5 {mp x w2 sub y w2 sub m w w d x w2 sub y w2 add m w w neg d s} def
/reEncode {exch findfont dup length dict begin {1 index /FID eq  {pop pop} {def} ifelse } forall /Encoding exch def currentdict end dup /FontName get exch definefont pop } def [/Times-Bold /Times-Italic /Times-BoldItalic /Helvetica /Helvetica-Oblique
 /Helvetica-Bold /Helvetica-BoldOblique /Courier /Courier-Oblique /Courier-Bold /Courier-BoldOblique /Times-Roman /AvantGarde-Book /AvantGarde-BookOblique /AvantGarde-Demi /AvantGarde-DemiOblique /Bookman-Demi /Bookman-DemiItalic /Bookman-Light
 /Bookman-LightItalic /Helvetica-Narrow /Helvetica-Narrow-Bold /Helvetica-Narrow-BoldOblique /Helvetica-Narrow-Oblique /NewCenturySchlbk-Roman /NewCenturySchlbk-Bold /NewCenturySchlbk-BoldItalic /NewCenturySchlbk-Italic /Palatino-Bold
 /Palatino-BoldItalic /Palatino-Italic /Palatino-Roman ] {ISOLatin1Encoding reEncode } forall
%%EndProlog
%%BeginSetup
%%EndSetup
newpath  gsave  .25 .25 scale  gsave  0 0 t black[  ] 0 sd 6 lw 1 1 1 c 2268 1769 0 0 bf black 3 lw 1 1 1 c 1894 1486 283 212 bf black 1894 1486 283 212 bl 1 1 1 c 1894 1486 283 212 bf black 1894 1486 283 212 bl 6 lw 283 212 m 1894 X s 0.6 0.6 0.6 c[
 12 12] 0 sd 3 lw 283 1698 m -1486 Y s 599 1698 m -1486 Y s 915 1698 m -1486 Y s 1230 1698 m -1486 Y s 1546 1698 m -1486 Y s 1861 1698 m -1486 Y s 2177 1698 m -1486 Y s 283 1698 m -1486 Y s 2177 1698 m -1486 Y s black[  ] 0 sd 6 lw 283 1698 m 1894 X
 s 283 212 m 1486 Y s 0.6 0.6 0.6 c[ 12 12] 0 sd 3 lw 2177 212 m -1894 X s 2177 380 m -1894 X s 2177 548 m -1894 X s 2177 716 m -1894 X s 2177 884 m -1894 X s 2177 1052 m -1894 X s 2177 1220 m -1894 X s 2177 1388 m -1894 X s 2177 1556 m -1894 X s
 2177 1556 m -1894 X s black[  ] 0 sd 6 lw 2177 212 m 1486 Y s 0.8 0.8 0.8 c 1 1 1 c black 0.8 0.8 0.8 c 283 212 m 947 X 33 Y 13 X 43 Y 12 X 37 Y 13 X 25 Y 13 X 33 Y 12 X 32 Y 13 X 25 Y 13 X 23 Y 12 X 30 Y 13 X 24 Y 12 X 29 Y 13 X 5 Y 13 X 25 Y 12 X
 31 Y 13 X 20 Y 13 X 19 Y 12 X 22 Y 13 X 35 Y 12 X 5 Y 13 X 21 Y 13 X 29 Y 12 X 16 Y 13 X 13 Y 13 X 24 Y 12 X 12 Y 13 X 22 Y 12 X 5 Y 13 X 29 Y 13 X 16 Y 12 X 20 Y 13 X 23 Y 13 X 7 Y 12 X 28 Y 13 X 20 Y 12 X 14 Y 13 X 27 Y 13 X 1 Y 12 X 9 Y 13 X 30 Y
 13 X 21 Y 12 X 14 Y 13 X 19 Y 12 X 19 Y 13 X 6 Y 13 X 31 Y 12 X 9 Y 13 X 13 Y 13 X 11 Y 12 X 26 Y 13 X 24 Y 12 X 3 Y 13 X 21 Y 13 X 30 Y 12 X 16 Y 26 X 24 Y 12 X -10 Y 13 X 31 Y 12 X 28 Y 13 X -8 Y 13 X 23 Y 12 X 26 Y 13 X -7 Y 13 X 18 Y 12 X 24 Y
 13 X -18 Y 12 X 53 Y 13 X 16 Y 13 X 17 Y 12 X 19 Y 13 X -6 Y 13 X 60 Y 12 X -19 Y 13 X 7 Y 12 X 9 Y 13 X s black 283 212 m 1894 X s
 gsave  2268 1769 0 0 C 2156.5 16.2755 t 0 r /Helvetica findfont 78.6648 sf 0 0 m (]) show NC gr 
 gsave  2268 1769 0 0 C 2121.24 54.2516 t 0 r /Helvetica findfont 51.539 sf 0 0 m (\2551) show NC gr 
 gsave  2268 1769 0 0 C 1963.91 16.2755 t 0 r /Helvetica findfont 78.6648 sf 0 0 m ( [GV) show NC gr 
 gsave  2268 1769 0 0 C 1920.51 16.2755 t 0 r /Symbol findfont 78.6648 sf 0 0 m (h) show NC gr  283 257 m -45 Y s 347 234 m -22 Y s 410 234 m -22 Y s 473 234 m -22 Y s 536 234 m -22 Y s 599 257 m -45 Y s 662 234 m -22 Y s 725 234 m -22 Y s 788 234 m
 -22 Y s 852 234 m -22 Y s 915 257 m -45 Y s 978 234 m -22 Y s 1041 234 m -22 Y s 1104 234 m -22 Y s 1167 234 m -22 Y s 1230 257 m -45 Y s 1293 234 m -22 Y s 1356 234 m -22 Y s 1420 234 m -22 Y s 1483 234 m -22 Y s 1546 257 m -45 Y s 1609 234 m -22 Y
 s 1672 234 m -22 Y s 1735 234 m -22 Y s 1798 234 m -22 Y s 1861 257 m -45 Y s 1925 234 m -22 Y s 1988 234 m -22 Y s 2051 234 m -22 Y s 2114 234 m -22 Y s 2177 257 m -45 Y s 283 257 m -45 Y s 2177 257 m -45 Y s
 gsave  2268 1769 0 0 C 181.743 143.767 t 0 r /Helvetica findfont 70.5271 sf 0 0 m (\2550.003) show NC gr 
 gsave  2268 1769 0 0 C 496.402 143.767 t 0 r /Helvetica findfont 70.5271 sf 0 0 m (\2550.002) show NC gr 
 gsave  2268 1769 0 0 C 819.199 143.767 t 0 r /Helvetica findfont 70.5271 sf 0 0 m (\2550.001) show NC gr 
 gsave  2268 1769 0 0 C 1209.81 143.767 t 0 r /Helvetica findfont 70.5271 sf 0 0 m (0) show NC gr 
 gsave  2268 1769 0 0 C 1462.08 143.767 t 0 r /Helvetica findfont 70.5271 sf 0 0 m (0.001) show NC gr 
 gsave  2268 1769 0 0 C 1774.03 143.767 t 0 r /Helvetica findfont 70.5271 sf 0 0 m (0.002) show NC gr 
 gsave  2268 1769 0 0 C 2088.69 143.767 t 0 r /Helvetica findfont 70.5271 sf 0 0 m (0.003) show NC gr  283 1698 m 1894 X s 283 1654 m 44 Y s 347 1676 m 22 Y s 410 1676 m 22 Y s 473 1676 m 22 Y s 536 1676 m 22 Y s 599 1654 m 44 Y s 662 1676 m 22 Y s
 725 1676 m 22 Y s 788 1676 m 22 Y s 852 1676 m 22 Y s 915 1654 m 44 Y s 978 1676 m 22 Y s 1041 1676 m 22 Y s 1104 1676 m 22 Y s 1167 1676 m 22 Y s 1230 1654 m 44 Y s 1293 1676 m 22 Y s 1356 1676 m 22 Y s 1420 1676 m 22 Y s 1483 1676 m 22 Y s 1546
 1654 m 44 Y s 1609 1676 m 22 Y s 1672 1676 m 22 Y s 1735 1676 m 22 Y s 1798 1676 m 22 Y s 1861 1654 m 44 Y s 1925 1676 m 22 Y s 1988 1676 m 22 Y s 2051 1676 m 22 Y s 2114 1676 m 22 Y s 2177 1654 m 44 Y s 283 1654 m 44 Y s 2177 1654 m 44 Y s 283 212
 m 1486 Y s
 gsave  2268 1769 0 0 C 84.09 1654.67 t 90 r /Symbol findfont 78.6648 sf 0 0 m (h) show NC gr 
 gsave  2268 1769 0 0 C 84.09 1491.92 t 90 r /Helvetica findfont 78.6648 sf 0 0 m (dN/d) show NC gr  341 212 m -58 X s 312 254 m -29 X s 312 296 m -29 X s 312 338 m -29 X s 341 380 m -58 X s 312 422 m -29 X s 312 464 m -29 X s 312 506 m -29 X s 341
 548 m -58 X s 312 590 m -29 X s 312 632 m -29 X s 312 674 m -29 X s 341 716 m -58 X s 312 758 m -29 X s 312 800 m -29 X s 312 842 m -29 X s 341 884 m -58 X s 312 926 m -29 X s 312 968 m -29 X s 312 1010 m -29 X s 341 1052 m -58 X s 312 1094 m -29 X
 s 312 1136 m -29 X s 312 1178 m -29 X s 341 1220 m -58 X s 312 1262 m -29 X s 312 1304 m -29 X s 312 1346 m -29 X s 341 1388 m -58 X s 312 1430 m -29 X s 312 1472 m -29 X s 312 1514 m -29 X s 341 1556 m -58 X s 341 1556 m -58 X s 312 1598 m -29 X s
 312 1640 m -29 X s 312 1682 m -29 X s
 gsave  2268 1769 0 0 C 233.282 187.168 t 0 r /Helvetica findfont 70.5271 sf 0 0 m (0) show NC gr 
 gsave  2268 1769 0 0 C 116.641 355.348 t 0 r /Helvetica findfont 70.5271 sf 0 0 m (2000) show NC gr 
 gsave  2268 1769 0 0 C 116.641 523.528 t 0 r /Helvetica findfont 70.5271 sf 0 0 m (4000) show NC gr 
 gsave  2268 1769 0 0 C 116.641 691.708 t 0 r /Helvetica findfont 70.5271 sf 0 0 m (6000) show NC gr 
 gsave  2268 1769 0 0 C 116.641 857.175 t 0 r /Helvetica findfont 70.5271 sf 0 0 m (8000) show NC gr 
 gsave  2268 1769 0 0 C 78.6648 1025.36 t 0 r /Helvetica findfont 70.5271 sf 0 0 m (10000) show NC gr 
 gsave  2268 1769 0 0 C 78.6648 1193.54 t 0 r /Helvetica findfont 70.5271 sf 0 0 m (12000) show NC gr 
 gsave  2268 1769 0 0 C 78.6648 1361.71 t 0 r /Helvetica findfont 70.5271 sf 0 0 m (14000) show NC gr 
 gsave  2268 1769 0 0 C 78.6648 1529.89 t 0 r /Helvetica findfont 70.5271 sf 0 0 m (16000) show NC gr  2177 212 m 1486 Y s 2120 212 m 57 X s 2148 254 m 29 X s 2148 296 m 29 X s 2148 338 m 29 X s 2120 380 m 57 X s 2148 422 m 29 X s 2148 464 m 29 X s
 2148 506 m 29 X s 2120 548 m 57 X s 2148 590 m 29 X s 2148 632 m 29 X s 2148 674 m 29 X s 2120 716 m 57 X s 2148 758 m 29 X s 2148 800 m 29 X s 2148 842 m 29 X s 2120 884 m 57 X s 2148 926 m 29 X s 2148 968 m 29 X s 2148 1010 m 29 X s 2120 1052 m 57
 X s 2148 1094 m 29 X s 2148 1136 m 29 X s 2148 1178 m 29 X s 2120 1220 m 57 X s 2148 1262 m 29 X s 2148 1304 m 29 X s 2148 1346 m 29 X s 2120 1388 m 57 X s 2148 1430 m 29 X s 2148 1472 m 29 X s 2148 1514 m 29 X s 2120 1556 m 57 X s 2120 1556 m 57 X
 s 2148 1598 m 29 X s 2148 1640 m 29 X s 2148 1682 m 29 X s 1 1 1 c black 283 212 m 26 X 1 Y 63 X 1 Y 12 X -1 Y 26 X 1 Y 75 X 1 Y 26 X 1 Y 25 X 1 Y 25 X 1 Y 25 X 1 Y 26 X -1 Y 12 X 2 Y 13 X 2 Y 13 X 1 Y 12 X 1 Y 25 X 1 Y 13 X 2 Y 13 X 1 Y 25 X 4 Y 25
 X 2 Y 13 X 3 Y 12 X 3 Y 13 X 5 Y 13 X 3 Y 12 X -2 Y 13 X 3 Y 13 X 5 Y 12 X 3 Y 13 X 4 Y 12 X 1 Y 26 X 11 Y 12 X 4 Y 13 X 8 Y 13 X 7 Y 12 X -3 Y 13 X 7 Y 12 X 9 Y 13 X 3 Y 13 X 6 Y 12 X 9 Y 13 X 4 Y 13 X 16 Y 12 X 6 Y 13 X 7 Y 12 X 7 Y 13 X 11 Y 13 X
 -1 Y 12 X 16 Y 13 X 10 Y 12 X 1 Y 13 X 15 Y 13 X 15 Y 12 X 6 Y 13 X 11 Y 13 X 7 Y 12 X 14 Y 13 X 8 Y 12 X 17 Y 13 X 15 Y 13 X 9 Y 12 X 22 Y 13 X 17 Y 13 X -4 Y 12 X 30 Y 13 X 20 Y 12 X 3 Y 13 X 20 Y 13 X 21 Y 12 X -1 Y 13 X 22 Y 13 X 5 Y 12 X 33 Y
 13 X 8 Y 12 X 20 Y 13 X 16 Y 13 X 14 Y 12 X 10 Y 13 X 20 Y 13 X 18 Y 12 X 20 Y 25 X 38 Y 13 X 9 Y 13 X 18 Y 12 X 23 Y 13 X 22 Y 13 X 10 Y 12 X 26 Y 13 X 2 Y 12 X 24 Y 13 X 13 Y 13 X 20 Y 12 X 19 Y 13 X 20 Y 13 X 10 Y 12 X 30 Y 13 X 14 Y 12 X 21 Y 13
 X -8 Y 13 X 37 Y 12 X 23 Y 13 X 6 Y 13 X 19 Y 12 X 30 Y 13 X 2 Y 12 X 10 Y 13 X 26 Y 13 X 13 Y 12 X 22 Y 13 X 8 Y 13 X 9 Y 12 X 39 Y 25 X 13 Y 13 X 20 Y 13 X 22 Y 12 X 14 Y 13 X 10 Y 13 X 17 Y 12 X 17 Y 13 X 29 Y 12 X 7 Y 13 X 7 Y 13 X 3 Y 12 X 37 Y
 13 X 21 Y 13 X 11 Y 12 X 7 Y 13 X 21 Y 12 X 13 Y 13 X s 1546 1388 m -504 Y s 1564 916 m -18 -32 d -19 32 d s
 gsave  2268 1769 0 0 C 1464.79 1432.24 t 0 r /Helvetica findfont 70.5271 sf 0 0 m (MDR) show NC gr 
 gsave  2268 1769 0 0 C 1529.89 1502.77 t 0 r /Helvetica findfont 70.5271 sf 0 0 m (1) show NC gr  1465 1492 m 157 X s[ 20 20] 0 sd 1230 212 m 1486 Y s
 gsave  2268 1769 0 0 C 594.055 1258.64 t 0 r /Helvetica findfont 70.5271 sf 0 0 m (True) show NC gr  1 1 1 c[  ] 0 sd 3 lw 475 1244 m 99 X 68 Y -99 X f[ 20 20] 0 sd 6 lw 0.8 0.8 0.8 c[  ] 0 sd 475 1278 m 99 X s black 3 lw /w 2 def /w2 {w 2 div} def
 /w3 {w 3 div} def 524 1278 m20 6 lw
 gsave  2268 1769 0 0 C 594.055 1160.98 t 0 r /Helvetica findfont 70.5271 sf 0 0 m (Measured) show NC gr  1 1 1 c 3 lw 475 1146 m 99 X 69 Y -99 X f 6 lw black 475 1181 m 99 X s 3 lw 524 1181 m20 6 lw 3 lw 1 lw << /PatternType 1 /PaintType 2
 /TilingType 1 /BBox [ 0 0 100 100 ] /XStep 100 /YStep 100 /PaintProc { begin gsave 0 0 m 100 100 l s gr end } >> [ 0.24 0 0 0.24 0 0 ] makepattern /P04 exch def /cs {[/Pattern /DeviceRGB] setcolorspace} def /FA {f [/DeviceRGB] setcolorspace} def cs
 0 0 0 P04 setcolor 283 212 m 1 Y -1 Y 1 Y -1 Y 26 X 1 Y 63 X 1 Y 12 X -1 Y 26 X 1 Y 75 X 1 Y 26 X 1 Y 25 X 1 Y 25 X 1 Y 25 X 1 Y 26 X -1 Y 12 X 2 Y 13 X 2 Y 13 X 1 Y 12 X 1 Y 25 X 1 Y 13 X 2 Y 13 X 1 Y 25 X 4 Y 25 X 2 Y 13 X 3 Y 12 X 3 Y 13 X 5 Y 13
 X 3 Y 12 X -2 Y 13 X 3 Y 13 X 5 Y 12 X 3 Y 13 X 4 Y 12 X 1 Y 26 X 11 Y 12 X 4 Y 13 X 8 Y 13 X 7 Y 12 X -3 Y 13 X 7 Y 12 X 9 Y 13 X 3 Y 13 X 6 Y 12 X 9 Y 13 X 4 Y 13 X 16 Y 12 X 6 Y 13 X 7 Y 12 X 7 Y 13 X 11 Y 13 X -1 Y 12 X 16 Y 13 X 10 Y 12 X 1 Y
 13 X 15 Y 13 X 15 Y 12 X 6 Y 13 X 11 Y 13 X 7 Y 12 X -242 Y 947 X FA 6 lw black 283 212 m 26 X 1 Y 63 X 1 Y 12 X -1 Y 26 X 1 Y 75 X 1 Y 26 X 1 Y 25 X 1 Y 25 X 1 Y 25 X 1 Y 26 X -1 Y 12 X 2 Y 13 X 2 Y 13 X 1 Y 12 X 1 Y 25 X 1 Y 13 X 2 Y 13 X 1 Y 25 X
 4 Y 25 X 2 Y 13 X 3 Y 12 X 3 Y 13 X 5 Y 13 X 3 Y 12 X -2 Y 13 X 3 Y 13 X 5 Y 12 X 3 Y 13 X 4 Y 12 X 1 Y 26 X 11 Y 12 X 4 Y 13 X 8 Y 13 X 7 Y 12 X -3 Y 13 X 7 Y 12 X 9 Y 13 X 3 Y 13 X 6 Y 12 X 9 Y 13 X 4 Y 13 X 16 Y 12 X 6 Y 13 X 7 Y 12 X 7 Y 13 X 11
 Y 13 X -1 Y 12 X 16 Y 13 X 10 Y 12 X 1 Y 13 X 15 Y 13 X 15 Y 12 X 6 Y 13 X 11 Y 13 X 7 Y 12 X -242 Y 947 X s
 gsave  2268 1769 0 0 C 792.073 442.15 t 0 r /Helvetica findfont 70.5271 sf 0 0 m (Spillover) show NC gr 
 gr  gr showpage
end
%%EOF
