%!PS-Adobe-2.0 EPSF-2.0
%%BoundingBox:  0 0 567 442
%%Title: stopping_power.eps: stopping_power
%%Creator: ROOT Version 5.34/14
%%CreationDate: Mon May 19 21:18:35 2014
%%EndComments
%%BeginProlog
80 dict begin
/s {stroke} def /l {lineto} def /m {moveto} def /t {translate} def
/r {rotate} def /rl {roll}  def /R {repeat} def
/d {rlineto} def /rm {rmoveto} def /gr {grestore} def /f {eofill} def
/c {setrgbcolor} def /black {0 setgray} def /sd {setdash} def
/cl {closepath} def /sf {scalefont setfont} def /lw {setlinewidth} def
/box {m dup 0 exch d exch 0 d 0 exch neg d cl} def
/NC{systemdict begin initclip end}def/C{NC box clip newpath}def
/bl {box s} def /bf {box f} def /Y { 0 exch d} def /X { 0 d} def 
/K {{pop pop 0 moveto} exch kshow} bind def
/ita {/ang 15 def gsave [1 0 ang dup sin exch cos div 1 0 0] concat} def 
/mp {newpath /y exch def /x exch def} def
/side {[w .77 mul w .23 mul] .385 w mul sd w 0 l currentpoint t -144 r} def
/mr {mp x y w2 0 360 arc} def /m24 {mr s} def /m20 {mr f} def
/mb {mp x y w2 add m w2 neg 0 d 0 w neg d w 0 d 0 w d cl} def
/mt {mp x y w2 add m w2 neg w neg d w 0 d cl} def
/m21 {mb f} def /m25 {mb s} def /m22 {mt f} def /m26{mt s} def
/m23 {mp x y w2 sub m w2 w d w neg 0 d cl f} def
/m27 {mp x y w2 add m w3 neg w2 neg d w3 w2 neg d w3 w2 d cl s} def
/m28 {mp x w2 sub y w2 sub w3 add m w3 0 d  0 w3 neg d w3 0 d 0 w3 d w3 0 d  0 w3 d w3 neg 0 d 0 w3 d w3 neg 0 d 0 w3 neg d w3 neg 0 d cl s } def
/m29 {mp gsave x w2 sub y w2 add w3 sub m currentpoint t 4 {side} repeat cl fill gr} def
/m30 {mp gsave x w2 sub y w2 add w3 sub m currentpoint t 4 {side} repeat cl s gr} def
/m31 {mp x y w2 sub m 0 w d x w2 sub y m w 0 d x w2 sub y w2 add m w w neg d x w2 sub y w2 sub m w w d s} def
/m32 {mp x y w2 sub m w2 w d w neg 0 d cl s} def
/m33 {mp x y w2 add m w3 neg w2 neg d w3 w2 neg d w3 w2 d cl f} def
/m34 {mp x w2 sub y w2 sub w3 add m w3 0 d  0 w3 neg d w3 0 d 0 w3 d w3 0 d  0 w3 d w3 neg 0 d 0 w3 d w3 neg 0 d 0 w3 neg d w3 neg 0 d cl f } def
/m2 {mp x y w2 sub m 0 w d x w2 sub y m w 0 d s} def
/m5 {mp x w2 sub y w2 sub m w w d x w2 sub y w2 add m w w neg d s} def
/reEncode {exch findfont dup length dict begin {1 index /FID eq  {pop pop} {def} ifelse } forall /Encoding exch def currentdict end dup /FontName get exch definefont pop } def [/Times-Bold /Times-Italic /Times-BoldItalic /Helvetica /Helvetica-Oblique
 /Helvetica-Bold /Helvetica-BoldOblique /Courier /Courier-Oblique /Courier-Bold /Courier-BoldOblique /Times-Roman /AvantGarde-Book /AvantGarde-BookOblique /AvantGarde-Demi /AvantGarde-DemiOblique /Bookman-Demi /Bookman-DemiItalic /Bookman-Light
 /Bookman-LightItalic /Helvetica-Narrow /Helvetica-Narrow-Bold /Helvetica-Narrow-BoldOblique /Helvetica-Narrow-Oblique /NewCenturySchlbk-Roman /NewCenturySchlbk-Bold /NewCenturySchlbk-BoldItalic /NewCenturySchlbk-Italic /Palatino-Bold
 /Palatino-BoldItalic /Palatino-Italic /Palatino-Roman ] {ISOLatin1Encoding reEncode } forall
%%EndProlog
%%BeginSetup
%%EndSetup
newpath  gsave  .25 .25 scale  gsave  0 0 t black[  ] 0 sd 6 lw 1 1 1 c 2268 1769 0 0 bf black 3 lw 1 1 1 c 1894 1482 283 216 bf black 1894 1482 283 216 bl 1 1 1 c 1894 1482 283 216 bf black 1894 1482 283 216 bl 6 lw 283 216 m 1894 X s 0.6 0.6 0.6 c[
 12 12] 0 sd 3 lw 495 1698 m -1482 Y s 830 1698 m -1482 Y s 1166 1698 m -1482 Y s 1501 1698 m -1482 Y s 1836 1698 m -1482 Y s 2171 1698 m -1482 Y s black[  ] 0 sd 6 lw 283 1698 m 1894 X s 283 216 m 1482 Y s 0.6 0.6 0.6 c[ 12 12] 0 sd 3 lw 2177 216 m
 -1894 X s 2177 466 m -1894 X s 2177 613 m -1894 X s 2177 716 m -1894 X s 2177 797 m -1894 X s 2177 863 m -1894 X s 2177 919 m -1894 X s 2177 967 m -1894 X s 2177 1009 m -1894 X s 2177 1047 m -1894 X s 2177 1298 m -1894 X s 2177 1444 m -1894 X s 2177
 1548 m -1894 X s 2177 1629 m -1894 X s 2177 1694 m -1894 X s black[  ] 0 sd 6 lw 2177 216 m 1482 Y s 283 216 m 1894 X s
 gsave  2268 1769 0 0 C 2134.8 27.1258 t 0 r /Symbol findfont 78.6648 sf 0 0 m (g) show NC gr 
 gsave  2268 1769 0 0 C 2094.11 27.1258 t 0 r /Symbol findfont 78.6648 sf 0 0 m (b) show NC gr  320 238 m -22 Y s 362 238 m -22 Y s 394 238 m -22 Y s 421 238 m -22 Y s 443 238 m -22 Y s 463 238 m -22 Y s 480 238 m -22 Y s 495 260 m -44 Y s
 gsave  2268 1769 0 0 C 495.172 119.893 t 0 r  -19 0 t /Helvetica findfont 67.8145 sf 0 0 m (1) show NC gr  596 238 m -22 Y s 655 238 m -22 Y s 697 238 m -22 Y s 729 238 m -22 Y s 756 238 m -22 Y s 778 238 m -22 Y s 798 238 m -22 Y s 815 238 m -22 Y
 s 830 260 m -44 Y s
 gsave  2268 1769 0 0 C 830.367 119.893 t 0 r  -37 0 t /Helvetica findfont 67.8145 sf 0 0 m (10) show NC gr  931 238 m -22 Y s 990 238 m -22 Y s 1032 238 m -22 Y s 1065 238 m -22 Y s 1091 238 m -22 Y s 1114 238 m -22 Y s 1133 238 m -22 Y s 1150 238 m
 -22 Y s 1166 260 m -44 Y s
 gsave  2268 1769 0 0 C 1188.11 154.617 t 0 r /Helvetica findfont 46.1139 sf 0 0 m (2) show NC gr 
 gsave  2268 1769 0 0 C 1112.16 122.066 t 0 r /Helvetica findfont 70.5271 sf 0 0 m (10) show NC gr  1266 238 m -22 Y s 1325 238 m -22 Y s 1367 238 m -22 Y s 1400 238 m -22 Y s 1426 238 m -22 Y s 1449 238 m -22 Y s 1468 238 m -22 Y s 1485 238 m -22 Y
 s 1501 260 m -44 Y s
 gsave  2268 1769 0 0 C 1524.47 157.33 t 0 r /Helvetica findfont 46.1139 sf 0 0 m (3) show NC gr 
 gsave  2268 1769 0 0 C 1448.52 122.066 t 0 r /Helvetica findfont 70.5271 sf 0 0 m (10) show NC gr  1602 238 m -22 Y s 1661 238 m -22 Y s 1703 238 m -22 Y s 1735 238 m -22 Y s 1762 238 m -22 Y s 1784 238 m -22 Y s 1803 238 m -22 Y s 1821 238 m -22 Y
 s 1836 260 m -44 Y s
 gsave  2268 1769 0 0 C 1858.12 154.617 t 0 r /Helvetica findfont 46.1139 sf 0 0 m (4) show NC gr 
 gsave  2268 1769 0 0 C 1782.16 122.066 t 0 r /Helvetica findfont 70.5271 sf 0 0 m (10) show NC gr  1937 238 m -22 Y s 1996 238 m -22 Y s 2038 238 m -22 Y s 2070 238 m -22 Y s 2097 238 m -22 Y s 2119 238 m -22 Y s 2139 238 m -22 Y s 2156 238 m -22 Y
 s 2171 260 m -44 Y s
 gsave  2268 1769 0 0 C 2194.48 157.33 t 0 r /Helvetica findfont 46.1139 sf 0 0 m (5) show NC gr 
 gsave  2268 1769 0 0 C 2118.52 122.066 t 0 r /Helvetica findfont 70.5271 sf 0 0 m (10) show NC gr  283 1698 m 1894 X s 320 1676 m 22 Y s 362 1676 m 22 Y s 394 1676 m 22 Y s 421 1676 m 22 Y s 443 1676 m 22 Y s 463 1676 m 22 Y s 480 1676 m 22 Y s 495
 1654 m 44 Y s 596 1676 m 22 Y s 655 1676 m 22 Y s 697 1676 m 22 Y s 729 1676 m 22 Y s 756 1676 m 22 Y s 778 1676 m 22 Y s 798 1676 m 22 Y s 815 1676 m 22 Y s 830 1654 m 44 Y s 931 1676 m 22 Y s 990 1676 m 22 Y s 1032 1676 m 22 Y s 1065 1676 m 22 Y s
 1091 1676 m 22 Y s 1114 1676 m 22 Y s 1133 1676 m 22 Y s 1150 1676 m 22 Y s 1166 1654 m 44 Y s 1266 1676 m 22 Y s 1325 1676 m 22 Y s 1367 1676 m 22 Y s 1400 1676 m 22 Y s 1426 1676 m 22 Y s 1449 1676 m 22 Y s 1468 1676 m 22 Y s 1485 1676 m 22 Y s
 1501 1654 m 44 Y s 1602 1676 m 22 Y s 1661 1676 m 22 Y s 1703 1676 m 22 Y s 1735 1676 m 22 Y s 1762 1676 m 22 Y s 1784 1676 m 22 Y s 1803 1676 m 22 Y s 1821 1676 m 22 Y s 1836 1654 m 44 Y s 1937 1676 m 22 Y s 1996 1676 m 22 Y s 2038 1676 m 22 Y s
 2070 1676 m 22 Y s 2097 1676 m 22 Y s 2119 1676 m 22 Y s 2139 1676 m 22 Y s 2156 1676 m 22 Y s 2171 1654 m 44 Y s 283 216 m 1482 Y s
 gsave  2268 1769 0 0 C 92.2277 1679.09 t 90 r /Helvetica findfont 78.6648 sf 0 0 m (]) show NC gr 
 gsave  2268 1769 0 0 C 65.1019 1651.96 t 90 r /Helvetica findfont 51.539 sf 0 0 m (2) show NC gr 
 gsave  2268 1769 0 0 C 92.2277 1529.89 t 90 r /Helvetica findfont 78.6648 sf 0 0 m ( cm) show NC gr 
 gsave  2268 1769 0 0 C 54.2516 1494.63 t 90 r /Helvetica findfont 51.539 sf 0 0 m (\2551) show NC gr 
 gsave  2268 1769 0 0 C 92.2277 1000.94 t 90 r /Helvetica findfont 78.6648 sf 0 0 m (\255dE/dx [MeV g) show NC gr  340 216 m -57 X s
 gsave  2268 1769 0 0 C 264.363 186.474 t 0 r  -38 0 t /Helvetica findfont 67.8145 sf 0 0 m (1) show NC gr  312 466 m -29 X s 312 613 m -29 X s 312 716 m -29 X s 312 797 m -29 X s 312 863 m -29 X s 312 919 m -29 X s 312 967 m -29 X s 312 1009 m -29 X
 s 340 1047 m -57 X s
 gsave  2268 1769 0 0 C 264.363 1018.07 t 0 r  -75 0 t /Helvetica findfont 67.8145 sf 0 0 m (10) show NC gr  312 1298 m -29 X s 312 1444 m -29 X s 312 1548 m -29 X s 312 1629 m -29 X s 312 1694 m -29 X s 2177 216 m 1482 Y s 2120 216 m 57 X s 2149 466
 m 28 X s 2149 613 m 28 X s 2149 716 m 28 X s 2149 797 m 28 X s 2149 863 m 28 X s 2149 919 m 28 X s 2149 967 m 28 X s 2149 1009 m 28 X s 2120 1047 m 57 X s 2149 1298 m 28 X s 2149 1444 m 28 X s 2149 1548 m 28 X s 2149 1629 m 28 X s 2149 1694 m 28 X s
 1 1 1 c black 299 1176 m 10 -38 d 8 -33 d 8 -30 d 7 -27 d 7 -24 d 11 -43 d 10 -37 d 9 -32 d 8 -28 d 14 -48 d 12 -40 d 15 -48 d 13 -40 d 18 -51 d 15 -39 d 12 -31 d 12 -25 d 10 -21 d 9 -17 d 8 -15 d 8 -13 d 13 -21 d 13 -15 d 11 -13 d 10 -9 d 18 -14 d
 15 -9 d 20 -8 d 18 -4 d 24 -3 d 21 X 18 1 d 16 2 d 14 3 d 13 2 d 12 3 d 11 2 d 20 4 d 17 5 d 15 3 d 14 4 d 25 6 d 21 5 d 26 7 d 23 5 d 31 8 d 25 5 d 22 5 d 19 4 d 17 4 d 15 3 d 13 3 d 13 2 d 22 5 d 19 3 d 17 4 d 15 2 d 26 5 d 23 5 d 28 5 d 23 5 d 33
 7 d 26 6 d 22 5 d 20 5 d 17 5 d 15 4 d 14 4 d 13 4 d 22 8 d 19 7 d 18 8 d 15 6 d 26 14 d 23 12 d 28 18 d 24 17 d 32 26 d 27 25 d 22 23 d 20 22 d 17 20 d 15 20 d 14 18 d 8 12 d 5 6 d 22 33 d 19 30 d 18 28 d 15 26 d 26 47 d 23 42 d 28 55 d 24 48 d 32
 68 d 27 58 d 22 49 d 20 44 d 17 40 d 15 35 d 14 32 d 13 30 d 22 53 d 20 46 d 17 41 d 15 37 d s[ 20 20] 0 sd 1 1 1 c black 299 1176 m 10 -38 d 8 -33 d 8 -30 d 7 -27 d 7 -24 d 11 -43 d 10 -37 d 9 -32 d 8 -28 d 14 -48 d 12 -40 d 15 -48 d 13 -40 d 18
 -51 d 15 -39 d 12 -31 d 12 -25 d 10 -21 d 9 -17 d 8 -15 d 8 -13 d 13 -21 d 13 -15 d 11 -13 d 10 -9 d 18 -14 d 15 -9 d 20 -8 d 18 -4 d 24 -3 d 21 X 18 1 d 16 2 d 14 3 d 13 2 d 12 2 d 11 3 d 20 4 d 17 4 d 15 4 d 14 4 d 25 6 d 21 5 d 26 6 d 23 6 d 31 7
 d 25 5 d 22 5 d 19 4 d 17 3 d 15 3 d 13 3 d 13 2 d 22 4 d 19 3 d 17 3 d 15 3 d 26 4 d 23 3 d 28 4 d 23 4 d 33 4 d 26 4 d 22 2 d 20 3 d 17 2 d 15 1 d 14 2 d 13 1 d 22 3 d 19 2 d 18 2 d 15 2 d 26 2 d 23 3 d 28 2 d 24 3 d 32 3 d 27 3 d 22 2 d 20 2 d 17
 2 d 15 1 d 14 1 d 8 1 d 5 1 d 22 2 d 19 2 d 18 1 d 15 2 d 26 2 d 23 3 d 28 2 d 24 2 d 32 4 d 27 2 d 22 2 d 20 2 d 17 2 d 15 1 d 14 2 d 13 1 d 22 2 d 20 2 d 17 2 d 15 1 d s[ 4 8] 0 sd 1 1 1 c black 1622 216 m 4 12 d s 1626 228 m 27 73 d 22 62 d 20 54
 d 17 47 d 15 42 d 14 38 d 8 21 d 5 12 d 22 61 d 19 52 d 18 46 d 15 41 d 26 70 d 23 59 d 28 74 d 24 62 d 32 84 d 27 69 d 22 58 d 20 50 d 17 44 d 15 40 d 14 35 d 13 33 d 22 57 d 20 50 d 17 44 d 15 39 d s
 gsave  2268 1769 0 0 C 594.055 1521.76 t 0 r /Helvetica findfont 70.5271 sf 0 0 m (Total) show NC gr [  ] 0 sd 475 1543 m 99 X s
 gsave  2268 1769 0 0 C 594.055 1424.1 t 0 r /Helvetica findfont 70.5271 sf 0 0 m (Ionization) show NC gr [ 20 20] 0 sd 475 1446 m 99 X s
 gsave  2268 1769 0 0 C 594.055 1329.16 t 0 r /Helvetica findfont 70.5271 sf 0 0 m (Radiation) show NC gr [ 4 8] 0 sd 475 1349 m 99 X s
 gsave  2268 1769 0 0 C 1586.86 1557.02 t 0 r /Helvetica findfont 70.5271 sf 0 0 m (Muons in Si) show NC gr [  ] 0 sd 665 650 m -250 Y s 683 432 m -18 -32 d -18 32 d s
 gsave  2268 1769 0 0 C 507.252 659.157 t 0 r /Helvetica findfont 70.5271 sf 0 0 m (Min dE/dx) show NC gr 
 gr  gr showpage
end
%%EOF
