%!PS-Adobe-2.0 EPSF-2.0
%%BoundingBox:  0 0 567 567
%%Title: toy_em_shower.eps: toy_em_shower
%%Creator: ROOT Version 5.34/14
%%CreationDate: Fri Jul  4 20:13:59 2014
%%EndComments
%%BeginProlog
80 dict begin
/s {stroke} def /l {lineto} def /m {moveto} def /t {translate} def
/r {rotate} def /rl {roll}  def /R {repeat} def
/d {rlineto} def /rm {rmoveto} def /gr {grestore} def /f {eofill} def
/c {setrgbcolor} def /black {0 setgray} def /sd {setdash} def
/cl {closepath} def /sf {scalefont setfont} def /lw {setlinewidth} def
/box {m dup 0 exch d exch 0 d 0 exch neg d cl} def
/NC{systemdict begin initclip end}def/C{NC box clip newpath}def
/bl {box s} def /bf {box f} def /Y { 0 exch d} def /X { 0 d} def 
/K {{pop pop 0 moveto} exch kshow} bind def
/ita {/ang 15 def gsave [1 0 ang dup sin exch cos div 1 0 0] concat} def 
/mp {newpath /y exch def /x exch def} def
/side {[w .77 mul w .23 mul] .385 w mul sd w 0 l currentpoint t -144 r} def
/mr {mp x y w2 0 360 arc} def /m24 {mr s} def /m20 {mr f} def
/mb {mp x y w2 add m w2 neg 0 d 0 w neg d w 0 d 0 w d cl} def
/mt {mp x y w2 add m w2 neg w neg d w 0 d cl} def
/m21 {mb f} def /m25 {mb s} def /m22 {mt f} def /m26{mt s} def
/m23 {mp x y w2 sub m w2 w d w neg 0 d cl f} def
/m27 {mp x y w2 add m w3 neg w2 neg d w3 w2 neg d w3 w2 d cl s} def
/m28 {mp x w2 sub y w2 sub w3 add m w3 0 d  0 w3 neg d w3 0 d 0 w3 d w3 0 d  0 w3 d w3 neg 0 d 0 w3 d w3 neg 0 d 0 w3 neg d w3 neg 0 d cl s } def
/m29 {mp gsave x w2 sub y w2 add w3 sub m currentpoint t 4 {side} repeat cl fill gr} def
/m30 {mp gsave x w2 sub y w2 add w3 sub m currentpoint t 4 {side} repeat cl s gr} def
/m31 {mp x y w2 sub m 0 w d x w2 sub y m w 0 d x w2 sub y w2 add m w w neg d x w2 sub y w2 sub m w w d s} def
/m32 {mp x y w2 sub m w2 w d w neg 0 d cl s} def
/m33 {mp x y w2 add m w3 neg w2 neg d w3 w2 neg d w3 w2 d cl f} def
/m34 {mp x w2 sub y w2 sub w3 add m w3 0 d  0 w3 neg d w3 0 d 0 w3 d w3 0 d  0 w3 d w3 neg 0 d 0 w3 d w3 neg 0 d 0 w3 neg d w3 neg 0 d cl f } def
/m2 {mp x y w2 sub m 0 w d x w2 sub y m w 0 d s} def
/m5 {mp x w2 sub y w2 sub m w w d x w2 sub y w2 add m w w neg d s} def
/reEncode {exch findfont dup length dict begin {1 index /FID eq  {pop pop} {def} ifelse } forall /Encoding exch def currentdict end dup /FontName get exch definefont pop } def [/Times-Bold /Times-Italic /Times-BoldItalic /Helvetica /Helvetica-Oblique
 /Helvetica-Bold /Helvetica-BoldOblique /Courier /Courier-Oblique /Courier-Bold /Courier-BoldOblique /Times-Roman /AvantGarde-Book /AvantGarde-BookOblique /AvantGarde-Demi /AvantGarde-DemiOblique /Bookman-Demi /Bookman-DemiItalic /Bookman-Light
 /Bookman-LightItalic /Helvetica-Narrow /Helvetica-Narrow-Bold /Helvetica-Narrow-BoldOblique /Helvetica-Narrow-Oblique /NewCenturySchlbk-Roman /NewCenturySchlbk-Bold /NewCenturySchlbk-BoldItalic /NewCenturySchlbk-Italic /Palatino-Bold
 /Palatino-BoldItalic /Palatino-Italic /Palatino-Roman ] {ISOLatin1Encoding reEncode } forall
%%EndProlog
%%BeginSetup
%%EndSetup
newpath  gsave  .25 .25 scale  gsave  0 0 t black[  ] 0 sd 6 lw 1 1 1 c 2268 2268 0 0 bf 0.6 0.6 0.6 c[ 20 20] 0 sd 3 lw 227 1984 m 1814 X s black
 gsave  2268 2268 0 0 C 2096.82 1985.61 t 0 r /Helvetica findfont 70.5271 sf 0 0 m (t = 0) show NC gr [  ] 0 sd 6 lw 1134 1984 m -283 Y s 0.6 0.6 0.6 c[ 20 20] 0 sd 3 lw 227 1701 m 1814 X s black
 gsave  2268 2268 0 0 C 2096.82 1700.79 t 0 r /Helvetica findfont 70.5271 sf 0 0 m (t = 1) show NC gr [  ] 0 sd 6 lw 1134 1701 m 354 -284 d s 0.95 0.95 0.95 c black 1134 1701 m -5 -4 d -9 -7 d -1 1 d -2 1 d -1 1 d -1 1 d -2 1 d -1 X -1 1 d -2 X -1 Y
 -1 -1 d -1 Y 1 -1 d -2 Y 1 -2 d -1 Y 1 -2 d 1 -2 d -2 Y 1 -1 d -2 Y 1 -2 d -1 Y 1 -1 d -3 Y -1 X -1 Y -1 X -1 1 d -1 X -1 1 d -1 X -2 1 d -1 1 d -2 1 d -1 1 d -2 1 d -1 1 d -2 1 d -1 1 d -1 1 d -2 X -1 1 d -1 X -1 -1 d -5 Y 1 -2 d 1 -2 d -1 Y 1 -2 d
 -2 Y 1 -1 d 1 -2 d -2 Y 1 -1 d -4 Y -1 X -1 Y -1 X -1 1 d -2 X -1 1 d -2 1 d -1 1 d -2 1 d -1 1 d -2 1 d -1 1 d -2 1 d -1 1 d -1 X -1 1 d -1 X -1 1 d -1 X -1 -1 d -4 Y 1 -1 d -2 Y 1 -2 d -1 Y 1 -2 d 1 -2 d -2 Y 1 -1 d -2 Y 1 -1 d -4 Y -1 -1 d -1 X
 -1 1 d -2 X -1 1 d -1 1 d -2 1 d -1 1 d -2 1 d -1 1 d -2 1 d -1 1 d -2 1 d -1 X -1 1 d -4 X -3 Y 1 -1 d -3 Y 1 -2 d 1 -1 d -2 Y 1 -2 d 1 -2 d -1 Y 1 -2 d -6 Y -2 X -1 1 d -1 X -2 1 d -1 1 d -2 1 d -1 1 d -2 1 d -1 1 d -2 1 d -1 1 d -1 1 d -2 X -1 1
 d -3 X -1 -1 d -1 Y 1 -1 d -3 Y 1 -1 d -2 Y 1 -2 d 1 -1 d -2 Y 1 -2 d -1 Y 1 -2 d -1 Y 1 -2 d -2 Y -1 -1 d -2 X -1 1 d -1 X -1 1 d -2 1 d -1 1 d -2 1 d -1 1 d -2 1 d -1 1 d -2 1 d -1 X -2 1 d -1 1 d -3 X -6 Y 1 -1 d -2 Y 1 -2 d 1 -1 d -2 Y 1 -2 d 1
 -1 d -2 Y 1 -1 d -4 Y -1 -1 d -3 X -1 1 d -1 1 d -2 1 d -1 1 d -2 1 d -1 1 d -2 1 d -1 1 d -2 1 d -1 X -1 1 d -1 1 d -4 X -4 Y 1 -2 d -1 Y 1 -2 d -2 Y 1 -1 d 1 -2 d -2 Y 1 -2 d -1 Y 1 -2 d -4 Y -3 X -2 1 d -1 1 d -1 X -2 1 d -1 1 d -2 1 d -1 1 d -2
 1 d -1 1 d -2 1 d -1 1 d -1 1 d -3 X -1 -1 d -2 Y 1 -2 d -3 Y 1 -1 d 1 -2 d -2 Y 1 -1 d 1 -2 d -2 Y 1 -1 d -6 Y -3 X -1 1 d -2 1 d -1 X -2 1 d -1 1 d -2 1 d -1 1 d -2 1 d -1 1 d -2 1 d -1 1 d -1 X -1 1 d -2 X -1 Y -1 X -2 Y 1 -2 d -1 Y 1 -2 d -1 Y 1
 -2 d 1 -2 d -1 Y 1 -2 d -2 Y 1 -1 d -2 Y 1 -1 d -2 Y -1 -1 d -3 X -1 1 d -1 X -2 1 d -1 1 d -2 1 d -1 1 d -2 1 d -1 1 d -2 1 d -1 1 d -2 1 d -1 X -1 1 d -2 X -6 Y 1 -2 d -1 Y 1 -2 d 1 -2 d -2 Y 1 -1 d 1 -2 d -1 Y 1 -2 d -4 Y -4 X -1 1 d -1 X -2 1 d
 -1 1 d -2 1 d -1 1 d -2 1 d -1 1 d -2 1 d -1 1 d -1 1 d -2 X -1 1 d -2 X -5 Y 1 -1 d -2 Y 1 -1 d -2 Y 1 -2 d 1 -2 d -1 Y 1 -2 d -2 Y 1 -1 d -4 Y -1 -1 d -1 X -1 1 d -1 X -1 1 d -1 X -1 1 d -2 1 d -1 1 d -2 1 d -1 1 d -2 1 d -1 1 d -2 1 d -1 1 d -1 X
 -1 1 d -2 X -1 Y -1 X -4 Y 1 -1 d -2 Y 1 -2 d 1 -1 d -2 Y 1 -2 d 1 -1 d -2 Y 1 -2 d -5 Y -1 -1 d -1 1 d -2 X -2 1 d -1 1 d -2 1 d -1 1 d -2 1 d -1 1 d -2 1 d -1 1 d -2 1 d -1 X -1 1 d -1 X -1 1 d -1 X -1 Y -1 X -3 Y 1 -1 d -1 Y 1 -2 d -2 Y 1 -1 d -2
 Y 1 -2 d 1 -2 d -1 Y 1 -2 d -1 Y 1 -1 d -2 Y -1 -1 d -1 Y -2 X -1 1 d -1 X -1 1 d -2 1 d -1 1 d -2 1 d -1 1 d -2 1 d -1 1 d -2 1 d -1 1 d -2 X -1 1 d -3 X -6 Y 1 -1 d -2 Y 1 -1 d 1 -2 d -2 Y 1 -2 d 1 -1 d -3 Y 1 -1 d -3 Y -1 -1 d -2 X -1 1 d -1 X -1
 1 d -2 1 d -1 1 d -2 1 d -1 1 d -2 1 d -1 1 d -2 1 d -1 1 d -1 X -2 1 d -3 X -4 Y 1 -2 d -1 Y 1 -2 d -2 Y 1 -1 d 1 -2 d -2 Y 1 -1 d -2 Y 1 -1 d -5 Y -3 X -1 1 d -1 X -1 1 d -1 1 d -2 1 d -1 1 d -2 1 d -1 1 d -2 1 d -1 1 d -2 X -1 1 d -1 1 d -4 X -4
 Y 1 -2 d -1 Y 1 -2 d 1 -2 d -1 Y 1 -2 d -2 Y 1 -1 d 1 -2 d -6 Y -3 X -1 1 d -2 1 d -1 1 d -2 1 d -1 1 d -2 1 d -1 1 d -2 1 d -1 1 d -2 X -1 1 d -1 1 d -3 X -1 -1 d -2 Y 1 -1 d -2 Y 1 -1 d -2 Y 1 -2 d -1 Y 1 -2 d 1 -2 d -2 Y 1 -1 d -3 Y 1 -1 d -1 Y
 -1 X -1 Y -3 X -1 1 d -2 1 d -1 X -1 1 d -2 1 d -1 1 d -2 1 d -2 1 d -1 1 d -1 1 d -2 1 d -1 1 d -3 X -1 Y -1 -1 d 1 -1 d -3 Y 1 -2 d -1 Y 1 -2 d 1 -2 d -1 Y 1 -2 d 1 -2 d -3 Y 1 -1 d -3 Y -4 X -1 1 d -1 1 d -2 X -1 1 d -2 1 d -1 1 d -2 1 d -1 1 d
 -2 1 d -1 1 d -1 1 d -2 X -1 1 d -2 X -5 Y 1 -1 d -2 Y 1 -1 d -2 Y 1 -2 d -13 -10 d s 0.6 0.6 0.6 c[ 20 20] 0 sd 3 lw 227 1417 m 1814 X s black
 gsave  2268 2268 0 0 C 2096.82 1418.68 t 0 r /Helvetica findfont 70.5271 sf 0 0 m (t = 2) show NC gr [  ] 0 sd 6 lw 1488 1417 m 177 -283 d s 0.95 0.95 0.95 c black 1488 1417 m -1 -2 d -6 -10 d -2 1 d -4 X -1 1 d -6 X -3 Y 1 -1 d -1 Y 1 -1 d 1 -1 d 1
 -2 d 1 -1 d 2 -2 d 1 -1 d 1 -1 d 1 -2 d 1 -1 d 1 -1 d 1 -1 d -4 Y -5 X -2 1 d -4 X -1 1 d -2 X -2 1 d -3 X -2 1 d -3 X -1 -1 d -2 Y 1 -1 d -1 Y 1 -1 d 1 -2 d 1 -1 d 1 -1 d 2 -2 d 1 -1 d 1 -2 d 1 -1 d 1 -1 d 1 -1 d 1 -2 d -1 Y 1 -1 d -1 -1 d -7 X -2
 1 d -1 X -2 1 d -4 X -2 1 d -7 X -2 Y 1 -1 d -2 Y 1 -1 d 1 -1 d 1 -1 d 2 -2 d 1 -1 d 1 -2 d 1 -1 d 1 -1 d 1 -2 d 1 -1 d 1 -1 d -1 Y 1 -1 d -1 -1 d -1 -1 d -3 X -1 1 d -4 X -1 1 d -2 X -2 1 d -3 X -2 1 d -5 X -1 -1 d -2 Y 1 -1 d -1 Y 1 -1 d 1 -1 d 1
 -2 d 2 -1 d 1 -1 d 1 -2 d 1 -1 d 1 -2 d 1 -1 d 1 -1 d 1 -1 d -1 Y 1 -1 d -1 Y -1 X -1 Y -5 X -2 1 d -3 X -2 1 d -2 X -2 1 d -1 X -2 1 d -5 X -1 Y -1 X -2 Y 1 -1 d 1 -1 d -1 Y 1 -2 d 2 -1 d 1 -1 d 1 -2 d 1 -1 d 1 -2 d 1 -1 d 1 -1 d 1 -1 d 1 -1 d -1 Y
 1 -1 d -1 Y -1 -1 d -7 X -2 1 d -1 X -2 1 d -2 X -2 1 d -4 X -2 1 d -1 X -1 -1 d -1 X -2 Y 1 -1 d 1 -1 d -2 Y 1 -1 d 2 -1 d 1 -2 d 1 -1 d 1 -1 d 1 -2 d 1 -1 d 1 -1 d 1 -2 d 1 -1 d -1 Y 1 -1 d -1 Y -1 X -1 -1 d -1 X -2 1 d -4 X -2 1 d -2 X -2 1 d -2
 X -1 1 d -8 X -2 Y 1 -1 d -1 Y 1 -1 d 1 -1 d 1 -1 d 1 -1 d 1 -2 d 1 -1 d 1 -2 d 1 -1 d 1 -1 d 1 -2 d 1 -1 d 1 -1 d 1 -1 d -2 Y -1 X -1 Y -4 X -1 1 d -3 X -2 1 d -2 X -2 1 d -3 X -2 1 d -5 X -1 -1 d -1 Y 1 -1 d -1 Y 1 -1 d 1 -1 d 1 -1 d 1 -2 d 1 -1 d
 1 -2 d 1 -1 d 1 -1 d 2 -2 d 1 -1 d -1 Y 1 -1 d 1 -1 d -2 Y -1 -1 d -5 X -2 1 d -3 X -2 1 d -2 X -1 1 d -4 X -1 1 d -3 X -1 -1 d -1 X -1 Y 1 -1 d -1 Y 1 -1 d 1 -1 d 1 -2 d 1 -1 d 1 -1 d 1 -2 d 1 -1 d 2 -2 d 1 -1 d 1 -1 d -1 Y 1 -2 d 1 -1 d -2 Y -8 X
 -1 1 d -2 X -2 1 d -3 X -2 1 d -7 X -1 -1 d -1 Y 1 X -1 Y 1 -1 d 1 -2 d 1 -1 d 1 -1 d 1 -2 d 1 -1 d 1 -2 d 2 -1 d 1 -1 d 1 -2 d 1 -1 d -1 Y 1 -1 d -2 Y -1 X -1 Y -3 X -2 1 d -3 X -2 1 d -2 X -2 1 d -1 X -2 1 d -7 X -1 Y -1 X -1 Y 1 -1 d -1 Y 1 -1 d
 1 -1 d 1 -1 d 1 -2 d 1 -1 d 1 -1 d 1 -2 d 2 -1 d 1 -2 d 1 -1 d 1 -1 d -1 Y 1 -1 d -3 Y -6 X -1 1 d -2 X -2 1 d -4 X -1 1 d -2 X -2 1 d -5 X -1 Y -1 X 1 -1 d -2 Y 1 -1 d 1 -1 d 1 -2 d 1 -1 d 1 -1 d 1 -2 d 2 -1 d 1 -1 d 1 -2 d 1 -1 d 1 -1 d -1 Y 1 -1
 d -3 Y -7 X -2 1 d -2 X -2 1 d -1 X -2 1 d -5 X -1 1 d -2 X -1 -1 d -3 Y 1 -1 d 1 -2 d 1 -1 d 1 -1 d 1 -2 d 1 -1 d 2 -1 d 1 -2 d 1 -1 d 1 -1 d 1 -2 d -1 Y 1 -1 d -2 Y -1 X -1 -1 d -1 X -1 1 d -3 X -2 1 d -4 X -1 1 d -2 X -2 1 d -7 X -4 Y 1 -1 d 1 -1
 d 1 -1 d 1 -1 d 1 -2 d 1 -1 d -7 -12 d s 780 1417 m 177 -283 d s 780 1417 m -178 -283 d s 0.6 0.6 0.6 c[ 20 20] 0 sd 3 lw 227 1134 m 1814 X s black
 gsave  2268 2268 0 0 C 2096.82 1133.86 t 0 r /Helvetica findfont 70.5271 sf 0 0 m (t = 3) show NC gr [  ] 0 sd 6 lw 1665 1134 m 89 -284 d s 0.95 0.95 0.95 c black 1665 1134 m -1 -6 d -4 -11 d -11 X -1 Y -1 X -3 Y 1 X 1 -1 d 1 -1 d 2 -1 d 1 -1 d 1 -1
 d 2 -1 d 1 -1 d 2 -2 d 1 -1 d 2 -1 d 1 X 1 -1 d -1 Y 1 -1 d -2 Y -2 X -1 -1 d -16 X -2 -1 d -3 X -1 -1 d -2 Y 1 X 1 -1 d -1 Y 2 -1 d 1 -1 d 1 -1 d 2 -1 d 1 -1 d 2 -1 d 1 -1 d 2 -1 d 1 -1 d 1 -1 d 1 -1 d 1 -1 d -3 Y -2 X -2 -1 d -18 X -1 -1 d -1 X -1
 Y -1 X -1 Y 1 X -1 Y 1 -1 d 1 -1 d 1 -1 d 1 -1 d 2 -1 d 1 -1 d 2 -1 d 1 -1 d 2 -1 d 1 -1 d 1 -1 d 1 -1 d 1 -1 d 1 -1 d 1 X -2 Y -1 X -1 -1 d -5 X -2 -1 d -15 X -1 Y -1 X -3 Y 1 X 1 -1 d 1 -1 d 2 -1 d 1 -1 d 1 -1 d 2 -1 d 1 -1 d 2 -2 d 1 -1 d 2 -1 d
 1 X 1 -1 d -1 Y 1 -1 d -2 Y -2 X -1 -1 d -16 X -2 -1 d -3 X -1 -1 d -2 Y 1 X 1 -1 d -1 Y 2 -1 d 1 -1 d 1 -1 d 2 -1 d 1 -1 d 2 -1 d 1 -1 d 2 -1 d 1 -1 d 1 -1 d 1 -1 d 1 -1 d -3 Y -2 X -2 -1 d -18 X -1 -1 d -1 X -1 Y -1 X -1 Y 1 X -1 Y 1 -1 d 1 -1 d 1
 -1 d 1 -1 d 2 -1 d 1 -1 d 2 -1 d 1 -1 d 2 -1 d 1 -1 d 1 -1 d 1 -1 d 1 -1 d 1 -1 d 1 X -2 Y -1 X -1 -1 d -4 X -1 -1 d -17 X -1 Y -1 X -3 Y 1 -1 d 1 X 1 -1 d 2 -1 d 1 -1 d 1 -1 d 2 -1 d 1 -2 d 2 -1 d 1 -1 d 2 -1 d 1 -1 d 1 X -1 Y 1 -1 d -2 Y -2 X -1
 -1 d -16 X -2 -1 d -3 X -1 -1 d -2 Y 1 X 1 -1 d -1 Y 2 -1 d 1 -1 d 1 -1 d 2 -1 d 1 -1 d 2 -1 d 1 -1 d 2 -1 d 1 -1 d 1 -1 d 1 -1 d 1 -1 d -3 Y -2 X -2 -1 d -17 X -1 -1 d -2 X -1 Y -1 X -1 Y 1 X -1 Y 1 -1 d 1 -1 d 1 -1 d 1 -1 d 2 -1 d 1 -1 d 2 -1 d 1
 -1 d 2 -1 d 1 -1 d 1 -1 d 1 -1 d 1 -1 d 1 -1 d 1 X -2 Y -1 X -1 -1 d -4 X -1 -1 d -17 X -1 Y -1 X -3 Y 1 -1 d 1 X 1 -1 d 2 -1 d 1 -1 d 1 -1 d 2 -1 d 1 -2 d 2 -1 d 1 -1 d 2 -1 d 1 -1 d 1 X -1 Y 1 -1 d -2 Y -2 X -1 -1 d -15 X -1 -1 d -5 X -1 -1 d -2 Y
 1 X 1 -1 d -1 Y 2 -1 d 1 -1 d 1 -1 d 2 -1 d 1 -1 d 2 -1 d 1 -1 d 2 -1 d 1 -1 d 1 -1 d 1 -1 d 1 -1 d -3 Y -2 X -2 -1 d -17 X -1 -1 d -2 X -1 Y -1 X -1 Y 1 X -1 Y 1 -1 d 1 -1 d 1 -1 d 1 -1 d 2 -1 d 1 -1 d 2 -1 d -5 -16 d s 957 1134 m 88 -284 d s 0.95
 0.95 0.95 c black 957 1134 m -2 -6 d -3 -11 d -11 X -1 -1 d -1 X -2 Y 1 -1 d 1 X -1 Y 2 -1 d 1 -1 d 1 -1 d 2 -1 d 1 -1 d 2 -1 d 1 -2 d 2 -1 d 1 -1 d 1 X 1 -1 d 1 -1 d -1 Y 1 -1 d -1 X -1 Y -1 X -1 -1 d -17 X -2 -1 d -3 X -1 Y -1 X -1 Y 1 -1 d 1 -1 d
 1 -1 d 1 -1 d 1 -1 d 2 -1 d 1 -1 d 2 -1 d 1 -1 d 2 -1 d 1 -1 d 1 -1 d 1 -1 d 1 -1 d 1 -1 d 1 -1 d -1 Y -1 -1 d -2 X -1 -1 d -18 X -2 -1 d -1 -1 d -2 Y 1 -1 d 1 -1 d 1 -1 d 2 -1 d 1 -1 d 1 -1 d 2 -1 d 1 -1 d 2 -1 d 1 -1 d 2 -1 d 1 -1 d 1 -1 d -1 Y 1
 X -2 Y -1 X -1 -1 d -5 X -2 -1 d -14 X -1 -1 d -1 X -2 Y 1 -1 d 1 X -1 Y 2 -1 d 1 -1 d 1 -1 d 2 -1 d 1 -1 d 2 -1 d 1 -2 d 2 -1 d 1 -1 d 1 X 1 -1 d 1 -1 d -1 Y 1 -1 d -1 X -1 Y -1 X -1 -1 d -17 X -2 -1 d -3 X -1 Y -1 X -1 Y 1 -1 d 1 -1 d 1 -1 d 1 -1
 d 1 -1 d 2 -1 d 1 -1 d 2 -1 d 1 -1 d 2 -1 d 1 -1 d 1 -1 d 1 -1 d 1 -1 d 1 -1 d 1 -1 d -1 Y -1 X -1 Y -2 X -1 -1 d -18 X -2 -1 d -1 -1 d -2 Y 1 -1 d 1 -1 d 1 -1 d 2 -1 d 1 -1 d 1 -1 d 2 -1 d 1 -1 d 2 -1 d 1 -1 d 2 -1 d 1 -1 d 1 -1 d -1 Y 1 X -2 Y -1
 X -1 -1 d -3 X -2 -1 d -16 X -1 -1 d -1 X -2 Y 1 -1 d 1 -1 d 2 -1 d 1 -1 d 1 -1 d 2 -1 d 1 -1 d 2 -2 d 1 -1 d 2 -1 d 1 -1 d 1 -1 d 1 X 1 -1 d -3 Y -1 X -1 -1 d -17 X -2 -1 d -3 X -1 Y -1 X -1 Y 1 -1 d 1 -1 d 1 -1 d 1 -1 d 1 -1 d 2 -1 d 1 -1 d 2 -1 d
 1 -1 d 2 -1 d 1 -1 d 1 -1 d 1 -1 d 1 -1 d 1 -1 d 1 -1 d -1 Y -1 X -1 Y -2 X -1 -1 d -17 X -1 -1 d -2 X -1 -1 d -2 Y 1 -1 d 1 -1 d 1 -1 d 2 -1 d 1 -1 d 1 -1 d 2 -1 d 1 -1 d 2 -1 d 1 -1 d 2 -1 d 1 -1 d 1 -1 d -1 Y 1 X -2 Y -1 X -1 -1 d -3 X -2 -1 d
 -16 X -1 -1 d -1 X -2 Y 1 -1 d 1 -1 d 2 -1 d 1 -1 d 1 -1 d 2 -1 d 1 -1 d 2 -2 d 1 -1 d 2 -1 d 1 -1 d 1 -1 d 1 X 1 -1 d -3 Y -1 X -1 -1 d -15 X -2 -1 d -5 X -1 Y -1 X -1 Y 1 -1 d 1 -1 d 1 -1 d 1 -1 d 1 -1 d 2 -1 d 1 -1 d 2 -1 d 1 -1 d 2 -1 d 1 -1 d 1
 -1 d 1 -1 d 1 -1 d 1 -1 d 1 -1 d -1 Y -1 X -1 Y -2 X -1 -1 d -17 X -1 -1 d -2 X -1 -1 d -2 Y 1 -1 d 1 -1 d 1 -1 d 2 -1 d 1 -1 d 1 -1 d 2 -1 d -5 -16 d s 602 1134 m 89 -284 d s 0.95 0.95 0.95 c black 602 1134 m -2 -6 d -3 -11 d -10 X -1 -1 d -1 X -1
 Y -1 X 1 -1 d -1 Y 1 -1 d 1 -1 d 1 -1 d 1 -1 d 2 -1 d 1 -1 d 2 -1 d 1 -1 d 2 -1 d 1 -1 d 1 -1 d 1 -1 d 1 -1 d 1 -1 d 1 X -2 Y -1 X -1 -1 d -5 X -2 -1 d -15 X -1 Y -1 X -2 Y 1 -1 d 1 -1 d 1 -1 d 1 -1 d 2 -1 d 1 -1 d 2 -1 d 1 -1 d 2 -1 d 1 -2 d 1 -1 d
 2 X -1 Y 1 -1 d 1 -1 d -2 Y -2 X -1 -1 d -18 X -1 -1 d -2 X -1 -1 d -2 Y 1 -1 d 1 -1 d 1 -1 d 2 -1 d 1 -1 d 1 -1 d 2 -1 d 1 -1 d 2 -1 d 1 -1 d 2 -1 d 1 -1 d 1 -1 d -1 Y 1 -1 d -1 Y -1 -1 d -3 X -1 -1 d -18 X -1 -1 d -1 X -2 Y 1 -1 d -1 Y 1 X 1 -1 d
 2 -1 d 1 -1 d 2 -1 d 1 -2 d 2 -1 d 1 -1 d 1 -1 d 2 -1 d 1 -1 d 1 -1 d 1 -1 d -2 Y -1 X -1 -1 d -16 X -1 -1 d -5 X -1 -1 d -2 Y 1 X -1 Y 1 -1 d 2 -1 d 1 -1 d 1 -1 d 2 -1 d 1 -1 d 2 -1 d 1 -1 d 2 -1 d 1 -1 d 1 -1 d 1 -1 d 1 -1 d -3 Y -1 X -1 -1 d -20
 X -1 -1 d -1 X -1 -1 d -1 Y 1 -1 d 1 -1 d 1 -1 d 1 -1 d 1 -1 d 1 -1 d 2 -1 d 1 -1 d 2 -1 d 1 -1 d 2 -1 d 1 -1 d 1 -1 d 1 -1 d 1 -1 d -3 Y -5 X -2 -1 d -16 X -1 -1 d -1 -1 d 1 -1 d -1 Y 1 X 1 -1 d 1 -1 d 1 -1 d 1 -1 d 2 -1 d 1 -1 d 2 -1 d 1 -2 d 2 -1
 d 1 -1 d 1 -1 d 1 X 1 -1 d -1 Y 1 -1 d -1 -1 d -1 X -1 -1 d -18 X -2 -1 d -2 X -1 Y -1 -1 d 1 X -1 Y 1 -1 d 1 -1 d 1 -1 d 1 -1 d 2 -1 d 1 -1 d 2 -1 d 1 -1 d 2 -1 d 1 -1 d 1 -1 d 1 -1 d 1 -1 d 1 -1 d 1 -1 d -1 Y -1 X -1 Y -2 X -1 -1 d -19 X -1 -1 d
 -1 X -3 Y 1 -1 d 1 -1 d 1 X 1 -1 d 2 -1 d 1 -2 d 2 -1 d 1 -1 d 2 -1 d 1 -1 d 1 -1 d 2 -1 d -1 Y 1 X 1 -1 d -2 Y -1 X -1 -1 d -14 X -2 -1 d -6 X -1 Y -1 X -2 Y 1 -1 d 1 -1 d 1 -1 d 1 -1 d 2 -1 d 1 -1 d 2 -1 d 1 -1 d 2 -1 d 1 -1 d 2 -1 d 1 -1 d 1 -1 d
 -1 Y 1 -1 d -2 Y -2 X -1 -1 d -18 X -1 -1 d -2 X -1 -1 d -1 Y 1 -1 d -1 Y 1 -1 d 1 -1 d 2 -1 d 1 -1 d 2 -1 d 1 -1 d 2 -1 d 1 -1 d 1 -1 d 2 -1 d 1 -1 d 1 -1 d -1 Y 1 X -2 Y -1 -1 d -3 X -1 -1 d -18 X -1 -1 d -1 X -2 Y 1 -1 d 1 -1 d 2 -1 d 1 -1 d 1 -1
 d 2 -1 d 1 -1 d -5 -17 d s 1311 1134 m 89 -284 d s 1311 1134 m -89 -284 d s 0.6 0.6 0.6 c[ 20 20] 0 sd 3 lw 227 850 m 1814 X s black
 gsave  2268 2268 0 0 C 2096.82 851.75 t 0 r /Helvetica findfont 70.5271 sf 0 0 m (t = 4) show NC gr [  ] 0 sd 6 lw 1754 850 m 44 -283 d s 0.95 0.95 0.95 c black 1754 850 m -2 Y -2 -11 d -2 X -2 -1 d -3 X -1 -1 d -2 X -1 -1 d -1 X -2 Y 1 -1 d 1 -1 d
 1 X 1 -1 d 1 -1 d 2 -1 d 2 X 1 -1 d 2 -1 d 1 -1 d 2 -1 d 1 -1 d 2 X 1 -1 d 1 -1 d -1 Y 1 -1 d -1 X -1 Y -1 X -1 -1 d -3 X -1 -1 d -4 X -2 -1 d -5 X -1 -1 d -2 X -1 -1 d -2 X -1 Y -1 X -1 Y 1 -1 d 1 -1 d 1 -1 d 2 X 1 -1 d 1 -1 d 2 -1 d 2 -1 d 1 -1 d
 2 X 2 -1 d 1 -1 d 1 -1 d 1 X 1 -1 d 1 -1 d -2 Y -1 X -1 Y -3 X -1 -1 d -3 X -2 -1 d -4 X -2 -1 d -3 X -1 -1 d -3 X -1 Y -1 X -2 Y 1 -1 d 1 X 1 -1 d 1 -1 d 2 -1 d 1 -1 d 2 X 1 -1 d 2 -1 d 2 -1 d 1 -1 d 2 X 1 -1 d 1 -1 d 1 -1 d 1 -1 d -1 -1 d -1 Y -2
 X -1 -1 d -3 X -2 -1 d -3 X -2 -1 d -4 X -1 -1 d -3 X -1 -1 d -1 X -2 Y 1 -1 d -1 Y 1 -1 d 2 X 1 -1 d 2 -1 d 1 -1 d 2 -1 d 2 X 1 -1 d 2 -1 d 1 -1 d 1 -1 d 1 X 1 -1 d 1 -1 d -2 Y -1 X -1 -1 d -1 X -2 -1 d -5 X -2 -1 d -3 X -2 -1 d -3 X -1 -1 d -1 X
 -1 -1 d -1 X -1 Y 1 -1 d -1 Y 1 X 1 -1 d 1 -1 d 2 -1 d 1 X 2 -1 d 2 -1 d 1 -1 d 2 -1 d 1 X 2 -1 d 1 -1 d 1 -1 d 1 X -1 Y 1 -1 d -1 Y -1 X -1 -1 d -1 X -1 -1 d -3 X -2 -1 d -5 X -2 -1 d -3 X -2 -1 d -1 X -1 -1 d -1 X -2 Y 1 -1 d 1 -1 d 1 X 1 -1 d 1
 -1 d 2 -1 d 1 -1 d 2 X 2 -1 d 1 -1 d 2 -1 d 1 -1 d 2 X 1 -1 d -1 Y 1 -1 d -2 Y -1 X -1 -1 d -3 X -1 -1 d -4 X -2 -1 d -3 X -2 -1 d -3 X -1 -1 d -2 X -1 Y -1 -1 d 1 -1 d 1 -1 d 1 -1 d 1 -1 d 2 X 1 -1 d 2 -1 d 2 -1 d 1 -1 d 2 X 2 -1 d 1 -1 d 1 -1 d 1
 -1 d 1 X 1 -1 d -2 Y -1 X -1 Y -3 X -1 -1 d -3 X -2 -1 d -4 X -2 -1 d -3 X -1 -1 d -3 X -1 Y -1 X -2 Y 1 -1 d 1 -1 d 1 X 1 -1 d 1 -1 d 2 -1 d 2 X 1 -1 d 2 -1 d 2 -1 d 1 -1 d 2 X 1 -1 d 1 -1 d 1 -1 d 1 -1 d -1 Y -1 X -1 Y -2 X -1 -1 d -2 X -1 -1 d -5
 X -2 -1 d -4 X -1 -1 d -3 X -1 -1 d -1 X -1 Y -1 X 1 -1 d -1 Y 1 -1 d 1 -1 d 2 X 1 -1 d 2 -1 d 1 -1 d 2 -1 d 2 X 1 -1 d 2 -1 d 1 -1 d 1 -1 d 1 X 1 -1 d 1 -1 d -2 Y -1 X -1 -1 d -2 X -1 -1 d -3 X -2 -1 d -6 X -1 -1 d -3 X -1 -1 d -1 X -1 -1 d -1 X -2
 Y 1 -1 d 1 X 1 -1 d 1 -1 d 2 -1 d 1 X 2 -1 d 1 -1 d 2 -1 d 2 -1 d 1 -1 d 2 X 1 -1 d 1 -1 d 1 -1 d 1 -1 d -1 Y -1 X -1 -1 d -1 X -1 -1 d -3 X -2 -1 d -3 X -2 -1 d -4 X -1 -1 d -3 X -1 -1 d -1 X -2 Y 1 -1 d -1 Y 2 X 1 -1 d 1 -1 d 2 -1 d 1 -1 d 2 -1 d
 2 X 1 -1 d 2 -1 d 1 -1 d 2 -1 d 1 X -1 Y 1 -1 d -2 Y -1 X -1 -1 d -3 X -1 -1 d -4 X -2 -1 d -3 X -2 -1 d -3 X -1 -1 d -1 X -1 -1 d -1 X -1 Y 1 -1 d 1 -1 d 1 -1 d 1 -1 d 2 X 1 -1 d 2 -1 d 2 -1 d -2 -13 d s 1045 850 m 45 -283 d s 0.95 0.95 0.95 c
 black 1045 850 m -2 Y -2 -11 d -2 X -1 -1 d -4 X -1 -1 d -1 X -1 -1 d -2 X -2 Y 1 X -1 Y 1 -1 d 1 X 1 -1 d 2 -1 d 1 -1 d 2 X 2 -1 d 1 -1 d 2 -1 d 1 -1 d 2 -1 d 1 X 1 -1 d 1 -1 d 1 -1 d -1 Y -1 -1 d -1 X -1 -1 d -2 X -2 -1 d -3 X -2 -1 d -6 X -1 -1 d
 -2 X -1 -1 d -2 X -3 Y 1 X 1 -1 d 1 -1 d 1 X 1 -1 d 2 -1 d 1 -1 d 2 -1 d 2 -1 d 1 X 2 -1 d 1 -1 d 2 -1 d 1 X -1 Y 1 -1 d -2 Y -1 -1 d -2 X -2 -1 d -3 X -2 -1 d -3 X -2 -1 d -4 X -1 -1 d -2 X -1 -1 d -1 -1 d 1 -1 d -1 Y 1 X 1 -1 d 1 -1 d 2 -1 d 1 -1
 d 2 X 2 -1 d 1 -1 d 2 -1 d 2 -1 d 1 X 1 -1 d 1 -1 d 1 -1 d 1 X -2 Y -1 -1 d -1 X -2 -1 d -3 X -1 -1 d -4 X -2 -1 d -3 X -2 -1 d -3 X -1 -1 d -1 -1 d -1 Y 1 -1 d 1 -1 d 1 -1 d 1 X 1 -1 d 2 -1 d 2 -1 d 1 -1 d 2 X 2 -1 d 1 -1 d 2 -1 d 1 -1 d 1 X 1 -1 d
 -1 Y 1 X -1 Y -1 X -1 Y -1 X -1 -1 d -1 X -2 -1 d -5 X -1 -1 d -4 X -2 -1 d -3 X -1 -1 d -1 X -1 -1 d -1 -1 d 1 X -2 Y 1 X 1 -1 d 2 -1 d 1 -1 d 2 X 1 -1 d 2 -1 d 2 -1 d 1 -1 d 2 X 1 -1 d 1 -1 d 1 -1 d 1 X 1 -1 d -2 Y -1 X -1 Y -1 X -2 -1 d -3 X -1
 -1 d -6 X -1 -1 d -4 X -1 -1 d -1 X -1 -1 d -1 X -1 -1 d -1 Y 1 -1 d 1 -1 d 1 X 1 -1 d 2 -1 d 1 -1 d 2 -1 d 1 X 2 -1 d 2 -1 d 1 -1 d 2 -1 d 1 X 1 -1 d 1 -1 d -1 Y 1 X -1 Y -1 -1 d -1 X -1 -1 d -2 X -2 -1 d -3 X -2 -1 d -4 X -2 -1 d -3 X -1 -1 d -2 X
 -3 Y 1 X -1 Y 2 -1 d 1 -1 d 1 X 2 -1 d 1 -1 d 2 -1 d 2 -1 d 1 X 2 -1 d 1 -1 d 2 -1 d 1 -1 d 1 -1 d -2 Y -1 -1 d -2 X -2 -1 d -3 X -2 -1 d -4 X -1 -1 d -4 X -1 -1 d -2 X -1 -1 d -1 X -2 Y 1 X -1 Y 1 -1 d 1 X 1 -1 d 2 -1 d 1 -1 d 2 X 2 -1 d 1 -1 d 2
 -1 d 1 -1 d 2 X 1 -1 d 1 -1 d 1 -1 d 1 X -2 Y -1 -1 d -2 X -1 -1 d -1 X -2 -1 d -5 X -2 -1 d -3 X -2 -1 d -3 X -1 -1 d -1 -1 d -2 Y 1 X 1 -1 d 1 -1 d 1 X 1 -1 d 2 -1 d 2 -1 d 1 -1 d 2 X 1 -1 d 2 -1 d 1 -1 d 2 -1 d 1 X 1 -1 d -1 Y 1 -1 d -1 -1 d -1 X
 -1 -1 d -1 X -2 -1 d -3 X -2 -1 d -5 X -2 -1 d -3 X -1 -1 d -1 X -1 -1 d -1 -1 d 1 -1 d -1 Y 1 X 1 -1 d 2 -1 d 1 -1 d 1 X 2 -1 d 2 -1 d 1 -1 d 2 -1 d 2 -1 d 1 X 1 -1 d 1 -1 d 1 -1 d 1 X -2 Y -1 X -1 Y -1 X -2 -1 d -3 X -1 -1 d -4 X -2 -1 d -3 X -2
 -1 d -3 X -1 -1 d -1 -1 d -1 Y 1 -1 d 1 -1 d 1 X 1 -1 d 2 -1 d 1 -1 d 2 -1 d 1 -1 d 2 X 2 -1 d 1 -1 d 2 -1 d 1 -1 d 1 X 1 -1 d -1 Y 1 X -1 Y -1 X -1 Y -1 X -1 -1 d -2 X -2 -1 d -4 X -1 -1 d -4 X -2 -1 d -3 X -1 -1 d -1 X -1 -1 d -2 Y 1 X -1 Y 1 -1 d
 2 -1 d 1 X 2 -1 d 1 -1 d 2 -1 d -2 -13 d s 691 850 m 44 -283 d s 0.95 0.95 0.95 c black 691 850 m -2 Y -2 -11 d -2 X -2 -1 d -3 X -1 -1 d -2 X -1 -1 d -1 X -2 Y 1 -1 d 1 -1 d 1 X 1 -1 d 1 -1 d 2 -1 d 2 X 1 -1 d 2 -1 d 1 -1 d 2 -1 d 1 -1 d 2 X 1 -1 d
 1 -1 d -1 Y 1 -1 d -1 X -1 Y -1 X -1 -1 d -3 X -1 -1 d -4 X -2 -1 d -5 X -1 -1 d -2 X -1 -1 d -2 X -1 Y -1 X -1 Y 1 -1 d 1 -1 d 1 -1 d 2 X 1 -1 d 1 -1 d 2 -1 d 2 -1 d 1 -1 d 2 X 2 -1 d 1 -1 d 1 -1 d 1 X 1 -1 d 1 -1 d -2 Y -1 X -1 Y -3 X -1 -1 d -3 X
 -2 -1 d -4 X -2 -1 d -3 X -1 -1 d -3 X -1 Y -1 X -2 Y 1 -1 d 1 X 1 -1 d 1 -1 d 2 -1 d 1 -1 d 2 X 1 -1 d 2 -1 d 2 -1 d 1 -1 d 2 X 1 -1 d 1 -1 d 1 -1 d 1 -1 d -1 -1 d -1 Y -2 X -1 -1 d -3 X -2 -1 d -3 X -2 -1 d -4 X -1 -1 d -3 X -1 -1 d -1 X -2 Y 1 -1
 d -1 Y 1 -1 d 2 X 1 -1 d 2 -1 d 1 -1 d 2 -1 d 2 X 1 -1 d 2 -1 d 1 -1 d 1 -1 d 1 X 1 -1 d 1 -1 d -2 Y -1 X -1 -1 d -1 X -2 -1 d -5 X -2 -1 d -3 X -2 -1 d -3 X -1 -1 d -1 X -1 -1 d -1 X -1 Y 1 -1 d -1 Y 1 X 1 -1 d 1 -1 d 2 -1 d 1 X 2 -1 d 2 -1 d 1 -1
 d 2 -1 d 1 X 2 -1 d 1 -1 d 1 -1 d 1 X -1 Y 1 -1 d -1 Y -1 X -1 -1 d -1 X -1 -1 d -3 X -2 -1 d -5 X -2 -1 d -3 X -2 -1 d -1 X -1 -1 d -1 X -2 Y 1 -1 d 1 -1 d 1 X 1 -1 d 1 -1 d 2 -1 d 1 -1 d 2 X 2 -1 d 1 -1 d 2 -1 d 1 -1 d 2 X 1 -1 d -1 Y 1 -1 d -2 Y
 -1 X -1 -1 d -3 X -1 -1 d -4 X -2 -1 d -3 X -2 -1 d -3 X -1 -1 d -2 X -1 Y -1 -1 d 1 -1 d 1 -1 d 1 -1 d 1 -1 d 2 X 1 -1 d 2 -1 d 2 -1 d 1 -1 d 2 X 2 -1 d 1 -1 d 1 -1 d 1 -1 d 1 X 1 -1 d -2 Y -1 X -1 Y -3 X -1 -1 d -3 X -2 -1 d -4 X -2 -1 d -3 X -1
 -1 d -3 X -1 Y -1 X -2 Y 1 -1 d 1 -1 d 1 X 1 -1 d 1 -1 d 2 -1 d 2 X 1 -1 d 2 -1 d 2 -1 d 1 -1 d 2 X 1 -1 d 1 -1 d 1 -1 d 1 -1 d -1 Y -1 X -1 Y -2 X -1 -1 d -2 X -1 -1 d -5 X -2 -1 d -4 X -1 -1 d -3 X -1 -1 d -1 X -1 Y -1 X 1 -1 d -1 Y 1 -1 d 1 -1 d
 2 X 1 -1 d 2 -1 d 1 -1 d 2 -1 d 2 X 1 -1 d 2 -1 d 1 -1 d 1 -1 d 1 X 1 -1 d 1 -1 d -2 Y -1 X -1 -1 d -2 X -1 -1 d -3 X -2 -1 d -5 X -2 -1 d -3 X -1 -1 d -1 X -1 -1 d -1 X -2 Y 1 -1 d 1 X 1 -1 d 1 -1 d 2 -1 d 1 X 2 -1 d 1 -1 d 2 -1 d 2 -1 d 1 -1 d 2 X
 1 -1 d 1 -1 d 1 -1 d 1 -1 d -1 Y -1 X -1 -1 d -1 X -1 -1 d -3 X -2 -1 d -3 X -2 -1 d -4 X -1 -1 d -3 X -1 -1 d -1 X -2 Y 1 -1 d -1 Y 2 X 1 -1 d 1 -1 d 2 -1 d 1 -1 d 2 -1 d 2 X 1 -1 d 2 -1 d 1 -1 d 2 -1 d 1 X -1 Y 1 -1 d -2 Y -1 X -1 -1 d -3 X -1 -1
 d -4 X -2 -1 d -3 X -2 -1 d -3 X -1 -1 d -1 X -1 -1 d -1 X -1 Y 1 -1 d 1 -1 d 1 -1 d 1 -1 d 2 X 1 -1 d 2 -1 d 2 -1 d -2 -13 d s 1400 850 m 44 -283 d s 0.95 0.95 0.95 c black 1400 850 m -1 -2 d -1 -11 d -2 X -2 -1 d -3 X -2 -1 d -1 X -1 -1 d -1 X -1
 -1 d 1 -1 d -1 Y 1 -1 d 1 X 2 -1 d 1 -1 d 2 -1 d 1 X 2 -1 d 2 -1 d 1 -1 d 2 -1 d 1 -1 d 1 X 1 -1 d 1 -1 d 1 X -2 Y -1 -1 d -1 -1 d -3 X -2 -1 d -3 X -2 -1 d -5 X -2 -1 d -1 X -1 -1 d -2 X -1 -1 d -2 Y 1 X 1 -1 d 1 -1 d 1 X 2 -1 d 1 -1 d 2 -1 d 1 -1
 d 2 -1 d 2 X 1 -1 d 2 -1 d 1 -1 d 1 X 1 -1 d -1 Y 1 X -2 Y -1 X -1 -1 d -2 X -1 -1 d -4 X -1 -1 d -4 X -2 -1 d -3 X -2 -1 d -2 X -1 -1 d -2 Y 1 -1 d 2 -1 d 1 -1 d 1 -1 d 2 -1 d 1 X 2 -1 d 2 -1 d 1 -1 d 2 -1 d 1 X 2 -1 d 1 -1 d -1 Y 1 X -3 Y -2 X -1
 -1 d -3 X -2 -1 d -4 X -2 -1 d -3 X -2 -1 d -2 X -1 -1 d -1 X -1 -1 d -1 Y 1 X -1 Y 1 -1 d 1 -1 d 1 X 2 -1 d 1 -1 d 2 -1 d 2 -1 d 1 X 2 -1 d 1 -1 d 2 -1 d 1 -1 d 1 X 1 -1 d 1 -1 d -1 Y -1 -1 d -1 X -1 -1 d -1 X -1 -1 d -5 X -2 -1 d -4 X -1 -1 d -3 X
 -2 -1 d -1 X -1 Y -1 X -2 Y 1 -1 d 1 X 1 -1 d 1 -1 d 1 -1 d 2 X 2 -1 d 1 -1 d 2 -1 d 1 -1 d 2 X 1 -1 d 2 -1 d 1 -1 d 1 X -2 Y 1 X -1 -1 d -1 -1 d -1 X -1 -1 d -3 X -2 -1 d -5 X -2 -1 d -3 X -2 -1 d -1 X -1 -1 d -1 X -1 Y -1 X -1 Y 1 X -1 Y 1 -1 d 1
 X 2 -1 d 1 -1 d 1 -1 d 2 -1 d 2 X 1 -1 d 2 -1 d 2 -1 d 1 -1 d 1 X 1 -1 d 1 -1 d 1 -1 d -1 Y -1 -1 d -1 -1 d -3 X -2 -1 d -3 X -2 -1 d -4 X -1 -1 d -3 X -2 -1 d -1 X -1 -1 d -2 Y 1 X 1 -1 d 1 -1 d 1 -1 d 2 X 1 -1 d 2 -1 d 1 -1 d 2 -1 d 2 X 1 -1 d 2
 -1 d 1 -1 d 1 -1 d 1 X -1 Y 1 -1 d -1 -1 d -1 -1 d -2 X -1 -1 d -4 X -2 -1 d -3 X -2 -1 d -3 X -2 -1 d -2 X -1 -1 d -2 Y 1 -1 d -1 Y 1 X 2 -1 d 1 -1 d 2 -1 d 1 X 2 -1 d 2 -1 d 1 -1 d 2 -1 d 1 X 1 -1 d 1 -1 d 1 -1 d 1 X -3 Y -2 X -1 -1 d -2 X -1 -1 d
 -6 X -2 -1 d -3 X -2 -1 d -2 X -1 -1 d -1 X -1 -1 d -1 Y 1 -1 d 1 -1 d 1 -1 d 1 X 2 -1 d 1 -1 d 2 -1 d 2 -1 d 1 X 2 -1 d 1 -1 d 2 -1 d 1 -1 d 1 X 1 -1 d -1 Y 1 X -2 Y -2 X -1 -1 d -1 X -1 -1 d -4 X -1 -1 d -6 X -2 -1 d -3 X -1 -1 d -1 X -1 -1 d -2 Y
 1 -1 d 1 X 1 -1 d 1 -1 d 1 -1 d 2 X 1 -1 d 2 -1 d 2 -1 d 1 -1 d 2 -1 d 1 X 2 -1 d 1 -1 d -1 Y 1 X -2 Y -1 -1 d -1 X -1 -1 d -3 X -2 -1 d -4 X -1 -1 d -4 X -2 -1 d -2 X -1 -1 d -1 X -1 Y -1 X -1 Y 1 X -1 Y 1 -1 d 1 X 1 -1 d 2 -1 d 1 -1 d 2 -1 d 2 -1
 d 1 X 2 -1 d 2 -1 d 1 -1 d 1 -1 d 1 X 1 -1 d 1 -1 d -1 Y -1 -1 d -1 -1 d -3 X -2 -1 d -3 X -2 -1 d -4 X -1 -1 d -3 X -2 -1 d -1 X -1 Y -1 X -2 Y 1 X 1 -1 d 1 -1 d 1 -1 d 1 X 2 -1 d 2 -1 d 1 -1 d -2 -13 d s 1222 850 m 45 -283 d s 0.95 0.95 0.95 c
 black 1222 850 m -2 Y -2 -11 d -1 X -2 -1 d -4 X -1 -1 d -1 X -1 -1 d -1 X -1 -1 d -1 Y 1 X -1 Y 1 -1 d 1 X 1 -1 d 2 -1 d 1 -1 d 2 X 2 -1 d 1 -1 d 2 -1 d 2 -1 d 1 -1 d 1 X 1 -1 d 1 -1 d 1 X -2 Y -1 -1 d -1 -1 d -3 X -2 -1 d -3 X -2 -1 d -5 X -2 -1 d
 -1 X -2 -1 d -1 X -1 -1 d -2 Y 1 X 1 -1 d 1 -1 d 1 X 1 -1 d 2 -1 d 2 -1 d 1 -1 d 2 -1 d 2 X 1 -1 d 2 -1 d 1 -1 d 1 X 1 -1 d -1 Y 1 X -1 Y -1 -1 d -1 -1 d -2 X -2 -1 d -3 X -2 -1 d -3 X -2 -1 d -3 X -2 -1 d -2 X -1 -1 d -1 -1 d 1 X -2 Y 1 X 1 -1 d 2
 -1 d 1 -1 d 2 -1 d 1 X 2 -1 d 2 -1 d 1 -1 d 2 -1 d 1 X 1 -1 d 1 -1 d 1 -1 d 1 X -2 Y -1 -1 d -1 X -2 -1 d -3 X -1 -1 d -4 X -2 -1 d -3 X -2 -1 d -2 X -1 -1 d -1 X -1 -1 d -1 Y 1 -1 d 1 -1 d 1 -1 d 1 X 2 -1 d 1 -1 d 2 -1 d 1 -1 d 2 X 2 -1 d 1 -1 d 2
 -1 d 1 -1 d 1 X 1 -1 d -1 Y 1 X -1 Y -1 -1 d -1 X -1 -1 d -1 X -1 -1 d -5 X -2 -1 d -4 X -2 -1 d -3 X -1 -1 d -1 X -1 -1 d -2 Y 1 -1 d 2 -1 d 1 -1 d 1 -1 d 2 X 1 -1 d 2 -1 d 2 -1 d 1 -1 d 2 X 1 -1 d 2 -1 d 1 -1 d 1 -1 d -2 Y -1 -1 d -1 X -1 -1 d -3
 X -2 -1 d -6 X -1 -1 d -4 X -1 -1 d -1 X -1 -1 d -1 X -1 -1 d -1 Y 1 X -1 Y 1 -1 d 1 X 1 -1 d 2 -1 d 1 -1 d 2 -1 d 2 X 1 -1 d 2 -1 d 1 -1 d 2 -1 d 1 X 1 -1 d 1 -1 d 1 -1 d -1 Y -1 -1 d -1 X -1 -1 d -2 X -2 -1 d -3 X -2 -1 d -4 X -1 -1 d -3 X -2 -1 d
 -1 X -1 -1 d -2 Y 1 X 1 -1 d 1 -1 d 1 -1 d 1 X 2 -1 d 2 -1 d 1 -1 d 2 -1 d 1 X 2 -1 d 1 -1 d 2 -1 d 1 -1 d 1 X -2 Y 1 X -1 -1 d -1 -1 d -2 X -2 -1 d -3 X -2 -1 d -3 X -2 -1 d -3 X -2 -1 d -2 X -1 -1 d -1 -1 d -1 Y 1 X -1 Y 1 -1 d 1 X 2 -1 d 1 -1 d 1
 -1 d 2 X 2 -1 d 1 -1 d 2 -1 d 2 -1 d 1 X 1 -1 d 1 -1 d 1 -1 d 1 X -2 Y -1 -1 d -1 X -2 -1 d -1 X -2 -1 d -5 X -2 -1 d -3 X -2 -1 d -3 X -1 -1 d -1 -1 d -2 Y 1 X 1 -1 d 1 -1 d 1 X 2 -1 d 1 -1 d 2 -1 d 1 -1 d 2 X 2 -1 d 1 -1 d 2 -1 d 1 -1 d 1 X 1 -1 d
 -1 Y 1 X -1 Y -1 -1 d -1 X -1 -1 d -1 X -1 -1 d -4 X -2 -1 d -5 X -2 -1 d -3 X -1 -1 d -1 X -1 -1 d -2 Y 1 -1 d 1 -1 d 2 -1 d 1 -1 d 2 X 1 -1 d 2 -1 d 2 -1 d 1 -1 d 2 -1 d 1 X 1 -1 d 1 -1 d 1 -1 d 1 X -2 Y -1 -1 d -1 X -1 -1 d -3 X -2 -1 d -4 X -2
 -1 d -3 X -2 -1 d -2 X -1 -1 d -1 X -1 -1 d -1 Y 1 X -1 Y 1 -1 d 1 X 1 -1 d 2 -1 d 1 -1 d 2 -1 d 2 -1 d 1 X 2 -1 d 1 -1 d 2 -1 d 1 -1 d 1 X 1 -1 d -1 Y 1 X -1 Y -1 -1 d -1 X -1 -1 d -2 X -2 -1 d -3 X -2 -1 d -4 X -2 -1 d -3 X -1 -1 d -1 X -1 -1 d -2
 Y 1 X 1 -1 d 1 -1 d 1 -1 d 1 X 2 -1 d 1 -1 d 2 -1 d -2 -13 d s 1577 850 m 44 -283 d s 1577 850 m -45 -283 d s 868 850 m 44 -283 d s 868 850 m -44 -283 d s 514 850 m 44 -283 d s 514 850 m -45 -283 d s 0.6 0.6 0.6 c[ 20 20] 0 sd 3 lw 227 567 m 1814 X
 s black
 gsave  2268 2268 0 0 C 2096.82 566.929 t 0 r /Helvetica findfont 70.5271 sf 0 0 m (t = 5) show NC gr [  ] 0 sd 6 lw 1798 567 m 22 -284 d s 0.95 0.95 0.95 c black 1798 567 m -1 -11 d -11 Y -2 -1 d -2 X -2 -1 d -1 X -2 -1 d -1 X -1 -1 d -1 X -2 Y 1 -1
 d 1 -1 d 1 X 1 -1 d 2 -1 d 1 X 2 -1 d 2 -1 d 1 X 2 -1 d 2 -1 d 1 X 1 -1 d 2 -1 d 1 -1 d -1 Y 1 X -1 -1 d -1 -1 d -1 X -1 -1 d -1 X -2 -1 d -2 X -1 -1 d -4 X -2 -1 d -1 X -2 -1 d -1 X -2 -1 d -1 X -1 Y -1 X -2 Y 1 -1 d 1 X 1 -1 d 1 -1 d 2 X 1 -1 d 2
 -1 d 2 X 2 -1 d 1 -1 d 2 X 1 -1 d 2 -1 d 1 X 1 -1 d -1 Y 1 X -1 Y -1 -1 d -1 X -1 -1 d -1 X -1 -1 d -2 X -1 -1 d -2 X -2 -1 d -2 X -2 -1 d -3 X -1 -1 d -1 X -1 -1 d -1 X -1 -1 d -1 Y 1 -1 d 1 -1 d 1 -1 d 2 X 1 -1 d 2 -1 d 1 X 2 -1 d 2 -1 d 2 X 1 -1
 d 2 -1 d 1 X 1 -1 d 1 -1 d 1 X -2 Y -1 -1 d -1 -1 d -1 X -2 -1 d -3 X -2 -1 d -2 X -2 -1 d -1 X -2 -1 d -3 X -1 -1 d -1 X -1 -1 d -2 Y 1 -1 d 1 X 1 -1 d 1 -1 d 1 X 2 -1 d 2 -1 d 1 -1 d 2 X 2 -1 d 1 -1 d 2 X 1 -1 d 1 -1 d 1 X 1 -1 d -2 Y -1 -1 d -1 X
 -1 -1 d -2 X -1 -1 d -4 X -1 -1 d -2 X -2 -1 d -2 X -1 -1 d -2 X -1 -1 d -1 X -1 -1 d -2 Y 1 X 1 -1 d 1 -1 d 1 X 2 -1 d 1 -1 d 2 X 2 -1 d 1 -1 d 2 -1 d 2 X 1 -1 d 1 -1 d 2 X -1 Y 1 -1 d 1 -1 d -1 X -1 Y -1 X -1 -1 d -1 X -1 -1 d -2 X -2 -1 d -3 X -2
 -1 d -2 X -1 -1 d -2 X -1 -1 d -2 X -1 -1 d -1 -1 d -1 Y 1 X -1 Y 1 -1 d 1 X 1 -1 d 2 -1 d 2 X 1 -1 d 2 -1 d 2 X 1 -1 d 2 -1 d 1 -1 d 2 X 1 -1 d 1 -1 d 1 -1 d -1 Y -1 X -1 -1 d -1 X -1 -1 d -1 X -2 -1 d -1 X -2 -1 d -2 X -2 -1 d -3 X -2 -1 d -1 X -1
 -1 d -1 X -1 -1 d -1 -1 d 1 -1 d -1 Y 1 X 1 -1 d 2 -1 d 1 X 2 -1 d 1 -1 d 2 X 2 -1 d 2 -1 d 1 X 2 -1 d 1 -1 d 1 X 1 -1 d 1 -1 d -1 Y -1 -1 d -1 Y -2 X -2 -1 d -1 X -2 -1 d -2 X -2 -1 d -1 X -2 -1 d -3 X -2 -1 d -1 X -1 -1 d -1 X -3 Y 1 X 1 -1 d 1 -1
 d 1 X 1 -1 d 2 -1 d 2 X 1 -1 d 2 -1 d 2 X 1 -1 d 2 -1 d 1 X 1 -1 d 1 -1 d 1 X -3 Y -1 X -1 -1 d -1 X -2 -1 d -3 X -2 -1 d -1 X -2 -1 d -2 X -2 -1 d -1 X -2 -1 d -2 X -1 -1 d -2 Y 1 -1 d 1 -1 d 1 X 1 -1 d 2 -1 d 1 X 2 -1 d 2 -1 d 1 X 2 -1 d 2 -1 d 1
 X 2 -1 d 1 -1 d 1 -1 d 1 -1 d -1 -1 d -1 -1 d -1 X -1 -1 d -1 X -2 -1 d -3 X -2 -1 d -2 X -2 -1 d -1 X -2 -1 d -1 X -2 -1 d -1 X -1 Y -1 X -1 Y 1 -1 d 1 -1 d 1 -1 d 2 X 1 -1 d 2 -1 d 1 -1 d 2 X 2 -1 d 1 -1 d 2 X 1 -1 d 2 -1 d 1 X 1 -1 d -1 Y 1 X -1
 Y -1 -1 d -1 X -1 Y -2 X -1 -1 d -2 X -1 -1 d -2 X -2 -1 d -3 X -2 -1 d -2 X -1 -1 d -1 X -1 -1 d -1 X -1 Y -1 X -1 Y 1 X -1 Y 1 -1 d 1 X 2 -1 d 1 -1 d 2 X 2 -1 d 1 -1 d -1 -22 d s 1090 567 m 22 -284 d s 0.95 0.95 0.95 c black 1090 567 m -1 -11 d -1
 -11 d -2 -1 d -2 X -1 -1 d -2 X -1 -1 d -2 X -1 -1 d -1 -1 d -1 Y 1 X -1 Y 1 -1 d 1 X 2 -1 d 1 -1 d 2 X 1 -1 d 2 -1 d 2 X 1 -1 d 2 -1 d 1 X 2 -1 d 1 -1 d 1 X -1 Y 1 -1 d -1 Y -1 X -1 -1 d -2 -1 d -1 X -2 -1 d -1 X -2 -1 d -4 X -1 -1 d -2 X -2 -1 d
 -1 X -1 -1 d -1 X -1 -1 d -1 -1 d 1 -1 d -1 Y 1 X 1 -1 d 2 -1 d 1 X 2 -1 d 2 -1 d 1 X 2 -1 d 2 -1 d 1 X 2 -1 d 1 -1 d 1 X 1 -1 d 1 -1 d -1 Y -1 -1 d -1 -1 d -1 X -2 -1 d -1 X -2 -1 d -2 X -2 -1 d -1 X -2 -1 d -3 X -2 -1 d -1 X -1 -1 d -1 X -3 Y 1 X
 1 -1 d 1 -1 d 1 X 1 -1 d 2 -1 d 2 X 1 -1 d 2 -1 d 2 X 2 -1 d 1 -1 d 1 X 1 -1 d 1 -1 d 1 X -3 Y -1 X -1 -1 d -1 X -2 -1 d -3 X -2 -1 d -1 X -2 -1 d -2 X -2 -1 d -3 X -1 -1 d -1 X -1 Y -1 X -2 Y 1 -1 d 1 X 1 -1 d 1 -1 d 2 X 1 -1 d 2 -1 d 2 -1 d 1 X 2
 -1 d 2 -1 d 1 X 2 -1 d 1 -1 d 1 X -1 Y 1 -1 d -1 -1 d -1 -1 d -1 X -1 -1 d -1 X -2 -1 d -3 X -2 -1 d -2 X -2 -1 d -1 X -2 -1 d -1 X -2 -1 d -1 -1 d -1 X -1 Y 1 -1 d 1 -1 d 1 -1 d 2 X 1 -1 d 2 -1 d 1 X 2 -1 d 2 -1 d 1 -1 d 2 X 1 -1 d 2 -1 d 1 X 1 -1
 d -1 Y 1 X -1 Y -1 -1 d -1 -1 d -2 X -1 -1 d -2 X -1 -1 d -4 X -2 -1 d -1 X -2 -1 d -2 X -1 -1 d -1 X -1 -1 d -1 X -1 Y -1 X 1 -1 d 1 -1 d -1 Y 2 X 1 -1 d 1 -1 d 2 X 2 -1 d 1 -1 d 2 X 2 -1 d 1 -1 d 2 -1 d 1 X 1 -1 d 1 -1 d 1 X -2 Y -1 -1 d -1 X -1
 -1 d -2 X -1 -1 d -2 X -2 -1 d -2 X -1 -1 d -4 X -1 -1 d -2 X -1 -1 d -1 X -1 -1 d -2 Y 1 -1 d 1 X 1 -1 d 1 -1 d 2 X 1 -1 d 2 -1 d 2 X 1 -1 d 2 -1 d 2 X 1 -1 d 1 -1 d 1 X 1 -1 d 1 -1 d -2 Y -1 -1 d -2 X -2 -1 d -1 X -2 -1 d -2 X -1 -1 d -2 X -2 -1 d
 -3 X -2 -1 d -1 X -1 -1 d -1 -1 d -2 Y 1 X 1 -1 d 1 -1 d 1 X 2 -1 d 1 -1 d 2 X 2 -1 d 2 -1 d 1 X 2 -1 d 1 -1 d 2 X 1 -1 d 1 -1 d 1 -1 d -1 Y -1 X -1 Y -1 X -1 -1 d -1 X -1 -1 d -3 X -2 -1 d -2 X -2 -1 d -2 X -1 -1 d -2 X -1 -1 d -2 X -1 -1 d -1 -1 d
 -1 Y 1 X -1 Y 1 -1 d 1 X 2 -1 d 1 -1 d 2 X 1 -1 d 2 -1 d 2 X 1 -1 d 2 -1 d 2 X 1 -1 d 1 -1 d 1 X -1 Y 1 -1 d -1 Y -1 X -1 Y -1 X -2 -1 d -1 X -2 -1 d -3 X -2 -1 d -2 X -1 -1 d -2 X -2 -1 d -1 X -1 -1 d -1 X -1 -1 d -1 -1 d 1 X -1 Y 1 X -1 Y 2 -1 d 1
 X 1 -1 d 2 -1 d 2 -1 d 1 X 2 -1 d 2 -1 d 1 X 2 -1 d 1 -1 d 1 X 1 -1 d 1 -1 d -2 Y -1 X -1 -1 d -1 X -2 -1 d -1 X -2 -1 d -2 X -2 -1 d -3 X -2 -1 d -1 X -2 -1 d -1 X -1 -1 d -1 X -2 Y 1 -1 d 1 -1 d 1 X 1 -1 d 2 -1 d 1 X 2 -1 d 2 -1 d -2 -22 d s 735
 567 m 22 -284 d s 0.95 0.95 0.95 c black 735 567 m -1 -11 d -1 -12 d -3 X -2 -1 d -2 X -1 -1 d -1 X -1 -1 d -1 X -2 Y 1 -1 d -1 Y 2 X 1 -1 d 1 -1 d 2 X 2 -1 d 1 -1 d 2 -1 d 2 X 1 -1 d 2 -1 d 1 X 1 -1 d 1 -1 d 1 X -2 Y -1 -1 d -1 -1 d -3 X -1 -1 d -2
 X -2 -1 d -2 X -1 -1 d -4 X -1 -1 d -2 X -1 -1 d -1 X -1 -1 d -2 Y 1 -1 d 1 X 1 -1 d 1 -1 d 1 X 2 -1 d 2 -1 d 1 X 2 -1 d 2 -1 d 1 -1 d 2 X 1 -1 d 1 -1 d 1 X 1 -1 d -2 Y -1 -1 d -1 X -1 -1 d -3 X -2 -1 d -2 X -2 -1 d -1 X -2 -1 d -3 X -2 -1 d -1 X -1
 -1 d -1 X -3 Y 1 X 1 -1 d 1 X 1 -1 d 1 -1 d 2 -1 d 2 X 1 -1 d 2 -1 d 2 X 1 -1 d 2 -1 d 1 -1 d 1 X 1 -1 d 1 X -3 Y -1 X -1 -1 d -1 X -2 -1 d -3 X -2 -1 d -2 X -1 -1 d -2 X -2 -1 d -3 X -1 -1 d -1 X -1 -1 d -2 Y 1 -1 d 1 X 1 -1 d 1 -1 d 1 X 2 -1 d 2
 -1 d 1 -1 d 2 X 2 -1 d 1 -1 d 2 X 1 -1 d 1 -1 d 1 X 1 -1 d -2 Y -1 -1 d -1 X -1 -1 d -2 X -1 -1 d -4 X -2 -1 d -1 X -2 -1 d -2 X -1 -1 d -3 X -1 -1 d -1 X -3 Y 1 X 1 -1 d 1 -1 d 1 X 2 -1 d 1 -1 d 2 X 1 -1 d 2 -1 d 2 -1 d 1 X 2 -1 d 1 -1 d 1 X 1 -1 d
 1 -1 d -2 Y -1 X -1 -1 d -1 X -2 -1 d -1 X -2 -1 d -3 X -2 -1 d -2 X -2 -1 d -1 X -2 -1 d -1 X -1 -1 d -1 X -2 Y 1 -1 d 1 -1 d 1 X 1 -1 d 2 -1 d 1 X 2 -1 d 2 -1 d 1 X 2 -1 d 2 -1 d 1 -1 d 1 X 1 -1 d 1 -1 d 1 X -2 Y -1 -1 d -1 X -1 -1 d -2 X -1 -1 d
 -2 X -2 -1 d -3 X -2 -1 d -2 X -1 -1 d -2 X -1 -1 d -1 X -1 -1 d -2 Y 1 -1 d 1 X 1 -1 d 1 -1 d 2 X 1 -1 d 2 -1 d 2 X 1 -1 d 2 -1 d 2 -1 d 1 X 1 -1 d 1 -1 d 1 X 1 -1 d -2 Y -1 -1 d -1 X -1 -1 d -3 X -2 -1 d -2 X -1 -1 d -4 X -2 -1 d -1 X -2 -1 d -1 X
 -1 -1 d -1 X -3 Y 1 X 1 -1 d 1 X 1 -1 d 2 -1 d 1 -1 d 2 X 2 -1 d 1 -1 d 2 X 2 -1 d 1 -1 d 1 X 1 -1 d 1 -1 d 1 X -3 Y -1 X -1 -1 d -1 X -2 -1 d -3 X -2 -1 d -1 X -2 -1 d -2 X -2 -1 d -3 X -1 -1 d -1 X -1 Y -1 X -2 Y 1 -1 d 1 X 1 -1 d 1 -1 d 2 X 1 -1
 d 2 -1 d 2 -1 d 1 X 2 -1 d 2 -1 d 1 X 1 -1 d 2 -1 d 1 -1 d -2 Y -1 -1 d -1 X -1 -1 d -1 X -2 -1 d -3 X -2 -1 d -2 X -2 -1 d -2 X -1 -1 d -3 X -1 -1 d -1 -1 d -2 Y 1 X 1 -1 d 1 -1 d 1 X 2 -1 d 1 -1 d 2 X 2 -1 d 1 -1 d 2 -1 d 2 X 1 -1 d 1 -1 d 2 X -1
 Y 1 -1 d 1 -1 d -1 X -1 Y -1 X -1 -1 d -1 X -1 -1 d -2 X -2 -1 d -3 X -2 -1 d -2 X -2 -1 d -1 X -1 -1 d -2 X -1 -1 d -1 -1 d -1 Y 1 -1 d 1 -1 d 1 X 1 -1 d 2 -1 d 1 X 2 -1 d 2 -1 d -2 -22 d s 1444 567 m 22 -284 d s 0.95 0.95 0.95 c black 1444 567 m
 -1 -11 d -1 -11 d -2 -1 d -1 X -2 -1 d -2 X -1 -1 d -1 X -1 -1 d -1 X -1 Y -1 X 1 -1 d 1 -1 d -1 Y 2 X 1 -1 d 1 -1 d 2 X 2 -1 d 1 -1 d 2 X 2 -1 d 1 -1 d 2 X 1 -1 d 1 -1 d 1 X 1 -1 d -2 Y -1 -1 d -1 X -1 -1 d -2 X -1 -1 d -2 X -2 -1 d -3 X -2 -1 d -2
 X -1 -1 d -2 X -1 -1 d -1 X -1 -1 d -2 Y 1 -1 d 1 X 1 -1 d 1 -1 d 2 X 1 -1 d 2 -1 d 2 X 1 -1 d 2 -1 d 2 X 1 -1 d 1 -1 d 1 X 1 -1 d 1 -1 d -2 Y -1 X -1 -1 d -1 X -1 -1 d -2 X -2 -1 d -1 X -2 -1 d -2 X -2 -1 d -3 X -2 -1 d -1 X -1 -1 d -1 -1 d -2 Y 1
 X 1 -1 d 1 -1 d 1 X 2 -1 d 1 -1 d 2 X 2 -1 d 2 -1 d 1 X 2 -1 d 1 -1 d 2 X 1 -1 d 1 -1 d 1 -1 d -1 Y -1 -1 d -1 X -1 -1 d -1 X -1 -1 d -3 X -2 -1 d -2 X -2 -1 d -2 X -1 -1 d -3 X -1 -1 d -1 X -1 -1 d -1 X -2 Y 1 X -1 Y 1 X 1 -1 d 2 -1 d 1 X 2 -1 d 1
 -1 d 2 -1 d 2 X 1 -1 d 2 -1 d 2 X 1 -1 d 1 -1 d 1 X -1 Y 1 -1 d -1 Y -1 X -1 Y -1 X -2 -1 d -1 X -2 -1 d -3 X -2 -1 d -2 X -1 -1 d -2 X -2 -1 d -1 X -1 -1 d -1 X -1 -1 d -1 -1 d 1 X -1 Y 1 X -1 Y 2 -1 d 1 X 1 -1 d 2 -1 d 2 X 1 -1 d 2 -1 d 2 -1 d 1 X
 2 -1 d 1 -1 d 1 X 1 -1 d 1 -1 d -2 Y -1 X -1 -1 d -1 X -2 -1 d -1 X -2 -1 d -4 X -1 -1 d -2 X -2 -1 d -1 X -2 -1 d -1 X -1 -1 d -1 X -2 Y 1 -1 d 1 -1 d 1 X 1 -1 d 2 -1 d 1 X 2 -1 d 2 -1 d 1 X 2 -1 d 2 -1 d 1 -1 d 1 X 1 -1 d 1 -1 d 1 X -2 Y -1 -1 d
 -1 X -1 -1 d -1 X -2 -1 d -2 X -1 -1 d -2 X -2 -1 d -4 X -1 -1 d -1 X -2 -1 d -1 X -1 Y -1 X -2 Y 1 -1 d 1 X 1 -1 d 1 -1 d 2 X 1 -1 d 2 -1 d 2 X 2 -1 d 1 -1 d 2 X 1 -1 d 2 -1 d 1 X 1 -1 d -1 Y 1 X -1 Y -1 -1 d -1 -1 d -2 X -1 -1 d -2 X -1 -1 d -2 X
 -2 -1 d -2 X -2 -1 d -3 X -1 -1 d -1 X -1 -1 d -1 X -1 -1 d -1 Y 1 -1 d 1 -1 d 1 -1 d 2 X 1 -1 d 2 -1 d 1 X 2 -1 d 2 -1 d 2 X 1 -1 d 2 -1 d 1 X 1 -1 d 1 -1 d 1 X -2 Y -1 -1 d -1 -1 d -2 X -1 -1 d -3 X -2 -1 d -2 X -2 -1 d -1 X -2 -1 d -2 X -1 -1 d
 -2 X -1 -1 d -2 Y 1 -1 d 1 -1 d 1 X 1 -1 d 1 -1 d 2 X 2 -1 d 1 -1 d 2 X 2 -1 d 1 -1 d 2 X 1 -1 d 1 -1 d 1 X 1 -1 d -2 Y -1 -1 d -1 X -1 -1 d -2 X -1 -1 d -4 X -1 -1 d -2 X -2 -1 d -2 X -1 -1 d -2 X -1 -1 d -1 X -1 -1 d -2 Y 1 X 1 -1 d 1 -1 d 1 X 2
 -1 d 1 -1 d 2 -1 d 2 X 1 -1 d 2 -1 d 2 X 1 -1 d 1 -1 d 2 X -1 Y 1 -1 d 1 -1 d -1 X -1 Y -1 X -1 -1 d -1 X -1 -1 d -2 X -2 -1 d -1 X -2 -1 d -4 X -1 -1 d -2 X -1 -1 d -2 X -1 -1 d -1 -1 d -1 Y 1 X -1 Y 1 -1 d 1 X 1 -1 d 2 -1 d 2 X 1 -1 d 2 -1 d -2
 -22 d s 1267 567 m 22 -284 d s 0.95 0.95 0.95 c black 1267 567 m -1 -11 d -1 -11 d -2 -1 d -2 X -1 -1 d -2 X -1 -1 d -1 X -1 -1 d -1 X -1 -1 d -1 Y 1 X -1 Y 1 -1 d 1 X 2 -1 d 1 -1 d 2 X 1 -1 d 2 -1 d 2 X 2 -1 d 1 -1 d 2 X 1 -1 d 1 -1 d 1 X 1 -1 d -2
 Y -1 X -1 Y -1 X -2 -1 d -1 X -1 -1 d -2 X -2 -1 d -4 X -1 -1 d -2 X -2 -1 d -1 X -1 -1 d -1 X -1 -1 d -2 Y 1 -1 d 1 X 1 -1 d 1 -1 d 1 X 2 -1 d 2 -1 d 1 X 2 -1 d 2 -1 d 1 X 2 -1 d 1 -1 d 1 X 1 -1 d 1 -1 d -2 Y -1 X -1 -1 d -1 X -2 -1 d -1 X -2 -1 d
 -2 X -1 -1 d -2 X -2 -1 d -3 X -2 -1 d -1 X -1 -1 d -1 X -3 Y 1 X 1 -1 d 1 -1 d 1 X 2 -1 d 1 -1 d 2 X 2 -1 d 1 -1 d 2 X 2 -1 d 1 -1 d 1 X 2 -1 d -1 Y 1 X -1 Y 1 X -1 -1 d -1 Y -1 X -1 -1 d -1 X -1 -1 d -4 X -1 -1 d -2 X -2 -1 d -2 X -1 -1 d -3 X -2
 -1 d -1 X -1 Y -1 X -2 Y 1 X -1 Y 1 X 1 -1 d 1 -1 d 2 X 2 -1 d 1 -1 d 2 -1 d 2 X 1 -1 d 2 -1 d 1 X 2 -1 d 1 -1 d 1 X -1 Y 1 -1 d -1 Y -1 X -1 -1 d -1 X -1 -1 d -1 X -2 -1 d -3 X -2 -1 d -2 X -2 -1 d -1 X -2 -1 d -1 X -1 -1 d -1 X -1 -1 d -1 X -1 Y 1
 -1 d 1 -1 d 1 -1 d 2 X 1 -1 d 2 -1 d 1 X 2 -1 d 2 -1 d 2 -1 d 1 X 2 -1 d 1 -1 d 1 X 1 -1 d 1 -1 d -1 Y -1 -1 d -1 -1 d -1 X -2 -1 d -1 X -2 -1 d -4 X -1 -1 d -2 X -2 -1 d -2 X -1 -1 d -1 X -1 -1 d -1 X -2 Y 1 -1 d 1 -1 d 1 X 1 -1 d 1 -1 d 2 X 2 -1 d
 1 -1 d 2 X 2 -1 d 1 -1 d 2 -1 d 1 X 1 -1 d 1 -1 d 1 X -2 Y -1 -1 d -1 X -1 -1 d -2 X -1 -1 d -2 X -2 -1 d -1 X -2 -1 d -4 X -1 -1 d -2 X -1 -1 d -1 X -1 -1 d -2 Y 1 -1 d 1 X 1 -1 d 1 -1 d 2 X 1 -1 d 2 -1 d 2 X 1 -1 d 2 -1 d 2 X 1 -1 d 1 -1 d 2 X -1
 Y 1 -1 d 1 -1 d -1 X -1 Y -1 -1 d -2 X -1 -1 d -2 X -2 -1 d -1 X -2 -1 d -2 X -2 -1 d -3 X -1 -1 d -2 X -1 -1 d -1 -1 d -1 Y 1 -1 d 1 -1 d 1 -1 d 1 X 2 -1 d 2 -1 d 1 X 2 -1 d 2 -1 d 1 X 2 -1 d 1 -1 d 2 X 1 -1 d 1 -1 d 1 -1 d -1 Y -1 -1 d -1 X -1 Y
 -2 X -1 -1 d -3 X -2 -1 d -2 X -2 -1 d -1 X -2 -1 d -2 X -1 -1 d -2 X -1 -1 d -1 Y -1 X -1 Y 1 X -1 Y 1 -1 d 1 X 2 -1 d 1 -1 d 2 X 2 -1 d 1 -1 d 2 X 2 -1 d 1 -1 d 2 X 1 -1 d 1 -1 d 1 X 1 -1 d -2 Y -1 X -1 Y -1 X -1 -1 d -2 X -1 -1 d -4 X -2 -1 d -1
 X -2 -1 d -2 X -1 -1 d -2 X -1 -1 d -1 X -1 -1 d -2 Y 1 X 1 -1 d 1 -1 d 1 X 1 -1 d 2 -1 d 2 -1 d 1 X 2 -1 d 2 -1 d 1 X 2 -1 d 1 -1 d 1 X 1 -1 d 1 -1 d -2 Y -1 X -1 -1 d -1 X -2 -1 d -1 X -2 -1 d -2 X -1 -1 d -4 X -2 -1 d -1 X -2 -1 d -1 X -1 -1 d -1
 -1 d -1 Y 1 -1 d 1 -1 d 1 X 1 -1 d 2 -1 d 1 X 2 -1 d 2 -1 d -2 -22 d s 1621 567 m 22 -284 d s 0.95 0.95 0.95 c black 1621 567 m -1 -11 d -1 -11 d -1 -1 d -2 X -2 -1 d -1 X -2 -1 d -1 X -1 -1 d -1 X -2 Y 1 -1 d 1 -1 d 1 X 1 -1 d 1 -1 d 2 X 2 -1 d 1
 -1 d 2 X 2 -1 d 1 -1 d 2 X 1 -1 d 1 -1 d 1 X 1 -1 d -2 Y -1 -1 d -1 X -1 -1 d -2 X -1 -1 d -2 X -2 -1 d -3 X -2 -1 d -2 X -1 -1 d -2 X -1 -1 d -1 X -1 Y -1 X -2 Y 1 -1 d 1 X 1 -1 d 1 -1 d 2 X 1 -1 d 2 -1 d 2 X 1 -1 d 2 -1 d 2 X 1 -1 d 2 -1 d 1 X 1
 -1 d -1 Y 1 X -1 Y -1 X -1 Y -1 X -1 -1 d -1 X -1 -1 d -2 X -2 -1 d -1 X -2 -1 d -2 X -2 -1 d -3 X -1 -1 d -2 X -1 -1 d -1 -1 d -1 Y 1 -1 d 1 -1 d 1 -1 d 2 X 1 -1 d 2 -1 d 1 X 2 -1 d 2 -1 d 1 X 2 -1 d 1 -1 d 2 X 1 -1 d 1 -1 d 1 -1 d -1 Y -1 -1 d -1
 -1 d -2 X -1 -1 d -3 X -2 -1 d -2 X -2 -1 d -1 X -2 -1 d -3 X -1 -1 d -1 X -1 -1 d -1 -1 d -1 Y 1 X -1 Y 1 X 1 -1 d 2 -1 d 1 X 2 -1 d 2 -1 d 1 -1 d 2 X 2 -1 d 1 -1 d 2 X 1 -1 d 1 -1 d 1 X 1 -1 d -2 Y -1 X -1 Y -1 X -1 -1 d -2 X -1 -1 d -4 X -2 -1 d
 -1 X -2 -1 d -2 X -1 -1 d -2 X -1 -1 d -1 X -1 -1 d -2 Y 1 X 1 -1 d 1 -1 d 1 X 2 -1 d 1 -1 d 2 X 2 -1 d 1 -1 d 2 -1 d 2 X 1 -1 d 1 -1 d 1 X 1 -1 d 1 -1 d -2 Y -1 X -1 -1 d -1 X -2 -1 d -1 X -2 -1 d -3 X -2 -1 d -2 X -2 -1 d -1 X -2 -1 d -1 X -1 -1 d
 -1 -1 d -1 Y 1 -1 d 1 -1 d 1 X 1 -1 d 2 -1 d 1 X 2 -1 d 2 -1 d 2 X 1 -1 d 2 -1 d 1 -1 d 2 X 1 -1 d 1 -1 d 1 -1 d -1 -1 d -1 -1 d -1 X -1 -1 d -1 X -2 -1 d -2 X -1 -1 d -2 X -2 -1 d -3 X -2 -1 d -1 X -1 -1 d -1 X -1 -1 d -1 X -1 Y 1 -1 d -1 Y 1 X 1
 -1 d 2 -1 d 1 X 2 -1 d 1 -1 d 2 X 2 -1 d 1 -1 d 2 X 2 -1 d 1 -1 d 1 X 1 -1 d -1 Y 1 X -1 Y -1 -1 d -1 Y -3 X -1 -1 d -2 X -1 -1 d -2 X -2 -1 d -2 X -1 -1 d -4 X -1 -1 d -1 X -1 -1 d -1 X -1 Y -1 X 1 -1 d -1 Y 1 X -1 Y 2 -1 d 1 X 1 -1 d 2 -1 d 2 X 1
 -1 d 2 -1 d 2 X 1 -1 d 2 -1 d 1 X 1 -1 d 1 -1 d 1 X -3 Y -1 X -1 -1 d -1 X -2 -1 d -3 X -2 -1 d -2 X -1 -1 d -2 X -2 -1 d -1 X -2 -1 d -2 X -1 -1 d -2 Y 1 -1 d 1 -1 d 1 X 1 -1 d 2 -1 d 1 X 2 -1 d 2 -1 d 1 X 2 -1 d 2 -1 d 1 X 1 -1 d 1 -1 d 1 X 1 -1 d
 -2 Y -1 -1 d -1 X -1 -1 d -1 X -2 -1 d -3 X -2 -1 d -2 X -2 -1 d -2 X -1 -1 d -2 X -1 -1 d -1 X -1 Y -1 X -2 Y 1 X 1 -1 d 1 -1 d 1 X 2 -1 d 1 -1 d 2 -1 d 2 X 2 -1 d 1 -1 d 2 X 1 -1 d 2 -1 d 1 X 1 -1 d -1 Y 1 X -1 Y -1 -1 d -1 X -1 -1 d -1 X -1 -1 d
 -2 X -1 -1 d -2 X -2 -1 d -4 X -1 -1 d -2 X -1 -1 d -1 X -1 -1 d -1 X -1 -1 d -1 Y 1 X -1 Y 1 -1 d 1 X 2 -1 d 1 -1 d 2 X 1 -1 d 2 -1 d -2 -22 d s 1532 567 m 23 -284 d s 0.95 0.95 0.95 c black 1532 567 m -11 Y -1 -11 d -2 -1 d -2 X -2 -1 d -1 X -1 -1
 d -2 X -1 -1 d -1 -1 d -1 Y 1 -1 d 1 -1 d 1 X 1 -1 d 2 -1 d 1 X 2 -1 d 2 -1 d 2 X 1 -1 d 2 -1 d 1 X 2 -1 d 1 -1 d 1 X -1 Y 1 -1 d -1 Y -1 X -1 -1 d -1 X -1 -1 d -1 X -2 -1 d -1 X -2 -1 d -4 X -2 -1 d -1 X -2 -1 d -1 X -1 -1 d -1 X -1 -1 d -1 X -1 Y
 1 -1 d -1 Y 1 X 1 -1 d 2 -1 d 1 X 2 -1 d 1 -1 d 2 X 2 -1 d 2 -1 d 1 X 2 -1 d 1 -1 d 1 X 1 -1 d 1 -1 d -1 Y -1 -1 d -1 -1 d -2 X -1 -1 d -1 X -2 -1 d -2 X -2 -1 d -2 X -1 -1 d -4 X -1 -1 d -1 X -1 -1 d -1 X -3 Y 1 X 1 -1 d 1 -1 d 1 X 1 -1 d 2 -1 d 2
 X 1 -1 d 2 -1 d 2 X 1 -1 d 2 -1 d 1 X 1 -1 d 1 -1 d 1 X -3 Y -1 X -1 -1 d -1 X -2 -1 d -3 X -2 -1 d -1 X -2 -1 d -2 X -2 -1 d -3 X -1 -1 d -1 X -1 -1 d -2 Y 1 -1 d 1 X 1 -1 d 1 -1 d 2 X 1 -1 d 2 -1 d 2 -1 d 1 X 2 -1 d 2 -1 d 1 X 1 -1 d 2 -1 d 1 -1 d
 -1 Y 1 X -1 -1 d -1 -1 d -1 X -1 -1 d -1 X -2 -1 d -3 X -2 -1 d -2 X -2 -1 d -1 X -2 -1 d -1 X -2 -1 d -1 X -1 Y -1 X -1 Y 1 -1 d 1 -1 d 1 -1 d 1 X 2 -1 d 2 -1 d 1 X 2 -1 d 2 -1 d 1 -1 d 2 X 1 -1 d 2 -1 d 1 X 1 -1 d -1 Y 1 X -1 Y -1 -1 d -1 X -1 -1
 d -1 X -1 -1 d -2 X -1 -1 d -4 X -2 -1 d -2 X -1 -1 d -2 X -1 -1 d -1 X -1 -1 d -1 X -1 Y -1 X -1 Y 1 X -1 Y 1 -1 d 1 X 2 -1 d 1 -1 d 2 X 1 -1 d 2 -1 d 2 X 2 -1 d 1 -1 d 2 -1 d 1 X 1 -1 d 1 -1 d 1 X -2 Y -1 X -1 Y -1 X -1 -1 d -2 X -1 -1 d -2 X -2
 -1 d -2 X -1 -1 d -4 X -1 -1 d -2 X -1 -1 d -1 X -1 -1 d -2 Y 1 -1 d 1 X 1 -1 d 1 -1 d 1 X 2 -1 d 2 -1 d 1 X 2 -1 d 2 -1 d 1 X 2 -1 d 1 -1 d 1 X 1 -1 d 1 -1 d -2 Y -1 -1 d -2 X -2 -1 d -1 X -2 -1 d -2 X -1 -1 d -2 X -2 -1 d -3 X -2 -1 d -1 X -1 -1 d
 -1 X -3 Y 1 X 1 -1 d 1 -1 d 1 X 2 -1 d 1 -1 d 2 X 2 -1 d 1 -1 d 2 X 2 -1 d 1 -1 d 1 X 2 -1 d -1 Y 1 X -1 Y 1 -1 d -1 X -1 Y -1 X -1 -1 d -1 X -1 -1 d -4 X -1 -1 d -2 X -2 -1 d -2 X -1 -1 d -2 X -1 -1 d -3 X -1 Y -1 -1 d -1 Y 1 X -1 Y 1 -1 d 1 X 2 -1
 d 1 -1 d 2 X 1 -1 d 2 -1 d 2 X 1 -1 d 2 -1 d 1 X 2 -1 d 1 -1 d 1 X -1 Y 1 -1 d -1 Y -1 X -1 -1 d -2 -1 d -1 X -2 -1 d -3 X -2 -1 d -2 X -1 -1 d -2 X -2 -1 d -1 X -1 -1 d -1 X -1 -1 d -1 -1 d 1 -1 d 1 -1 d 1 -1 d 2 X 1 -1 d 2 -1 d 2 -1 d 1 X 2 -1 d 2
 -1 d 1 X 2 -1 d 1 -1 d 1 X 1 -1 d 1 -1 d -1 Y -1 -1 d -1 -1 d -1 X -2 -1 d -1 X -2 -1 d -2 X -2 -1 d -3 X -2 -1 d -1 X -2 -1 d -1 X -1 -1 d -1 X -2 Y 1 -1 d 1 -1 d 1 X 1 -1 d 1 -1 d 2 X 2 -1 d 1 -1 d -1 -22 d s 912 567 m 23 -284 d s 0.95 0.95 0.95 c
 black 912 567 m -11 Y -1 -11 d -2 -1 d -2 X -2 -1 d -1 X -2 -1 d -1 X -1 -1 d -1 -1 d -1 Y 1 -1 d 1 -1 d 1 X 1 -1 d 2 -1 d 1 X 2 -1 d 2 -1 d 2 X 1 -1 d 2 -1 d 1 X 2 -1 d 1 -1 d 1 X -1 Y 1 -1 d -1 Y -1 X -1 -1 d -1 X -1 -1 d -1 X -2 -1 d -1 X -2 -1 d
 -4 X -2 -1 d -1 X -2 -1 d -1 X -1 -1 d -1 X -1 -1 d -1 X -1 Y 1 -1 d -1 Y 1 X 1 -1 d 2 -1 d 1 X 2 -1 d 1 -1 d 2 X 2 -1 d 1 -1 d 2 X 2 -1 d 1 -1 d 1 X 1 -1 d -1 Y 1 X -1 Y -1 -1 d -1 -1 d -2 X -1 -1 d -2 X -1 -1 d -2 X -2 -1 d -2 X -1 -1 d -4 X -1 -1
 d -1 X -1 -1 d -1 X -1 Y -1 X 1 -1 d -1 Y 1 X -1 Y 2 -1 d 1 X 1 -1 d 2 -1 d 2 X 1 -1 d 2 -1 d 2 X 1 -1 d 2 -1 d 1 X 1 -1 d 1 -1 d 1 X -3 Y -1 X -1 -1 d -1 X -2 -1 d -3 X -2 -1 d -2 X -1 -1 d -2 X -2 -1 d -3 X -1 -1 d -1 X -1 -1 d -2 Y 1 -1 d 1 X 1
 -1 d 1 -1 d 2 X 1 -1 d 2 -1 d 2 -1 d 1 X 2 -1 d 2 -1 d 1 X 1 -1 d 1 -1 d 1 X 1 -1 d -2 Y -1 -1 d -1 X -1 -1 d -1 X -2 -1 d -3 X -2 -1 d -2 X -2 -1 d -2 X -1 -1 d -1 X -2 -1 d -1 X -1 Y -1 X -2 Y 1 X 1 -1 d 1 -1 d 1 X 2 -1 d 1 -1 d 2 X 2 -1 d 2 -1 d
 1 -1 d 2 X 1 -1 d 2 -1 d 1 X 1 -1 d -1 Y 1 X -1 Y -1 -1 d -1 X -1 -1 d -1 X -1 -1 d -2 X -1 -1 d -4 X -2 -1 d -2 X -1 -1 d -2 X -1 -1 d -1 X -1 -1 d -1 X -1 -1 d -1 Y 1 X -1 Y 1 -1 d 1 X 2 -1 d 1 -1 d 2 X 1 -1 d 2 -1 d 2 X 2 -1 d 1 -1 d 2 -1 d 1 X 1
 -1 d 1 -1 d 1 X -2 Y -1 X -1 Y -1 X -2 -1 d -1 X -1 -1 d -2 X -2 -1 d -2 X -2 -1 d -3 X -2 -1 d -1 X -1 -1 d -1 X -1 -1 d -2 Y 1 -1 d 2 -1 d 1 -1 d 1 X 2 -1 d 2 -1 d 1 X 2 -1 d 2 -1 d 1 X 2 -1 d 1 -1 d 1 X 1 -1 d 1 -1 d -2 Y -1 -1 d -2 X -2 -1 d -1
 X -2 -1 d -2 X -1 -1 d -2 X -2 -1 d -3 X -2 -1 d -1 X -1 -1 d -1 X -3 Y 1 X 1 -1 d 1 -1 d 1 X 2 -1 d 1 -1 d 2 X 2 -1 d 1 -1 d 2 X 2 -1 d 1 -1 d 1 X 2 -1 d -1 Y 1 X -1 Y 1 -1 d -1 X -1 Y -1 X -1 -1 d -1 X -1 -1 d -4 X -1 -1 d -2 X -2 -1 d -2 X -1 -1
 d -2 X -1 -1 d -3 X -1 Y -1 -1 d -1 Y 1 -1 d 1 -1 d 1 X 1 -1 d 2 -1 d 1 X 2 -1 d 2 -1 d 2 X 1 -1 d 2 -1 d 1 X 2 -1 d 1 -1 d 1 X -1 Y 1 -1 d -1 Y -1 X -1 -1 d -1 X -1 -1 d -1 X -2 -1 d -3 X -2 -1 d -2 X -2 -1 d -1 X -2 -1 d -1 X -1 -1 d -1 X -1 -1 d
 -1 X -1 Y 1 -1 d 1 -1 d 1 -1 d 2 X 1 -1 d 2 -1 d 1 -1 d 2 X 2 -1 d 2 -1 d 1 X 2 -1 d 1 -1 d 1 X 1 -1 d 1 -1 d -1 Y -1 -1 d -1 -1 d -1 X -2 -1 d -1 X -2 -1 d -2 X -2 -1 d -3 X -2 -1 d -2 X -1 -1 d -1 X -1 -1 d -1 X -2 Y 1 -1 d 1 -1 d 1 X 1 -1 d 1 -1
 d 2 X 2 -1 d 1 -1 d -1 -22 d s 824 567 m 22 -284 d s 0.95 0.95 0.95 c black 824 567 m -1 -11 d -1 -11 d -2 -1 d -1 X -2 -1 d -2 X -1 -1 d -1 X -1 -1 d -1 X -1 Y -1 X -1 Y 1 X -1 Y 1 -1 d 1 X 2 -1 d 1 -1 d 2 X 2 -1 d 1 -1 d 2 X 2 -1 d 1 -1 d 2 X 1 -1
 d 1 -1 d 1 X 1 -1 d -2 Y -1 X -1 Y -1 X -1 -1 d -2 X -1 -1 d -2 X -2 -1 d -3 X -2 -1 d -2 X -1 -1 d -2 X -1 -1 d -1 X -1 -1 d -2 Y 1 -1 d 1 X 1 -1 d 1 -1 d 1 X 2 -1 d 2 -1 d 1 X 2 -1 d 2 -1 d 1 X 2 -1 d 1 -1 d 1 X 1 -1 d 1 -1 d -2 Y -1 X -1 -1 d -1
 X -2 -1 d -1 X -2 -1 d -2 X -1 -1 d -2 X -2 -1 d -3 X -2 -1 d -1 X -1 -1 d -1 -1 d -2 Y 1 X 1 -1 d 1 -1 d 1 X 2 -1 d 1 -1 d 2 X 2 -1 d 1 -1 d 2 X 2 -1 d 1 -1 d 2 X 1 -1 d 1 -1 d 1 -1 d -1 -1 d -1 Y -1 X -1 -1 d -1 X -1 -1 d -4 X -1 -1 d -2 X -2 -1 d
 -2 X -1 -1 d -3 X -2 -1 d -1 -1 d -1 X -2 Y 1 X -1 Y 1 X 1 -1 d 2 -1 d 1 X 2 -1 d 1 -1 d 2 -1 d 2 X 1 -1 d 2 -1 d 1 X 2 -1 d 1 -1 d 1 X -1 Y 1 -1 d -1 Y -1 X -1 Y -1 X -2 -1 d -1 X -2 -1 d -3 X -2 -1 d -2 X -1 -1 d -2 X -2 -1 d -1 X -1 -1 d -1 X -1
 -1 d -1 -1 d 1 -1 d 1 X -1 Y 1 -1 d 2 X 1 -1 d 2 -1 d 2 X 1 -1 d 2 -1 d 2 -1 d 1 X 2 -1 d 1 -1 d 1 X 1 -1 d 1 -1 d -2 Y -1 X -1 -1 d -1 X -2 -1 d -1 X -2 -1 d -4 X -1 -1 d -2 X -2 -1 d -1 X -2 -1 d -1 X -1 -1 d -1 X -2 Y 1 -1 d 1 -1 d 1 X 1 -1 d 2
 -1 d 1 X 2 -1 d 2 -1 d 1 X 2 -1 d 2 -1 d 1 -1 d 1 X 1 -1 d 1 -1 d 1 X -2 Y -1 -1 d -1 X -1 -1 d -2 X -1 -1 d -2 X -2 -1 d -1 X -2 -1 d -4 X -1 -1 d -2 X -1 -1 d -1 X -1 Y -1 X -2 Y 1 -1 d 1 X 1 -1 d 1 -1 d 2 X 1 -1 d 2 -1 d 2 X 2 -1 d 1 -1 d 2 X 1
 -1 d 2 -1 d 1 X 1 -1 d -1 Y 1 X -1 Y -1 X -1 Y -1 -1 d -2 X -1 -1 d -2 X -1 -1 d -2 X -2 -1 d -2 X -2 -1 d -3 X -1 -1 d -1 X -1 -1 d -1 X -1 -1 d -1 Y 1 -1 d 1 -1 d 1 -1 d 2 X 1 -1 d 2 -1 d 1 X 2 -1 d 2 -1 d 1 X 2 -1 d 2 -1 d 1 X 1 -1 d 1 -1 d 1 -1
 d -1 Y -1 -1 d -1 -1 d -2 X -1 -1 d -3 X -2 -1 d -2 X -2 -1 d -1 X -2 -1 d -2 X -1 -1 d -2 X -1 -1 d -1 Y -1 X 1 -1 d 1 -1 d -1 Y 2 X 1 -1 d 1 -1 d 2 X 2 -1 d 1 -1 d 2 X 2 -1 d 1 -1 d 2 X 1 -1 d 1 -1 d 1 X 1 -1 d -2 Y -1 -1 d -1 X -1 -1 d -2 X -1 -1
 d -4 X -2 -1 d -1 X -2 -1 d -2 X -1 -1 d -2 X -1 -1 d -1 X -1 -1 d -2 Y 1 X 1 -1 d 1 -1 d 1 X 2 -1 d 1 -1 d 2 -1 d 2 X 1 -1 d 2 -1 d 2 X 1 -1 d 1 -1 d 1 X 1 -1 d 1 -1 d -2 Y -1 X -1 -1 d -1 X -1 -1 d -2 X -2 -1 d -1 X -2 -1 d -4 X -2 -1 d -1 X -2 -1
 d -1 X -1 -1 d -1 -1 d -1 Y 1 -1 d 1 -1 d 1 X 1 -1 d 2 -1 d 1 X 2 -1 d 2 -1 d -2 -22 d s 558 567 m 22 -284 d s 0.95 0.95 0.95 c black 558 567 m -1 -11 d -1 -11 d -1 -1 d -2 X -2 -1 d -1 X -2 -1 d -1 X -1 -1 d -1 X -2 Y 1 -1 d 1 -1 d 1 X 1 -1 d 1 -1
 d 2 X 2 -1 d 1 -1 d 2 X 2 -1 d 1 -1 d 2 X 1 -1 d 1 -1 d 1 X 1 -1 d -2 Y -1 -1 d -1 X -1 -1 d -2 X -1 -1 d -2 X -2 -1 d -3 X -2 -1 d -2 X -1 -1 d -2 X -1 -1 d -1 X -1 Y -1 X -2 Y 1 -1 d 1 X 1 -1 d 1 -1 d 2 X 1 -1 d 2 -1 d 2 X 1 -1 d 2 -1 d 2 X 1 -1 d
 2 -1 d 1 X 1 -1 d -1 Y 1 X -1 Y -1 X -1 Y -1 X -1 -1 d -1 X -1 -1 d -2 X -2 -1 d -1 X -2 -1 d -2 X -2 -1 d -3 X -1 -1 d -2 X -1 -1 d -1 -1 d -1 Y 1 -1 d 1 -1 d 1 -1 d 2 X 1 -1 d 2 -1 d 1 X 2 -1 d 2 -1 d 1 X 2 -1 d 1 -1 d 2 X 1 -1 d 1 -1 d 1 -1 d -1
 Y -1 -1 d -1 -1 d -2 X -1 -1 d -3 X -2 -1 d -2 X -2 -1 d -1 X -2 -1 d -3 X -1 -1 d -1 X -1 -1 d -1 -1 d -1 Y 1 X -1 Y 1 X 1 -1 d 2 -1 d 1 X 2 -1 d 2 -1 d 1 -1 d 2 X 2 -1 d 1 -1 d 2 X 1 -1 d 1 -1 d 1 X 1 -1 d -2 Y -1 X -1 Y -1 X -1 -1 d -2 X -1 -1 d
 -4 X -2 -1 d -1 X -2 -1 d -2 X -1 -1 d -2 X -1 -1 d -1 X -1 -1 d -2 Y 1 X 1 -1 d 1 -1 d 1 X 2 -1 d 1 -1 d 2 X 2 -1 d 1 -1 d 2 -1 d 2 X 1 -1 d 1 -1 d 1 X 1 -1 d 1 -1 d -2 Y -1 X -1 -1 d -1 X -2 -1 d -1 X -2 -1 d -3 X -2 -1 d -2 X -2 -1 d -1 X -2 -1 d
 -1 X -1 -1 d -1 -1 d -1 Y 1 -1 d 1 -1 d 1 X 1 -1 d 2 -1 d 1 X 2 -1 d 2 -1 d 2 X 1 -1 d 2 -1 d 1 -1 d 2 X 1 -1 d 1 -1 d 1 -1 d -1 -1 d -1 -1 d -1 X -1 -1 d -1 X -2 -1 d -2 X -1 -1 d -2 X -2 -1 d -3 X -2 -1 d -1 X -1 -1 d -1 X -1 -1 d -1 X -1 Y 1 -1 d
 -1 Y 1 X 1 -1 d 2 -1 d 1 X 2 -1 d 1 -1 d 2 X 2 -1 d 1 -1 d 2 X 2 -1 d 1 -1 d 1 X 1 -1 d -1 Y 1 X -1 Y -1 -1 d -1 Y -3 X -1 -1 d -2 X -1 -1 d -2 X -2 -1 d -2 X -1 -1 d -4 X -1 -1 d -1 X -1 -1 d -1 X -1 Y -1 X 1 -1 d -1 Y 1 X -1 Y 2 -1 d 1 X 1 -1 d 2
 -1 d 2 X 1 -1 d 2 -1 d 2 X 1 -1 d 2 -1 d 1 X 1 -1 d 1 -1 d 1 X -3 Y -1 X -1 -1 d -1 X -2 -1 d -3 X -2 -1 d -2 X -1 -1 d -2 X -2 -1 d -1 X -2 -1 d -2 X -1 -1 d -2 Y 1 -1 d 1 -1 d 1 X 1 -1 d 2 -1 d 1 X 2 -1 d 2 -1 d 1 X 2 -1 d 2 -1 d 1 X 1 -1 d 1 -1 d
 1 X 1 -1 d -2 Y -1 -1 d -1 X -1 -1 d -1 X -2 -1 d -3 X -2 -1 d -2 X -2 -1 d -2 X -1 -1 d -2 X -1 -1 d -1 X -1 Y -1 X -2 Y 1 X 1 -1 d 1 -1 d 1 X 2 -1 d 1 -1 d 2 -1 d 2 X 2 -1 d 1 -1 d 2 X 1 -1 d 2 -1 d 1 X 1 -1 d -1 Y 1 X -1 Y -1 -1 d -1 X -1 -1 d -1
 X -1 -1 d -2 X -1 -1 d -2 X -2 -1 d -4 X -1 -1 d -2 X -1 -1 d -1 X -1 -1 d -1 X -1 -1 d -1 Y 1 X -1 Y 1 -1 d 1 X 2 -1 d 1 -1 d 2 X 1 -1 d 2 -1 d -2 -22 d s 469 567 m 23 -284 d s 0.95 0.95 0.95 c black 469 567 m -11 Y -1 -12 d -4 X -2 -1 d -1 X -2 -1
 d -1 X -1 -1 d -1 X -2 Y 1 -1 d 1 -1 d 1 X 1 -1 d 2 -1 d 1 X 2 -1 d 2 -1 d 1 -1 d 2 X 2 -1 d 1 -1 d 1 X 1 -1 d 1 -1 d 1 X -3 Y -1 X -1 -1 d -3 X -1 -1 d -2 X -2 -1 d -1 X -2 -1 d -4 X -1 -1 d -2 X -1 -1 d -1 X -1 -1 d -2 Y 1 -1 d 1 X 1 -1 d 1 -1 d 2
 X 1 -1 d 2 -1 d 2 X 1 -1 d 2 -1 d 2 -1 d 1 X 1 -1 d 1 -1 d 1 X 1 -1 d -2 Y -1 -1 d -1 X -1 -1 d -3 X -2 -1 d -2 X -1 -1 d -2 X -2 -1 d -3 X -2 -1 d -1 X -1 -1 d -1 -1 d -2 Y 1 X 1 -1 d 1 X 1 -1 d 2 -1 d 1 -1 d 2 X 2 -1 d 1 -1 d 2 X 2 -1 d 1 -1 d 1
 -1 d 2 X -1 Y 1 X -3 Y -1 X -1 -1 d -1 X -1 -1 d -4 X -2 -1 d -1 X -2 -1 d -2 X -2 -1 d -3 X -1 -1 d -1 X -1 Y -1 X -2 Y 1 -1 d 1 X 1 -1 d 1 -1 d 2 X 1 -1 d 2 -1 d 2 -1 d 1 X 2 -1 d 2 -1 d 1 X 1 -1 d 2 -1 d 1 -1 d -1 Y 1 X -1 -1 d -1 -1 d -1 X -1 -1
 d -1 X -2 -1 d -3 X -2 -1 d -2 X -2 -1 d -2 X -1 -1 d -3 X -1 -1 d -1 -1 d -2 Y 1 X 1 -1 d 1 -1 d 1 X 2 -1 d 1 -1 d 2 X 2 -1 d 1 -1 d 2 -1 d 2 X 1 -1 d 1 -1 d 2 X -1 Y 1 -1 d 1 -1 d -1 X -1 Y -1 X -1 -1 d -1 X -1 -1 d -2 X -2 -1 d -3 X -2 -1 d -2 X
 -2 -1 d -1 X -1 -1 d -2 X -1 -1 d -1 -1 d -1 Y 1 -1 d 1 -1 d 1 X 1 -1 d 2 -1 d 1 X 2 -1 d 2 -1 d 2 X 1 -1 d 2 -1 d 1 -1 d 2 X 1 -1 d 1 -1 d 1 -1 d -1 -1 d -1 -1 d -1 X -1 -1 d -1 X -2 -1 d -2 X -1 -1 d -4 X -2 -1 d -1 X -2 -1 d -1 X -2 -1 d -1 X -1
 Y -1 X -2 Y 1 -1 d 1 X 1 -1 d 1 -1 d 2 X 1 -1 d 2 -1 d 2 X 2 -1 d 1 -1 d 2 -1 d 1 X 2 -1 d 1 -1 d 1 X -1 Y 1 X -1 Y -1 -1 d -1 -1 d -1 X -1 -1 d -3 X -2 -1 d -1 X -2 -1 d -4 X -1 -1 d -2 X -1 -1 d -2 X -1 -1 d -1 -1 d -1 Y 1 -1 d 1 -1 d 1 X 1 -1 d 2
 -1 d 1 -1 d 2 X 2 -1 d 2 -1 d 1 X 2 -1 d 1 -1 d 2 X 1 -1 d 1 -1 d 1 -1 d -1 Y -1 -1 d -1 X -1 -1 d -1 X -1 -1 d -4 X -1 -1 d -2 X -2 -1 d -2 X -1 -1 d -3 X -2 -1 d -1 X -1 Y -1 X -2 Y 1 X -1 Y 1 X 1 -1 d 1 -1 d 2 X 2 -1 d 1 -1 d 2 -1 d 2 X 1 -1 d 2
 -1 d 1 X 2 -1 d 1 -1 d 1 X -1 Y 1 -1 d -1 Y -1 X -1 -1 d -1 X -1 -1 d -1 X -2 -1 d -3 X -2 -1 d -2 X -2 -1 d -1 X -2 -1 d -2 X -1 -1 d -1 X -1 -1 d -1 Y 1 -1 d 1 -1 d 1 -1 d 2 X 1 -1 d 2 -1 d 1 X 2 -1 d 2 -1 d 1 -1 d 2 X 1 -1 d 2 -1 d 1 X 1 -1 d -1
 Y 1 X -1 Y -1 -1 d -1 X -1 -1 d -1 X -1 -1 d -2 X -1 -1 d -4 X -2 -1 d -2 X -1 -1 d -2 X -1 -1 d -1 X -1 -1 d -1 X -1 -1 d -1 Y 1 X -1 Y 1 -1 d 1 X 2 -1 d 1 -1 d 2 X 1 -1 d 2 -1 d -2 -22 d s 1710 567 m 22 -284 d s 1710 567 m -22 -284 d s 1001 567 m
 22 -284 d s 1001 567 m -22 -284 d s 647 567 m 22 -284 d s 647 567 m -22 -284 d s 1355 567 m 22 -284 d s 1355 567 m -22 -284 d s 1178 567 m 22 -284 d s 1178 567 m -22 -284 d s
 gsave  2268 2268 0 0 C 1171.83 2048 t 0 r /Helvetica findfont 46.1139 sf 0 0 m (\255) show NC gr 
 gsave  2268 2268 0 0 C 1133.86 2012.73 t 0 r /Helvetica findfont 70.5271 sf 0 0 m (e) show NC gr 
 gsave  2268 2268 0 0 C 830.049 1546.17 t 0 r /Symbol findfont 70.5271 sf 0 0 m (g) show NC gr 
 gsave  2268 2268 0 0 C 1426.82 1573.3 t 0 r /Helvetica findfont 46.1139 sf 0 0 m (\255) show NC gr 
 gsave  2268 2268 0 0 C 1388.84 1538.03 t 0 r /Helvetica findfont 70.5271 sf 0 0 m (e) show NC gr 
 gsave  2268 2268 0 0 C 642.881 1280.34 t 0 r /Helvetica findfont 46.1139 sf 0 0 m (+) show NC gr 
 gsave  2268 2268 0 0 C 604.905 1253.21 t 0 r /Helvetica findfont 70.5271 sf 0 0 m (e) show NC gr 
 gsave  2268 2268 0 0 C 930.415 1291.19 t 0 r /Helvetica findfont 46.1139 sf 0 0 m (\255) show NC gr 
 gsave  2268 2268 0 0 C 892.439 1255.92 t 0 r /Helvetica findfont 70.5271 sf 0 0 m (e) show NC gr 
 gr  gr showpage
end
%%EOF
